6
[ 1.992, 8.066, 1.825, 8.066, 8.066, 8.066, 1.992, 8.066, 2.002, 1.992, 8.066, 8.066, 1.992, 2.002, 8.066, 2.002, 8.066, 2.002, 1.992, 1.992, 8.066, 8.066, 2.002, 1.992, 8.066, 1.992, 2.002, 1.992, 1.992, 3.443, 8.066, 8.066, 1.992, 8.066, 8.066, 1.825, 1.992, 1.825, 1.992, 2.002, 1.992, 3.443, 2.002, 1.825, 8.066, 1.992, 8.066, 1.825, 5.836, 1.825 ]
2
[ 0.934, 0.934, 0.041, 0.041, 0.041, 0.934, 0.934, 0.041, 0.934, 0.934, 0.041, 0.934, 0.934, 0.934, 0.934, 0.041, 0.934, 0.934, 0.041, 0.934, 0.934, 0.041, 0.934, 0.041, 0.934, 0.041, 0.041, 0.934, 0.934, 0.934, 0.934, 0.934, 0.041, 0.934, 0.934, 0.934, 0.041, 0.934, 0.041, 0.041, 0.934, 0.934, 0.041, 0.041, 0.934, 0.041, 0.041, 0.934, 0.934, 0.041 ]