pars_sum	pars_var	pars_disp	obs_disp	sim_disp
0	-0.170992151479957	-0.12288481736492	0.302952503209242	0.425837320574163
0	0.0826734241368399	0.0153880266075394	0.479024390243903	0.463636363636363
-15	-0.141984403517505	-0.0756488802125547	0.410783055198973	0.486431935411528
0	-0.261223047013079	-0.188786822933165	0.343680709534368	0.532467532467533
-4	-0.437701052335199	-0.255675432933846	0.369756097560976	0.625431530494822
1	-0.157874834562299	-0.110602559984451	0.465392221489783	0.575994781474234
-2	-0.413381853540674	-0.252543524806712	0.349593495934959	0.602137020741672
-4	-0.166396384708528	-0.135204317871676	0.42350332594235	0.558707643814027
-17	-0.0728680159142016	-0.0101770724279528	0.42350332594235	0.433680398370303
-4	0.0406296665007462	-0.0166954161317932	0.38382541720154	0.400520833333333
-11	-0.179444053179134	-0.100031678348058	0.434959349593496	0.534991027941554
-19	-0.137796582047452	-0.0387061062099979	0.479024390243903	0.517730496453901
-10	0.0397376928705198	0.0276663963570585	0.451707317073171	0.424040920716112
-10	0.275222712333506	0.145144156704023	0.583148558758315	0.438004402054292
0	-0.00893056650288682	-0.0261532093636463	0.437705998681609	0.463859208045255
-13	-0.407093917641965	-0.200175126675291	0.410019775873434	0.610194902548726
-2	0.452527676872513	0.208518879253871	0.583148558758315	0.374629679504444
9	0.275966659545786	0.100613313047652	0.409005628517824	0.308392315470172
-4	0.0159403457388612	-0.0112071213742487	0.472059277554801	0.48326639892905
-6	0.281981305755307	0.12988155540211	0.472059277554801	0.342177722152691
-12	0.164949217881237	0.102552697259495	0.40650406504065	0.303951367781155
3	0.0591659238851531	0.00349528971480223	0.479024390243903	0.4755291005291
-9	-0.243409753626412	-0.143024028734191	0.430487804878049	0.57351183361224
-1	0.257163915632812	0.108402453158829	0.464698331193838	0.356295878035009
7	-0.186301267271205	-0.182400914133629	0.38233355306526	0.56473446719889
-9	0.104492549484766	0.0504915116020462	0.451707317073171	0.401215805471125
-23	-0.684171229467398	-0.328700671539476	0.321138211382114	0.64983888292159
-7	-0.14609864613249	-0.0915345256675528	0.356867779204108	0.448402304871661
-6	-0.0102644380481065	-0.011431630365686	0.397073170731708	0.408504801097394
-1	0.183961566888396	0.0740235374381715	0.556541019955654	0.482517482517482
-28	-0.597551020408162	-0.224637895796925	0.461538461538462	0.686176357335387
-19	-0.292054328218054	-0.115123243820701	0.40650406504065	0.521627308861351
-3	-0.0559236538414012	-0.0694721076798133	0.356867779204108	0.426339886883921
-5	0.106520657043305	0.0392411924119239	0.341463414634146	0.302222222222222
-4	-0.252804754491314	-0.185450869415581	0.354647330257086	0.540098199672668
6	0.0169499876816955	-0.0449236438587173	0.343680709534368	0.388604353393085
-11	-0.250145180023229	-0.143105065666041	0.328048780487805	0.471153846153847
0	0.170537724706755	0.0778875720213752	0.437740693196406	0.35985312117503
-21	-0.776028704164592	-0.370615260840108	0.287804878048781	0.658420138888889
-7	-0.0854179626770498	-0.0593417737284828	0.437705998681609	0.497047772410091
0	0.0824487872207914	0.0143742807291086	0.394587370531239	0.380213089802131
2	0.304713126422926	0.129039564484952	0.465392221489783	0.336352657004831
-16	-0.319043106514057	-0.133771178507872	0.422652856665553	0.556424035173425
0	0.105272035936957	0.0194089412290001	0.38382541720154	0.36441647597254
-23	-0.660471212875395	-0.297066155885016	0.34238962642791	0.639455782312926
-9	-0.435011528460196	-0.201539855753872	0.303939962476548	0.50547981823042
-4	-0.440838987067007	-0.246682303403801	0.326961107448912	0.573643410852713
-26	-0.741330678612908	-0.310999780268073	0.38233355306526	0.693333333333333
-12	-0.157265637962502	-0.0986490313507498	0.343680709534368	0.442329740885118
-23	-0.0947171063547368	-0.00609946796950628	0.465392221489783	0.471491689459289
-10	-0.584681433549029	-0.34419811226876	0.356867779204108	0.701065891472868
-18	-0.129840363753182	-0.0289415862636864	0.491655969191271	0.520597555454957
10	-0.357723577235772	-0.26079690240593	0.343680709534368	0.604477611940298
-16	-0.317591670814668	-0.153291915499247	0.437740693196406	0.591032608695652
6	-0.024962547762124	-0.0818789521228548	0.364046973803071	0.445925925925926
-3	0.144902287532192	0.0523824225584026	0.523927138005557	0.471544715447155
-20	-0.338476854156296	-0.149332215556312	0.479024390243903	0.628356605800215
3	-0.0858667707788521	-0.088714942963383	0.397073170731708	0.48578811369509
-9	-0.303079576250308	-0.140269684937864	0.450110864745011	0.590380549682875
-13	-0.452333821474861	-0.214198159184523	0.394587370531239	0.608785529715762
-13	-0.355191723583681	-0.159968799443922	0.549861068230936	0.709829867674858
-7	0.178527434624997	0.104037282659952	0.566604127579738	0.462566844919786
19	0.228090826935502	0.025837889539469	0.638450502152081	0.612612612612612
-9	0.0543583016112971	0.0307291824471041	0.369756097560976	0.339026915113872
-9	-0.248622109597719	-0.109373805336799	0.487804878048781	0.59717868338558
6	0.573855151816824	0.240808491418248	0.515808491418247	0.275
-10	-0.467692687346686	-0.207937005772246	0.451707317073171	0.659644322845417
15	0.343205574912892	0.128664323744187	0.437740693196406	0.309076369452219
-4	0.245527219709888	0.0943674903197482	0.566604127579738	0.47223663725999
-5	-0.163380969213418	-0.103116531165311	0.342439024390244	0.445555555555556
-29	-0.427267297162768	-0.14923766129341	0.397073170731708	0.546310832025118
-25	-1.11100049776008	-0.508055727567923	0.326961107448912	0.835016835016835
-38	-1.06235514843836	-0.438273376197815	0.370731707317073	0.809005083514888
-9	0.0889123942259833	0.0360237919376916	0.410019775873435	0.373995983935743
-15	-0.400048187411965	-0.198353226085452	0.315121951219512	0.513475177304965
6	-0.0688734030197452	-0.0649312305153131	0.410783055198973	0.475714285714286
6	0.25009342018886	0.100850242605881	0.366521884396926	0.265671641791045
-25	-0.862608359002844	-0.315123241708607	0.379268292682927	0.694391534391534
-13	-0.561911800936191	-0.268917799802314	0.370731707317073	0.639649507119386
6	-0.0852461901242381	-0.11527245583917	0.354647330257086	0.469919786096256
-21	-0.169819147171064	-0.0555529987035581	0.465392221489783	0.520945220193341
-13	-0.162471890676354	-0.0790143259266249	0.343680709534368	0.422695035460993
-13	-0.356555959176613	-0.180751993206586	0.42350332594235	0.604255319148936
4	0.182360187238236	0.0469124927861981	0.503325942350333	0.456413449564134
-3	-0.156024633336034	-0.0776871502481256	0.42350332594235	0.501190476190476
4	0.513608862304268	0.248328552386859	0.583148558758315	0.334820006371456
4	-0.33746589957594	-0.236862481406769	0.437740693196406	0.674603174603175
-27	-0.913313422930148	-0.410359563393682	0.326961107448912	0.737320670842594
7	-0.207317073170731	-0.155646508519879	0.379268292682927	0.534914801202806
-8	-0.450717367336767	-0.210448128261664	0.491655969191271	0.702104097452935
-15	-0.197355619518928	-0.0727892046609504	0.326961107448912	0.399750312109863
-3	0.0189666701861827	-0.00273056481482181	0.465392221489783	0.468122786304605
-20	-0.397440683590509	-0.17734263682843	0.317073170731707	0.494415807560137
-11	-0.424768974397818	-0.208167895632444	0.424390243902439	0.632558139534884
-6	-0.453944688515209	-0.255544636032441	0.409005628517824	0.664550264550265
-7	0.13067759989084	0.0631990483561755	0.437740693196406	0.37454164484023
-8	0.18330374484657	0.120740138891018	0.410019775873435	0.289279636982416
-31	-0.540092915214867	-0.19941218153714	0.366521884396926	0.565934065934066
-2	-0.000131293238397667	-0.0284236089114135	0.424390243902439	0.452813852813853
-12	-0.145556873501866	-0.0758097980434185	0.326961107448912	0.402770905492331
-22	0.0828749060599857	0.0755784442979569	0.493078444297957	0.4175
-23	-0.290261665641867	-0.130230209670518	0.321138211382114	0.451368421052632
5	-0.0479708461680889	-0.0972387455527631	0.38382541720154	0.481064162754303
7	0.0998015975327374	-0.0211983632936124	0.549861068230935	0.571059431524548
-3	-0.00248565390371758	-0.0341053697098235	0.42350332594235	0.457608695652174
-15	-0.541231126596982	-0.280208024752313	0.437740693196406	0.717948717948719
0	-0.18009361911801	-0.14225530566994	0.370731707317073	0.512987012987013
-18	-0.410545938666073	-0.183046999102908	0.290521765977154	0.473568765080061
9	0.428145567169958	0.169286359530262	0.487804878048781	0.318518518518519
-20	-0.180023228803716	-0.0346077785102173	0.465392221489783	0.5
7	0.132171893147504	0.0444966991017232	0.465392221489783	0.42089552238806
-2	-0.371059881695162	-0.219022769629689	0.342439024390244	0.561461794019934
-30	-0.311137528182004	-0.111878961513107	0.299274884640738	0.411153846153846
-5	0.111584748066326	0.0346860404774263	0.451707317073171	0.417021276595745
-30	-0.289800066368011	-0.0573749732097254	0.472059277554801	0.529434250764526
-27	-0.474121746259479	-0.198121723273307	0.302439024390244	0.500560747663552
3	0.200595546988905	0.0401885695350163	0.431677931237144	0.391489361702127
5	-0.044745745594102	-0.0955663956639568	0.404878048780488	0.500444444444445
2	-0.138783508040456	-0.113075568190951	0.435272045028143	0.548347613219094
1	-0.204387690207316	-0.147690001907983	0.366521884396926	0.51421188630491
-5	0.142815061690991	0.0502081229962634	0.662553802008609	0.612345679012346
13	0.139265612436345	0.0146987244856961	0.497993207780179	0.483294483294483
-15	-0.3275468724075	-0.171486783555569	0.338456398262613	0.509943181818182
-9	-0.564920986872206	-0.294128753282441	0.271588661832564	0.565717415115005
-10	-0.755027628198359	-0.372119842463523	0.277673545966229	0.649793388429752
-20	-1.13675958188153	-0.544793621013133	0.330206378986867	0.875
-10	-0.400438937900017	-0.225799682128082	0.42350332594235	0.649303008070433
-3	-0.216081281169199	-0.128927963698242	0.378048780487805	0.506976744186046
11	0.534221970126678	0.226559411471493	0.583148558758315	0.356589147286822
4	-0.229376020468279	-0.181338090174151	0.264587835751775	0.445925925925926
-12	-0.426995188319229	-0.242773572563311	0.397073170731708	0.639846743295019
-12	-0.256882419491566	-0.127139827298894	0.40650406504065	0.533643892339545
-6	-0.297027852001792	-0.179110391199468	0.330206378986867	0.509316770186335
-10	-0.089689729550357	-0.069952748528634	0.338456398262613	0.408409146791247
3	0.0587705922362762	-0.0137717062236464	0.530414340287981	0.544186046511628
-12	-0.194697195951552	-0.117945632820445	0.373587150505651	0.491532783326096
0	-0.145233887121479	-0.109358392285221	0.237250554323725	0.346608946608946
4	0.0272147317746464	-0.0462496267374319	0.409005628517824	0.455255255255256
-14	-0.249517172722748	-0.14136520489259	0.369756097560976	0.511121302453566
-5	-0.103670854890367	-0.0593126385809312	0.39689578713969	0.456208425720621
4	0.136711086228953	0.0372238973307725	0.437740693196406	0.400516795865633
-38	-0.795329644052743	-0.298100128369705	0.302952503209242	0.601052631578947
-3	-0.240998838559814	-0.10716232612939	0.366521884396926	0.473684210526316
4	0.0378278367501289	-0.0136856127500962	0.450110864745011	0.463796477495107
-6	-0.264154045002852	-0.158661857760479	0.277673545966229	0.436335403726708
-14	-0.307257341961175	-0.174066587994474	0.451707317073171	0.625773905067645
-15	-0.105482553685719	-0.0344833382005971	0.464698331193838	0.499181669394435
9	0.113674423515603	0.00236064802417146	0.38382541720154	0.381464769177369
-5	0.0427451468392231	-0.0141871425665139	0.409005628517823	0.423192771084337
3	-0.502285848945446	-0.360223194369536	0.343680709534368	0.703903903903904
-10	-0.156151926260904	-0.0918305806733413	0.38233355306526	0.474164133738602
-2	0.0392785406845669	-0.0456097560975607	0.379268292682927	0.424878048780488
3	0.111390830761221	0.0162856718065084	0.523497917906008	0.5072122460995
-9	-0.406448517901329	-0.210886757783987	0.437740693196406	0.648627450980393
0	0.18377503255552	0.0659936982144937	0.599486521181001	0.533492822966507
-7	-0.0656288913886887	-0.0451809478290738	0.302645139127448	0.347826086956522
-6	-0.199216001014245	-0.125947116701896	0.394257486878666	0.520204603580563
-5	-0.245732128128735	-0.148156352740543	0.409005628517824	0.557161981258367
-12	-0.159580914561623	-0.0721921965846342	0.397073170731708	0.469265367316342
2	0.170788937703041	0.0643979868370111	0.378048780487805	0.313650793650794
-23	-0.484136765759755	-0.194267808503189	0.329910141206675	0.524177949709865
-30	-0.975487743099315	-0.392749960071692	0.360357265544487	0.753107225616178
12	0.498398620349839	0.188043663653419	0.583148558758315	0.395104895104896
5	-0.0742429598209018	-0.0971886890586072	0.290465631929047	0.387654320987654
-13	-0.915470576669557	-0.457203454022118	0.382739212007505	0.839942666029622
-4	-0.221943116441131	-0.100959570820198	0.507317073170731	0.608276643990929
0	0.0595818815331007	0.00515947467166966	0.409005628517823	0.403846153846154
-7	-0.250566412496422	-0.142586850626597	0.493078444297957	0.635665294924554
-18	-0.308240356339734	-0.124536987607482	0.42350332594235	0.548040313549832
1	-0.115927936688005	-0.0838730973775907	0.464698331193838	0.548571428571429
-5	-0.428244807094562	-0.266320626592993	0.356867779204108	0.623188405797101
-11	-0.682631835816839	-0.375905675108804	0.437740693196406	0.813646368305209
-5	-0.240386136780623	-0.150599070821362	0.410019775873435	0.560618846694796
-14	-0.0487804878048788	-0.0181571815718162	0.370731707317073	0.388888888888889
-11	-0.222879404689382	-0.112397588112234	0.356867779204108	0.469265367316342
-2	0.0409458700110987	-0.0148791507277861	0.437740693196406	0.452619843924192
6	0.365065287016507	0.136925767465101	0.583148558758315	0.446222791293214
-28	-0.780487804878049	-0.336236933797909	0.378048780487805	0.714285714285714
-9	-0.102046111646526	-0.0680880717621764	0.479024390243903	0.547112462006079
-6	-0.20063368864163	-0.131481632542078	0.321138211382114	0.452619843924191
-36	-0.499564459930314	-0.127363473470261	0.437740693196406	0.565104166666667
-25	-0.191679110668658	-0.0374593495934958	0.451707317073171	0.489166666666667
-16	-0.174611411767613	-0.0706939661272822	0.378048780487805	0.448742746615087
3	0.250051339022706	0.0637134985119528	0.598453301606187	0.534739803094234
11	0.372228113585484	0.10759178824665	0.48780487804878	0.380213089802131
-29	-0.44938775510204	-0.148989861940462	0.461538461538462	0.610528323478924
-9	-0.554943159821208	-0.2850021768623	0.354647330257086	0.639649507119386
-19	-0.434584955933594	-0.216731795527721	0.446125347329423	0.662857142857143
-5	-0.328150616909895	-0.200054200542005	0.424390243902439	0.624444444444444
-27	-0.452881360120592	-0.159833789600976	0.360357265544487	0.520191055145462
-19	-0.549428895901223	-0.234436568621979	0.356867779204108	0.591304347826087
-16	-0.293634319321917	-0.119233245118375	0.39689578713969	0.516129032258065
-4	-0.202115303827811	-0.156565518622712	0.349593495934959	0.506159014557671
-12	-0.394323447661594	-0.203372562925203	0.326961107448912	0.530333670374115
3	-0.133507549361208	-0.0821223205022243	0.437740693196406	0.51986301369863
-22	-0.531210616057528	-0.20756349006789	0.369756097560976	0.577319587628866
-18	-0.33569769371163	-0.151774630649532	0.424390243902439	0.576164874551971
-11	-0.0814874730379964	-0.0522842577172535	0.330206378986867	0.38249063670412
-2	0.0597312095569936	-0.0297115521762504	0.491655969191271	0.521367521367521
-18	-0.595289046366755	-0.23829296213697	0.310390912128299	0.54868387426527
-19	-0.404578180181167	-0.165614221463187	0.366521884396926	0.532136105860113
-5	-0.384766546224997	-0.241092499915592	0.356867779204108	0.597960279119699
0	0.0410683530649235	-0.0271208907741251	0.430487804878049	0.457608695652174
5	-0.0118845042271019	-0.0491808359786445	0.437740693196406	0.48692152917505
3	-0.237586340677662	-0.173116300335217	0.329910141206675	0.503026441541892
-19	-0.145804468128715	-0.0658999061186688	0.472059277554801	0.53795918367347
-8	-0.031457730990684	-0.0337819119672561	0.464698331193838	0.498480243161094
-11	-0.407396902038269	-0.213289375851227	0.302952503209242	0.51624187906047
1	0.0553769120517948	-0.0611211664789197	0.598453301606187	0.659574468085106
-21	-0.50992005294706	-0.186990558297936	0.476718403547672	0.663708961845608
-22	-0.00162328345972584	0.0246794687066095	0.437740693196406	0.413061224489796
-8	-0.221711518027034	-0.136708024720479	0.404878048780488	0.541586073500967
-12	-0.18892069022731	-0.109015460440588	0.354647330257086	0.463662790697674
-16	-0.307268617155579	-0.119245070271286	0.472059277554801	0.591304347826087
5	-0.238675958188154	-0.176431280831745	0.394587370531239	0.571018651362985
22	-0.0757922009526634	-0.149182939379733	0.382309726711725	0.531492666091458
-2	-0.0628047974678242	-0.0741465453952199	0.409005628517824	0.483152173913043
5	-0.172520521641339	-0.160816186240307	0.394587370531239	0.555403556771546
-9	-0.140239694322409	-0.0668112014453477	0.451707317073171	0.518518518518519
-29	-0.148175172508028	-0.02969542880188	0.356472795497186	0.386168224299066
-4	-0.449226476538585	-0.280887108387992	0.317073170731707	0.597960279119699
-6	-0.36676873262239	-0.202893719662012	0.38233355306526	0.585227272727272
-4	0.041832963784183	0.012441488051244	0.583148558758315	0.570707070707071
-10	0.220512043629754	0.141463414634147	0.463414634146342	0.321951219512195
-9	-0.70855762594893	-0.366303173199725	0.461538461538462	0.827841634738187
-17	-0.445239330812761	-0.208902326211051	0.342439024390244	0.551341350601295
-20	-0.507402636716337	-0.228606961717613	0.360357265544487	0.5889642272621
-13	-0.0335560590969995	0.00411322371007861	0.491655969191271	0.487542745481192
-16	0.0340711894513906	0.0187402841061379	0.451707317073171	0.432967032967033
-3	0.0883376793329195	0.0230486445332685	0.397073170731708	0.374024526198439
-12	-0.0964824954371993	-0.0563930216256233	0.394587370531239	0.450980392156863
-3	-0.148907435918213	-0.0707883800008396	0.481707317073171	0.55249569707401
-26	-0.73598240541676	-0.302826126593641	0.326961107448912	0.629787234042553
0	0.029877627968826	-0.0269043654291967	0.456362033499853	0.48326639892905
-17	-0.302960013273602	-0.149975978502926	0.450110864745011	0.600086843247937
-13	-0.27745849812139	-0.130674966277084	0.356867779204108	0.487542745481192
-3	0.331517038574641	0.140595367268953	0.583148558758315	0.442553191489362
-1	-0.422548145747238	-0.24698873089117	0.465392221489783	0.712380952380953
-12	-0.107476356396216	-0.0714824668302978	0.369756097560976	0.441238564391274
-4	0.0303417040512904	0.0180057332638163	0.370288248337029	0.352282515073213
-10	-0.150082031413679	-0.0783257438712491	0.369756097560976	0.448081841432225
-3	0.0115387229100257	-0.0392068667592992	0.464698331193838	0.503905197953137
13	0.221833392246966	0.0248922148312393	0.42350332594235	0.398611111111111
-18	-0.00840808560061301	0.0310179328235348	0.464698331193838	0.433680398370303
-17	-0.41499085137541	-0.172448198959334	0.465392221489783	0.637840420449117
-2	-0.268077992468236	-0.179076526637502	0.378048780487805	0.557125307125307
3	0.190093750076733	0.0748862809632103	0.437740693196406	0.362854412233195
-12	-0.0469470024421411	-0.00994853609770191	0.389213328753005	0.399161864850707
-11	-0.0951763165048066	-0.051511277073049	0.422652856665553	0.474164133738602
3	-0.140025365067907	-0.119201024340352	0.38382541720154	0.503026441541892
-6	-0.0771320723411313	-0.0806556059746643	0.430487804878049	0.511143410852713
-21	-0.293821138211383	-0.123826664977758	0.410783055198973	0.534609720176731
0	-0.341463414634146	-0.196458402940194	0.338456398262613	0.534914801202806
4	-0.110969718392836	-0.119152095630545	0.317073170731707	0.436225266362253
-19	-0.40766872846474	-0.163968940214964	0.40650406504065	0.570473005255614
-4	-0.120511737584908	-0.0734692137131162	0.382739212007505	0.456208425720621
-9	-0.190604582800155	-0.106263697419582	0.451707317073171	0.557971014492753
-3	-0.225284200893958	-0.13434516632893	0.44854253420583	0.58288770053476
-1	0.32700665383818	0.108458756508104	0.662553802008609	0.554095045500506
-12	-0.0411951337697599	-0.00935671423229695	0.354647330257086	0.364004044489383
-6	-0.312507722341661	-0.208860240898042	0.437740693196406	0.646600934094447
-7	0.0681516509042639	0.0121886776889327	0.410783055198973	0.39859437751004
-7	-0.214881583598445	-0.119353816914793	0.42350332594235	0.542857142857143
-12	0.0178795420607272	0.00292730332551167	0.378048780487805	0.375121477162293
-8	-0.465518692454005	-0.241586597684159	0.404878048780488	0.646464646464647
-7	0.171113190995132	0.0773617508298291	0.464698331193838	0.387336580364009
-17	-0.268873403019744	-0.137734077927863	0.338456398262613	0.476190476190476
-13	-0.666865970232321	-0.33361397645597	0.343680709534368	0.677294685990338
-29	-0.604571096731376	-0.239332130997366	0.331501202335967	0.570833333333333
-24	-0.436348929815829	-0.169846021187484	0.397073170731708	0.566919191919192
-1	-0.15192341533805	-0.110861713849227	0.38382541720154	0.494687131050767
2	0.0211247454089458	-0.039841110739874	0.424390243902439	0.464231354642313
2	-0.0281878013585326	-0.0494042223147221	0.3103909121283	0.359795134443022
-6	-0.0635595052759043	-0.0622695528066886	0.42350332594235	0.485772878749039
-13	-0.447620730865694	-0.210514467368967	0.38233355306526	0.592848020434227
-28	-0.180959017753443	-0.0300772031929195	0.437740693196406	0.467817896389325
7	-0.0627582853901618	-0.0945173191227705	0.424390243902439	0.51890756302521
-21	-0.530363364858139	-0.231099006580393	0.465392221489783	0.696491228070176
1	-0.00562709353801538	-0.0548513097126525	0.465392221489783	0.520243531202435
1	-0.200580720092915	-0.105507916131793	0.38382541720154	0.489333333333333
-19	0.0244999011540271	0.0600251677055	0.491869918699187	0.431844750993687
-4	-0.395572449230985	-0.231208846725981	0.342439024390244	0.573647871116226
-14	-0.555790608926498	-0.301146432812643	0.287804878048781	0.588951310861423
3	0.280767223821308	0.0934189423945527	0.566604127579738	0.473185185185185
9	0.218364832998979	0.0523946959101098	0.437740693196406	0.385345997286296
0	-0.199348439422177	-0.13716014369446	0.424390243902439	0.561550387596899
-1	-0.0178122690317813	-0.0331741429302406	0.39689578713969	0.43006993006993
-7	-0.458802022330099	-0.216961814927622	0.472059277554801	0.689021092482423
2	-0.156254220349512	-0.117220058755209	0.341463414634146	0.458683473389355
-15	6.22200099548165e-05	0.0100069491307559	0.42350332594235	0.413496376811594
-10	-0.40378712460594	-0.242802216118856	0.410783055198973	0.653585271317829
-6	-0.329399371038774	-0.20749847240332	0.338456398262613	0.545954870665933
-1	-0.104583023329478	-0.0723014071018409	0.409005628517824	0.481307035619664
12	-0.0451807598716277	-0.111457742484402	0.353658536585366	0.465116279069768
-11	-0.337585034013605	-0.196233074042063	0.461538461538462	0.657771535580524
17	0.398954703832752	0.157872979265029	0.437740693196406	0.279867713931377
14	0.113821138211381	-0.0147748592870551	0.409005628517824	0.423780487804879
-6	-0.406253726869236	-0.244334580230656	0.435272045028143	0.679606625258799
-9	-0.334868093578895	-0.213047973039157	0.38233355306526	0.595381526104418
7	0.0691222655204505	-0.0108437138865561	0.356867779204108	0.367711493090664
2	0.297964042008285	0.130745457983121	0.583148558758315	0.452403100775194
6	0.224721078379614	0.0685944350899418	0.464698331193838	0.396103896103896
-2	-0.0953256240636937	-0.0838038393879214	0.410783055198973	0.494586894586894
-24	-0.430834577733532	-0.168706206685301	0.45609756097561	0.62480376766091
-27	-0.726998703183807	-0.264303665073577	0.422652856665553	0.68695652173913
-19	-0.0686809357889494	-0.0125083930821938	0.479024390243903	0.491532783326097
-8	0.0500041480006637	0.00171840354767183	0.476718403547672	0.475
-4	-0.0232844045765682	-0.0423935172248611	0.330206378986867	0.372599896211728
-23	-0.888544987273581	-0.39912521313663	0.287804878048781	0.686930091185411
-13	0.191446116588825	0.115063452375336	0.583148558758315	0.468085106382979
-13	-0.125297533647605	-0.0874279379157423	0.424390243902439	0.511818181818182
-12	-0.177494607599137	-0.112408039420693	0.410783055198973	0.523191094619666
19	0.0830429732868754	-0.0497719611342456	0.348602022605592	0.398373983739837
-25	-0.941064632910766	-0.35879233548028	0.592870544090056	0.951662879570336
-11	-0.20860207082314	-0.0982710713183084	0.601728928681692	0.7
-19	-0.357235772357723	-0.173850786410527	0.366521884396926	0.540372670807453
-3	-0.00248565390371724	-0.0341053697098234	0.42350332594235	0.457608695652174
-13	-0.59270781483325	-0.322060031206372	0.343680709534368	0.66574074074074
-5	0.234332107428383	0.112792827533019	0.42350332594235	0.310710498409332
-11	-0.11594787110485	-0.0630215484008126	0.303939962476548	0.36696151087736
-18	0.0923453060518451	0.0862105102069275	0.450718342799866	0.364507832592939
3	0.227804951713064	0.0899754206844398	0.487804878048781	0.397829457364341
-18	-0.0115649788716723	0.0346892339627165	0.566604127579738	0.531914893617021
-13	-0.460178972990337	-0.239594090267563	0.356867779204108	0.596461869471671
10	0.272265029355217	0.0899899646581444	0.451707317073171	0.361717352415027
6	0.470018637063447	0.206927345463931	0.591689250225836	0.384761904761905
0	-0.536585365853658	-0.296534017971759	0.38382541720154	0.680359435173299
-13	-0.225653750043994	-0.0845180644319815	0.378048780487805	0.462566844919786
8	0.527012283109845	0.2289417899174	0.566604127579738	0.337662337662338
-5	-0.0349347129834934	-0.0227272727272727	0.583148558758315	0.605875831485587
-12	0.172867927658869	0.0966906711021859	0.465392221489783	0.368701550387597
2	-0.329375719761426	-0.217190395159765	0.317073170731707	0.534263565891473
2	0.201740477032099	0.0640283415636428	0.491655969191271	0.427627627627628
-19	-0.525696864111499	-0.256175734834272	0.349593495934959	0.605769230769231
2	0.0496100879376149	-0.0408228627740818	0.370288248337029	0.411111111111111
-6	0.160525111744624	0.0872942233111492	0.549861068230935	0.462566844919786
-4	-0.242277658338893	-0.168296674783442	0.303939962476548	0.47223663725999
-5	0.134413824657728	0.0747815513175196	0.493078444297957	0.418296892980437
-25	-0.571283391405343	-0.237644782269741	0.366521884396926	0.604166666666667
-11	0.00970632155301154	-0.00136976868861244	0.356867779204108	0.35823754789272
-8	-0.602625558723121	-0.305260819724802	0.356472795497186	0.661733615221988
-5	0.343512924111005	0.171990091291426	0.520764667106131	0.348774575814705
-19	-0.380818079358275	-0.153842719205224	0.329910141206675	0.4837528604119
2	-0.607838370742512	-0.371574949238621	0.356867779204108	0.728442728442729
-26	-0.994261561487031	-0.423935136090492	0.341463414634146	0.765398550724638
14	0.40650406504065	0.165806754221388	0.461538461538461	0.295731707317073
-14	0.0300425861401481	0.0554930164686267	0.566604127579738	0.511111111111111
-21	-0.176704828272773	-0.0562629381628101	0.38233355306526	0.438596491228071
-3	-0.451219512195122	-0.236422764227642	0.40650406504065	0.642926829268293
1	0.0778121947996271	0.00821720709552459	0.321138211382114	0.312921004286589
4	-0.0939495841651252	-0.0976530082366003	0.369756097560976	0.467409105797576
1	-0.0227536690951325	-0.0534834869879799	0.464698331193838	0.518181818181818
2	-0.0230387498680178	-0.0558893150356563	0.410019775873435	0.465909090909091
-8	-0.422513889470862	-0.241865932062393	0.437740693196406	0.679606625258799
-4	-0.0665041141501715	-0.0356599098426722	0.378048780487805	0.413708690330477
19	0.337681981470978	0.0736710444027518	0.463414634146341	0.38974358974359
-11	-0.661935960165074	-0.372010992646544	0.354647330257086	0.72665832290363
-34	-0.568149210903874	-0.227164036346246	0.341463414634146	0.568627450980392
-2	-0.173573027655742	-0.133862668496815	0.451707317073171	0.585569985569986
15	0.343205574912892	0.128664323744187	0.437740693196406	0.309076369452219
-13	-0.0945329351252697	-0.0505250835360171	0.354647330257086	0.405172413793104
-19	-0.294498147175208	-0.102636923059222	0.394257486878666	0.496894409937888
6	0.0810442157577724	0.0118662155565656	0.342439024390244	0.330572808833679
-13	-0.385872510899023	-0.173909282527169	0.370288248337029	0.544197530864198
-6	-0.0271143490655681	-0.0119027314149263	0.5140712945591	0.525974025974026
2	-0.123925667828106	-0.10140712945591	0.302439024390244	0.403846153846154
-3	0.0123042269383731	-0.00644802947332979	0.437740693196406	0.444188722669735
-30	-0.130377838732795	0.0267670169071311	0.465392221489783	0.438625204582652
-2	-0.26930925002394	-0.167977393161738	0.40650406504065	0.574481458202388
1	0.153937955528624	0.0463332857889984	0.437740693196406	0.391407407407407
3	-0.321786457067228	-0.224017937798425	0.479024390243903	0.703042328042328
7	-0.0609756097560972	-0.0723836322671412	0.326961107448912	0.399344739716054
2	-0.0764362302008105	-0.0944752570813375	0.369756097560976	0.464231354642313
-24	-0.16791106686577	-0.0366841071319906	0.394587370531239	0.43127147766323
-22	-0.172224987555997	-0.0456407703794457	0.566604127579738	0.612244897959184
-1	0.0963162684355804	0.0220530618197642	0.343680709534368	0.321627647714604
-8	-0.21924287565857	-0.114331363013907	0.290521765977154	0.40485312899106
-6	-0.112733832505498	-0.087905861232275	0.354647330257086	0.442553191489361
-22	0.0716774514683926	0.0834477770453382	0.465392221489783	0.381944444444444
-7	-0.417200118845042	-0.18876533089998	0.437740693196406	0.626506024096385
-17	-0.0243179823524151	-0.0213798484734071	0.487804878048781	0.509184726522188
-15	-0.0203761707069954	0.0104079407332353	0.464698331193838	0.454290390460603
-6	-0.173993624434725	-0.119641645329243	0.330206378986867	0.449848024316109
-16	-0.35878131740501	-0.174614953627542	0.42350332594235	0.598118279569892
-11	-0.114667238254251	-0.0518654198399692	0.450110864745011	0.50197628458498
9	0.331553727044368	0.11670021265819	0.514071294559099	0.39737108190091
-8	-0.0499043235443593	-0.036325074713198	0.558536585365853	0.594861660079051
-11	-0.54588193708024	-0.290173642477165	0.370731707317073	0.660905349794238
-22	-0.720901775344283	-0.322602883245327	0.424390243902439	0.746993127147766
-15	-0.362766333491272	-0.161847857523085	0.370288248337029	0.532136105860113
-19	-0.463847085279363	-0.198848893711374	0.39689578713969	0.595744680851064
-10	-0.150849963045086	-0.0561204985090606	0.42350332594235	0.479623824451411
1	0.168691464650209	0.0448005549199114	0.382739212007505	0.337938657087593
-16	0.0207823658783703	0.0322990527242048	0.38382541720154	0.351526364477335
-17	-0.353264476522315	-0.160426931108709	0.497993207780179	0.658420138888889
-24	-0.477538576406173	-0.193548887462559	0.356867779204108	0.550416666666667
-3	-0.179649333165724	-0.136262640035663	0.38382541720154	0.520088057237204
-19	-0.338330892625697	-0.101696361644468	0.506341463414634	0.608037825059102
-16	-0.353474744853831	-0.161100094809521	0.39689578713969	0.557995881949211
8	0.10311157928855	0.00390360199480033	0.42350332594235	0.41959972394755
-17	-0.0728680159142017	-0.010177072427953	0.42350332594235	0.433680398370303
10	-0.204413472706156	-0.194453725359171	0.366521884396926	0.560975609756098
-12	-0.173384504031375	-0.0695274811977497	0.368323556653288	0.437851037851038
2	0.0577587723929186	-0.008819503363791	0.437740693196406	0.446560196560197
-16	-0.0926477316721216	0.00393742220415827	0.435272045028143	0.431334622823984
-30	-0.466474199435872	-0.159875396861096	0.410783055198973	0.570658452060069
-11	0.108283557325368	0.0500193046395069	0.572528883183568	0.522509578544062
-20	-0.402895304463249	-0.178836659700697	0.38233355306526	0.561170212765958
-18	-0.147502903600464	-0.0541305781867091	0.394587370531239	0.448717948717949
3	0.0269918208091779	-0.0194512034518109	0.394257486878666	0.413708690330477
-20	-0.296296714123478	-0.0784381736486778	0.583148558758315	0.661586732406992
-14	-0.676968136140989	-0.315142870726953	0.410783055198973	0.725925925925926
-21	-0.76762900282064	-0.368065225472714	0.264587835751775	0.63265306122449
-6	0.119576767328398	0.0522687949991631	0.437740693196406	0.385471898197242
-5	0.0342624854819978	-0.0334722651023978	0.549861068230936	0.583333333333333
-27	-0.146450970632155	-0.0222945763671323	0.397073170731708	0.41936774709884
-4	0.449599364914622	0.211742637059441	0.549861068230936	0.338118431171494
-10	0.0353824456611916	0.00914634146341486	0.491869918699187	0.482723577235772
9	0.238617886178861	0.0824132646406673	0.583148558758315	0.500735294117647
-11	-0.303804643289594	-0.164506205094416	0.409005628517824	0.57351183361224
-9	-0.230630345264491	-0.107516629711751	0.369756097560976	0.477272727272727
-14	-0.417783250120066	-0.193820334306295	0.382739212007505	0.5765595463138
-15	0.00043554006968527	0.0114586419143538	0.437740693196405	0.426282051282052
-8	-0.233361375506183	-0.129873228574183	0.302439024390244	0.432312252964427
-9	-0.518677578802366	-0.216156439237938	0.373587150505651	0.58974358974359
-26	-0.607439853990376	-0.262008315561845	0.366521884396926	0.628530199958771
-8	-0.661003765881815	-0.351006771738479	0.354647330257086	0.705654101995566
-5	-0.142874740435715	-0.0823835920177379	0.451707317073171	0.534090909090909
-5	-0.2458522507303	-0.141325051791245	0.354647330257086	0.495972382048331
-5	-0.558881042094417	-0.339149715607828	0.370288248337029	0.709437963944857
-13	-0.263165048063854	-0.138122977616608	0.360357265544487	0.498480243161094
4	0.12503038651649	0.0402797597919549	0.409005628517824	0.368725868725869
-6	-0.359410190375195	-0.202502103650969	0.446125347329423	0.648627450980392
4	0.103422197012668	0.0275019170489555	0.437705998681609	0.410204081632653
-2	-0.176903546444102	-0.100144782269741	0.366521884396926	0.466666666666667
-8	0.275121951219513	0.114776885054821	0.566604127579738	0.451827242524917
-9	-0.361830097892816	-0.210311216015386	0.365853658536585	0.576164874551971
-20	-0.366040318566451	-0.15962409900281	0.39458737053124	0.55421146953405
-40	-0.366718589874974	-0.080456877256371	0.394587370531239	0.47504424778761
-6	-0.0214001532112582	-0.034687723530484	0.38233355306526	0.417021276595745
-12	-0.306607911457265	-0.191925988225399	0.260487804878049	0.452413793103448
-4	-0.533862242880961	-0.299156960529621	0.326961107448912	0.626118067978533
-28	-0.329962900527644	-0.0761046306115234	0.40650406504065	0.482608695652174
-11	-0.585193397388518	-0.272777665793186	0.42350332594235	0.696280991735537
-3	-0.166494783341068	-0.0951013252204401	0.42350332594235	0.518604651162791
6	0.00813744772905267	-0.0599155760478374	0.465392221489783	0.52530779753762
-22	-0.658729052596649	-0.30868823912159	0.356867779204108	0.665556018325698
-5	0.0962543554006972	0.0102537219992455	0.472059277554801	0.461805555555555
-5	0.145038737951803	0.074636213777614	0.331501202335967	0.256864988558353
-7	-0.0441061118685724	-0.025545399398192	0.38382541720154	0.409370816599732
-21	-0.0922495490152475	-0.00551435029133107	0.38382541720154	0.389339767492871
-4	-0.184897129583541	-0.138794569318242	0.288166214995483	0.426960784313726
-5	-0.398741970107689	-0.237570821950215	0.364046973803071	0.601617795753286
-18	-0.343083561914646	-0.142483026391788	0.394257486878666	0.536740513270454
0	0.214864889910298	0.0729839128178518	0.451707317073171	0.378723404255319
-10	-0.639973741352321	-0.312453219770293	0.439927732610659	0.752380952380952
-9	-0.0542351086776163	-0.056583107497741	0.541102077687444	0.597685185185185
-23	-0.188899950223992	-0.0419489780753364	0.475781518378564	0.517730496453901
-22	-0.737997466534728	-0.300396847088148	0.424390243902439	0.724787090990587
-14	-0.108519505363119	-0.0768741332898267	0.566604127579738	0.643478260869565
1	0.413540931365439	0.175836542032496	0.549861068230935	0.374024526198439
-18	-0.583691381383221	-0.261581545969737	0.342439024390244	0.604020570359982
-9	-0.134103096350113	-0.0828408144636528	0.343680709534368	0.426521523998021
-10	-0.23022617194257	-0.131889190565353	0.42350332594235	0.555392516507703
-19	-0.451146989334305	-0.186424745279464	0.40650406504065	0.592928810320115
-14	-0.0761262553802009	-0.0542988718598474	0.42350332594235	0.477802197802198
-16	-0.400925004148001	-0.197675973470261	0.437740693196406	0.635416666666667
-8	-0.344741994358718	-0.220752070229422	0.302439024390244	0.523191094619666
-21	-0.284859053163017	-0.0940510912575686	0.356867779204108	0.450918870461676
1	-0.0580462267926816	-0.063493543505043	0.450718342799866	0.514211886304909
-13	-0.269674628423303	-0.119769094793254	0.302952503209243	0.422721598002497
-24	-0.646760285784677	-0.234684153417937	0.370731707317073	0.60541586073501
-11	0.0447776671644275	0.0180784442979569	0.493078444297957	0.475
0	-0.169096974116826	-0.112954759220833	0.394257486878666	0.507212246099499
-5	-0.476278259460335	-0.265024444264376	0.349593495934959	0.614617940199335
0	-0.485872663921444	-0.309525840013645	0.409005628517824	0.718531468531468
13	0.25377468060395	0.0414634146341468	0.590243902439025	0.548780487804878
-24	-0.315662850506056	-0.117420392953929	0.349593495934959	0.467013888888889
-25	-0.275204911232787	-0.0893049015615119	0.450110864745011	0.539415766306523
-3	-0.24447234783898	-0.17806785269162	0.330206378986867	0.508274231678487
-4	-0.106182152126565	-0.0572254264823746	0.437705998681609	0.494931425163983
-17	-0.339154434477476	-0.146017645239233	0.465392221489783	0.611409866729016
-12	-0.422494607599138	-0.238364672073755	0.410783055198973	0.649147727272728
-10	-0.0625506988517751	-0.0291947143299444	0.394587370531239	0.423782084861184
-5	-0.114223434159807	-0.0766691303276667	0.349593495934959	0.426262626262626
0	0.133329966840041	0.0520630558418262	0.360357265544487	0.30829420970266
-2	-0.0521557033752151	-0.0472929355300455	0.39689578713969	0.444188722669735
1	0.251154725106126	0.0776148559817704	0.566604127579738	0.488989271597968
-9	-0.306471652756395	-0.128251634766837	0.366521884396926	0.494773519163763
6	0.276493359164942	0.113655412792753	0.451707317073171	0.338051904280418
0	-0.104894254922615	-0.0695934959349592	0.397073170731708	0.466666666666667
-10	-0.239339638294342	-0.151597368424584	0.394587370531239	0.546184738955823
-32	-0.781151004056625	-0.267635798742782	0.331501202335967	0.599137001078749
-7	-0.0680978918947376	-0.0462808665353734	0.317073170731707	0.363354037267081
-27	-0.988076986892318	-0.431124624504415	0.370288248337029	0.801412872841444
-27	-0.194753023160484	-0.0592140558815278	0.354647330257086	0.413861386138614
-9	0.13072225517088	0.0581668568533983	0.566604127579737	0.508437270726339
3	-0.0658208779309173	-0.0798457832909975	0.40650406504065	0.486349848331648
-7	-0.346545136258817	-0.193316870391279	0.437740693196406	0.631057563587685
-5	-0.173990938402842	-0.116666091379838	0.368323556653288	0.484989648033126
15	0.402439024390243	0.15036544304837	0.465221318879855	0.314855875831486
7	0.131995917361772	0.0201571670796925	0.369756097560976	0.349598930481283
-3	-0.135494662317444	-0.105566865815958	0.25140712945591	0.356973995271868
-32	-0.752083487780167	-0.274015797872163	0.360357265544487	0.63437306341665
-7	0.00467437593630549	0.0014122385992405	0.410783055198973	0.409370816599732
-6	0.143601137874732	0.0667769584672588	0.532926829268292	0.466149870801034
-2	0.218542269009316	0.0817196077895828	0.464698331193838	0.382978723404255
-14	-0.497258568710307	-0.259303500782825	0.366521884396926	0.625825385179751
-11	-0.244794259167082	-0.138385013848857	0.357625624449015	0.496010638297873
-16	-0.842322139026861	-0.426177085232612	0.38233355306526	0.808510638297872
7	0.259325284282743	0.112603885110443	0.38382541720154	0.271221532091097
-6	0.0350578960335048	0.0256360135371683	0.370731707317073	0.345095693779905
12	0.295870134781082	0.115968274344397	0.38382541720154	0.267857142857143
-27	-0.599569583931132	-0.256634828586048	0.370288248337029	0.626923076923076
-4	0.190296326853332	0.105880128568728	0.609756097560975	0.503875968992248
-4	-0.0334996524274737	-0.0406727107075107	0.331501202335967	0.372173913043478
-7	-0.446324871411979	-0.289674796747967	0.342439024390244	0.632113821138211
-10	-0.291034777666396	-0.147455324661596	0.473527662105889	0.620982986767485
-7	-0.433959501085695	-0.244227642276423	0.451707317073171	0.695934959349594
-5	-0.196608258008045	-0.121070419866344	0.446125347329423	0.567195767195767
-6	-0.162351287844844	-0.113002497679061	0.566604127579738	0.679606625258799
1	-0.134565163833457	-0.109070486637881	0.343680709534368	0.452751196172249
-14	-0.352609842587787	-0.173784699991239	0.370288248337029	0.544072948328267
2	-0.0143075964921142	-0.0528839296490132	0.356472795497186	0.409356725146199
-12	-0.0506153161835565	-0.0220989182068578	0.5140712945591	0.536170212765957
-8	-0.0740325539901359	-0.0369295066444639	0.397073170731708	0.434002677376171
-13	-0.120146839223494	-0.0646782869343844	0.39689578713969	0.461574074074074
-28	-0.173910735025718	-0.0293559744266857	0.410019775873435	0.43937575030012
-7	-0.237035863865132	-0.1161716970824	0.497993207780179	0.614164904862579
-3	-0.263986705216597	-0.186715508320438	0.382309726711725	0.569025235032163
-8	0.023020081132488	0.0165766720323843	0.437740693196406	0.421164021164021
-12	-0.0287456445993025	-0.0215304660349424	0.472059277554801	0.493589743589743
-14	-0.394225138894709	-0.175907061856139	0.472059277554801	0.64796633941094
-1	-0.0688910005983177	-0.0572908157311239	0.287804878048781	0.345095693779905
-19	-0.28251443383999	-0.083904081465057	0.42350332594235	0.507407407407407
-12	-0.374792235433917	-0.186135786836396	0.370288248337029	0.556424035173424
-5	-0.319658207815063	-0.195348978915908	0.277673545966229	0.473022524882137
-20	-0.313236270117804	-0.136212737127372	0.370731707317073	0.506944444444445
-8	-0.215607062902927	-0.117703081309521	0.366521884396926	0.484224965706447
-12	-0.387453048162701	-0.201683321900358	0.34238962642791	0.544072948328268
-20	-0.372762568442011	-0.161389133514569	0.463414634146341	0.624803767660911
-7	-0.0398182738269828	-0.0334464475079532	0.451707317073171	0.485153764581124
-11	-0.380267960842874	-0.216191123665774	0.303939962476548	0.520131086142322
-11	-0.38360456883279	-0.211364688662196	0.273789075918928	0.485153764581124
0	0.0876096214378291	0.0101369662345271	0.465392221489783	0.455255255255256
-13	0.0140409822465567	0.00936990667955151	0.437740693196406	0.428370786516854
6	-0.495498539400978	-0.372461135822481	0.420191417104045	0.792652552926525
-14	-0.192405010784801	-0.0980742928090771	0.368323556653288	0.466397849462365
-11	-0.202924096467855	-0.140856293610473	0.382739212007505	0.523595505617977
-27	-0.194188651070185	-0.0394916603805216	0.370731707317073	0.410223367697594
-9	-0.687980853834512	-0.355892076726634	0.38233355306526	0.738225629791895
-3	-0.306690045888169	-0.213957977478656	0.354647330257086	0.568605307735742
-6	-0.287693783770135	-0.169705559217754	0.326961107448912	0.496666666666666
-15	-0.364255798402139	-0.148630378596891	0.338456398262613	0.487086776859504
-20	-0.60932055749129	-0.284826454033771	0.277673545966229	0.5625
-9	0.0460483233251784	0.0176176575019158	0.38382541720154	0.366207759699624
-17	-0.896960056557087	-0.422057264050901	0.317073170731707	0.739130434782609
-18	-0.376874984555317	-0.163523239852745	0.410019775873435	0.57354301572618
-15	-0.442758596417134	-0.170203689094584	0.357625624449015	0.5278293135436
-11	-0.424768974397818	-0.208167895632444	0.424390243902439	0.632558139534883
0	0.328680051700743	0.139978791092259	0.487804878048781	0.347826086956522
-14	-0.452028372324539	-0.240817405981077	0.356867779204108	0.597685185185185
-7	0.00497540840705857	0.027057269289715	0.599486521181001	0.572429251891286
-3	-0.469047243003154	-0.291232529302518	0.364046973803071	0.655279503105589
-8	-0.376543528221062	-0.21827696789278	0.451707317073171	0.669984284965951
-11	-0.017106262644495	0.00134965776535245	0.503325942350332	0.50197628458498
-13	-0.386684372988833	-0.18356742356923	0.464698331193838	0.648265754763068
-21	-0.523644189383072	-0.256727453730939	0.343680709534368	0.600408163265307
-12	-0.0430147668823622	-0.0336424457994577	0.560975609756098	0.594618055555555
-13	-0.42220424755268	-0.232990114560237	0.369756097560976	0.602746212121212
-16	-0.124426506062087	-0.0809112169732547	0.464698331193838	0.545609548167093
-12	-0.30697234783898	-0.160573762857105	0.330206378986867	0.490780141843972
6	0.172614648224403	0.0438999383158556	0.410783055198973	0.366883116883117
-16	-0.552656431810783	-0.263255567338282	0.378048780487805	0.641304347826087
1	-0.076600417922029	-0.0685776835736535	0.38382541720154	0.452403100775194
-18	-0.607602974404264	-0.269882501291568	0.303939962476548	0.573822463768116
12	0.545328702305446	0.264760104241196	0.506849315068493	0.242089210827297
11	0.309834427247927	0.105819529510994	0.44854253420583	0.342723004694836
0	-0.201555298549059	-0.137534704600412	0.437740693196405	0.575275397796817
-21	-0.0359868825579013	-0.00445659284179045	0.574432296047099	0.578888888888889
-4	-0.433361489459051	-0.259485828996506	0.394587370531239	0.654073199527745
-4	0.227732515168704	0.125777851623947	0.503325942350333	0.377548090726385
-25	-0.492098058735689	-0.184018552920992	0.465392221489783	0.649410774410775
0	-0.177580684897758	-0.124528464883232	0.290465631929047	0.414994096812279
-20	-0.167481270856199	0.000544526375496679	0.451707317073171	0.451162790697674
-1	-0.14334438904056	-0.133501175388768	0.450110864745011	0.583612040133779
-20	-0.447316640719599	-0.169714737885978	0.556541019955654	0.726255757841632
-16	-0.438951867383085	-0.195855639588407	0.397073170731708	0.592928810320115
-10	-0.176348854397635	-0.0610520682009331	0.583148558758315	0.644200626959248
-13	0.206213021794084	0.0844552076726441	0.591689250225836	0.507234042553192
2	0.151510240562991	0.0568481727690012	0.437740693196406	0.380892520427404
-1	-0.373346707493049	-0.246310186503972	0.338456398262613	0.584766584766585
4	0.200921631259394	0.0507461914491891	0.398572278405711	0.347826086956522
-4	0.0722767747157995	0.0334104240927336	0.451707317073171	0.418296892980437
5	0.201983165255995	0.0498827755719414	0.584146341463414	0.534263565891473
-7	0.144699223521905	0.0710286320254513	0.506341463414634	0.435312831389183
-16	0.0727144516343124	0.0589661862527717	0.40650406504065	0.347537878787879
1	0.220444866786331	0.0845395006980376	0.465221318879856	0.380681818181818
-8	0.295646761558801	0.151737953370306	0.58829268292683	0.436554729556524
4	-0.109175377468061	-0.084072815780133	0.409005628517824	0.493078444297957
-20	-0.205865272938444	-0.0755941213258288	0.382739212007505	0.458333333333333
-14	-0.318001396199372	-0.157855664332402	0.369756097560976	0.527611761893378
-26	-0.321725568276091	-0.117708171261701	0.366521884396926	0.484230055658627
-24	-0.457465342130625	-0.140546226873648	0.592870544090056	0.733416770963705
-18	-0.0223980323836854	-0.00466228893058185	0.540337711069418	0.545
-22	-0.620373444384635	-0.242912961905539	0.382739212007505	0.625652173913043
-8	-0.310714258853966	-0.176523894046194	0.343680709534368	0.520204603580562
8	-0.163298490127758	-0.134982975966326	0.472059277554801	0.607042253521127
-4	0.309749973408285	0.149482013214781	0.435272045028143	0.285790031813361
-10	-0.180258954507395	-0.0577462334356914	0.464698331193838	0.52244456462953
-14	-0.442250784589913	-0.22665015140488	0.422652856665553	0.649303008070433
-15	-0.27801974448316	-0.141243704947171	0.329910141206675	0.471153846153847
1	0.00277530183939712	-0.0186308303154588	0.330206378986867	0.348837209302326
5	0.165274411729318	0.0532265364936947	0.39689578713969	0.343669250645995
-12	-0.151485960237753	-0.106105971404541	0.369756097560976	0.475862068965517
-12	-0.221275095404016	-0.126117764616642	0.38382541720154	0.509943181818182
4	-0.490127758420441	-0.311724433033804	0.464698331193838	0.776422764227642
1	0.0117762995811777	-0.0292478702298984	0.42350332594235	0.452751196172249
-1	0.228326696532274	0.0323458509892908	0.638450502152081	0.60610465116279
6	0.351354171926813	0.137758131158418	0.520764667106131	0.383006535947713
-4	-0.204999242539009	-0.135592640136928	0.437740693196406	0.573333333333333
-4	0.00676503989831778	-0.0230881931129367	0.42350332594235	0.446591519055287
-11	-0.172140584759885	-0.0752538993100303	0.394587370531239	0.46984126984127
-9	-0.16591028008866	-0.0937114135882275	0.366521884396926	0.460233297985154
0	-0.0991447576813418	-0.0937028824833696	0.479024390243903	0.572727272727272
-2	-0.11189364173277	-0.110877809269091	0.382739212007505	0.493617021276596
-18	-0.336442146633704	-0.116592808206904	0.523927138005557	0.640519946212461
-11	-0.117751519130099	-0.0397227433812805	0.532926829268292	0.572649572649573
7	0.128353218597121	-0.000315888588524715	0.45609756097561	0.456413449564135
-6	0.0062436208777672	0.00647683510327929	0.437740693196406	0.431263858093126
-12	-0.35318585743997	-0.134375573079039	0.329910141206675	0.464285714285714
9	0.315979256138077	0.129816600491587	0.424390243902439	0.294573643410853
1	-0.0621370499419277	-0.0410019775873433	0.424390243902439	0.465392221489783
-6	0.0522648083623707	-0.0048244438488334	0.566604127579738	0.571428571428571
1	0.0505789603350576	-0.00172132104096173	0.370288248337029	0.37200956937799
-19	-0.315684908109585	-0.160968462431877	0.40650406504065	0.567472527472528
-15	-0.182380490383469	-0.0726953596372545	0.349593495934959	0.422288855572214
-6	0.0410683530649241	0.00778352583760888	0.465392221489783	0.457608695652174
-1	0.000257536736858355	-0.0301703975943867	0.378048780487805	0.408219178082192
-8	-0.150943979044654	-0.0963151450111541	0.330206378986867	0.426521523998021
3	0.229908212918524	0.0802291540673468	0.410783055198973	0.330553901131626
-11	-0.0810722316949611	-0.0446547945145488	0.446125347329423	0.490780141843972
-2	-0.553936272281978	-0.340243902439025	0.430487804878049	0.770731707317074
-3	-0.123831406015924	-0.0954711090009244	0.394587370531239	0.490058479532164
-5	-0.366586618146459	-0.193068633011911	0.479024390243903	0.672093023255814
-7	-0.273100612845035	-0.175774685336271	0.38382541720154	0.559600102537811
-25	-0.657484652397545	-0.295565676381418	0.263858093126386	0.559423769507804
0	0.177301947438079	0.0748134452048235	0.556541019955654	0.481727574750831
-25	-0.193107964514295	-0.036318586140611	0.389213328753006	0.425531914893617
-2	-0.0513128786633441	-0.068035227967136	0.410783055198973	0.478818283166109
3	-0.0614937152089724	-0.0752944813119477	0.446125347329423	0.52141982864137
-7	-0.53152047669545	-0.298861788617886	0.397073170731708	0.695934959349594
-8	-0.0287174412645406	-0.0213152078089664	0.451707317073171	0.473022524882137
-16	-0.403711666295994	-0.178627453541686	0.572528883183568	0.751156336725254
4	0.183507549361207	0.0735256832817803	0.566604127579737	0.493078444297957
-35	-0.455608389697342	-0.128993354024146	0.472059277554801	0.601052631578947
-9	-0.0612782881075561	-0.0123373707322175	0.497993207780179	0.510330578512396
4	-0.189143059132455	-0.160718870346598	0.302439024390244	0.463157894736842
11	-0.205458768873403	-0.187678483262565	0.410783055198973	0.598461538461538
-18	-0.701095072175211	-0.340628101129835	0.437740693196406	0.778368794326241
-26	-0.255827279017472	-0.0381708164417848	0.556541019955654	0.594711836397439
-5	-0.28711306367722	-0.174402129986212	0.410783055198973	0.585185185185185
-29	-0.606460925833748	-0.24311827545277	0.342439024390244	0.585557299843014
4	0.0959279203181652	0.00846881733862209	0.397073170731708	0.388604353393085
-16	-0.232744317239092	-0.10364770369889	0.549861068230935	0.653508771929825
-23	-0.546981914717107	-0.233346441386064	0.446125347329423	0.679471788715487
-29	-0.106842541894807	0.00686874758270456	0.42350332594235	0.416634578359646
13	0.408246225319397	0.171482176360225	0.461538461538462	0.290056285178236
-6	0.00244643783823839	-0.0204269005514466	0.356472795497186	0.376899696048632
-4	0.0575622004402953	0.00776944038015004	0.424390243902439	0.416620803522289
-5	-0.14579945799458	-0.0825942350332595	0.42350332594235	0.50609756097561
-14	-0.999294839887175	-0.549708730348975	0.354647330257086	0.904356060606061
4	0.0417173108608171	-0.0217490428872538	0.590243902439025	0.611992945326279
-12	-0.0114429658734279	0.000314124697301521	0.366521884396926	0.366207759699625
-15	-0.162627411922328	-0.0592883326211096	0.38233355306526	0.44162188568637
-6	-0.000160219814218321	0.0138696014065194	0.56639566395664	0.55252606255012
-7	-0.480938302889522	-0.245841348209291	0.368323556653288	0.614164904862579
-4	0.175013443731539	0.0999263338526824	0.451707317073171	0.351780983220489
-2	-0.317621909138346	-0.195392953929539	0.251219512195122	0.446612466124661
-13	-0.460288630241924	-0.241462471104401	0.369756097560976	0.611218568665377
-23	-0.362790774846524	-0.143217562436341	0.464698331193838	0.60791589363018
-25	-0.668538293682131	-0.255082667366342	0.40650406504065	0.661586732406993
-12	-0.14689800922061	-0.0689289501590666	0.341463414634146	0.410392364793213
-11	-0.323659714858018	-0.163973368128743	0.370731707317073	0.534705075445816
-9	-0.0999128651257439	-0.0555062723867244	0.464698331193838	0.520204603580563
7	0.266513076637864	0.0942848872903608	0.491655969191271	0.39737108190091
-16	0.00643519518319324	0.038424947269062	0.451707317073171	0.413282369804109
12	0.322259136212625	0.10494931425164	0.461538461538462	0.356589147286822
-2	-0.502621220715378	-0.314022814646751	0.370731707317073	0.684754521963824
-9	0.0325489403962365	0.0283351820818763	0.437705998681609	0.409370816599732
-5	-0.060232214372884	-0.0270977500472681	0.370731707317073	0.397829457364341
-1	0.272466828564391	0.122415404910003	0.566604127579738	0.444188722669735
-10	-0.246453459432554	-0.1550644609846	0.366521884396926	0.521586345381526
3	-0.0871755395294811	-0.0784559297973929	0.397073170731708	0.4755291005291
11	0.0889041946897874	-0.0406540936157661	0.515808491418247	0.556462585034013
-12	-0.454937487189998	-0.278411133154394	0.302952503209242	0.581363636363636
8	-0.0386670240328778	-0.0509470896090243	0.437740693196406	0.48868778280543
-1	-0.233333333333334	-0.120817588457575	0.370731707317073	0.491549295774648
6	0.0690564178369061	-0.02051778520346	0.39689578713969	0.41741357234315
-6	-0.324643649033893	-0.183140030701006	0.378048780487805	0.561188811188811
-9	-0.00211247454089447	0.00848918086704087	0.464698331193838	0.456209150326797
-30	-0.353008182635155	-0.129874841538054	0.39458737053124	0.524462212069294
-1	0.0908090302588322	0.03947714021452	0.410019775873435	0.370542635658915
-2	-0.133464626571731	-0.108077288565093	0.424390243902439	0.532467532467533
-29	-1.24081504682828	-0.50983748597626	0.38233355306526	0.89217103904152
-14	0.0149966564600715	0.0541009990283766	0.479024390243903	0.424923391215526
-15	-0.171776036512843	-0.0627613022756915	0.40650406504065	0.469265367316342
-2	0.0908826945412309	0.00315986965537657	0.464698331193838	0.461538461538462
4	0.375219242875659	0.172208099545784	0.451707317073171	0.279499217527387
-8	-0.166904004443771	-0.090162601626016	0.40650406504065	0.496666666666666
-6	-0.162062385929982	-0.125855798031664	0.356867779204108	0.482723577235772
-17	-0.8149541601799	-0.394209738632223	0.343680709534368	0.737890448166591
-10	-0.534016937874	-0.256649810818841	0.299274884640738	0.555924695459579
-42	-0.605276256844201	-0.157896331992211	0.38233355306526	0.540229885057471
-4	-0.0208022233283557	-0.051555659787367	0.356472795497186	0.408028455284553
-18	0.257945910071345	0.151276582794883	0.601728928681692	0.450452345886808
-6	-0.217233079163088	-0.131366000146487	0.493078444297957	0.624444444444444
4	-0.14579871348164	-0.076555783872857	0.439927732610659	0.516483516483516
0	0.0622692027105284	-0.0124085882304334	0.42350332594235	0.435911914172784
-9	0.136427741828439	0.0576690042798949	0.450110864745011	0.392441860465116
-39	-0.966042807366849	-0.337620706819313	0.397073170731708	0.73469387755102
-1	0.0310003534817961	-0.018265203631057	0.450110864745011	0.468376068376068
-7	-0.0983066538739938	-0.0562029031831228	0.599486521181001	0.655689424364124
-12	-0.179815828770532	-0.104432237311898	0.39458737053124	0.499019607843137
21	0.115034302454071	-0.0576263274594467	0.491655969191271	0.549282296650717
-9	-0.387745892788649	-0.223138656507338	0.349593495934959	0.572732152442297
1	0.0948357992896698	0.00900941876551625	0.435272045028143	0.426262626262626
-26	0.00948008471681361	0.0579923676787789	0.491869918699187	0.433877551020408
-11	0.364650738344119	0.18743983247957	0.592870544090057	0.405430711610487
-9	0.0068895285226136	0.0124536647665323	0.48780487804878	0.475351213282248
-3	0.0804915116020467	0.0129639535347893	0.369756097560976	0.356792144026187
-13	-0.242339437072183	-0.12262175986092	0.422652856665553	0.545274616526472
-13	-0.0888535407093205	-0.0103725602912597	0.556541019955654	0.566913580246914
-24	-0.407250705160113	-0.150754099800224	0.42350332594235	0.574257425742575
-4	-0.402221885572893	-0.236604723190089	0.379268292682927	0.615873015873016
-13	-0.186177935107618	-0.0898710686969722	0.437740693196406	0.527611761893378
-7	-0.0578463826134229	-0.0414879354433967	0.354647330257086	0.396135265700483
-18	-0.602467751501222	-0.27128379396354	0.506341463414634	0.777625257378174
-5	0.209518759783871	0.108373983739837	0.451707317073171	0.343333333333333
5	0.120209059233449	0.049155722326454	0.370731707317073	0.321575984990619
-11	-0.521486643437864	-0.287242026266417	0.251219512195122	0.538461538461539
-16	-0.609119065216627	-0.260162374106146	0.394587370531239	0.654749744637386
0	0.158642952228387	0.052145634499824	0.397073170731708	0.344927536231884
1	0.154729403776131	0.0383204033413333	0.437740693196406	0.399420289855072
-17	-0.358511948755851	-0.12632683870359	0.370288248337029	0.496615087040619
-11	-0.316620135394951	-0.13241224656703	0.342439024390244	0.474851270957274
-14	-0.533151542695551	-0.24729586426299	0.404878048780488	0.652173913043478
-26	-0.227235089157613	-0.071494001318391	0.437705998681609	0.5092
-2	-0.144458522507303	-0.0995170987549035	0.409005628517824	0.508522727272727
-7	-0.190304754491314	-0.128410195353631	0.354647330257086	0.483057525610717
-1	-0.00304162668955898	-0.0383511624589931	0.451707317073171	0.490058479532164
-22	-0.308141510366471	-0.0935707980462123	0.506341463414634	0.599912261460847
-1	-0.269047619047619	-0.135038892551088	0.326961107448912	0.462
-28	-0.783038825286212	-0.308367585826668	0.410783055198973	0.719150641025641
-1	-0.248674443266171	-0.176720298671518	0.370288248337029	0.547008547008547
4	0.147560133986433	0.0409965366062927	0.354647330257086	0.313650793650794
5	0.0747580332946186	-0.00107577428628253	0.329910141206675	0.330985915492958
-19	-0.441243570598971	-0.211029774857469	0.299274884640738	0.510304659498208
-4	0.0193861665060427	-0.0166471133065756	0.451707317073171	0.468354430379747
-14	-0.382187955618158	-0.17862974166846	0.523497917906008	0.702127659574468
-24	-0.238427078148332	-0.0602134146341459	0.491869918699187	0.552083333333333
-7	-0.137829285125149	-0.0790336711586294	0.366521884396926	0.445555555555556
-13	-0.642413880445795	-0.329436520925882	0.461538461538462	0.790974982464344
3	0.325211668265752	0.120678201653812	0.566604127579738	0.445925925925926
-9	-0.210482830347004	-0.118375194625051	0.354647330257086	0.473022524882138
-5	-0.0647134917232612	-0.0599633664320832	0.450110864745011	0.510074231177094
-18	-0.772308300590605	-0.374307341343284	0.354647330257086	0.72895467160037
-15	-0.698046291687407	-0.355188275566966	0.276829268292683	0.632017543859649
-5	-0.0091617861467369	-0.037006698116664	0.450718342799866	0.48772504091653
-3	-0.100012248305382	-0.0927496956128981	0.465221318879855	0.557971014492753
-7	-0.135856520055884	-0.0768563685636856	0.369756097560976	0.446612466124661
-2	-0.42565010029643	-0.281418735680051	0.27599486521181	0.557413600891862
-1	-0.130662020905923	-0.0655852491539269	0.437740693196406	0.503325942350332
-8	-0.203029843963036	-0.108139876579489	0.424390243902439	0.532530120481928
-26	-0.379324998292001	-0.14935102871278	0.389340560072267	0.538691588785047
3	-0.0424643894581503	-0.0652857483454868	0.437740693196406	0.503026441541892
-25	-0.63954537912726	-0.2794223804241	0.356867779204108	0.636290159628207
-6	-0.331195610092747	-0.183809163673032	0.353658536585366	0.537467700258398
-28	-0.879956860793098	-0.36945171296281	0.366521884396926	0.735973597359736
-34	-0.713865618899351	-0.233192857998255	0.356472795497186	0.589665653495441
-9	-0.011242404349509	0.00322622273841799	0.424390243902439	0.421164021164021
0	0.312323048696326	0.160825052694972	0.40650406504065	0.245679012345679
-26	-0.3628256180521	-0.108345005232231	0.506341463414634	0.614686468646866
2	-0.451321578150847	-0.285481656120743	0.288166214995483	0.573647871116226
-20	-0.101543056246889	-0.0262733488774199	0.451707317073171	0.477980665950591
-24	-0.504977600796417	-0.200883611467694	0.410783055198973	0.611666666666667
-12	-0.315590481132775	-0.173202856648627	0.349593495934959	0.522796352583587
-6	-0.330788264404384	-0.18884941094756	0.343680709534368	0.532530120481928
-13	-0.0855156670867621	-0.036219054305687	0.378048780487805	0.414267834793492
-19	-0.475796416127426	-0.227250362085137	0.326961107448912	0.55421146953405
-7	0.233559134603504	0.104276217692378	0.566604127579737	0.462327909887359
-26	-0.366330678612909	-0.127249780268073	0.38233355306526	0.509583333333333
-15	-0.590430436771903	-0.243093876598371	0.464698331193838	0.707792207792209
-13	-0.26464928213112	-0.139650246028223	0.370731707317073	0.510381953345296
-4	-0.352623339897996	-0.212168215932579	0.394257486878666	0.606425702811246
4	-0.138496462886706	-0.14035330843739	0.410783055198973	0.551136363636363
-13	0.0955798904927817	0.0388209715068633	0.465221318879855	0.426400347372992
-20	-0.447877882860461	-0.211968354214843	0.343680709534368	0.555649063749211
-36	-1.13553011448482	-0.431926774857272	0.356472795497186	0.788399570354458
4	0.275236612548496	0.0987263176103204	0.410783055198973	0.312056737588652
-7	-0.059369362690587	-0.0552366774473675	0.43992773261066	0.495164410058027
-11	-0.295613537530724	-0.114732119837055	0.39689578713969	0.511627906976744
-15	-0.236428756764771	-0.105064378345594	0.409005628517824	0.514070006863418
-20	-0.0839588430078828	-0.00627973670554166	0.369756097560976	0.376035834266517
3	-0.0651955090979484	-0.0863875302643767	0.420191417104045	0.506578947368421
-28	-0.298656047784968	-0.0993860959017753	0.349593495934959	0.448979591836735
-1	-0.114451131524303	-0.0873413403515289	0.382739212007505	0.470080552359033
8	0.00523883658289503	-0.105760249091852	0.404878048780488	0.51063829787234
-8	-0.0335706711104379	-0.0134959349593496	0.40650406504065	0.42
-15	-0.597082321472568	-0.252054107638191	0.410783055198973	0.662837162837164
-6	-0.372418320456496	-0.208147031582006	0.368323556653288	0.576470588235294
-18	-0.124771859963499	-0.0452080470419006	0.583148558758315	0.628356605800215
-2	0.0321851755751603	-0.0286916646313096	0.42350332594235	0.45219499057366
-4	0.424158882546272	0.200957857418677	0.583148558758315	0.382190701339638
0	-0.209731460950973	-0.150920033403404	0.39689578713969	0.547815820543093
2	0.190894741394222	0.0441534179365004	0.450110864745011	0.405957446808511
-1	0.254952953256241	0.122219369562117	0.397073170731708	0.274853801169591
-5	-0.0334545270918547	-0.0281145501513494	0.329910141206675	0.358024691358025
-8	-0.155938277750125	-0.11908486942925	0.356472795497186	0.475557664926436
-7	-0.303598745742819	-0.149598675980389	0.39458737053124	0.544186046511628
-23	-0.424368381498941	-0.188925973470261	0.437740693196406	0.626666666666666
-5	-0.244541177405959	-0.164693277253018	0.366521884396926	0.531215161649944
-33	-0.779262143881941	-0.297181571815717	0.451707317073171	0.748888888888888
2	-0.0805445263754967	-0.0693378138821016	0.437740693196406	0.507078507078507
-13	-0.323751451800233	-0.17432770481551	0.409005628517824	0.583333333333334
-3	-0.391110774461782	-0.230352303523035	0.288166214995483	0.518518518518518
-12	-0.296762472051838	-0.148000117308855	0.38233355306526	0.530333670374115
-4	-0.0119804314926263	-0.0155227483229952	0.506341463414634	0.52186421173763
-30	-0.47679193628671	-0.129420277334814	0.549861068230935	0.679281345565749
-24	-0.375966837175971	-0.124169815473841	0.437705998681609	0.56187581415545
-13	0.0382517800333282	0.0375476218530301	0.515808491418247	0.478260869565217
-10	-0.286481665837067	-0.17175374907639	0.394257486878666	0.566011235955056
-8	-0.598693800602603	-0.327141411173148	0.451707317073171	0.778848728246319
-24	-0.840550854488137	-0.378585837415839	0.437740693196406	0.816326530612245
-29	-0.558584409373506	-0.235328898743533	0.370731707317073	0.606060606060606
-15	-0.11632935478291	-0.0434372378371837	0.39689578713969	0.440333024976873
-15	-0.612814144858773	-0.311828403390417	0.315121951219512	0.626950354609929
-13	-0.0234651073714389	-0.00310611513802195	0.532926829268292	0.536032944406314
-16	-1.33374741200828	-0.617579391516766	0.316455696202532	0.934035087719298
-8	-0.21778131617711	-0.130646871686108	0.378048780487805	0.508695652173913
1	-0.254936120789779	-0.154193117273638	0.394587370531239	0.548780487804878
-9	0.196814921090387	0.0797823957097923	0.42350332594235	0.343720930232558
3	-0.432214127336078	-0.29706634828586	0.330206378986867	0.627272727272727
2	-0.110901577152286	-0.0990276314723281	0.378048780487805	0.477076411960133
3	0.149259141942068	0.0352425196271361	0.491655969191271	0.456413449564135
-6	0.0340819841395197	-6.34845935363337e-05	0.472059277554801	0.472122762148337
-20	-0.281327744954469	-0.0879642758323046	0.380699893955461	0.468664169787766
-15	-0.226607079735394	-0.0805737143777602	0.549861068230936	0.630434782608696
-12	0.117897961588311	0.0915131030779149	0.583148558758315	0.4916354556804
-1	0.0989249925721853	0.0515832263585796	0.424390243902439	0.37280701754386
-15	-0.05715281234445	-0.030099045609892	0.409005628517824	0.439104674127716
-23	-0.930209888833582	-0.41274667405765	0.42350332594235	0.83625
-23	-0.680209888833582	-0.29024667405765	0.42350332594235	0.71375
11	0.346232563050487	0.148047241888481	0.38382541720154	0.235778175313059
-19	-0.11747137879542	-0.0337778930980797	0.397073170731708	0.430851063829787
-15	-0.285962945115772	-0.131069647981888	0.465392221489783	0.596461869471671
6	0.146377681686814	0.0251016477363873	0.472059277554801	0.446957629818414
5	-0.283201198471611	-0.235701643895608	0.302952503209243	0.538654147104851
-3	0.189191873285192	0.0852327897029799	0.464698331193838	0.379465541490858
-5	-0.678969829565404	-0.328113678320973	0.523927138005557	0.85204081632653
-20	-0.461827332559041	-0.173993303158539	0.331501202335967	0.505494505494506
-13	-0.514527957524472	-0.290141254832066	0.472059277554801	0.762200532386867
-18	-0.180580781871649	-0.060035307876239	0.42350332594235	0.483538633818589
-8	-0.0685653688835025	-0.0340950035427897	0.394257486878666	0.428352490421456
-13	-0.0950742472932852	-0.0311433529355054	0.424390243902439	0.455533596837945
-20	0.0383897461423593	0.0533205196182396	0.378048780487805	0.324728260869565
-10	-0.14170580215119	-0.0640471676213714	0.39458737053124	0.458634538152611
-2	0.215824273347796	0.0773356189502705	0.523927138005557	0.446591519055287
-20	-0.2388418782147	-0.0961574668378262	0.342439024390244	0.43859649122807
-22	-0.723307916308976	-0.282193725030034	0.397073170731708	0.679266895761741
-12	-0.30942650801888	-0.155395723225571	0.629150749338819	0.78454647256439
-13	-0.113033018085283	-0.0607559333169091	0.42350332594235	0.48425925925926
-19	0.112473037995686	0.0948673087583147	0.583148558758315	0.48828125
-7	-0.0580732370295614	-0.0122745320476461	0.451707317073171	0.463981849120817
0	-0.345393404100154	-0.202965443383562	0.42350332594235	0.626468769325912
-17	-0.275026564855314	-0.120095665711513	0.342439024390244	0.462534690101758
-3	0.448693567813173	0.214230103225634	0.549861068230936	0.335630965005302
-18	-0.321283391405343	-0.149503756628715	0.366521884396926	0.516025641025641
-34	-0.675482680877229	-0.268732407515463	0.27599486521181	0.544727272727273
-10	-0.0633399701343951	-0.049662407578788	0.437740693196406	0.487403100775194
-8	-0.0658688077564006	-0.0321005766448642	0.437740693196406	0.46984126984127
1	-0.0336782458733678	-0.0561617458279845	0.42350332594235	0.479665071770335
17	0.49825548862776	0.212095927179367	0.583148558758315	0.371052631578948
2	-0.129716048746111	-0.112118805754654	0.476718403547672	0.588837209302326
10	0.113145882289387	-0.00377148202326594	0.38382541720154	0.387596899224806
-8	0.200360787802407	0.0982261640798224	0.507317073170732	0.409090909090909
8	0.0137377747984672	-0.0628465223892976	0.42350332594235	0.486349848331648
-24	-0.321247718599635	-0.116865171263237	0.465392221489783	0.58225739275302
-22	-0.505102040816327	-0.217372686635752	0.316455696202532	0.533828382838284
10	0.295760743321719	0.122716575251877	0.491655969191271	0.368939393939394
-13	-0.374220110643025	-0.185082804675447	0.354647330257086	0.539730134932534
7	0.166666666666667	0.0597756320812637	0.410783055198973	0.351007423117709
-21	-0.438609590177535	-0.203058498492205	0.38233355306526	0.585392051557465
-11	-0.794085003670938	-0.380606427918374	0.394587370531239	0.775193798449613
-21	-0.45590675294508	-0.197544884823848	0.397073170731708	0.594618055555556
-4	0.0813910517540697	0.0459552352159652	0.42350332594235	0.377548090726385
-16	-0.533922702448909	-0.255579044281581	0.330206378986867	0.585785423268447
-2	-0.285498328750963	-0.202586874949017	0.382739212007505	0.585326086956522
-4	-0.213754267412804	-0.127641527968789	0.342439024390244	0.470080552359033
-15	0.0455298216847719	0.0210731707317075	0.397073170731708	0.376
-31	-0.782064045130247	-0.297484357713327	0.465392221489783	0.76287657920311
-7	-0.0319396051103366	-0.0467519450145576	0.310390912128299	0.357142857142857
-12	-0.0849717935954872	-0.0507476103872378	0.42350332594235	0.474250936329588
-9	-0.29111992487706	-0.177286007777012	0.394587370531239	0.571873378308251
-1	0.345735855317737	0.154558194266153	0.451707317073171	0.297149122807018
-22	-0.483939073813231	-0.196454062839422	0.394587370531239	0.591041433370661
-13	-0.356555959176613	-0.180751993206586	0.42350332594235	0.604255319148936
-23	-0.506761241081799	-0.216386155089621	0.329910141206675	0.546296296296296
-8	0.079149368621346	0.0306880274400652	0.39689578713969	0.366207759699625
-9	0.167205906752945	0.09119584233817	0.370731707317073	0.279535864978903
-12	0.258110003212494	0.140461956704164	0.549861068230935	0.409399111526771
-9	0.00601107074900509	-0.0058751183526411	0.39689578713969	0.402770905492331
-16	-0.427129566657105	-0.201358198070818	0.271588661832564	0.472946859903382
-1	0.227117868581283	0.107014820865912	0.479024390243903	0.372009569377991
-16	-0.107985242877639	-0.0615711801888173	0.368323556653288	0.429894736842105
6	0.225896432929898	0.077250846989928	0.430487804878049	0.353236957888121
-4	-0.0674128039981693	-0.0456903084565941	0.424390243902439	0.470080552359033
-8	-1.0083905254637	-0.516837955011523	0.382739212007505	0.899577167019027
-9	-0.0328307633380287	-0.0275148171414527	0.410783055198973	0.438297872340426
-9	0.0325555203603975	0.0435564586436741	0.626444159178434	0.58288770053476
4	-0.0654458039597003	-0.0704023508901556	0.409005628517824	0.479407979407979
-18	-0.797606960475578	-0.385645842119333	0.331501202335967	0.7171470444553
-24	-0.676683416761483	-0.252242400141393	0.491869918699187	0.74411231884058
-23	-0.528399683692885	-0.188481619944293	0.560975609756098	0.749457229700391
17	0.467479674796748	0.206122792262405	0.451707317073171	0.245584524810766
-8	-0.0317639386252453	-0.0225272993035449	0.437705998681609	0.460233297985153
7	0.304772463309049	0.0802714834243687	0.598453301606187	0.518181818181818
-6	0.184586029533765	0.0741057355809047	0.42350332594235	0.349397590361446
2	-0.0886475974394292	-0.0722467519643384	0.435272045028143	0.507518796992481
-6	0.0234775302688935	-0.00384950361206787	0.420191417104045	0.424040920716112
-7	0.0892442342790781	0.0211991869918703	0.479024390243903	0.457825203252032
-21	-0.122909013511595	-0.0551692847245212	0.382739212007505	0.437908496732026
-20	-0.602040094935112	-0.241471972614463	0.369756097560976	0.611228070175439
-18	-0.371304011176758	-0.134110392124329	0.379268292682927	0.513378684807256
2	0.107267472553915	0.0284946856878668	0.464698331193838	0.436203645505971
-10	-0.1498263211785	-0.0754442566347209	0.549861068230936	0.625305324865656
-3	0.16785127387748	0.0697620028185675	0.354647330257086	0.284885327438519
0	0.256915726286904	0.100351621365183	0.491655969191271	0.391304347826087
3	-0.56852145144828	-0.381460216470616	0.394257486878666	0.775717703349282
9	0.190511385633337	0.0539480295577854	0.354647330257086	0.300699300699301
-18	-0.200434922282353	-0.0692320216699178	0.437705998681609	0.506938020351526
-12	-0.649509027557808	-0.295539826027631	0.409005628517824	0.704545454545455
-15	-0.229457496768703	-0.0893554848591963	0.451707317073171	0.541062801932367
-19	-0.228243736518998	-0.0877430375367584	0.451707317073171	0.539450354609929
-5	-0.0923366435990244	-0.0696186551455889	0.34238962642791	0.412008281573499
-14	-0.409335075493612	-0.208122773362565	0.342439024390244	0.550561797752809
-18	-0.450286212045794	-0.219687443275725	0.326961107448912	0.546648550724638
14	0.35701554543018	0.131228369306273	0.541102077687444	0.409873708381171
-1	0.258240946045824	0.124552276991301	0.42350332594235	0.298951048951049
-17	-0.0789997950399668	-0.0421322604978625	0.404878048780488	0.44701030927835
-1	-0.0577883643247694	-0.0782062163989943	0.410783055198973	0.488989271597967
-25	-0.463358221337316	-0.176145846365154	0.503325942350333	0.679471788715487
-10	-0.356963361841411	-0.17132669571694	0.354647330257086	0.525974025974026
-27	-0.237016757922681	-0.0594857388327868	0.450718342799866	0.510204081632653
-10	-0.270181285663788	-0.133054701416047	0.356867779204108	0.489922480620155
-14	0.127208589715076	0.0831307641183914	0.437740693196406	0.354609929078014
-8	-0.523098049615349	-0.263681962861185	0.366521884396926	0.630203847258111
-10	0.022212543554006	-0.00593252727399118	0.465221318879855	0.471153846153847
1	0.0547273982056594	-0.0178266178266177	0.461538461538462	0.479365079365079
-22	-0.459184259069483	-0.216582746063766	0.38382541720154	0.600408163265307
-4	-0.715447154471545	-0.361642482247607	0.369756097560976	0.731398579808583
-11	-0.831528319908546	-0.436951701532826	0.343680709534368	0.780632411067194
-17	-0.345084078169975	-0.127568199281314	0.410783055198973	0.538351254480287
-21	-0.354154310920009	-0.142513573385562	0.349593495934959	0.492107069320522
0	-0.385332950279064	-0.245215989491596	0.464698331193838	0.709914320685434
-14	0.0347455772694377	0.0554763609430026	0.549861068230936	0.494384707287933
-4	-0.0963355720513727	-0.0692042374969204	0.414634146341463	0.483838383838384
-2	-0.121453459432553	-0.128977294482521	0.330206378986867	0.459183673469387
-25	-0.675404015264643	-0.306274963669916	0.338456398262613	0.644731361932528
-20	-0.553352338718193	-0.192941124985413	0.437740693196406	0.630681818181818
13	0.18579175598461	0.0332836667485041	0.353658536585366	0.320374869836862
-19	0.0892792238846762	0.0642138038401662	0.506341463414634	0.442127659574468
-2	0.0228349240014132	-0.0099057883559277	0.343680709534368	0.353586497890296
-11	-0.403955935663253	-0.195629430686112	0.360357265544487	0.555986696230599
4	-0.0963678597824936	-0.110492764616641	0.38382541720154	0.494318181818181
-7	-0.101168173172415	-0.0583273301087444	0.321138211382114	0.379465541490858
-23	-0.415940766550522	-0.165426829268292	0.397073170731708	0.5625
-16	-0.154398539903766	-0.0739828665741004	0.599486521181001	0.673469387755101
-8	-0.0264617116899321	-0.019761543091341	0.465392221489783	0.485153764581124
-5	0.0764922787327527	0.0214156945917291	0.479024390243903	0.457608695652174
-1	0.127515573857037	0.0383345651638332	0.558536585365853	0.52020202020202
-3	-0.334230503795721	-0.204953517889609	0.316455696202532	0.521409214092141
-6	-0.08254978201956	-0.0538360389080346	0.503325942350333	0.557161981258367
6	-0.0852461901242386	-0.11527245583917	0.354647330257086	0.469919786096257
-16	-0.41267112709121	-0.185278115119383	0.414634146341463	0.599912261460847
-9	-0.0118955040482083	0.0037033213054371	0.437705998681609	0.434002677376171
-10	-0.438117585880496	-0.238541525922225	0.465392221489783	0.703933747412008
-12	-0.171629916378455	-0.0806408396114678	0.354647330257086	0.435288169868554
-14	-0.444247351564425	-0.192551351087937	0.290465631929047	0.483016983016983
-28	-0.676435208229633	-0.266412601626016	0.40650406504065	0.672916666666666
-23	-0.383096102997504	-0.131010876587272	0.451707317073171	0.582718193660443
-3	0.167641446822632	0.05371554465045	0.410783055198973	0.357067510548523
-3	-0.183552997020653	-0.12615004631059	0.420191417104045	0.546341463414634
1	-0.958669746217885	-0.451559287143369	0.410783055198973	0.862342342342342
-6	0.252600884671462	0.124966689574889	0.465392221489783	0.340425531914893
-23	-0.173228120516499	-0.0590891352549886	0.450110864745011	0.5092
0	0.394393411466582	0.188939109670817	0.540337711069418	0.351398601398601
-24	-0.829421933706585	-0.314913532914593	0.430487804878049	0.745401337792642
-8	-0.301411325801569	-0.156042128603104	0.378048780487805	0.534090909090909
-28	-0.468982910237265	-0.15414800066368	0.532926829268292	0.687074829931972
