4
[ 2.742, 2.742, 14.894, 1.265, 1.265, 1.265, 1.265, 1.265, 1.265, 1.265, 1.265, 1.265, 2.742, 1.265, 14.894, 1.265, 2.068, 1.265, 1.265, 1.265, 1.265, 1.265, 1.265, 1.265, 1.265, 1.265, 1.265, 1.265, 1.265, 1.265, 1.265, 1.265, 1.265, 14.894, 2.742, 1.265, 1.265, 14.894, 1.265, 1.265, 1.265, 1.265, 1.265, 1.265, 2.068, 2.742, 1.265, 1.265, 1.265, 1.265 ]
5
[ 0.781, 0.781, 0.781, 0.954, 0.954, 0.781, 0.781, 0.781, 0.406, 0.181, 0.181, 0.954, 0.181, 0.781, 0.781, 0.406, 0.181, 0.781, 0.781, 0.406, 0.406, 0.781, 0.954, 0.954, 0.181, 0.954, 0.781, 0.954, 0.781, 0.954, 0.406, 0.954, 0.781, 0.781, 0.954, 0.781, 0.954, 0.954, 0.406, 0.954, 0.781, 0.954, 0.781, 0.781, 0.181, 0.406, 0.781, 0.181, 0.954, 0.347 ]