8
[ 1.574, 1.574, 1.574, 1.574, 2.225, 1.574, 1.574, 1.574, 1.574, 1.574, 2.850, 2.225, 1.574, 38.067, 2.225, 1.574, 1.574, 2.225, 1.574, 2.850, 38.067, 2.850, 1.574, 1.574, 2.225, 1.540, 0.497, 1.574, 1.574, 1.574, 2.857, 1.574, 1.540, 1.540, 1.574, 1.574, 1.574, 1.574, 1.574, 2.225, 1.574, 1.574, 1.574, 38.067, 38.067, 2.850, 2.850, 1.574, 2.850, 1.540, 1.574, 38.067, 38.067, 1.574, 38.067, 1.574, 1.574, 1.574, 38.067, 1.574, 2.225, 1.574, 2.850, 2.225, 1.574, 2.225, 1.574, 1.574, 2.225, 2.225, 2.225, 1.574, 1.574, 1.574, 38.067, 1.574, 1.574, 0.497, 1.574, 2.225, 1.574, 1.540, 2.850, 1.574, 1.540, 1.540, 1.574, 1.540, 2.225, 1.574, 2.225, 1.540, 1.574, 2.225, 2.850, 2.225, 1.574, 1.574, 1.574, 1.574, 1.574, 1.574, 2.225, 1.574, 38.067, 1.574, 2.850, 1.574, 1.574, 1.574, 1.574, 1.574, 1.574, 1.574, 2.225, 1.540, 1.574, 2.850, 2.850, 1.574, 2.857, 1.574, 1.574, 1.574, 1.574, 1.574, 2.225, 1.574, 1.574, 1.574, 2.850, 1.574, 1.574, 2.225, 2.850, 1.540, 1.574, 1.574, 2.850, 1.574, 2.857, 38.067, 1.574, 2.225, 2.850, 1.574, 1.574, 1.574, 1.574, 1.574, 1.574, 1.574, 1.574, 3.804, 2.225, 2.225, 2.225, 1.540, 2.850, 1.574, 1.574, 2.850, 2.850, 1.574, 1.574, 1.574, 1.574, 1.574, 2.225, 2.850, 2.225, 1.574, 2.850, 1.574, 2.225, 2.850, 1.574, 1.574, 2.850, 1.574, 2.850, 1.574, 2.225, 2.850, 1.574, 2.850, 1.574, 1.574, 38.067, 38.067, 1.574, 1.574, 1.574, 1.574, 1.574, 38.067, 1.574, 2.850, 1.574, 1.574 ]
4
[ 0.826, 0.792, 0.792, 0.792, 0.792, 0.359, 0.826, 0.792, 0.792, 0.826, 0.826, 0.792, 0.792, 0.826, 0.826, 0.792, 0.792, 0.242, 0.792, 0.242, 0.826, 0.792, 0.359, 0.792, 0.826, 0.826, 0.792, 0.826, 0.792, 0.792, 0.792, 0.826, 0.826, 0.792, 0.242, 0.826, 0.826, 0.792, 0.792, 0.826, 0.826, 0.792, 0.242, 0.792, 0.826, 0.242, 0.826, 0.792, 0.792, 0.826, 0.242, 0.792, 0.792, 0.242, 0.792, 0.792, 0.826, 0.826, 0.826, 0.792, 0.792, 0.792, 0.792, 0.792, 0.792, 0.242, 0.826, 0.792, 0.826, 0.792, 0.242, 0.826, 0.792, 0.826, 0.242, 0.826, 0.826, 0.826, 0.242, 0.792, 0.242, 0.792, 0.792, 0.792, 0.826, 0.242, 0.792, 0.826, 0.792, 0.826, 0.792, 0.242, 0.792, 0.826, 0.826, 0.242, 0.826, 0.792, 0.242, 0.826, 0.826, 0.826, 0.792, 0.792, 0.826, 0.826, 0.826, 0.826, 0.792, 0.826, 0.826, 0.826, 0.792, 0.826, 0.792, 0.792, 0.792, 0.242, 0.826, 0.826, 0.792, 0.826, 0.826, 0.792, 0.242, 0.792, 0.792, 0.792, 0.826, 0.826, 0.826, 0.792, 0.826, 0.826, 0.242, 0.826, 0.826, 0.792, 0.792, 0.792, 0.792, 0.826, 0.792, 0.792, 0.792, 0.792, 0.826, 0.792, 0.242, 0.792, 0.792, 0.242, 0.826, 0.792, 0.826, 0.826, 0.242, 0.826, 0.826, 0.792, 0.826, 0.826, 0.826, 0.826, 0.792, 0.792, 0.792, 0.792, 0.826, 0.792, 0.826, 0.792, 0.826, 0.792, 0.792, 0.826, 0.792, 0.826, 0.242, 0.826, 0.792, 0.792, 0.792, 0.792, 0.792, 0.792, 0.826, 0.826, 0.826, 0.792, 0.792, 0.826, 0.826, 0.826, 0.242, 0.242, 0.792, 0.242, 0.792, 0.792 ]