3
[ 1.413, 1.413, 2.335, 1.413, 2.169, 2.169, 2.169, 2.335, 2.169, 1.413, 1.413, 2.169, 2.335, 2.169, 2.169, 2.169, 2.335, 2.169, 2.335, 2.169, 2.169, 2.335, 2.169, 2.335, 2.335, 2.335, 2.335, 2.335, 1.413, 2.169, 1.413, 2.169, 2.169, 2.335, 1.413, 2.169, 2.169, 2.335, 1.413, 2.169, 1.413, 2.169, 1.413, 2.169, 2.169, 2.169, 2.335, 2.335, 2.335, 2.335 ]
3
[ 0.167, 0.066, 0.167, 0.066, 0.167, 0.167, 0.167, 0.167, 0.066, 0.254, 0.167, 0.254, 0.066, 0.167, 0.254, 0.066, 0.167, 0.066, 0.254, 0.254, 0.254, 0.066, 0.066, 0.254, 0.066, 0.066, 0.167, 0.066, 0.066, 0.167, 0.167, 0.066, 0.167, 0.066, 0.167, 0.167, 0.066, 0.167, 0.254, 0.167, 0.167, 0.066, 0.167, 0.066, 0.254, 0.167, 0.254, 0.066, 0.254, 0.167 ]