rate_constant_pi_constant_tree_unrooted_run_1	rate_constant_pi_constant_tree_unrooted_run_2	rate_constant_pi_constant_tree_unrooted_run_3	rate_constant_pi_constant_tree_unrooted_run_4	rate_DPP_pi_DPP_tree_unrooted_run_1	rate_DPP_pi_DPP_tree_unrooted_run_2	rate_DPP_pi_DPP_tree_unrooted_run_3	rate_DPP_pi_DPP_tree_unrooted_run_4	rate_discrete_gamma_pi_discrete_beta_tree_unrooted_run_1	rate_discrete_gamma_pi_discrete_beta_tree_unrooted_run_2	rate_discrete_gamma_pi_discrete_beta_tree_unrooted_run_3	rate_discrete_gamma_pi_discrete_beta_tree_unrooted_run_4
1	1	1	1	1	1	1	1	1	1	1	1
0.64211929356881	0.637454181939354	0.63245584805065	0.622792402532489	0.58480506497834	0.585804731756081	0.595801399533489	0.603465511496168	0.629456847717427	0.610129956681106	0.628790403198934	0.622125958013995
0.750416527824059	0.739086971009663	0.750083305564812	0.736421192935688	0.738753748750417	0.73075641452849	0.747084305231589	0.723425524825058	0.833722092635788	0.820059980006664	0.83572142619127	0.830389870043319
0.135954681772742	0.133955348217261	0.134288570476508	0.136287904031989	0.160946351216261	0.159613462179274	0.175941352882373	0.162945684771743	0.107630789736754	0.110629790069977	0.118627124291903	0.122625791402866
0.146951016327891	0.150949683438854	0.149283572142619	0.143618793735422	0.171276241252916	0.163945351549484	0.165278240586471	0.157280906364545	0.156614461846051	0.167944018660447	0.155948017327557	0.154948350549817
0.574808397200933	0.558147284238587	0.578473842052649	0.562812395868044	0.553815394868377	0.549816727757414	0.528490503165611	0.545818060646451	0.697100966344552	0.687770743085638	0.681772742419194	0.673442185938021
0.155614795068311	0.149283572142619	0.161279573475508	0.166611129623459	0.170609796734422	0.180939686771076	0.165278240586471	0.169276907697434	0.157614128623792	0.16327890703099	0.157614128623792	0.171276241252916
0.209596801066311	0.21292902365878	0.203932022659114	0.201266244585138	0.209930023325558	0.209596801066311	0.209930023325558	0.207930689770077	0.165278240586471	0.1676107964012	0.167277574141953	0.169276907697434
0.0636454515161613	0.0713095634788404	0.0586471176274575	0.0743085638120626	0.0586471176274575	0.0706431189603466	0.0629790069976674	0.068977007664112	0.0489836721092969	0.0543152282572476	0.04865044985005	0.044651782739087
0.0103298900366544	0.0113295568143952	0.0116627790736421	0.0133288903698767	0.0109963345551483	0.0109963345551483	0.0126624458513829	0.0116627790736421	0.00633122292569144	0.00666444518493835	0.00599800066644452	0.00433188937020993
0.00733088970343219	0.0109963345551483	0.00399866711096301	0.00899700099966678	0.00866377874041986	0.00766411196267911	0.00833055648117294	0.00699766744418527	0.00166611129623459	0.00466511162945685	0.00233255581472842	0.00233255581472842
0.0193268910363212	0.0199933355548151	0.0156614461846051	0.0179940019993336	0.0156614461846051	0.0176607797400866	0.0199933355548151	0.0206597800733089	0.0166611129623459	0.0129956681106298	0.0176607797400866	0.0136621126291236
0.0616461179606798	0.0653115628123959	0.0703098967010996	0.0703098967010996	0.0713095634788404	0.0629790069976674	0.0656447850716428	0.0643118960346551	0.0469843385538154	0.0476507830723092	0.0479840053315561	0.0509830056647784
0.0189936687770743	0.0186604465178274	0.0183272242585805	0.015994668443852	0.0183272242585805	0.0223258913695435	0.020326557814062	0.0183272242585805	0.0136621126291236	0.0153282239253582	0.0143285571476175	0.011996001332889
0.0326557814061979	0.0393202265911363	0.0366544485171609	0.0386537820726425	0.0443185604798401	0.0359880039986671	0.0349883372209264	0.0359880039986671	0.0193268910363212	0.020326557814062	0.016327890703099	0.0209930023325558
0.0143285571476175	0.0146617794068644	0.0143285571476175	0.016327890703099	0.0186604465178274	0.0189936687770743	0.0126624458513829	0.0186604465178274	0.0129956681106298	0.015994668443852	0.00999666777740753	0.0116627790736421
0.040319893368877	0.0399866711096301	0.0356547817394202	0.040319893368877	0.0353215594801733	0.0409863378873709	0.0423192269243585	0.0386537820726425	0.0219926691102966	0.0253248917027657	0.0186604465178274	0.0233255581472842
0.00799733422192602	0.00833055648117294	0.00833055648117294	0.00899700099966678	0.00666444518493835	0.00799733422192602	0.00799733422192602	0.00733088970343219	0.00333222259246918	0.00499833388870377	0.00299900033322226	0.00299900033322226
0.0189936687770743	0.0193268910363212	0.0176607797400866	0.0176607797400866	0.0246584471842719	0.0213262245918027	0.0229923358880373	0.0233255581472842	0.0129956681106298	0.0116627790736421	0.012329223592136	0.0143285571476175
0.00766411196267911	0.0113295568143952	0.00899700099966678	0.0103298900366544	0.00833055648117294	0.00833055648117294	0.00999666777740753	0.0106631122959014	0.0036654448517161	0.0036654448517161	0.00166611129623459	0.00333222259246918
0.0216594468510496	0.0206597800733089	0.0229923358880373	0.0299900033322226	0.0236587804065312	0.0273242252582473	0.0249916694435188	0.0266577807397534	0.0126624458513829	0.0116627790736421	0.0169943352215928	0.0136621126291236
0.0276574475174942	0.0286571142952349	0.0343218927024325	0.0316561146284572	0.0306564478507164	0.0293235588137288	0.0293235588137288	0.036321226257914	0.0156614461846051	0.0183272242585805	0.0179940019993336	0.0196601132955681
0.00699766744418527	0.00599800066644452	0.00266577807397534	0.00733088970343219	0.00666444518493835	0.0056647784071976	0.00766411196267911	0.0103298900366544	0.00266577807397534	0.00433188937020993	0.00333222259246918	0.00399866711096301
0.0113295568143952	0.015994668443852	0.011996001332889	0.00966344551816061	0.011996001332889	0.0139953348883705	0.0133288903698767	0.0156614461846051	0.00699766744418527	0.00666444518493835	0.00766411196267911	0.00766411196267911
0.00733088970343219	0.00866377874041986	0.0106631122959014	0.0126624458513829	0.00866377874041986	0.0106631122959014	0.0103298900366544	0.00866377874041986	0.00233255581472842	0.0036654448517161	0.00533155614795068	0.0036654448517161
0.00633122292569144	0.00766411196267911	0.00733088970343219	0.0056647784071976	0.00666444518493835	0.00666444518493835	0.0056647784071976	0.00666444518493835	0.0036654448517161	0.00433188937020993	0.00399866711096301	0.00266577807397534
