9
[ 2.679, 4.620, 13.357, 2.199, 2.679, 3.300, 2.679, 13.357, 2.679, 2.679, 0.573, 0.573, 0.573, 13.357, 0.573, 0.573, 0.573, 2.679, 2.679, 4.620, 0.573, 2.199, 2.679, 4.620, 2.679, 0.573, 2.199, 2.199, 2.679, 0.573, 13.357, 0.573, 0.573, 2.679, 13.357, 4.620, 2.679, 0.573, 0.573, 2.509, 4.620, 2.199, 0.573, 2.199, 0.573, 2.679, 0.573, 2.679, 2.679, 0.573, 0.573, 0.573, 2.679, 0.573, 13.357, 0.573, 0.573, 13.357, 4.620, 13.357, 2.679, 0.573, 3.300, 0.573, 4.620, 0.573, 0.573, 2.509, 2.679, 2.509, 0.573, 13.357, 3.300, 0.573, 2.679, 13.357, 2.199, 2.199, 0.573, 0.573, 2.679, 0.573, 0.573, 2.679, 4.620, 13.357, 2.679, 2.679, 2.199, 2.679, 13.357, 0.573, 8.627, 0.573, 0.573, 2.199, 2.199, 0.573, 2.199, 13.357, 2.199, 0.573, 2.199, 2.679, 0.573, 8.627, 0.573, 2.509, 0.573, 2.679, 0.573, 2.199, 2.199, 2.679, 2.679, 13.357, 13.357, 0.573, 2.199, 2.199, 2.679, 0.573, 0.573, 2.679, 7.549, 13.357, 2.679, 13.357, 8.627, 2.509, 2.509, 2.679, 7.549, 0.573, 0.573, 2.679, 4.620, 2.679, 4.620, 0.573, 3.300, 4.620, 2.199, 0.573, 3.300, 13.357, 0.573, 2.199, 2.679, 0.573, 0.573, 13.357, 0.573, 0.573, 2.679, 0.573, 2.199, 13.357, 4.620, 0.573, 2.199, 2.679, 2.199, 4.620, 2.199, 0.573, 0.573, 2.509, 0.573, 2.199, 2.679, 13.357, 3.300, 2.509, 2.199, 0.573, 2.199, 0.573, 0.573, 0.573, 2.199, 2.679, 4.620, 2.199, 13.357, 2.679, 2.199, 0.573, 2.679, 0.573, 13.357, 4.620, 0.573, 0.573, 0.573, 0.573, 2.199, 2.199, 3.300, 2.199 ]
6
[ 0.693, 0.986, 0.986, 0.986, 0.986, 0.986, 0.986, 0.873, 0.873, 0.986, 0.986, 0.986, 0.986, 0.873, 0.986, 0.693, 0.693, 0.986, 0.177, 0.986, 0.693, 0.693, 0.986, 0.986, 0.986, 0.986, 0.258, 0.258, 0.986, 0.258, 0.986, 0.986, 0.986, 0.986, 0.258, 0.986, 0.986, 0.986, 0.873, 0.258, 0.258, 0.986, 0.986, 0.986, 0.986, 0.986, 0.986, 0.986, 0.986, 0.693, 0.986, 0.986, 0.986, 0.873, 0.986, 0.693, 0.986, 0.258, 0.986, 0.258, 0.986, 0.986, 0.986, 0.986, 0.986, 0.693, 0.986, 0.986, 0.693, 0.258, 0.170, 0.873, 0.986, 0.693, 0.873, 0.986, 0.873, 0.986, 0.693, 0.693, 0.986, 0.986, 0.258, 0.986, 0.986, 0.986, 0.986, 0.693, 0.986, 0.986, 0.986, 0.873, 0.986, 0.693, 0.986, 0.986, 0.986, 0.258, 0.986, 0.986, 0.258, 0.693, 0.258, 0.986, 0.693, 0.986, 0.986, 0.986, 0.986, 0.986, 0.986, 0.986, 0.986, 0.693, 0.986, 0.986, 0.986, 0.986, 0.258, 0.986, 0.986, 0.986, 0.693, 0.986, 0.986, 0.986, 0.873, 0.986, 0.873, 0.986, 0.258, 0.986, 0.873, 0.258, 0.986, 0.986, 0.986, 0.986, 0.986, 0.693, 0.170, 0.986, 0.986, 0.986, 0.693, 0.986, 0.258, 0.986, 0.986, 0.986, 0.986, 0.693, 0.986, 0.986, 0.986, 0.986, 0.986, 0.986, 0.693, 0.986, 0.986, 0.986, 0.986, 0.986, 0.986, 0.873, 0.986, 0.986, 0.986, 0.693, 0.986, 0.986, 0.986, 0.693, 0.177, 0.986, 0.986, 0.873, 0.986, 0.693, 0.986, 0.986, 0.986, 0.986, 0.986, 0.986, 0.986, 0.986, 0.986, 0.986, 0.258, 0.986, 0.986, 0.986, 0.986, 0.986, 0.986, 0.258, 0.258, 0.986 ]