7
[ 3.024, 0.377, 16.093, 0.377, 0.377, 16.093, 5.046, 3.024, 3.024, 3.024, 16.093, 5.046, 16.093, 0.377, 3.024, 5.046, 3.024, 3.024, 6.407, 16.093, 0.377, 0.377, 3.024, 0.377, 3.024, 0.377, 3.024, 3.024, 3.024, 3.024, 0.377, 3.024, 0.377, 3.024, 3.024, 5.286, 3.024, 3.024, 0.377, 3.024, 16.093, 0.377, 16.093, 12.213, 0.377, 5.286, 5.046, 16.093, 3.024, 3.024 ]
4
[ 0.107, 0.107, 0.295, 0.107, 0.107, 0.107, 0.107, 0.162, 0.107, 0.107, 0.107, 0.107, 0.107, 0.107, 0.295, 0.107, 0.107, 0.107, 0.107, 0.107, 0.107, 0.107, 0.107, 0.162, 0.162, 0.107, 0.107, 0.107, 0.107, 0.107, 0.107, 0.107, 0.107, 0.107, 0.107, 0.107, 0.107, 0.295, 0.804, 0.107, 0.295, 0.107, 0.107, 0.107, 0.107, 0.295, 0.107, 0.107, 0.107, 0.107 ]