3
[ 5.621, 4.604, 4.604, 4.604, 8.668, 8.668, 4.604, 4.604, 8.668, 5.621, 5.621, 4.604, 5.621, 8.668, 5.621, 4.604, 4.604, 8.668, 5.621, 8.668, 4.604, 8.668, 5.621, 4.604, 5.621, 8.668, 8.668, 4.604, 4.604, 4.604, 5.621, 4.604, 4.604, 8.668, 8.668, 5.621, 4.604, 5.621, 5.621, 5.621, 4.604, 5.621, 5.621, 4.604, 4.604, 4.604, 5.621, 8.668, 4.604, 4.604, 8.668, 4.604, 4.604, 4.604, 8.668, 8.668, 4.604, 8.668, 4.604, 4.604, 5.621, 5.621, 4.604, 8.668, 4.604, 8.668, 5.621, 5.621, 8.668, 8.668, 8.668, 5.621, 4.604, 5.621, 8.668, 4.604, 4.604, 5.621, 8.668, 5.621, 8.668, 4.604, 4.604, 8.668, 8.668, 4.604, 4.604, 4.604, 5.621, 8.668, 8.668, 4.604, 4.604, 5.621, 5.621, 8.668, 8.668, 8.668, 8.668, 4.604 ]
3
[ 0.720, 0.720, 0.885, 0.720, 0.155, 0.720, 0.885, 0.155, 0.720, 0.720, 0.885, 0.720, 0.720, 0.885, 0.885, 0.885, 0.155, 0.155, 0.885, 0.885, 0.155, 0.155, 0.720, 0.720, 0.155, 0.885, 0.885, 0.155, 0.885, 0.885, 0.720, 0.155, 0.885, 0.720, 0.885, 0.720, 0.720, 0.720, 0.885, 0.155, 0.720, 0.885, 0.155, 0.155, 0.720, 0.885, 0.885, 0.885, 0.885, 0.885, 0.885, 0.885, 0.720, 0.720, 0.885, 0.885, 0.155, 0.885, 0.155, 0.155, 0.155, 0.720, 0.885, 0.885, 0.720, 0.155, 0.885, 0.885, 0.885, 0.155, 0.155, 0.885, 0.155, 0.155, 0.155, 0.720, 0.885, 0.885, 0.155, 0.885, 0.155, 0.720, 0.720, 0.155, 0.155, 0.720, 0.155, 0.885, 0.720, 0.155, 0.155, 0.155, 0.155, 0.885, 0.885, 0.155, 0.885, 0.720, 0.155, 0.720 ]