3
[ 4.024, 5.450, 5.450, 4.024, 5.450, 4.024, 2.382, 5.450, 2.382, 4.024, 2.382, 4.024, 4.024, 4.024, 4.024, 4.024, 5.450, 5.450, 4.024, 2.382, 4.024, 4.024, 2.382, 2.382, 2.382, 4.024, 4.024, 2.382, 2.382, 5.450, 2.382, 2.382, 5.450, 4.024, 5.450, 2.382, 2.382, 2.382, 2.382, 4.024, 5.450, 4.024, 2.382, 4.024, 2.382, 4.024, 5.450, 5.450, 5.450, 5.450 ]
3
[ 0.586, 0.516, 0.516, 0.516, 0.480, 0.516, 0.516, 0.516, 0.516, 0.480, 0.586, 0.516, 0.586, 0.516, 0.480, 0.480, 0.480, 0.480, 0.516, 0.586, 0.480, 0.480, 0.516, 0.586, 0.516, 0.586, 0.480, 0.586, 0.516, 0.480, 0.516, 0.586, 0.480, 0.480, 0.586, 0.480, 0.480, 0.586, 0.480, 0.516, 0.586, 0.480, 0.516, 0.480, 0.516, 0.516, 0.480, 0.516, 0.586, 0.480 ]