5
[ 17.872, 32.216, 17.872, 17.872, 3.472, 17.872, 3.472, 32.216, 3.472, 3.472, 17.872, 17.872, 3.472, 3.472, 17.872, 3.472, 17.872, 17.872, 3.472, 3.472, 3.472, 17.872, 3.472, 3.472, 17.872, 22.841, 3.472, 32.216, 17.872, 3.472, 3.472, 3.472, 3.472, 3.472, 2.604, 3.472, 32.216, 3.472, 17.872, 17.872, 17.872, 32.216, 2.604, 17.872, 3.472, 3.472, 17.872, 3.472, 17.872, 17.872 ]
4
[ 0.702, 0.400, 0.400, 0.400, 0.400, 0.560, 0.400, 0.400, 0.400, 0.400, 0.702, 0.702, 0.626, 0.400, 0.400, 0.626, 0.400, 0.400, 0.400, 0.702, 0.400, 0.400, 0.400, 0.400, 0.400, 0.400, 0.400, 0.560, 0.702, 0.626, 0.400, 0.400, 0.400, 0.400, 0.400, 0.400, 0.400, 0.400, 0.400, 0.400, 0.400, 0.400, 0.400, 0.400, 0.400, 0.400, 0.560, 0.400, 0.400, 0.400 ]