3
[ 7.626, 3.277, 3.277, 3.277, 2.940, 7.626, 7.626, 2.940, 7.626, 7.626, 2.940, 7.626, 7.626, 2.940, 7.626, 2.940, 2.940, 7.626, 2.940, 2.940, 3.277, 7.626, 2.940, 3.277, 2.940, 7.626, 3.277, 3.277, 7.626, 7.626, 3.277, 7.626, 7.626, 3.277, 2.940, 2.940, 7.626, 3.277, 3.277, 7.626, 2.940, 3.277, 2.940, 2.940, 2.940, 2.940, 7.626, 2.940, 2.940, 2.940 ]
3
[ 0.790, 0.595, 0.072, 0.595, 0.790, 0.072, 0.595, 0.072, 0.595, 0.790, 0.595, 0.790, 0.072, 0.072, 0.595, 0.595, 0.790, 0.790, 0.790, 0.072, 0.595, 0.072, 0.072, 0.595, 0.790, 0.595, 0.790, 0.595, 0.790, 0.790, 0.595, 0.072, 0.790, 0.595, 0.072, 0.072, 0.072, 0.595, 0.595, 0.790, 0.595, 0.595, 0.072, 0.595, 0.072, 0.790, 0.790, 0.072, 0.790, 0.790 ]