8
[ 17.778, 6.288, 17.778, 1.758, 6.288, 0.421, 0.941, 0.941, 0.941, 6.288, 17.778, 17.778, 17.778, 17.778, 0.421, 6.288, 17.778, 17.778, 6.288, 0.941, 0.941, 6.288, 0.421, 0.941, 6.288, 6.288, 0.941, 0.421, 17.778, 0.352, 4.637, 17.778, 0.421, 0.421, 17.778, 0.421, 0.421, 0.421, 17.778, 1.817, 17.778, 4.637, 6.288, 6.288, 0.421, 0.421, 6.288, 17.778, 6.288, 6.288, 0.941, 17.778, 0.421, 0.941, 0.352, 1.758, 17.778, 6.288, 17.778, 17.778, 17.778, 0.352, 0.941, 17.778, 17.778, 0.421, 6.288, 17.778, 6.288, 17.778, 17.778, 17.778, 0.421, 6.288, 6.288, 17.778, 0.421, 6.288, 6.288, 4.637, 0.941, 0.421, 17.778, 17.778, 17.778, 17.778, 0.941, 0.421, 6.288, 17.778, 17.778, 0.352, 17.778, 0.421, 6.288, 0.421, 17.778, 0.421, 0.421, 6.288 ]
4
[ 0.884, 0.884, 0.884, 0.884, 0.884, 0.884, 0.884, 0.884, 0.689, 0.884, 0.884, 0.884, 0.884, 0.884, 0.884, 0.884, 0.884, 0.884, 0.884, 0.884, 0.884, 0.884, 0.884, 0.884, 0.884, 0.884, 0.884, 0.884, 0.884, 0.884, 0.884, 0.884, 0.884, 0.884, 0.884, 0.884, 0.297, 0.884, 0.884, 0.884, 0.884, 0.884, 0.884, 0.884, 0.884, 0.884, 0.884, 0.884, 0.884, 0.724, 0.884, 0.884, 0.884, 0.884, 0.884, 0.884, 0.884, 0.884, 0.884, 0.884, 0.884, 0.884, 0.884, 0.884, 0.884, 0.884, 0.884, 0.884, 0.884, 0.884, 0.884, 0.884, 0.884, 0.884, 0.884, 0.884, 0.884, 0.884, 0.884, 0.884, 0.884, 0.884, 0.884, 0.884, 0.884, 0.884, 0.884, 0.884, 0.884, 0.884, 0.884, 0.884, 0.884, 0.884, 0.884, 0.884, 0.884, 0.884, 0.884, 0.884 ]