3
[ 8.371, 2.760, 2.760, 2.760, 8.371, 2.760, 2.760, 8.371, 8.371, 2.760, 0.930, 8.371, 2.760, 2.760, 0.930, 2.760, 2.760, 8.371, 2.760, 2.760, 0.930, 0.930, 2.760, 8.371, 2.760, 0.930, 8.371, 0.930, 2.760, 2.760, 8.371, 8.371, 8.371, 0.930, 8.371, 0.930, 2.760, 2.760, 8.371, 2.760, 2.760, 0.930, 8.371, 8.371, 0.930, 0.930, 0.930, 0.930, 2.760, 2.760, 8.371, 0.930, 2.760, 2.760, 8.371, 8.371, 0.930, 0.930, 0.930, 2.760, 8.371, 0.930, 0.930, 8.371, 8.371, 0.930, 0.930, 8.371, 0.930, 8.371, 0.930, 8.371, 0.930, 0.930, 8.371, 8.371, 0.930, 8.371, 2.760, 8.371, 2.760, 8.371, 0.930, 2.760, 2.760, 0.930, 8.371, 0.930, 8.371, 2.760, 2.760, 8.371, 0.930, 2.760, 2.760, 2.760, 8.371, 8.371, 8.371, 8.371 ]
3
[ 0.333, 0.847, 0.847, 0.447, 0.447, 0.447, 0.447, 0.447, 0.447, 0.333, 0.333, 0.447, 0.333, 0.333, 0.333, 0.333, 0.333, 0.847, 0.447, 0.333, 0.447, 0.447, 0.447, 0.447, 0.847, 0.333, 0.447, 0.333, 0.447, 0.447, 0.847, 0.333, 0.333, 0.847, 0.447, 0.333, 0.847, 0.847, 0.447, 0.333, 0.447, 0.447, 0.333, 0.333, 0.447, 0.847, 0.447, 0.333, 0.447, 0.333, 0.333, 0.333, 0.333, 0.447, 0.847, 0.847, 0.447, 0.333, 0.447, 0.333, 0.333, 0.333, 0.333, 0.447, 0.333, 0.447, 0.447, 0.333, 0.333, 0.847, 0.333, 0.447, 0.333, 0.333, 0.333, 0.847, 0.447, 0.333, 0.447, 0.447, 0.447, 0.333, 0.847, 0.847, 0.333, 0.847, 0.847, 0.847, 0.447, 0.447, 0.847, 0.847, 0.847, 0.333, 0.847, 0.847, 0.333, 0.847, 0.333, 0.447 ]