3
[ 2.796, 1.232, 2.796, 1.232, 2.796, 3.341, 1.232, 2.796, 2.796, 3.341, 1.232, 2.796, 3.341, 3.341, 1.232, 2.796, 2.796, 1.232, 1.232, 3.341, 3.341, 2.796, 2.796, 3.341, 2.796, 2.796, 1.232, 2.796, 3.341, 2.796, 2.796, 1.232, 2.796, 3.341, 2.796, 1.232, 1.232, 1.232, 3.341, 3.341, 2.796, 3.341, 2.796, 1.232, 3.341, 1.232, 3.341, 1.232, 1.232, 2.796, 1.232, 1.232, 1.232, 1.232, 1.232, 3.341, 1.232, 1.232, 1.232, 1.232, 1.232, 3.341, 1.232, 2.796, 3.341, 1.232, 1.232, 2.796, 3.341, 3.341, 3.341, 2.796, 3.341, 2.796, 2.796, 1.232, 3.341, 1.232, 2.796, 1.232, 2.796, 3.341, 2.796, 1.232, 3.341, 2.796, 2.796, 2.796, 3.341, 3.341, 3.341, 2.796, 3.341, 1.232, 3.341, 1.232, 2.796, 2.796, 2.796, 1.232 ]
3
[ 0.472, 0.769, 0.472, 0.118, 0.769, 0.472, 0.118, 0.118, 0.769, 0.769, 0.118, 0.472, 0.769, 0.472, 0.472, 0.769, 0.769, 0.118, 0.472, 0.118, 0.118, 0.118, 0.118, 0.472, 0.118, 0.769, 0.472, 0.118, 0.118, 0.769, 0.472, 0.769, 0.118, 0.118, 0.472, 0.472, 0.472, 0.472, 0.769, 0.118, 0.118, 0.118, 0.769, 0.118, 0.769, 0.769, 0.769, 0.769, 0.472, 0.118, 0.769, 0.472, 0.769, 0.118, 0.769, 0.118, 0.118, 0.472, 0.472, 0.769, 0.769, 0.769, 0.472, 0.118, 0.472, 0.769, 0.769, 0.118, 0.118, 0.769, 0.472, 0.769, 0.118, 0.472, 0.118, 0.472, 0.118, 0.769, 0.769, 0.118, 0.472, 0.118, 0.472, 0.769, 0.118, 0.769, 0.118, 0.118, 0.769, 0.769, 0.769, 0.769, 0.769, 0.769, 0.769, 0.769, 0.118, 0.472, 0.769, 0.118 ]