3
[ 2.524, 3.971, 4.429, 3.971, 4.429, 4.429, 4.429, 4.429, 3.971, 3.971, 3.971, 2.524, 2.524, 2.524, 2.524, 4.429, 4.429, 4.429, 3.971, 4.429, 4.429, 2.524, 2.524, 2.524, 2.524, 4.429, 4.429, 4.429, 3.971, 2.524, 4.429, 4.429, 2.524, 3.971, 3.971, 2.524, 2.524, 2.524, 2.524, 3.971, 3.971, 2.524, 4.429, 4.429, 3.971, 3.971, 4.429, 3.971, 3.971, 2.524, 4.429, 3.971, 2.524, 2.524, 2.524, 2.524, 3.971, 4.429, 3.971, 3.971, 2.524, 2.524, 3.971, 3.971, 3.971, 3.971, 2.524, 2.524, 2.524, 4.429, 4.429, 4.429, 4.429, 4.429, 3.971, 3.971, 3.971, 2.524, 3.971, 2.524, 2.524, 3.971, 3.971, 3.971, 4.429, 2.524, 4.429, 3.971, 2.524, 3.971, 4.429, 4.429, 2.524, 2.524, 4.429, 3.971, 4.429, 4.429, 3.971, 4.429 ]
3
[ 0.939, 0.939, 0.320, 0.320, 0.149, 0.939, 0.939, 0.939, 0.320, 0.320, 0.939, 0.939, 0.149, 0.320, 0.149, 0.320, 0.939, 0.149, 0.320, 0.149, 0.939, 0.149, 0.149, 0.939, 0.939, 0.320, 0.320, 0.320, 0.149, 0.320, 0.939, 0.939, 0.939, 0.149, 0.149, 0.939, 0.320, 0.939, 0.939, 0.939, 0.149, 0.320, 0.939, 0.939, 0.939, 0.320, 0.939, 0.939, 0.939, 0.320, 0.149, 0.939, 0.149, 0.939, 0.939, 0.939, 0.149, 0.939, 0.939, 0.149, 0.320, 0.320, 0.320, 0.320, 0.939, 0.149, 0.149, 0.939, 0.320, 0.939, 0.149, 0.149, 0.939, 0.939, 0.320, 0.939, 0.320, 0.149, 0.320, 0.939, 0.149, 0.320, 0.939, 0.320, 0.939, 0.939, 0.939, 0.149, 0.320, 0.320, 0.939, 0.939, 0.939, 0.149, 0.149, 0.320, 0.939, 0.320, 0.939, 0.939 ]