8
[ 2.446, 4.058, 2.446, 1.457, 4.526, 2.446, 2.446, 1.457, 2.446, 3.682, 2.446, 12.477, 2.446, 12.477, 2.446, 3.682, 4.058, 4.058, 4.058, 4.526, 4.058, 4.058, 2.446, 4.058, 12.477, 2.446, 3.682, 2.446, 12.477, 3.682, 2.446, 12.477, 12.477, 3.682, 4.058, 4.058, 12.477, 12.477, 1.457, 3.682, 4.058, 4.058, 2.446, 4.058, 12.477, 1.457, 3.682, 2.446, 2.446, 2.446, 4.058, 3.682, 3.682, 4.058, 3.682, 2.446, 12.477, 12.477, 3.682, 2.446, 12.477, 2.446, 4.526, 3.682, 12.477, 2.446, 4.526, 2.446, 4.058, 12.477, 3.682, 12.477, 2.446, 12.477, 12.477, 12.477, 4.058, 3.682, 12.477, 4.058, 2.446, 12.477, 4.526, 12.477, 4.058, 2.446, 4.058, 1.457, 4.526, 1.457, 3.682, 4.058, 3.682, 4.526, 1.457, 2.446, 2.446, 2.446, 2.446, 1.457, 1.457, 4.526, 3.682, 4.526, 2.446, 12.477, 12.477, 3.682, 4.058, 12.477, 3.682, 12.477, 12.477, 3.682, 12.477, 4.526, 2.446, 4.058, 4.526, 4.058, 3.682, 3.682, 4.058, 4.058, 3.682, 1.433, 2.446, 4.526, 3.682, 2.446, 2.446, 2.446, 3.682, 4.526, 12.477, 2.446, 4.058, 4.058, 4.526, 4.058, 12.477, 4.058, 4.058, 4.058, 2.593, 4.058, 3.682, 4.058, 2.446, 1.457, 2.446, 12.477, 4.058, 12.477, 2.446, 3.682, 3.682, 4.058, 4.058, 12.477, 4.526, 4.058, 4.058, 2.593, 3.682, 4.526, 3.682, 3.682, 4.058, 3.682, 12.477, 4.526, 1.457, 12.477, 2.446, 2.446, 2.446, 2.446, 2.446, 2.446, 4.526, 3.682, 1.457, 4.058, 4.058, 1.457, 3.682, 4.058, 2.446, 3.682, 12.477, 4.058, 4.058, 3.682, 4.526, 2.446, 2.446, 2.446, 12.477, 1.457 ]
5
[ 0.976, 0.976, 0.580, 0.580, 0.976, 0.976, 0.976, 0.976, 0.976, 0.465, 0.580, 0.976, 0.976, 0.580, 0.580, 0.976, 0.976, 0.976, 0.976, 0.976, 0.976, 0.976, 0.976, 0.976, 0.465, 0.976, 0.976, 0.976, 0.580, 0.976, 0.976, 0.976, 0.136, 0.580, 0.580, 0.976, 0.976, 0.976, 0.465, 0.976, 0.976, 0.465, 0.580, 0.976, 0.976, 0.976, 0.465, 0.976, 0.976, 0.976, 0.976, 0.976, 0.136, 0.976, 0.580, 0.976, 0.976, 0.580, 0.976, 0.976, 0.976, 0.976, 0.976, 0.580, 0.976, 0.976, 0.976, 0.976, 0.976, 0.976, 0.976, 0.580, 0.976, 0.465, 0.465, 0.580, 0.465, 0.976, 0.976, 0.976, 0.976, 0.976, 0.976, 0.976, 0.976, 0.976, 0.976, 0.465, 0.976, 0.976, 0.976, 0.580, 0.976, 0.976, 0.465, 0.976, 0.465, 0.976, 0.580, 0.976, 0.136, 0.976, 0.976, 0.580, 0.976, 0.976, 0.976, 0.976, 0.976, 0.136, 0.976, 0.580, 0.976, 0.976, 0.580, 0.976, 0.976, 0.976, 0.976, 0.976, 0.976, 0.976, 0.465, 0.976, 0.976, 0.465, 0.976, 0.976, 0.976, 0.976, 0.976, 0.976, 0.465, 0.465, 0.976, 0.580, 0.879, 0.976, 0.976, 0.136, 0.136, 0.976, 0.136, 0.580, 0.465, 0.976, 0.580, 0.976, 0.976, 0.976, 0.976, 0.976, 0.976, 0.976, 0.976, 0.976, 0.976, 0.580, 0.976, 0.976, 0.976, 0.976, 0.976, 0.976, 0.976, 0.976, 0.976, 0.976, 0.580, 0.580, 0.976, 0.976, 0.976, 0.976, 0.465, 0.976, 0.976, 0.976, 0.976, 0.136, 0.976, 0.976, 0.465, 0.465, 0.465, 0.976, 0.976, 0.136, 0.976, 0.976, 0.976, 0.976, 0.465, 0.976, 0.976, 0.976, 0.976, 0.976, 0.976, 0.976 ]