3
[ 2.625, 3.318, 2.625, 3.318, 2.946, 3.318, 2.625, 3.318, 2.625, 2.625, 3.318, 3.318, 3.318, 2.946, 2.625, 3.318, 2.625, 2.946, 2.625, 2.625, 2.625, 3.318, 2.946, 3.318, 2.625, 2.625, 3.318, 2.946, 2.946, 2.625, 3.318, 3.318, 2.946, 2.946, 2.625, 3.318, 2.946, 2.946, 2.625, 2.946, 2.946, 3.318, 2.946, 3.318, 2.946, 3.318, 2.946, 3.318, 3.318, 2.946, 2.625, 2.946, 2.946, 2.625, 3.318, 3.318, 2.625, 3.318, 2.625, 2.946, 2.946, 3.318, 2.946, 2.625, 2.946, 3.318, 2.625, 2.946, 3.318, 2.625, 2.946, 2.625, 2.625, 2.625, 2.946, 2.625, 2.625, 2.946, 2.625, 2.625, 3.318, 3.318, 2.946, 2.946, 2.946, 3.318, 2.625, 3.318, 2.946, 2.946, 3.318, 2.946, 3.318, 2.946, 2.946, 3.318, 2.946, 3.318, 2.625, 2.946, 2.625, 2.625, 3.318, 2.625, 2.625, 3.318, 3.318, 2.625, 2.946, 2.946, 2.946, 3.318, 3.318, 2.625, 2.625, 2.625, 2.625, 2.625, 2.625, 3.318, 2.625, 2.946, 2.946, 2.625, 3.318, 2.946, 2.625, 2.625, 2.625, 2.625, 2.946, 2.946, 3.318, 2.946, 2.625, 2.625, 3.318, 3.318, 2.946, 2.946, 2.946, 2.946, 2.625, 3.318, 3.318, 2.946, 3.318, 2.625, 2.946, 3.318, 2.946, 2.625, 2.625, 2.946, 2.625, 2.625, 3.318, 2.946, 2.625, 3.318, 2.946, 3.318, 2.946, 2.625, 2.625, 3.318, 2.946, 2.946, 3.318, 2.946, 2.625, 2.625, 3.318, 2.625, 2.625, 2.946, 2.625, 2.946, 3.318, 3.318, 3.318, 2.946, 2.625, 3.318, 3.318, 3.318, 3.318, 3.318, 3.318, 3.318, 2.946, 2.625, 2.946, 2.946, 2.625, 2.625, 2.625, 2.625, 2.946, 3.318 ]
3
[ 0.489, 0.282, 0.489, 0.489, 0.489, 0.873, 0.873, 0.873, 0.489, 0.282, 0.282, 0.282, 0.282, 0.873, 0.282, 0.873, 0.489, 0.489, 0.282, 0.282, 0.282, 0.282, 0.282, 0.873, 0.489, 0.282, 0.282, 0.873, 0.489, 0.282, 0.489, 0.489, 0.489, 0.489, 0.873, 0.282, 0.489, 0.873, 0.282, 0.873, 0.282, 0.873, 0.489, 0.489, 0.282, 0.873, 0.489, 0.489, 0.489, 0.873, 0.489, 0.873, 0.282, 0.282, 0.489, 0.873, 0.873, 0.873, 0.489, 0.489, 0.873, 0.489, 0.873, 0.282, 0.282, 0.282, 0.873, 0.489, 0.282, 0.873, 0.282, 0.282, 0.489, 0.489, 0.282, 0.873, 0.873, 0.282, 0.489, 0.873, 0.873, 0.282, 0.873, 0.282, 0.489, 0.489, 0.282, 0.282, 0.873, 0.873, 0.873, 0.873, 0.489, 0.489, 0.489, 0.873, 0.282, 0.873, 0.873, 0.282, 0.489, 0.489, 0.489, 0.489, 0.282, 0.873, 0.873, 0.873, 0.282, 0.489, 0.489, 0.282, 0.282, 0.282, 0.282, 0.489, 0.489, 0.282, 0.489, 0.489, 0.282, 0.873, 0.282, 0.873, 0.282, 0.282, 0.489, 0.489, 0.873, 0.489, 0.282, 0.489, 0.873, 0.873, 0.873, 0.873, 0.489, 0.489, 0.489, 0.489, 0.873, 0.489, 0.282, 0.873, 0.873, 0.873, 0.873, 0.489, 0.873, 0.873, 0.282, 0.873, 0.873, 0.282, 0.282, 0.873, 0.489, 0.489, 0.489, 0.489, 0.489, 0.282, 0.489, 0.489, 0.489, 0.282, 0.489, 0.489, 0.282, 0.873, 0.873, 0.873, 0.873, 0.873, 0.282, 0.489, 0.873, 0.282, 0.489, 0.873, 0.282, 0.489, 0.282, 0.282, 0.282, 0.282, 0.489, 0.489, 0.873, 0.489, 0.282, 0.873, 0.282, 0.489, 0.489, 0.873, 0.282, 0.489, 0.282, 0.489 ]