3
[ 2.479, 2.581, 2.479, 2.581, 5.417, 2.581, 2.581, 2.581, 5.417, 2.581, 2.581, 5.417, 5.417, 5.417, 5.417, 2.479, 5.417, 2.581, 2.479, 2.479, 2.479, 2.479, 2.479, 2.581, 2.479, 2.479, 2.479, 2.479, 5.417, 2.479, 2.581, 2.479, 2.479, 2.581, 2.581, 2.581, 2.479, 2.479, 2.479, 5.417, 2.479, 5.417, 5.417, 2.479, 2.479, 2.581, 2.581, 2.581, 2.479, 5.417, 5.417, 5.417, 5.417, 2.581, 2.479, 2.581, 2.479, 2.479, 2.581, 2.479, 2.581, 5.417, 2.479, 2.479, 5.417, 5.417, 5.417, 2.479, 2.479, 2.581, 2.479, 2.479, 5.417, 2.479, 2.581, 5.417, 2.581, 2.479, 2.479, 5.417, 2.479, 2.581, 2.479, 2.479, 5.417, 2.581, 2.581, 5.417, 2.581, 2.479, 5.417, 5.417, 2.581, 5.417, 2.479, 5.417, 2.479, 5.417, 2.479, 2.479 ]
3
[ 0.322, 0.810, 0.025, 0.810, 0.025, 0.810, 0.322, 0.322, 0.025, 0.025, 0.322, 0.810, 0.025, 0.322, 0.025, 0.322, 0.025, 0.322, 0.322, 0.025, 0.322, 0.025, 0.810, 0.810, 0.322, 0.322, 0.322, 0.322, 0.322, 0.322, 0.025, 0.810, 0.810, 0.322, 0.025, 0.322, 0.025, 0.322, 0.322, 0.810, 0.810, 0.025, 0.810, 0.810, 0.025, 0.025, 0.810, 0.025, 0.810, 0.025, 0.025, 0.322, 0.810, 0.025, 0.322, 0.810, 0.025, 0.810, 0.322, 0.025, 0.810, 0.322, 0.810, 0.810, 0.322, 0.810, 0.322, 0.322, 0.810, 0.322, 0.025, 0.322, 0.025, 0.322, 0.025, 0.810, 0.322, 0.025, 0.810, 0.810, 0.322, 0.322, 0.810, 0.025, 0.322, 0.322, 0.810, 0.810, 0.810, 0.322, 0.025, 0.322, 0.025, 0.322, 0.810, 0.025, 0.025, 0.810, 0.810, 0.025 ]