pars_sum	pars_var	pars_disp	obs_disp	sim_disp
2	0.586676665416819	0.227628711031868	0.947188844385105	0.719560133353237
26	0.242969628796399	0.0233123326806552	0.915134848265547	0.891822515584892
-15	0.303587051618548	0.156066690821011	0.998354626403407	0.842287935582396
31	0.265216847894018	0.0228211946107361	0.869364105560426	0.84654291094969
43	1.09648793900762	0.348268376079105	0.96257103664511	0.614302660566006
14	0.538932633420821	0.173276363938788	0.92828628457371	0.755009920634921
-9	0.173353330833647	0.0915669970335299	0.962118998928816	0.870552001895286
3	0.708661417322833	0.263052229593467	0.976570668187434	0.713518438593968
21	0.454943132108485	0.12742261880509	0.912796394277875	0.785373775472786
-15	0.297962754655671	0.148692810457517	0.847619047619048	0.698926237161531
-2	0.335708036495441	0.135511746221758	0.906466062907781	0.770954316686024
14	0.233720784901888	0.0552583368188494	0.884762875588564	0.829504538769715
44	0.702412198475192	0.1732528376127	0.88946088946089	0.71620805184819
-19	0.104611923509563	0.0884830871443999	0.935360489577358	0.846877402432958
7	0.521184851893513	0.188783767326821	0.906574563981971	0.71779079665515
7	0.487689038870142	0.172096161835955	1.00540461583406	0.83330845399811
-33	0.126609173853265	0.133442265795206	0.956349206349206	0.822906940554
36	0.525809273840772	0.115456567970769	0.918457220286488	0.80300065231572
-10	0.201099862517181	0.102170317575347	0.827869257775799	0.725698940200452
17	0.44344456942882	0.130324713220351	0.99761158381848	0.86728687059813
-12	0.418572678415201	0.189676114876682	0.912649722465674	0.722973607588992
0	-0.0793650793650804	-0.0310134310134315	0.87863247863248	0.909645909645911
-22	0.331083614548181	0.178293559986924	0.884711779448621	0.706418219461698
-7	0.71066116735408	0.290661240834157	1.01679248935347	0.726131248519308
0	0.285714285714285	0.111305872042068	0.869364105560426	0.758058233518357
-17	-0.507811523559555	-0.148272995644561	0.81946893983931	0.967741935483871
-4	0.210098737657788	0.0930308922753589	0.934640522875817	0.841609630600458
-19	0.584801899762531	0.264930598520248	0.915586622008641	0.650656023488394
39	0.881389826271716	0.2749033260117	0.896501965467483	0.621598639455782
43	0.63592050993626	0.144811957029299	0.921751371292657	0.776939414263358
9	0.322084739407573	0.103622806129427	0.826066169439663	0.722443363310236
-11	0.376702912135984	0.170838985540943	0.977863836297572	0.807024850756629
-16	0.388076490438693	0.190622482172441	0.934628887899915	0.744006405727474
41	1.2278465191851	0.387475837603715	0.977591036414566	0.590115198810851
19	0.503937007874018	0.154378688386438	0.90648723257419	0.752108544187752
-28	0.133608298962631	0.12429959652458	0.934418072349107	0.810118475824527
8	0.352580927384074	0.11398266860961	0.952428476380572	0.838445807770962
-9	0.252718410198727	0.119328859645681	0.875547765118318	0.756218905472637
1	-0.0014998125234329	-0.00307182404446782	0.820153920153921	0.823225744198389
-1	0.35083114610674	0.137548118212772	0.972871572871574	0.835323454658802
16	0.217347831521064	0.0407842522974119	0.95029761904762	0.909513366750208
15	0.332333458317709	0.0858204474764453	0.988641764090865	0.90282131661442
-4	0.525559305086864	0.218294060185808	0.940737423496044	0.722443363310236
23	0.792150981127358	0.263530409771335	0.925240054869684	0.661709645098349
-34	0.265966754155733	0.190424679886611	1.00039436064281	0.809969680756198
11	0.80752405949256	0.282552037909179	0.975103930461073	0.692551892551894
-19	0.230846144231974	0.135467245932364	0.909645909645911	0.774178663713547
-15	0.268091488563933	0.141080306328675	0.937384360697245	0.79630405436857
3	0.55143107111611	0.205182890503991	0.97898027898028	0.773797388476288
2	0.395950506186725	0.151555567879325	0.893966282165041	0.742410714285716
15	0.747906511686035	0.25824900258557	1.01234567901235	0.754096676426775
13	0.720784901887267	0.257400729021251	0.962896825396826	0.705496096375575
15	0.563054618172725	0.190333662021401	0.884389061959155	0.694055399937753
-2	0.381577302837148	0.156946132131438	0.959695476936856	0.802749344805419
5	0.283214598175226	0.09883607712471	0.887909073094258	0.789072995969548
-22	0.193100862392203	0.129348466389624	0.890182614320545	0.760834147930921
-3	0.0997375328083967	0.046369446754458	0.893873403019744	0.847503956265286
-10	0.302587176602927	0.143557354775585	0.980669977602494	0.837112622826908
3	0.201849768778902	0.0696795395877996	0.926677216707427	0.856997677119628
35	0.587301587301585	0.133721077153912	0.984885098317934	0.851164021164022
-7	0.441694788151481	0.18678133191811	0.951898489892411	0.765117157974301
3	0.187851518560181	0.0645804334003546	0.999220956276172	0.934640522875817
27	0.819647544056992	0.259585740138369	0.96147890050329	0.701893160364921
-8	0.438070241219846	0.189313251139221	0.878470686520222	0.689157435381
10	0.34608173978253	0.108093881427216	0.990280830280832	0.882186948853616
21	-0.0873640794900585	-0.0980494505494484	0.891037851037853	0.989087301587301
21	1.11361079865017	0.403366958413686	0.972308757355485	0.568941798941799
-20	-0.549431321084866	-0.144684002967767	0.964153037101365	1.10883704006913
34	0.81502312210974	0.250169451838708	0.925268658187913	0.675099206349206
-35	0.311336082989625	0.19912968339668	0.912796394277875	0.713666710881195
-3	0.656792900887391	0.25775011916893	0.977863836297572	0.720113717128642
15	0.86926634170729	0.30685356946825	0.977234114848795	0.670380545380545
25	0.894888138982629	0.302969062345297	0.934640522875817	0.63167146053052
12	0.472440944881892	0.156440787404799	0.906466062907782	0.750025275502982
5	0.627421572303462	0.228168389299151	1.01429527634347	0.786126887044319
20	0.813273340832398	0.277480544592298	0.918833382023567	0.641352837431269
-35	0.291088613923261	0.195859074787418	0.947122708732616	0.751263633945197
31	0.693413323334585	0.202054774796019	0.944050083801637	0.741995309005618
-29	0.342332208473938	0.199485176845857	0.922158337019018	0.722673160173161
12	0.69766279215098	0.249116281523689	0.906574563981971	0.657458282458282
9	0.67466566679165	0.241675109760216	0.927389395474502	0.685714285714286
-7	0.246844144481937	0.113093387989885	0.869243582206545	0.75615019421666
22	0.71016122984627	0.232062117776404	0.850697450697451	0.618635332921047
12	0.489813773278344	0.161727502174788	0.965470085470087	0.803742583295299
-13	0.527434070741156	0.235760678540422	0.940881615804216	0.705120937263794
4	0.39657542807149	0.148709689572031	0.843204365079366	0.694494675507335
9	0.453568303962003	0.153274454262679	0.967624854819977	0.814350400557298
16	0.697412823397075	0.239886410398977	0.887915084234104	0.648028673835126
-2	-0.314835645544306	-0.116491084255507	0.829280132032426	0.945771216287934
27	0.451193600799898	0.111210479213055	0.878371206638684	0.767160727425629
7	0.092613423322085	0.018458709573326	0.844356261022927	0.825897551449601
6	0.152355955505564	0.0430190739976478	0.90900757466107	0.865988500663423
-12	0.249968753905762	0.126746158325106	0.966762866762868	0.840016708437762
-18	0.263842019747536	0.148432220470515	0.98339886413281	0.834966643662295
1	0.411573553305837	0.157471657668652	0.934080869860687	0.776609212192035
-15	0.202724659417576	0.118317891259069	0.965470085470087	0.847152194211018
-16	-0.195225596800399	-0.0319704345020102	0.872229593591823	0.904200028093833
-11	-0.0573678290213717	0.00791181162970533	0.906165311653117	0.898253500023411
27	0.82739657542807	0.272733006568596	0.922068931414726	0.649335924846129
43	0.763654543182098	0.217987965912493	0.861335729260256	0.643347763347764
-5	0.367579052618423	0.158111861176996	0.909140667761357	0.751028806584362
-21	-0.0799900012498407	0.026144046244175	0.929442795911639	0.903298749667464
2	0.713410823647046	0.277117223701075	0.962831509415362	0.685714285714286
22	0.718410198725162	0.231320300383319	0.940245619144703	0.708925318761384
-2	0.208473940757408	0.0864546530601588	0.897240537240539	0.81078588418038
16	0.235095613048371	0.0473137522903011	0.946410368428718	0.899096616138417
33	0.188226471691041	-0.0232152389086296	0.928399429947418	0.951614668856047
16	0.711161104861891	0.234935488255096	0.960814972755271	0.725879484500174
-44	-0.46294213223347	-0.0499249803052133	0.922068931414725	0.971993911719938
28	0.327834020747404	0.058432771395733	0.869243582206545	0.810810810810812
-19	0.0983627046619211	0.088980654293333	0.911392405063292	0.822411750769959
22	0.617672790901138	0.187744226990586	0.945771216287934	0.758026989297347
-1	0.333958255218101	0.134134508112934	0.912747707778764	0.77861319966583
5	0.600674915635543	0.224052849851061	0.96257103664511	0.738518186794049
-13	0.334083239595051	0.161120506892656	0.999760226346328	0.838639719453672
16	0.711286089238847	0.241453798874372	0.952575117712733	0.711121318838361
-27	-0.0243719535058076	0.0595533633033649	0.891037851037852	0.831484487734487
26	0.643044619422569	0.194521681498744	0.881581494386372	0.687059812887628
-16	-0.0682414698162734	0.0158963549193418	0.878470686520222	0.86257433160088
3	0.521184851893517	0.195987985119784	0.962118998928816	0.766131013809032
8	0.903262092238468	0.339167401853528	0.984569266303012	0.645401864449484
11	0.645294338207725	0.226183717270699	0.952575117712734	0.726391400442035
10	0.441319835020623	0.148460569412951	0.928253968253969	0.779793398841018
-35	0.128483939507563	0.134693958969322	0.949997616664284	0.815303657694962
5	0.253343332083485	0.0875267664277464	0.90322899668694	0.815702230259194
22	0.59905011873516	0.180138115852402	0.936219336219337	0.756081220366935
10	0.513185851768529	0.174167697842769	0.926677216707427	0.752509518864658
36	0.793525809273841	0.22892083133047	0.917144769554409	0.688223938223939
14	0.912760904886888	0.324061476442429	0.988662131519274	0.664600655076846
2	0.364954380702414	0.140595713314087	0.890182614320545	0.749586901006459
13	0.0297462817147829	-0.0268154936644797	0.954797441364605	0.981612935029085
-2	0.00112485939257478	0.00587949012473721	0.87810908371656	0.872229593591822
1	0.236845394325707	0.0890267285154277	0.967624854819977	0.878598126304549
-17	0.451943507061619	0.217301498987331	0.93139880952381	0.71409731053648
-3	0.671916010498688	0.264910798244132	0.960654160654161	0.69574336241003
18	0.438695163104617	0.131450520711719	0.875184856551317	0.743734335839598
-9	0.485189351331081	0.213070626154737	0.96602877911289	0.752958152958153
11	0.521059867516565	0.177794109641245	0.940659340659342	0.762865231018097
5	0.156855393075866	0.0476535091582704	0.953363801661015	0.905710292502744
-1	0.366829146356706	0.143169426374756	0.944947969117153	0.801778542742397
6	0.459942507186599	0.168711250509203	0.87810908371656	0.709397833207357
-47	-0.450443694538179	-0.0486970719259533	0.836904761904762	0.885601833830716
8	0.533183352080988	0.189106658923731	0.90001935733643	0.710912698412699
17	0.541807274090742	0.175596308453453	0.866227106227108	0.690630797773655
0	0.333333333333333	0.130658436213992	0.956349206349206	0.825690770135214
14	0.450568678915134	0.143197323781207	0.947188844385105	0.803991520603898
-29	0.423947006624172	0.234410973061311	1.02908439798684	0.794673424925526
7	0.166729158855146	0.0455312374817032	0.924001924001924	0.878470686520221
13	0.409448818897638	0.129255923019031	0.887915084234103	0.758659161215072
-16	0.191726034245717	0.112447102760309	0.881731424676211	0.769284321915902
-13	0.427696537932761	0.19129669596142	0.86902356902357	0.67772687306215
31	0.502937132858395	0.126262148865723	0.875184856551317	0.748922707685594
7	-0.00174978127734438	-0.0207160368033527	0.903435058233819	0.924151095037172
-20	0.585926759155108	0.269249669441166	0.937384360697245	0.668134691256078
0	-0.365079365079366	-0.144890873015873	0.855803571428572	1.00069444444445
16	0.43544556930384	0.127791717600636	0.948436748436749	0.820645030836113
0	0.507936507936509	0.197271977088491	0.952575117712733	0.755303140624242
-9	0.699412573428321	0.288926052677228	0.949186991869919	0.66026093919269
5	0.551806024246972	0.203714776560371	0.937384360697245	0.733669584136874
-41	-0.439195100612423	-0.052059788837904	0.890625753847639	0.942685542685542
14	0.678165229346334	0.231731670955519	0.97106936556478	0.73933769460926
14	0.759280089988756	0.266171399606984	0.955935339370923	0.689763939763939
18	0.567929008873885	0.185131819813043	0.89066904020175	0.705537220388707
-9	0.186976627921507	0.0961477350366227	0.91901822457378	0.822870489537157
-31	-0.386701662292216	-0.0655051291733545	0.840429214260989	0.905934343434344
-19	0.0832395950506166	0.0776341725774122	0.841024128949825	0.763389956372413
23	0.731658542682164	0.227450626231842	0.964499572284003	0.737048946052161
20	0.154980627421569	0.0104143197364773	0.823225744198388	0.812811424461911
18	0.792525934258218	0.270240911106681	0.952575117712733	0.682334206606052
6	0.393450818647671	0.139414302172924	0.915848595848597	0.776434293675673
33	0.898387701537305	0.283627884143347	0.956349206349206	0.672721322205859
6	0.623297087864015	0.221709441352298	0.999102418745276	0.777392977392978
-8	-0.276215473065869	-0.0829379295047652	0.953363801661015	1.03630173116578
-29	0.183102112235971	0.144996971391296	1.02310090702948	0.878103935638182
-2	0.63654543182102	0.254378782552156	0.915917244090618	0.661538461538462
-22	0.24071991001125	0.147491119682444	0.896501965467483	0.749010845785039
6	0.771403574553181	0.286080240233458	0.927389395474502	0.641309155241043
23	0.844144481939757	0.281772053083529	0.924603174603175	0.642831121519646
10	0.156855393075867	0.0357585958553173	0.869243582206545	0.833484986351227
29	0.407699037620296	0.084721860375355	0.90900757466107	0.824285714285715
-12	0.662667166604172	0.281500046412326	1.00952380952381	0.728023763111484
7	0.806024246969134	0.302561798788216	0.87863247863248	0.576070679844264
-8	0.0353705786776697	0.0357445841316826	0.962104962104963	0.92636037797328
-28	-0.418697662792153	-0.0781343270168593	0.902880301056593	0.981014628073452
-5	0.339582552180979	0.145128205128206	0.953064713064715	0.807936507936509
-34	-0.27796525434321	-0.00992733834645243	0.934628887899915	0.944556226246368
26	0.408573928258968	0.0967762349749927	0.893966282165041	0.797190047190048
2	-0.127359080114981	-0.0565629055605451	0.906200396825398	0.962763302385943
15	0.47156605424322	0.154014869985832	0.871224560879733	0.717209690893901
3	0.283464566929137	0.103441858348692	0.897240537240539	0.793798678891847
-21	0.00749906261717204	0.0628017997331015	0.998354626403407	0.935552826670306
16	0.758905136857896	0.263119621920768	0.909421872724626	0.646302250803858
-21	0.179477565304339	0.120749913378829	0.915586622008641	0.794836708629812
-12	0.59705036870391	0.262708849501301	0.905710292502744	0.643001443001443
-16	0.167979002624674	0.103255511347998	0.899567099567101	0.796311588219103
20	0.327084114485687	0.0743859485794961	0.924001924001925	0.849615975422429
-15	0.0421197350331197	0.057269799649347	0.937683715461493	0.880413915812146
-2	0.051493563304585	0.0250354139683908	0.911072862880091	0.8860374489117
-7	-0.161479815023121	-0.0420978675158	0.90900757466107	0.95110544217687
22	0.837770278715157	0.279013578559812	1.00612384871644	0.727110270156628
-33	-0.174978127734036	0.0238543977261676	0.931461885165588	0.907607487439421
9	0.866266716660415	0.318617965064558	0.93074912891986	0.612131163855302
-19	-0.00012498437695152	0.0509174652265261	0.930749128919861	0.879831663693335
1	0.412448443944509	0.161283866995075	0.93139880952381	0.770114942528736
-24	0.226221722284714	0.151784614437053	1.02908439798684	0.877299783549784
28	1.18872640919885	0.39703236504917	1.08108624976095	0.684053884711779
-43	0.0657417822772133	0.135552504963254	0.959604894589414	0.82405238962616
-4	0.311336082989625	0.127334251624305	0.906657190239279	0.779322938614974
-15	0.682664666916636	0.295013357382583	0.946410368428719	0.651397011046135
-13	0.225846769153855	0.11959462147432	0.884711779448621	0.765117157974301
5	0.426696662917135	0.155616566388223	0.940881615804216	0.785265049415992
24	0.809273840769904	0.273921143471115	0.915460018908295	0.64153887543718
-8	0.827021622297212	0.334427380199109	1.04239198196902	0.707964601769911
30	0.560304961879767	0.149598994655061	0.89092762487258	0.741328630217519
-19	0.355455568053993	0.182864192960295	0.925240054869684	0.742375861909389
7	0.40307461567304	0.137101372523059	0.94750430292599	0.810402930402932
-34	0.0712410948631383	0.118007317006921	0.96602877911289	0.84802146210597
10	0.174853143357077	0.0395043099520698	0.936744847192608	0.897240537240538
-13	0.15135608048994	0.0907525614078637	0.887915084234104	0.79716252282624
4	0.587551556055493	0.2251004848706	0.92809872120217	0.70299823633157
24	0.561304836895381	0.169915831881139	0.895848981022482	0.725933149141343
18	0.490938632670918	0.145928442534838	0.958739866996749	0.812811424461911
-29	0.266591676040493	0.171412666769921	0.91901822457378	0.747605557803858
-23	-0.210973628296463	-0.0164478167532638	0.911072862880093	0.927520679633357
14	-0.0732408448943915	-0.0732062261484783	0.94090886614251	1.01411509229099
27	0.622422197225348	0.181268126812682	0.893458393458394	0.712190266645712
6	0.123609548806401	0.0331519821175	0.853821733821735	0.820669751704235
12	0.594050743657044	0.210951964405857	0.890182614320545	0.679230649914689
22	0.369828771403574	0.0933985724721195	0.86554912723137	0.77215055475925
-1	0.890513685789279	0.344764287966706	1.02174122174122	0.676976933774517
20	0.582677165354329	0.185415651988315	0.89095287237702	0.705537220388706
-1	-0.269341332333461	-0.103581863464607	0.852989170746179	0.956571034210786
30	0.954505686789153	0.332479346514435	0.882186948853616	0.549707602339181
11	0.404449443819525	0.130717597713068	0.890625753847638	0.75990815613457
37	0.5965504311961	0.144708818694181	0.8860374489117	0.741328630217519
23	0.722909636295464	0.22480633982183	1.03013925406564	0.805332914243806
-10	0.242844644419446	0.116345615632809	0.859989385825252	0.743643770192443
-9	0.109861267341585	0.0650049489624631	0.869364105560426	0.804359156597962
37	1.00124984376953	0.322797331492984	0.950310559006212	0.627513227513228
15	0.602174728158978	0.195803645731375	0.934321832525425	0.73851818679405
-12	0.0459942507186564	0.0489586159368075	0.871829105473965	0.822870489537157
20	0.683789526309214	0.222821636532303	0.921751371292657	0.698929734760353
26	0.665041869766277	0.192212780643269	0.993669975543087	0.801457194899818
0	0.857142857142856	0.330872774641771	1.04380759395957	0.712934819317798
2	0.221847269091367	0.0831377283617865	0.868402777777778	0.785265049415992
5	0.67566554180727	0.248165878649817	0.981489473936603	0.733323595286786
8	0.313960754905643	0.102356416804369	0.92825396825397	0.825897551449601
48	0.322959630046246	0.00376613142570681	0.832371332371333	0.828605200945626
-9	0.0814898137732802	0.0544969928883896	0.896753027452116	0.842256034563726
-27	-0.0574928133983263	0.0505568469972068	0.946392928428856	0.89583608143165
-17	0.53455818022747	0.244184444572729	0.97640758431032	0.732223139737591
-10	-0.102612173478315	-0.0153708680447211	0.777490916045134	0.792861784089856
9	0.556680414948131	0.20144856009342	0.871829105473965	0.670380545380545
-1	-0.0624921884764391	-0.0216308980726154	0.884835164835166	0.906466062907781
19	0.770653668291466	0.253775544450786	0.997306397306398	0.743530852855611
-2	0.795775528058995	0.314815934999422	0.940659340659342	0.62584340565992
-26	0.479690038745159	0.237716382660204	0.911784511784512	0.674068129124309
-13	-0.145356830396203	-0.0177942605020945	0.951898489892411	0.969692750394505
-25	0.258717660292468	0.157019171642843	0.959351891102634	0.802332719459791
-3	0.211223597050372	0.0890133118957243	0.90900757466107	0.819994262765346
-11	0.183477065366831	0.0973513941255886	0.8995670995671	0.802215705441512
-15	0.260592425946757	0.137160269862041	0.875184856551317	0.738024586689276
15	0.7180352455943	0.251770564685204	0.909676151162219	0.657905586477015
31	0.955505561804773	0.314952256552559	0.937683715461493	0.622731458908934
-9	0.649543807024123	0.272425195087955	0.974486318044601	0.702061122956645
40	0.583052118485194	0.128783234700055	0.911072862880093	0.782289628180038
0	0.333333333333333	0.130658436213992	0.894130903390162	0.763472467176171
7	0.201974753155858	0.0592976823143958	0.962118998928816	0.90282131661442
-12	-0.0297462817147873	0.0198111896218566	0.8860374489117	0.866226259289844
24	0.960754905636797	0.319958249820557	0.977863836297572	0.657905586477015
-9	0.737907761529809	0.299318896567548	0.994677312042581	0.695358415475033
17	0.220230971128609	0.0454410002013793	0.94975167981303	0.904310679611651
4	-0.223472065991747	-0.0994694113175288	0.812580104505571	0.9120495158231
20	0.757280339957504	0.259011114143995	0.884711779448621	0.625700665304626
19	0.737282839645042	0.247423887587821	0.956349206349205	0.708925318761384
-33	0.153605799275088	0.13946733343285	0.896501965467483	0.757034632034633
-12	-0.271466066741662	-0.0725674495144918	0.859269148988774	0.931836598503266
-8	0.312085989251347	0.14452578096041	1.04345483049187	0.898929049531457
7	0.530058742657167	0.186984421201288	0.935360489577358	0.74837606837607
0	0.3015873015873	0.118214775622182	0.856799921614736	0.738585145992553
26	0.72853393325834	0.213977939251575	1.04848223277226	0.834504293520687
-5	0.563054618172733	0.230195574784943	0.98339886413281	0.753203289347867
31	0.964004499437573	0.313660574530141	0.924001924001925	0.610341349471784
14	0.353580802399702	0.105159850501466	0.893966282165041	0.788806431663575
-7	0.0361204849393801	0.0330501362868605	0.883863263173608	0.850813126886748
-7	0.551931008623921	0.227403776703012	0.869289585753	0.641885809049988
42	0.79077615298088	0.207128581699029	0.956051289384624	0.748922707685594
-4	0.626796650418696	0.248395341663141	0.90231621349446	0.653920871831319
-2	0.57330333708286	0.229132929144288	0.943905545757397	0.714772616613109
-15	0.172853393325837	0.107514459285685	0.980669977602494	0.873155518316808
-10	-0.0783652043494554	-0.00024953744278855	0.986853637160386	0.987103174603175
14	0.678165229346333	0.234213327216816	0.915586622008642	0.681373294791826
-15	-0.0251218597675291	0.0322740888382189	0.937789608597063	0.905515519758844
13	0.798525184351953	0.28928325790809	0.947188844385105	0.657905586477016
-14	0.280964879390076	0.140060782185402	0.942762378583274	0.802701596397871
-1	0.509311336082989	0.199432488788631	0.930749128919861	0.73131664013123
-25	0.246719160104987	0.157182029900083	0.934640522875817	0.777458492975734
-11	0.23597050368704	0.119731976874834	0.900226757369615	0.780494780494781
1	0.41144856892888	0.156782585737608	0.986062717770035	0.829280132032427
34	0.915635545556803	0.302511079227423	0.902208201892744	0.599697122665321
2	0.443069616297962	0.169467966109328	0.850578091318831	0.681110125209503
14	0.498187726534183	0.16547385898051	0.89066904020175	0.72519518122124
13	0.593425821772281	0.196595214576288	1.0034151034151	0.806819888838816
12	0.322709661292339	0.0992314728921874	0.868402777777778	0.769171304885591
-16	1.14823147106611	0.46350838315124	1.08309712773998	0.619588744588745
-6	0.271716035495563	0.124067513994363	0.927645085373791	0.803577571379428
-28	-0.307586551681042	-0.0323599889128238	0.982534857914797	1.01489484682762
19	0.35870516185477	0.0945593149540526	0.884711779448621	0.790152464494569
5	0.629296337957757	0.23037137103331	1.05606214116852	0.825690770135214
-9	0.0293713285839319	0.035846694888613	0.915848595848597	0.880001900959984
15	0.0214973128358968	-0.030197812968363	0.800059154096422	0.830256967064785
13	0.52218472690914	0.175687830687832	0.884835164835166	0.709147334147334
40	0.814398200224974	0.235348001610829	0.897092374156595	0.661744372545767
-8	0.34283214598175	0.155034378197136	0.972087080446213	0.817052702249077
-8	-0.0817397825271815	-0.0107425592294813	0.847774379884472	0.858516939113954
20	0.637045369328836	0.196618495873023	0.968158634825303	0.77154013895228
-1	0.746906636670415	0.294581015692126	0.881687242798354	0.587106227106228
31	0.561804774403201	0.161221473461581	0.82459057697153	0.663369103509949
-3	0.193850768653923	0.0838885910837148	0.965470085470087	0.881581494386372
3	0.474690663667039	0.179572091994691	0.940881615804216	0.761309523809525
16	0.534683164604426	0.170227920227921	0.924603174603175	0.754375254375254
3	0.58580177477815	0.224488457663766	0.853506314806624	0.629017857142858
-38	-0.113860767404075	0.062230927734726	0.979916763453349	0.917685835718623
1	-0.175103112110984	-0.07204299390983	0.887705806960466	0.959748800870296
-4	0.0246219222597186	0.0202674060240831	0.925782925782927	0.905515519758843
4	0.763154605674287	0.298202041522507	0.895848981022482	0.597646939499975
-8	0.61367329083864	0.258392771556536	0.981236527532823	0.722843755976287
-8	0.0819897512810921	0.0516339869281056	0.892857142857143	0.841223155929038
-15	-0.196850393700785	-0.0303002871924081	0.965720022948939	0.996020310141347
-13	0.225846769153855	0.120319034046367	0.903435058233819	0.783116024187453
8	0.185976752905891	0.0525585033051192	0.863180446002533	0.810621942697414
-7	0.137482814648169	0.0713582410923925	0.900282403349889	0.828924162257496
32	0.716535433070868	0.211910637712686	0.903443223443225	0.691532585730539
14	0.274340707411573	0.0716732615767182	0.86577470867501	0.794101447098292
-9	0.148356455443073	0.0786578796683748	0.886785236182827	0.808127356514453
-6	0.445444319460068	0.181503667899668	0.947388253026236	0.765884585126568
33	0.976502937132858	0.299472455837044	1.04465480971505	0.745182353878006
-11	-0.225721784776908	-0.0562110480194048	0.909508974929535	0.96572002294894
30	1.17185351831021	0.399776485940092	0.97640758431032	0.576631098370229
-12	-0.0144981877265327	0.0295482634006738	0.978328173374613	0.948779909973939
-1	0.255968003999503	0.100264079305997	0.980265980265981	0.880001900959984
25	0.381202349706282	0.0767437772733854	0.984885098317933	0.908141321044548
-10	0.374453193350834	0.17175925925926	0.9125	0.74074074074074
-12	0.457192850893641	0.20673348154523	0.881001984126985	0.674268502581755
12	0.971378577677789	0.347707496653279	1.00822336966915	0.660515873015874
-37	0.0778652668416475	0.115672815672817	0.88946088946089	0.773788073788074
-9	0.655168103987	0.270060310126064	0.957128470723636	0.687068160597572
1	0.934133233345836	0.350082482712836	1.00720644340822	0.657123960695389
3	0.379452568428942	0.141774472947072	0.940881615804216	0.799107142857144
6	0.390451193600801	0.136407829275795	0.921262121870025	0.78485429259423
9	0.645169353830775	0.231574671681996	0.921751371292657	0.690176699610661
18	0.812898387701542	0.276763670639894	1.01509157509158	0.738327904451683
-3	0.2580927384077	0.10787428677337	0.940245619144703	0.832371332371333
55	0.611548556430445	0.10439454650674	0.903435058233819	0.799040511727079
12	0.173853268341457	0.0356596421411235	0.912796394277875	0.877136752136752
-5	0.701537307836519	0.287983821733821	0.899900793650794	0.611916971916973
-2	0.17597800274966	0.0745746321430717	0.90648723257419	0.831912600431118
4	0.521559805024369	0.195195228297079	0.943905545757397	0.748710317460318
5	0.455318085239346	0.164047283440548	0.967624854819977	0.803577571379429
-13	0.0939882514685668	0.0726981445731447	0.943998015873017	0.871299871299872
26	0.618172728408947	0.188182443718638	0.884389061959154	0.696206618240516
-7	0.596050493688286	0.24892101855848	0.956349206349206	0.707428187790726
24	0.744531933508312	0.243241943241943	0.838480038480039	0.595238095238095
16	0.584301962254721	0.184841181655248	1.04504635697296	0.860205175317716
31	1.01899762529684	0.337864730577408	0.981236527532823	0.643371796955415
7	0.587301587301585	0.217823497304418	0.884389061959155	0.666565564654737
-22	-0.734533183352089	-0.217297992367682	0.783246225319395	1.00054421768708
-19	0.539557555305588	0.250793818148145	0.973770809136663	0.722976990988518
27	0.387701537307835	0.0801277535108728	0.927389395474502	0.847261641963629
5	0.485814273215847	0.176471676471676	0.86902356902357	0.692551892551894
-2	0.192100987376575	0.0807035688769424	0.915917244090618	0.835213675213676
-16	-0.254718160229964	-0.0495650585973136	0.965470085470087	1.0150351440674
-23	0.118110236220476	0.102813776262053	0.903443223443225	0.800629447181171
-11	0.111736032995875	0.072332049335919	0.912796394277875	0.840464344941956
-5	0.152230971128611	0.0730524864853234	1.02784992784993	0.954797441364606
-12	0.193350831146106	0.104126424232244	0.869243582206545	0.765117157974301
4	0.202599675040624	0.0686267747079534	0.89092762487258	0.822300850164626
4	0.239845019372583	0.0869261423058911	0.834840265220013	0.747914122914122
-32	-0.326459192600924	-0.0443365925376359	0.79269169903611	0.837028291573746
6	0.930133733283341	0.347352976278231	0.988662131519275	0.641309155241044
14	0.697537807774031	0.243339497230174	0.922051282051284	0.67871178482111
11	0.557680289963755	0.186674103858369	0.974212307545642	0.787538203687273
6	0.300462442194725	0.104019171418338	0.881445331755892	0.777426160337554
-16	0.439695038120234	0.205596123456886	0.865988500663423	0.660392377206537
-17	0.0667416572928352	0.0715851708811427	0.9120495158231	0.840464344941957
29	0.989126359205096	0.316610690710777	0.990902629708599	0.674291938997822
1	0.443819522559678	0.172027926349791	0.972087080446213	0.800059154096422
2	0.757280339957506	0.281325181356184	0.965333710140832	0.684008528784648
-6	0.00787401574803814	0.0184982791629343	0.853821733821736	0.835323454658801
4	-0.924384451943504	-0.374414479564023	0.884762875588565	1.25917735515259
18	0.255093113360831	0.0554616529638446	0.850813126886748	0.795351473922903
-13	0.473315835520561	0.216656445156653	0.909140667761357	0.692484222604704
17	0.612673415823025	0.191847651954036	1.05606214116852	0.864214489214488
-17	0.105986751656043	0.0847690775568213	0.93351666907898	0.848747591522158
8	0.36157980252469	0.120807940744851	0.953064713064715	0.832256772319863
5	0.713035870516189	0.270675087572634	0.950310559006212	0.679635471433578
19	-0.00712410948631259	-0.060105881970833	0.936219336219337	0.99632521819017
28	0.622422197225351	0.177765098710462	0.931200701139352	0.75343560242889
7	0.2689663792026	0.0880180091360219	0.919008182983339	0.830990173847317
-3	0.321209848768906	0.132202121591795	0.900282403349889	0.768080281758094
24	0.318960129983751	0.0651416106496078	0.859989385825252	0.794847775175644
-10	0.380702412198477	0.170553824285168	0.87863247863248	0.708078654347311
-29	-0.731158605174353	-0.186239145604753	0.902880301056593	1.08911944666135
-3	0.879015123109611	0.341560556369044	0.929288582903041	0.587728026533997
15	0.885139357580305	0.315389376169194	0.934080869860687	0.618691493691494
2	0.124359455068116	0.0425890442063999	0.933516669078979	0.89092762487258
8	0.0481189851268558	-0.00211681287194243	0.846709192503585	0.848826005375527
10	-0.0398700162479688	-0.0432160858740881	0.872243933034207	0.915460018908295
3	0.301587301587299	0.112996429343002	0.864905209732796	0.751908780389794
-20	-0.0206224221972269	0.0442993779683939	0.908406464297703	0.864107086329309
-16	0.0111236095488048	0.0485746438512262	0.940881615804216	0.89230697195299
18	1.11223597050369	0.400943515535979	0.986853637160386	0.585910121624407
4	0.362329708786408	0.131939185770964	0.915848595848597	0.783909410077633
8	0.155230596175483	0.0393903467720521	0.903443223443225	0.864052876671173
5	0.505436820397447	0.187502034883898	0.875465412502449	0.68796337761855
-4	0.594550681164857	0.237430190124802	0.948436748436749	0.711006558311947
-20	-0.289588801399821	-0.0585436463697317	0.82901098901099	0.887554635380722
-17	-0.124734408198973	0.000746738641476452	0.946862026862029	0.946115288220552
7	0.10586176727909	0.0213111620795107	0.946410368428718	0.925099206349207
4	0.346956630421192	0.126910640799528	0.86302175191064	0.736111111111113
-12	0.472190976127984	0.21141068158612	1.02784992784993	0.816439246263809
16	0.626046744156982	0.208831036440342	0.97535245982451	0.766521423384169
-5	0.449443819522561	0.188840855126818	0.972087080446213	0.783246225319395
-11	0.222847144106985	0.11425047016534	0.906574563981971	0.792324093816631
-13	0.449693788276463	0.206120970325827	0.950127376053301	0.744006405727474
6	0.219597550306213	0.0695391907830768	0.96257103664511	0.893031845862034
10	0.692788401449824	0.246530404866875	0.98339886413281	0.736868459265935
1	0.633670791151103	0.242976305909847	1.02293844367015	0.779962137760304
-18	0.823897012873393	0.357594244597916	1.08057123558643	0.722976990988518
-4	-0.484314460692413	-0.173777208046947	0.823142953052318	0.996920161099265
-1	0.651543557055369	0.258196629312327	0.909676151162219	0.651479521849892
13	0.606424196975379	0.210315147117897	0.925268658187914	0.714953511070017
1	0.681289838770152	0.261545733631211	0.998354626403407	0.736808892772196
-8	0.278340207474066	0.129094255181212	0.90648723257419	0.777392977392978
-9	0.279965004374457	0.132066285947806	0.90648723257419	0.774420946626384
-2	0.41507311586052	0.166052991599155	0.875547765118318	0.709494773519163
34	0.912260967379079	0.289381491267021	0.896753027452116	0.607371536185095
0	0.53968253968254	0.216213509588904	0.883130539281958	0.666917029693054
17	1.12485939257593	0.407239235176495	0.977234114848795	0.5699948796723
-4	0.469566304211972	0.18784887255638	0.964499572284003	0.776650699727623
16	0.0704911886014274	-0.0168324978944868	0.881445331755892	0.898277829650378
-4	0.388201474815652	0.158894908595509	0.942328042328043	0.783433133732534
18	0.604299462567182	0.195477372953272	0.918833382023567	0.723356009070295
32	0.740282464691917	0.218711285201724	0.921751371292657	0.703040086090933
-11	-0.0207474065741726	0.0219455833693015	0.899900793650795	0.877955210281493
-17	0.0212473440819898	0.0543489077971838	0.915460018908295	0.861111111111111
25	0.816272965879265	0.252974108712619	0.979430825584671	0.726456716872052
4	0.580552430946134	0.212700904696853	0.937890271223605	0.725189366526753
32	0.676790401199855	0.192714850932859	0.909421872724626	0.716707021791767
-13	0.15748031496063	0.0949453918203919	0.893601190476191	0.7986557986558
-17	0.105986751656042	0.0835648734958253	0.90900757466107	0.825442701165245
-12	0.180477440319961	0.101531523900566	0.94975167981303	0.848220155912464
0	0.476190476190478	0.186080586080587	0.891037851037853	0.704957264957266
-46	-0.0772403449568819	0.0837129752122574	0.893873403019744	0.810160427807487
-10	-0.0416197975253065	0.00839628780805368	0.814045214045215	0.805648926237161
16	0.209348831396073	0.0398740491333074	0.894130903390162	0.854256854256855
28	0.365204349456319	0.0684867381295956	0.903108465608466	0.83462172747887
-9	-0.385576802899634	-0.123173217712364	0.89719396530542	1.02036718301778
26	0.861642294713159	0.266735854203775	1.04899724360802	0.782261389404247
-4	0.448693913260841	0.183953246058033	0.838134430727023	0.654181184668989
-7	0.404699412573428	0.173985021972638	0.859747407735023	0.685762385762385
17	0.818022747156607	0.291838512549235	0.875184856551317	0.583346344002082
-24	0.172603424571926	0.122667946524212	0.875547765118318	0.752879818594106
4	0.63267091613548	0.239447996276699	0.931461885165588	0.69201388888889
31	1.07199100112486	0.337249291421225	1.04097017371354	0.703720882292311
-34	-0.161479815023121	0.0216360459203	0.832262148213069	0.810626102292769
-22	0.437320334958133	0.220741642023944	0.977234114848795	0.756492472824851
9	0.654293213348334	0.228900858530489	0.99237332570666	0.763472467176171
-24	0.193600799900014	0.127853744100243	0.877353544020211	0.749499799919968
-6	0.387326584176979	0.167356976385179	0.978328173374613	0.810971196989434
13	0.715910511186097	0.255929830902365	0.890952872377021	0.635023041474656
7	0.54418197725284	0.19264020379221	0.873966353008269	0.681326149216058
4	0.0632420947381571	0.0133080922242312	0.956597222222223	0.943289129997992
-25	0.415073115860515	0.216254370703076	0.884389061959155	0.668134691256079
17	0.706911636045496	0.244176796401622	0.900226757369615	0.656049960967994
13	0.446069241344827	0.142241276816327	0.965845987517814	0.823604710701486
7	0.836020497437822	0.312441447017136	0.884762875588564	0.572321428571429
6	0.536307961504813	0.196871787216615	0.884835164835166	0.68796337761855
-21	0.388576427946509	0.200907633091688	0.931529133392488	0.7306215003008
-3	0.496562929633795	0.199516973050611	0.99220867208672	0.79269169903611
7	0.644669416322958	0.235027462090375	0.918457220286488	0.683429758196113
-12	0.0558680164979353	0.0549372578080151	0.914926643633267	0.859989385825252
31	0.952005999250094	0.302873274589478	0.988662131519274	0.685788856929796
12	0.329583802024751	0.0993699421857774	0.887915084234103	0.788545142048326
12	0.452068491438572	0.146470284648303	0.915134848265547	0.768664563617244
1	0.396450443694535	0.154440179498589	0.92834890965732	0.773908730158731
12	0.00162479690039197	-0.0344184861318799	0.937890271223605	0.972308757355485
-2	0.208223972003496	0.0870232715267921	0.96257103664511	0.875547765118318
16	0.679540057492814	0.226587040150862	0.989563613416826	0.762976573265963
5	0.379702537182855	0.137822668956945	0.90648723257419	0.768664563617244
-22	-0.0767404074490674	0.0280349980016281	0.877543912026671	0.849508914025043
18	0.810648668916388	0.278394626115924	0.955935339370923	0.677540713254999
20	0.357955255593051	0.0911254473632646	0.887909073094257	0.796783625730993
-13	0.330458692663419	0.159782284834218	0.852266507438921	0.692484222604704
10	0.88576427946507	0.326467817896391	0.965470085470087	0.639002267573697
16	0.697412823397074	0.242120506755376	0.844629467328855	0.602508960573478
11	0.548681414823148	0.185815316355057	0.979916763453349	0.794101447098292
-13	0.463942007249092	0.210071894254777	0.89719396530542	0.687122071050643
-7	0.469941257342837	0.198945967018258	0.909645909645911	0.710699942627653
-1	0.191351081114856	0.0774295663184535	0.86302175191064	0.785592185592187
21	0.576802899637547	0.171563916053128	0.94750430292599	0.775940386872863
12	0.811148606424201	0.283823654540167	0.99237332570666	0.708549671166493
14	0.80514935633046	0.286564456919413	0.897092374156595	0.610527917237183
3	0.296712910886141	0.106173572564975	0.917144769554409	0.810971196989434
-3	-0.0428586426696667	-0.000990731369504116	0.915917244090618	0.916907975460122
-18	0.214098237720284	0.128230751478474	0.890182614320545	0.761951862842071
55	0.299962504686913	-0.0235802110484371	0.813114134542706	0.836694345591143
-6	0.558180227471564	0.23568267278959	0.9120495158231	0.67636684303351
16	0.379702537182853	0.108718171251806	0.798756149633344	0.690037978381537
-29	0.0357455318085238	0.0888577545710528	0.931200701139352	0.8423429465683
23	0.174603174603173	0.00966848520337971	0.835480291407343	0.825811806203963
22	0.641794775653046	0.201623691129666	0.918833382023567	0.717209690893901
-21	0.248218972628417	0.139829208279055	0.829353017802866	0.689523809523811
20	0.436445444319458	0.122663284496891	0.943745632424877	0.821082347927985
23	0.813898262717159	0.262502902287848	0.956051289384624	0.693548387096776
39	1.09886264216973	0.347052591950552	0.962104962104963	0.615052370154411
-8	0.466941632295963	0.193111805445692	0.891109221466364	0.697997416020672
-30	-0.0789901262342165	0.0453388831573885	0.875435540069687	0.830096656912298
11	0.847519060117486	0.304498183808529	0.954545454545455	0.650047270736926
2	0.74490688663917	0.288773978192687	0.953363801661015	0.664589823468328
3	0.615673040869887	0.23193781827928	0.936895083236547	0.704957264957266
17	0.529058867641544	0.164801166552278	0.908406464297702	0.743605297745425
-8	0.550181227346581	0.233355526751332	0.950127376053301	0.71677184930197
8	0.408198975128113	0.139129737115617	0.94975167981303	0.810621942697414
40	0.744156980377457	0.198562681316747	0.962831509415361	0.764268828098615
4	0.329583802024752	0.11725767618062	0.995728362700841	0.878470686520222
24	0.819147606549179	0.274242199475844	0.94090886614251	0.666666666666667
1	0.460067491563555	0.180380156242225	0.887301587301588	0.706921431059363
-40	-0.0403699537557807	0.0932501339900937	0.962763302385943	0.869513168395849
-25	-0.206849143857017	-0.0128681102070453	0.875787351977829	0.888655462184874
-24	0.0674915635545528	0.0844584785133555	0.881581494386372	0.797123015873017
-10	0.118360204974377	0.0701850532276412	0.890135711887977	0.819950658660336
14	0.35533058367704	0.104371920835131	0.934628887899915	0.830256967064784
-28	-0.231471066116733	-0.00982726571517123	0.92809872120217	0.937925986917341
0	0.333333333333334	0.130256410256411	0.853821733821735	0.723565323565324
-3	0.180227471566053	0.0767983526544949	0.920586965904186	0.843788613249691
-5	0.0977377827771546	0.0505853708280279	0.795392347116485	0.744806976288457
-19	-0.0421197350331215	0.0347378699113713	0.895848981022482	0.861111111111111
-11	-0.287839020122485	-0.0810732353175417	0.868924381346742	0.949997616664284
30	0.73403324584427	0.227579757128886	0.884711779448622	0.657132022319736
-36	0.189351331083613	0.160009517772715	0.963218721526878	0.803209203754163
-17	0.306961629796275	0.160743459696662	0.883863263173608	0.723119803476946
38	0.840394950631174	0.246062385103482	0.917893217893219	0.671830832789736
12	0.56617922759655	0.191980509499077	0.952575117712733	0.760594608213657
-8	0.215848018997622	0.10510563476994	0.922158337019018	0.817052702249078
28	0.551931008623921	0.150796231771841	0.887727448703058	0.736931216931217
-12	0.301462317210351	0.147421217901377	0.912747707778764	0.765326489877388
13	0.214473190851142	0.053342920820946	0.839627805145047	0.7862848843241
-29	0.338707661542307	0.201068031985906	0.950310559006212	0.749242527020306
2	0.538057742782158	0.205503351138029	0.97787545787546	0.772372106737431
-24	0.255843019622549	0.158956688145645	0.937789608597063	0.778832920451417
-7	-0.164979377577795	-0.0436687408976536	0.922051282051283	0.965720022948937
-10	0.0594925634295707	0.0513815094747517	0.950310559006212	0.89892904953146
-11	-0.360329958755151	-0.106194936823023	0.897092374156595	1.00328731097962
-12	0.887264091988499	0.373876769515398	0.984868713840676	0.610991944325278
-1	0.397450318710165	0.159273320312108	0.969091984619936	0.809818664307828
4	0.421322334708158	0.150893307180731	0.928286284573709	0.777392977392978
-15	0.526684164479442	0.243911395403934	0.988095238095239	0.744183842691305
-27	0.371078615173105	0.202231337351679	0.958464024332287	0.756232686980609
21	0.145481814773155	0.00177604171128276	0.853939129168488	0.852163087457205
-1	0.682914635670544	0.273049714434061	0.918799603174604	0.645749888740543
13	0.509561304836892	0.169299434544614	0.940881615804216	0.771582181259602
4	1.00912385951756	0.377033278755671	1.0286953620287	0.651662083273026
38	0.849893763279593	0.244597300652811	0.973770809136663	0.729173508483852
16	0.753030871141109	0.26284297938177	0.950310559006212	0.687467579624442
-1	0.461817272840895	0.180558516120826	0.933516669078979	0.752958152958153
2	0.982752155980501	0.381899029069491	0.91901822457378	0.537119195504289
-10	0.560304961879764	0.236541395779634	0.902880301056593	0.666338905276959
28	0.476315460567428	0.121392496392496	0.825113378684807	0.703720882292311
-12	0.287089113860767	0.140304375219582	0.878470686520222	0.73816631130064
-6	0.131858517685283	0.0685907180805553	0.947188844385105	0.87859812630455
36	0.922884639420073	0.278484627349001	0.942762378583274	0.664277751234272
-19	0.167354080739911	0.107573189084818	0.82901098901099	0.721437799926172
-8	0.106736657917763	0.0639018505685183	0.965470085470087	0.901568234901569
-1	0.38145231846019	0.153292650303156	0.91578895317213	0.762496302868974
-9	0.13485814273216	0.0759857311719021	0.874702380952382	0.79871664978048
18	0.701912260967384	0.22749048971135	0.983935742971888	0.756445253260539
7	0.454193225846769	0.159667723179234	0.918457220286489	0.758789497107254
-15	-0.122825146856648	-0.000865587959929637	0.867674952580612	0.868540540540541
11	0.408573928258969	0.131992574353077	0.937384360697245	0.805391786344167
-17	0.229721284839397	0.133556032452546	0.93139880952381	0.797842777071264
-40	-0.240219972503443	0.012036882810297	0.874641422834193	0.862604540023896
14	0.752280964879391	0.255991195864614	1.04617604617605	0.790184850311433
1	0.808023997000377	0.309140617347305	0.911784511784512	0.602643894437207
5	0.443819522559674	0.163283972316266	0.9534688226277	0.790184850311434
-24	0.532933383327082	0.2612115176868	1.08718313195925	0.82597161427245
15	0.446319210098733	0.138222043382056	0.931461885165588	0.793239841783532
13	-0.131858517685286	-0.0909825353230935	0.909421872724626	1.00040440804772
18	0.429571303587052	0.126880476863293	0.909140667761357	0.782260190898065
6	0.427446569178852	0.1542218428373	0.925268658187914	0.771046815350614
44	0.604799400074989	0.144966910484151	0.839627805145047	0.694660894660895
32	0.629171353580805	0.174889321647214	0.884762875588564	0.70987355394135
2	0.267716535433072	0.099284500752391	0.866268627736518	0.766984126984127
-5	-0.0711761029871241	-0.00699553762454819	0.884711779448621	0.891707317073169
-19	0.135608048993881	0.0965381775846912	0.841416361416363	0.744878183831672
-11	0.14623172103487	0.0857052122821906	0.937384360697245	0.851679148415054
34	0.882764654418196	0.286604189075777	0.87810908371656	0.591504894640783
-23	0.0444944381952239	0.0755020213997929	0.903257123440611	0.827755102040818
2	0.428696412948376	0.166199107087569	0.962763302385943	0.796564195298374
11	0.307836520434946	0.0923786303096649	0.875132275132276	0.782753644822611
-52	-0.318335208098985	0.0184516168469966	0.912311265969802	0.893859649122806
-17	-0.428446444194478	-0.110650080482817	0.981236527532823	1.09188660801564
-3	0.323084614423196	0.131829421289775	0.999760226346328	0.867930805056553
1	0.444319460067494	0.17437081100061	0.978653530377668	0.804282719377058
3	0.616422947131612	0.233319675949167	0.974486318044601	0.741166642095434
24	1.04911886014248	0.361460580046459	0.958025763496888	0.596565183450429
22	0.609423822022246	0.189319489941332	0.850353796136929	0.661034306195598
-9	0.209598800149982	0.103053288893997	0.924001924001925	0.820948635107927
1	0.205599300087489	0.0780711461539348	0.894130903390162	0.816059757236227
-19	0.153855768029	0.10689862975806	0.912649722465674	0.805751092707614
-10	0.31346081739783	0.148720584794073	0.956571034210786	0.807850449416713
15	0.530308711411075	0.167479786527406	0.972871572871574	0.805391786344168
27	0.725409323834518	0.229970461394609	0.890952872377021	0.660982410982412
-13	0.216472940882392	0.11751671106771	0.958739866996749	0.841223155929039
10	0.374078240219975	0.119933917218778	0.936895083236547	0.816961166017769
17	0.34495688038995	0.0856222916845608	1.01064653503678	0.925024243352218
11	1.00549931258593	0.381910235358511	0.915460018908295	0.533549783549783
-17	0.192725909261342	0.124183821376804	1.05851037851038	0.934326557133576
31	0.431321084864393	0.0963920126874285	0.868402777777778	0.77201076509035
15	1.23434570678666	0.456645121782738	0.952575117712734	0.495929995929996
-8	-0.225596800399947	-0.0658463966020617	0.832262148213069	0.898108544815131
31	0.764654418197728	0.23611677514143	0.93139880952381	0.69528203438238
28	0.78465191851019	0.240995218772998	1.0026862026862	0.761690983913206
-14	0.358705161854773	0.174510248846534	0.971672771672773	0.797162522826239
0	0.285714285714285	0.108315565031983	0.942762378583274	0.834446813551291
4	0.0597425321834808	0.0123805947079743	0.897092374156595	0.884711779448621
-32	0.0661167354080798	0.103398519810776	0.881445331755892	0.778046811945116
3	0.0616172978377709	0.0158473758335305	0.912796394277875	0.896949018444345
-14	-0.103362079740036	-0.00154451436502834	0.900352733686066	0.901897248051095
10	0.394950631171103	0.130869377448759	0.90657456398197	0.775705186533211
-5	-0.186726659167607	-0.0591789582959827	0.884389061959155	0.943568020255137
-17	0.454068241469814	0.216355974084226	0.909508974929535	0.693153000845309
11	0.882014748156481	0.318505888416253	1.00450058072009	0.68599469230384
21	0.407449068866389	0.106742412567654	0.893458393458394	0.78671598089074
5	0.408323959505063	0.147595651299567	0.866268627736518	0.718672976436952
-26	-0.0347456567928974	0.0549920602111602	0.918457220286488	0.863465160075328
6	0.23997000374953	0.0806283164773726	0.886692622541678	0.806064306064306
-11	0.0827396575428079	0.060163211971845	0.887915084234103	0.827751872262258
27	0.239095113110863	0.0252845610274266	0.844629467328855	0.819344906301428
0	0.174603174603175	0.0659958427815572	0.873110355253212	0.807114512471655
-14	-0.0451193600799904	0.0211668257141823	0.91578895317213	0.894622127457948
-3	0.638670166229224	0.254860365588172	0.912649722465674	0.657789356877503
19	1.17385326834146	0.40890282926211	1.06710388746317	0.658201058201058
12	0.647044119485067	0.228242133736254	0.875547765118318	0.647305631382064
3	0.868141482314712	0.325924918373741	1.00822336966915	0.682298451295412
-2	0.336457942757158	0.134956856047042	0.970280310705843	0.835323454658801
-19	-0.555680539932506	-0.152749188051781	0.924603174603175	1.07735236265496
17	0.32695913010874	0.0822244427867542	0.93351666907898	0.851292226292225
6	0.0102487189101321	-0.0119267042271148	0.856997677119628	0.868924381346743
0	0.412698412698413	0.159794812233837	0.924603174603174	0.764808362369338
34	0.898637670291212	0.287676380483049	0.92834890965732	0.640672529174271
45	0.889263842019747	0.250914703884835	0.959604894589415	0.708690190704579
7	0.82727159105112	0.297389894422536	0.989260986293628	0.691871091871092
-8	-0.0569928758905118	0.000803329461866786	0.937698412698414	0.936895083236547
49	0.810898637670289	0.205898478731759	0.904144092766847	0.698245614035088
36	0.391701037370327	0.0649538782839618	0.871224560879733	0.806270682595772
-11	-0.151856017997752	-0.0291807266878443	0.883130539281958	0.912311265969802
34	0.719785026871643	0.214823852246213	0.868924381346743	0.654100529100529
-4	0.352955880514933	0.147979230320809	0.890952872377021	0.742973642056212
8	0.310961129858765	0.101987756484707	0.856997677119628	0.755009920634921
-5	0.0208723909511304	0.0213778707888801	0.872229593591823	0.850851722802943
5	0.614048243969506	0.225887381054263	1.00450058072009	0.77861319966583
-3	0.129983752030992	0.0581722929667189	0.838134430727023	0.779962137760304
-20	0.403824521934757	0.204746846823226	0.947122708732616	0.74237586190939
-12	0.133733283339586	0.0851244995270942	0.911392405063292	0.826267905536198
24	0.572928383952006	0.168963741757603	0.884498480243161	0.715534738485558
55	0.824771903512064	0.213315321243301	0.868924381346743	0.655609060103442
16	0.562554680664916	0.189026657361817	0.850142955733018	0.661116298371201
12	0.359830021247346	0.10855090252207	0.958739866996749	0.850188964474679
-1	0.461942257217849	0.179884588948034	0.875132275132276	0.695247686184242
-27	-0.55155605549306	-0.133658179954475	0.856799921614736	0.990458101569211
13	0.325584301962254	0.0989207246813734	0.852266507438921	0.753345782757548
-5	0.389701287339083	0.161696002986068	0.902880301056593	0.741184298070525
-39	-0.121109861267339	0.0553242373668734	0.90648723257419	0.851162995207316
2	0.012998375203102	-0.000526754185289913	0.911784511784512	0.912311265969802
-43	-0.082239720034992	0.0808075861336747	0.934456654456656	0.853649068322981
15	0.855268091488568	0.3025546872725	0.968302658486708	0.665747971214209
-15	0.65466816647919	0.284537441894125	0.982534857914797	0.697997416020671
-13	0.26409198850144	0.135068114911613	0.952575117712733	0.81750700280112
15	0.56580427446569	0.184676410890078	0.936895083236547	0.752218672346468
-5	0.545306836645418	0.223803329229423	0.875465412502449	0.651662083273026
-6	0.452318460192478	0.190824268044813	0.953064713064715	0.762240445019902
43	0.964129483814528	0.297386884195397	0.897240537240539	0.599853653045142
-62	-0.621172353455818	-0.063226683916339	0.883863263173608	0.947089947089947
-24	-0.278715160604926	-0.0380554930267776	0.915134848265547	0.953190341292325
16	0.846144231971001	0.293146507791882	0.944947969117153	0.651801461325271
-13	-0.201099862517189	-0.0400936552711487	0.925240054869684	0.965333710140832
49	0.785526809148858	0.201995292274352	0.918799603174604	0.716804310900252
-15	0.590176227971505	0.26318630063966	0.881001984126985	0.617815683487325
-25	-0.36607924009499	-0.0727332984475847	0.841416361416363	0.914149659863947
19	0.659542557180355	0.213253805858309	0.917893217893219	0.70463941203491
-2	0.493438320209976	0.19924310751318	0.944050083801637	0.744806976288457
4	0.218972628421447	0.0754886110218961	0.875547765118318	0.800059154096422
-27	0.0789901262342192	0.100455312924549	0.9120495158231	0.81159420289855
11	0.366454193225848	0.117140168896675	0.919008182983339	0.801868014086664
-34	0.135858017747785	0.133624060866402	0.903443223443225	0.769819162576823
-6	0.146231721034868	0.0738103276034299	0.90282131661442	0.82901098901099
9	0.778902637170353	0.291179787675114	0.896949018444345	0.605769230769231
-4	0.085114360704913	0.0434981670880674	0.897092374156595	0.853594207068528
11	0.360954880639921	0.112361909089926	0.94975167981303	0.837389770723105
47	0.729607799025121	0.177692253020611	0.91869225302061	0.741
26	0.56655418072741	0.16082256195651	0.874641422834195	0.713818860877685
-6	0.485564304461943	0.201126858619214	0.884762875588565	0.683636016969351
-8	0.804149481314835	0.329606491810865	0.912796394277875	0.58318990246701
1	0.235720534933135	0.0862949449479765	0.941406433988037	0.85511148904006
34	0.762029746281715	0.222623309481812	0.927916120576672	0.70529281109486
-1	0.255343082114734	0.101171942570489	0.856997677119628	0.755825734549139
10	0.241219847519059	0.0704029057859699	0.881001984126985	0.810599078341015
-21	-0.185726784151978	-0.013866166408538	0.88946088946089	0.903327055869428
7	0.627921509811273	0.226432231850495	0.97640758431032	0.749975352459825
-17	0.539807524059492	0.246858842736979	0.91901822457378	0.672159381836801
19	0.828521434820648	0.293562057355161	0.90282131661442	0.609259259259259
-1	-0.17360329958755	-0.0649355416226576	0.87863247863248	0.943568020255137
7	0.359830021247344	0.122509374544925	0.927916120576672	0.805406746031747
-29	-0.248593925759279	-0.0212591002791135	0.831361530119295	0.852620630398408
15	0.126984126984127	0.0077072748040492	0.915848595848597	0.908141321044548
8	0.557055368078993	0.203191137566139	0.918799603174604	0.715608465608465
33	0.659667541557305	0.186062389679587	0.875435540069686	0.689373150390099
4	0.269091363579551	0.096409107848124	0.90322899668694	0.806819888838816
38	0.791151106111738	0.219984617940239	0.971069365564779	0.75108474762454
13	-0.020747406574174	-0.0457874625466498	0.903257123440611	0.94904458598726
-5	0.469066366704161	0.192424096661215	0.939643942683456	0.747219846022241
3	0.618297712785902	0.237875984657857	0.959748800870295	0.721872816212438
17	0.672915885514311	0.212782065765531	1.00925143232836	0.796469366562824
4	0.266591676040495	0.0935018801688008	0.937384360697245	0.843882480528444
-17	-0.0951131108611438	0.0119436959341375	0.950127376053301	0.938183680119164
11	0.380952380952382	0.122775200948576	0.915917244090618	0.793142043142042
-1	0.191476065491814	0.077364734788048	0.903443223443225	0.826078488655177
-37	-0.407574053243346	-0.0499353393005703	0.902316213494461	0.952251552795031
26	0.640544931883514	0.203696882407015	0.833308453998109	0.629611571591094
28	0.412573428321463	0.0894996654869025	0.915586622008641	0.826086956521739
1	1.07811523559555	0.415382541221655	1.0905439411537	0.675161399932043
7	0.0564929383826995	0.00345275328756134	0.866116659429729	0.862663906142168
25	0.803274590676167	0.263546663776247	0.844281889462613	0.580735225686366
21	0.497312835895515	0.14211082535532	0.943568020255138	0.801457194899818
-7	0.452318460192474	0.192178753479062	0.853506314806624	0.661327561327562
40	1.10098737657793	0.337856396477088	1.04617604617605	0.708319649698959
9	0.876515435570556	0.319201476608885	0.877353544020211	0.558152067411326
4	0.466941632295963	0.165677098887601	0.991359068282145	0.825681969394544
-1	0.255093113360829	0.102298774584472	1.05487389229721	0.952575117712733
14	0.923384576927887	0.324118576732809	1.01429527634347	0.690176699610661
1	0.332208473940758	0.126629000974698	0.909421872724626	0.782792871749928
-3	0.592175978002752	0.235514209101568	0.994789405123752	0.759275196022183
7	0.54143232095988	0.199851553299829	0.915460018908295	0.715608465608465
20	0.980377452818396	0.340930165818765	0.958025763496888	0.617095597678123
16	0.209223847019122	0.0376490894258165	0.917144769554409	0.879495680128592
44	0.739657542807151	0.181410828499183	0.94750430292599	0.766093474426808
8	0.396325459317587	0.137202023798535	0.90648723257419	0.769285208775655
44	0.692038495188103	0.167833370519114	0.89892904953146	0.731095679012346
-20	-0.0564929383827031	0.0295777458853212	0.865988500663423	0.836410754778102
-4	0.420947381577306	0.171255316048777	1.02036718301779	0.849111866969009
-42	0.149356330458692	0.158626406806023	0.957128470723636	0.798502063917613
6	0.661792275965507	0.244716820297718	0.915586622008641	0.670869801710923
-12	0.339207599050119	0.15919689350553	0.894098743791996	0.734901850286466
-7	0.352705911761023	0.155559241596975	0.823300389338124	0.667741147741149
37	0.955630546181733	0.290198582281918	1.02129426129426	0.731095679012345
-19	0.466566679165104	0.221936561640697	0.887909073094258	0.665972511453561
2	0.599300087489065	0.22296743289096	1.04296169565631	0.819994262765346
11	0.392700912385952	0.127320476020447	0.887915084234103	0.760594608213657
30	0.85351831021123	0.264847995695456	1.00888888888889	0.744040893193435
11	-0.208348956380456	-0.110967788824933	0.873110355253212	0.984078144078145
-6	0.118985126859144	0.0616922117828468	0.884835164835166	0.823142953052319
-15	-0.394825646794152	-0.107367187790996	0.887727448703058	0.995094636494054
-2	0.352080989876266	0.141213235725431	0.943041037553233	0.801827801827801
24	0.357580302462192	0.0802362200813148	0.862497609485562	0.782261389404247
12	0.170853643294592	0.035642801009533	0.875547765118318	0.839904964108785
19	0.653918260217471	0.221647841303013	0.871224560879733	0.64957671957672
38	0.375203099612545	0.0580579541644224	0.821589279533204	0.763531325368782
20	0.38470191226097	0.102034360665421	0.881731424676211	0.779697064010789
4	0.458067741532305	0.169996815598666	0.943905545757397	0.773908730158731
31	0.594300712410949	0.16190489654165	0.909676151162219	0.74777125462057
45	1.02449693788277	0.310635173793069	0.924001924001925	0.613366750208856
23	0.73015873015873	0.229649621866083	0.97640758431032	0.746757962444237
10	0.294713160854895	0.0886243386243395	0.924603174603174	0.835978835978835
4	0.330583677040372	0.120461317844496	0.82901098901099	0.708549671166494
-41	-0.364454443194599	-0.0141409288950263	1.0026862026862	1.01682713158123
-12	0.123859517560309	0.0794511378848742	0.887301587301588	0.807850449416714
-16	0.263092113485818	0.142061129399879	0.912747707778765	0.770686578378886
58	1.03299587551556	0.282380817124019	0.932767467510669	0.65038665038665
8	0.442944631921008	0.155639643771738	0.90343505823382	0.747795414462082
9	-0.0849893763279543	-0.0565401203275514	0.79845638561235	0.854996505939901
-6	-0.122109736282968	-0.0310823310909065	0.89066904020175	0.921751371292657
-5	0.246219222597173	0.107601794593664	0.912311265969802	0.804709471376139
21	0.793525809273843	0.268072378934723	0.956571034210786	0.688498655276064
7	0.663167104111991	0.244006880610656	0.946862026862028	0.702855146251372
12	0.742282214723162	0.266053045682604	0.894098743791996	0.628045698109392
-16	-0.469066366704166	-0.136868133956241	0.840429214260989	0.97729734821723
-6	-0.439570053743286	-0.155068690522692	0.85298917074618	1.00805786126887
14	0.251343582052246	0.0610800242702095	0.918833382023567	0.857753357753357
-41	0.0799900012498491	0.130351154613452	0.915848595848597	0.785497441235145
3	0.410823647044118	0.153774305383859	0.937683715461493	0.783909410077634
9	0.276715410573682	0.0811748998664903	1.00952380952381	0.92834890965732
-14	0.371078615173101	0.178411205181744	0.928399429947417	0.749988224765673
13	0.445694288213975	0.143701737451738	0.816816816816818	0.67311507936508
17	0.65079365079365	0.213525579390134	0.980669977602494	0.76714439821236
-14	0.281089863767031	0.14181116209265	0.894098743791996	0.752287581699346
6	0.678415198100238	0.251554131366248	0.943568020255138	0.692013888888889
-18	0.440819897512809	0.215438130333506	0.947188844385105	0.731750714051599
22	0.222097237845269	0.0302284074620062	0.876771318411696	0.84654291094969
3	0.439945006874139	0.161980261364978	0.914496715100944	0.752516453735966
41	1.03537057867766	0.332220286488579	0.881581494386372	0.549361207897794
-33	-0.0797400324959399	0.0583097436505459	0.937683715461492	0.879373971810947
5	0.0413698287714013	0.00260850260850176	0.881240981240982	0.87863247863248
1	-0.000624921884766927	-0.00301340978801989	0.890952872377021	0.893966282165041
5	0.327084114485687	0.113974913974913	0.899567099567101	0.785592185592187
-16	0.394075740532432	0.188982835932727	0.887909073094258	0.698926237161531
17	0.772528433945757	0.273629133841874	0.87810908371656	0.604479949874686
5	0.662292213473318	0.24651881760549	0.946410368428718	0.699891550823228
-37	-0.0569928758905114	0.0789737720505753	0.959748800870295	0.88077502881972
10	0.163979502562181	0.038284905777918	0.853594207068527	0.815309301290609
11	0.986876640419942	0.369799796782008	0.972308757355486	0.602508960573478
3	0.250218722659666	0.0889999736569556	0.921262121870025	0.832262148213069
7	0.724909386326711	0.268074517013738	0.897092374156595	0.629017857142858
-19	-0.252468441444814	-0.0354967946632918	1.05047816227941	1.0859749569427
31	0.955880514935631	0.307104142469995	0.973770809136662	0.666666666666667
7	1.05561804774403	0.391457997340351	1.08893698893699	0.697478991596639
-1	0.207474065741782	0.083275039063861	0.881731424676211	0.79845638561235
-29	-0.222722159730029	-0.00752272045612545	0.885875025115532	0.893397745571658
18	0.307211598550178	0.0763708775691335	0.869243582206545	0.792872704637411
45	0.746406699162603	0.188683374397341	0.940881615804216	0.752198241406875
-2	0.495938007749034	0.194248908952034	0.94750430292599	0.753255393973956
-3	0.209348831396073	0.0896239305175754	0.906574563981971	0.816950633464395
-8	0.699037620297464	0.283513921975461	0.881240981240982	0.597727059265521
-25	-0.0743657042869637	0.0398968154865696	0.94750430292599	0.90760748743942
0	0.317460317460318	0.122919086333721	0.863143631436314	0.740224545102594
27	0.864891888513934	0.288551297810556	0.894130903390162	0.605579605579606
2	0.268466441694784	0.0999457754116125	0.956349206349206	0.856403430937593
34	1.05511811023622	0.340289788231678	0.988662131519275	0.648372343287597
15	0.515435570553678	0.169338832798608	0.909508974929535	0.740170142130927
-31	-0.490438695163101	-0.101105630550558	0.841609630600457	0.942715261151014
22	0.882639670041246	0.294446821971575	1.03990231990232	0.745455497930746
12	0.542807149106358	0.18217214094473	0.886785236182826	0.704613095238096
27	0.473815773028372	0.119843696907917	0.897092374156595	0.777248677248678
18	0.647544056992876	0.205210540358146	0.954797441364605	0.749586901006459
9	0.615673040869895	0.21976399128298	0.971672771672773	0.751908780389793
-6	-0.0382452193475813	0.000800276029633951	0.853939129168488	0.853138853138854
19	0.566679165104358	0.171935779573782	0.982534857914797	0.810599078341015
2	0.600799900012496	0.228117599975298	0.967624854819976	0.739507254844679
-4	0.272590926134227	0.117714103134661	0.909508974929535	0.791794871794874
-11	0.0268716410448744	0.0412630976358336	0.93139880952381	0.890135711887977
-19	0.0332458442694694	0.0625411454904555	0.900226757369615	0.83768561187916
13	0.344331958505195	0.0980435987740408	0.995728362700841	0.897684763926801
29	0.68341457317835	0.203639684779508	0.928399429947417	0.724759745167909
4	0.233345831771028	0.0797703478554541	0.927389395474502	0.847619047619048
-11	0.56305461817273	0.239131822941943	0.890625753847639	0.651493930905695
28	0.751031121109858	0.238616727245478	0.909508974929535	0.670892247684057
-40	0.614548181477319	0.328909031784707	1.02543626146111	0.696527229676401
-7	0.222972128483942	0.102346884699827	0.925782925782927	0.8234360410831
1	0.523684539432574	0.20624577716315	0.921779370055232	0.715533592892082
-5	0.304086989126361	0.133029498291312	0.896501965467483	0.76347246717617
-1	0.444944381952253	0.178510078463639	0.972308757355486	0.793798678891847
50	0.921759780027497	0.259143512477455	0.931529133392488	0.672385620915033
27	0.202599675040616	0.00732569065578037	0.874014175900967	0.866688485245187
15	0.638670166229219	0.218133505395778	0.928399429947417	0.71026592455164
4	0.584551931008629	0.218931376688388	0.990280830280832	0.771349453592444
-3	0.239595050618677	0.102856866430785	0.931398809523811	0.828541943093026
-17	0.194850643669545	0.117685712071233	0.918833382023567	0.801147669952334
6	0.328458942632173	0.1135286509547	0.878598126304549	0.765069475349849
24	1.06111736032996	0.377162328258675	0.884835164835166	0.507672836576491
11	0.634920634920635	0.227033458457607	0.890952872377021	0.663919413919413
-2	0.461692288463945	0.186412997834669	0.881445331755892	0.695032333921223
-6	0.127634045744278	0.0709609816371886	0.887727448703058	0.816766467065869
11	0.281589801274841	0.0829551725257249	0.875547765118318	0.792592592592593
-7	0.279465066866649	0.128044779852011	1.0026862026862	0.874641422834193
4	0.996250468691418	0.378849173662707	1.03888160768895	0.660032434026242
2	0.555180602424702	0.215587875611463	0.975496031746033	0.75990815613457
-11	-0.0138732658417657	0.0247393743822332	0.915848595848597	0.891109221466364
40	1.24796900387452	0.417876261434545	0.974486318044601	0.556610056610056
-18	0.599550056242967	0.272569259832512	0.90322899668694	0.630659736854427
5	0.0432445944256972	0.00370044751491005	0.860103878452503	0.856403430937593
-8	-0.149231346081737	-0.0370819234568254	0.834783036021426	0.871864959478251
-59	-0.192600924884391	0.0814350630313687	0.937698412698413	0.856263349667045
-25	-0.315585551806024	-0.041946918962432	1.00585047714957	1.047797396112
38	0.729283839520064	0.189786976088347	0.97898027898028	0.789193302891932
11	0.36095488063992	0.113225658361504	0.925017041581459	0.811791383219955
20	0.757280339957504	0.257363300829567	0.909676151162219	0.652312850332652
-9	0.4228221472316	0.188070113986312	0.950310559006212	0.7622404450199
-17	0.226596675415575	0.132504861215803	0.980669977602494	0.848165116386691
31	0.702287214098241	0.196854337139732	0.96572002294894	0.768865685809207
-31	-0.422697162854646	-0.0720527554904196	0.90657456398197	0.97862731947239
-14	0.34995625546807	0.172371922821026	0.937698412698414	0.765326489877388
2	0.190101237345335	0.0702611809923144	0.899900793650794	0.82963961265848
33	0.899012623422074	0.29796972650849	0.868402777777779	0.570433051269288
-9	0.428446444194478	0.187127705312503	0.940245619144703	0.753117913832199
-42	-0.792275965504308	-0.17197562830441	0.884762875588564	1.05673850389297
-5	0.403699537557806	0.168119577327592	0.875547765118318	0.707428187790726
11	0.414073240844895	0.137028752504777	0.90648723257419	0.769458480069413
-10	0.28421447319085	0.134653679120301	0.887909073094258	0.753255393973957
18	0.563429571303588	0.180185919636765	0.922158337019018	0.741972417382253
-13	-0.013873265841768	0.0272453173352412	0.837622005323869	0.810376687988628
-15	-0.0316210473690801	0.0289557567040261	0.927916120576672	0.898960363872646
-21	-0.0296212973378327	0.0442652845294574	0.923216676228725	0.878951391699268
38	0.949881264841896	0.295412138591721	0.927916120576672	0.632503981984951
21	0.806899137607799	0.266141659758681	0.97640758431032	0.710265924551639
8	0.805024371953511	0.297299192599576	0.962118998928816	0.664819806329239
-4	0.0379952505936734	0.0254519821446054	0.906165311653116	0.880713329508511
-27	0.0631171103612047	0.096100542121871	0.931067185784166	0.834966643662295
1	0.840269966254217	0.325505442069859	0.92501704158146	0.599511599511601
20	0.69553805774278	0.225532202930923	0.864534470504619	0.639002267573696
5	0.300337457817776	0.107014021262509	0.843882480528444	0.736868459265935
-6	0.468941382327212	0.195430861629399	0.887915084234103	0.692484222604704
4	0.617297837770276	0.233021086122398	1.01577473094501	0.782753644822611
5	-0.0628671416072977	-0.0394007851728031	0.877543912026671	0.916944697199474
9	0.552180977377829	0.19618985796201	0.903443223443225	0.707253365481215
-10	0.461317335333086	0.201161088157146	0.900282403349889	0.699121315192744
30	0.905761779777531	0.288600672440091	0.967624854819977	0.679024182379886
13	0.480689913760779	0.152845751346578	0.957128470723636	0.804282719377058
9	0.494313210848646	0.176544875720922	0.874702380952382	0.69815750523146
17	0.313210848643919	0.0810572902467656	0.856997677119628	0.775940386872863
-7	0.90113735783027	0.364284269708368	1.08439798683701	0.720113717128643
-22	0.17360329958755	0.119113781499332	0.930727315801942	0.81161353430261
15	0.302462192225977	0.0782678455634451	0.901568234901569	0.823300389338124
-4	0.465066866641674	0.190432991527218	0.897240537240538	0.70680754571332
-2	0.255343082114738	0.106263457252646	1.00039436064281	0.894130903390162
26	0.576302962129733	0.156191259594913	0.994789405123752	0.838598145528839
-7	0.333208348956384	0.144520630633224	0.953576209600307	0.809055578967083
-16	0.342457192850895	0.168621843729345	0.843882480528444	0.675260636799099
1	0.586551681039869	0.227818851170531	0.906574563981971	0.67875571281144
16	0.508936382952133	0.162715443492143	0.897240537240539	0.734525093748396
-24	-0.408698912635918	-0.0831584573962612	0.943041037553233	1.02619949494949
25	0.643794525684288	0.203851577938696	0.88948976015222	0.685638182213524
16	0.302587176602926	0.0769417278155148	0.915848595848597	0.838906868033083
-23	0.172978377702792	0.121604390548492	0.868924381346742	0.747319990798251
-15	0.268966379202595	0.146232036169141	0.969102525706298	0.822870489537157
14	0.0996125484314487	0.00100830846172573	0.881445331755891	0.880437023294166
-31	0.45381827271591	0.243121291069619	0.964153037101365	0.721031746031746
5	0.214723159605047	0.0693703896699357	0.917144769554409	0.847774379884473
-4	0.40207474065742	0.165350554921108	0.875547765118318	0.71019721019721
-14	-0.031121109861266	0.0265797446493439	0.93351666907898	0.906936924429636
-7	-0.0362454693163317	0.00540698129007899	0.915586622008641	0.910179640718562
16	0.197350331208602	0.0327371378326807	0.924001924001925	0.891264786169244
16	0.798525184351955	0.274875755382157	0.926677216707428	0.651801461325271
9	0.683664541932259	0.252594152126863	0.89066904020175	0.638074888074887
10	0.271716035495561	0.0817133336290706	0.909508974929535	0.827795641300464
6	0.456942882139734	0.166325015980189	0.82901098901099	0.662685973030801
-21	-0.122109736282962	0.0110598916356598	0.921751371292657	0.910691479656997
30	1.00649918760155	0.326960824293831	0.936744847192608	0.609784022898777
13	0.541307336582922	0.182566790156921	0.934640522875817	0.752073732718896
-5	0.308461442319712	0.131764890017444	0.887915084234104	0.75615019421666
43	0.794150731158608	0.21769289815267	0.877353544020211	0.659660645867542
19	0.949256342957128	0.326628910900589	0.912674721629945	0.586045810729356
-6	0.212723409573804	0.0971114836378748	0.822300850164627	0.725189366526752
16	0.57714135733033	0.195904366524024	0.934640522875817	0.738736156351792
-27	0.319085114360703	0.182603752596881	0.90001935733643	0.717415604739549
22	0.448568928883892	0.124296210354265	0.866268627736519	0.741972417382254
-17	0.285839270091237	0.153513142461768	0.943905545757397	0.790392403295629
26	0.677665291838522	0.201778167759742	0.935360489577358	0.733582321817616
37	0.445694288213971	0.0866126669330319	0.862663906142168	0.776051239209136
1	0.649293838270218	0.247849313806761	0.917893217893219	0.670043904086457
5	0.50231221097363	0.182487862494618	0.933516669078979	0.751028806584362
1	-0.317960254968126	-0.12834826467496	0.818840579710146	0.947188844385106
1	0.38057742782152	0.148179826188003	0.91578895317213	0.767609126984127
-11	0.570678665166854	0.247776156370732	0.934640522875817	0.686864366505085
-6	0.243719535058122	0.109803889742537	0.843882480528444	0.734078590785907
13	0.323959505061868	0.0972430652499875	0.868402777777779	0.771159712527791
-24	0.125859267591551	0.105669179947928	0.852989170746179	0.747319990798251
-3	0.605799275090611	0.244832277976306	0.959604894589415	0.714772616613108
-25	-0.0868641419822556	0.0372772672485919	0.967624854819976	0.930347587571384
17	0.92063492063492	0.321709603888411	1.03013925406564	0.708429650177224
-32	-0.0807399075115649	0.0522617573264881	0.896949018444345	0.844687261117857
4	0.503187101612296	0.18581931408679	0.878371206638684	0.692551892551894
-49	-0.15098112735908	0.0626325173944221	0.856588561350466	0.793956043956044
12	0.550306211723537	0.185111217439746	0.964904616280764	0.779793398841018
-40	0.28533933258343	0.199430138030159	0.918833382023567	0.719403243993408
7	0.111986001749781	0.0261581469648562	0.862103174603175	0.835945027638319
8	0.288213973253343	0.0939837287547675	0.921779370055232	0.827795641300465
-18	-0.307586551681036	-0.0664226937062978	0.897092374156596	0.963515067862894
-15	0.673290838645172	0.29352353335434	0.89396628216504	0.600442748810701
2	0.301212348456446	0.114833844963563	0.868402777777778	0.753568932814215
-26	0.202974628171478	0.140701492480569	0.89719396530542	0.756492472824851
-44	-0.203474565679288	0.038372044786871	0.90648723257419	0.868115187787319
13	0.415948006499187	0.134926058974783	0.856403430937593	0.72147737196281
3	0.428571428571426	0.164031189238521	0.864905209732796	0.700874020494275
-31	0.0256217972753467	0.092672071997917	0.959267399267401	0.866595327269484
3	0.473190851143612	0.176601908932866	0.958739866996749	0.782137958063883
8	0.187976502937128	0.052911293183209	0.894130903390162	0.841219610206953
9	0.218847644044497	0.0606336841779889	0.959267399267401	0.898633715089412
11	0.257467816522938	0.0698113623459883	0.935360489577358	0.86554912723137
2	0.807899012623426	0.31210121835509	0.897240537240538	0.585139318885449
-5	0.279840019997499	0.119653332967963	0.932767467510669	0.813114134542706
10	0.358205224346958	0.114561038916769	0.906165311653116	0.791604272736347
-25	-0.384826896637918	-0.07783847178394	0.883863263173608	0.961701734957548
21	0.685039370078735	0.223696780893041	0.947188844385105	0.723492063492065
-2	-0.104986876640421	-0.0332643520831242	0.961830284410929	0.995094636494053
17	0.720659917510309	0.245786033711729	0.959604894589414	0.713818860877685
28	0.42119735033121	0.101732713633399	0.849503968253969	0.74777125462057
-28	0.14410698662667	0.122805875973577	0.881445331755891	0.758639455782314
-26	0.491938507686534	0.245386747291507	0.900352733686066	0.654965986394559
-7	0.647169103862015	0.266334269419453	1.00450058072009	0.73816631130064
-4	0.22497187851518	0.0991833365665119	0.91578895317213	0.816605616605618
-10	-0.0574928133983237	0.00444359562006691	0.881240981240982	0.876797385620915
12	0.496687914010747	0.166089030137368	0.841413705462044	0.675324675324676
29	1.01674790651168	0.349477468514557	0.909676151162219	0.560198682647662
13	0.177852768403948	0.0360146028300155	0.881445331755892	0.845430728925876
-25	-0.379077615298089	-0.0705847836945298	0.920586965904186	0.991171749598715
15	0.712410948631424	0.248691234724811	0.875547765118318	0.626856530393508
-2	1.17747781527309	0.459685413953706	1.07825203252033	0.618566618566619
-9	0.618922634670668	0.261600078359581	1.03271685840493	0.771116780045352
12	0.654543182102233	0.230528154763703	0.991148692083271	0.760620537319567
-7	0.381702287214101	0.162883611903221	0.98631965298632	0.8234360410831
