3
[ 3.241, 3.871, 1.339, 1.339, 3.871, 3.241, 3.241, 3.871, 3.871, 1.339, 3.241, 1.339, 3.241, 3.871, 3.871, 1.339, 3.241, 3.241, 3.241, 3.871, 3.871, 3.241, 1.339, 3.871, 1.339, 1.339, 3.241, 3.241, 1.339, 3.241, 3.241, 3.241, 1.339, 3.871, 3.241, 3.871, 1.339, 1.339, 1.339, 3.241, 3.241, 1.339, 3.871, 3.241, 3.241, 3.871, 1.339, 3.871, 3.241, 3.241, 3.871, 3.871, 3.871, 1.339, 3.871, 1.339, 1.339, 1.339, 3.241, 3.871, 1.339, 1.339, 3.241, 3.241, 1.339, 1.339, 1.339, 3.871, 1.339, 3.871, 1.339, 3.871, 3.241, 1.339, 1.339, 3.871, 3.241, 3.241, 3.241, 3.871, 3.871, 1.339, 1.339, 3.871, 1.339, 3.241, 3.871, 3.871, 3.241, 3.241, 1.339, 3.241, 3.241, 1.339, 3.241, 3.871, 3.241, 3.871, 3.241, 3.241, 3.871, 3.241, 3.871, 1.339, 1.339, 3.871, 3.241, 1.339, 1.339, 3.241, 3.241, 3.241, 3.241, 1.339, 3.871, 3.871, 1.339, 3.871, 3.871, 3.871, 3.241, 3.871, 1.339, 1.339, 1.339, 3.241, 3.871, 1.339, 3.241, 1.339, 1.339, 3.241, 1.339, 1.339, 3.241, 1.339, 1.339, 3.871, 3.241, 3.241, 1.339, 3.241, 3.241, 3.871, 3.871, 3.871, 3.871, 1.339, 3.241, 3.241, 1.339, 3.241, 3.241, 3.871, 3.241, 3.241, 1.339, 3.241, 3.871, 1.339, 3.871, 3.871, 3.241, 3.871, 3.871, 3.241, 3.871, 3.241, 1.339, 3.241, 1.339, 1.339, 3.871, 3.241, 1.339, 1.339, 3.241, 3.241, 3.241, 1.339, 3.241, 3.241, 3.241, 3.241, 3.241, 3.871, 3.241, 3.241, 1.339, 1.339, 3.241, 1.339, 1.339, 3.241, 1.339, 1.339, 3.241, 3.871, 3.871, 3.241 ]
3
[ 0.953, 0.953, 0.953, 0.588, 0.953, 0.953, 0.846, 0.588, 0.846, 0.846, 0.846, 0.588, 0.953, 0.588, 0.953, 0.588, 0.953, 0.846, 0.588, 0.953, 0.588, 0.846, 0.588, 0.588, 0.588, 0.588, 0.588, 0.588, 0.588, 0.588, 0.588, 0.588, 0.588, 0.953, 0.846, 0.846, 0.846, 0.953, 0.588, 0.588, 0.588, 0.846, 0.953, 0.846, 0.588, 0.953, 0.588, 0.588, 0.953, 0.846, 0.846, 0.846, 0.588, 0.588, 0.846, 0.588, 0.588, 0.588, 0.953, 0.953, 0.846, 0.953, 0.953, 0.953, 0.588, 0.953, 0.846, 0.953, 0.953, 0.588, 0.953, 0.588, 0.953, 0.846, 0.846, 0.588, 0.588, 0.953, 0.953, 0.588, 0.588, 0.953, 0.846, 0.953, 0.953, 0.953, 0.953, 0.953, 0.953, 0.588, 0.846, 0.588, 0.588, 0.953, 0.588, 0.846, 0.953, 0.846, 0.846, 0.953, 0.588, 0.588, 0.846, 0.846, 0.588, 0.588, 0.953, 0.588, 0.953, 0.588, 0.588, 0.846, 0.846, 0.953, 0.846, 0.588, 0.588, 0.846, 0.953, 0.588, 0.588, 0.953, 0.953, 0.588, 0.953, 0.953, 0.953, 0.953, 0.846, 0.846, 0.953, 0.588, 0.953, 0.953, 0.953, 0.953, 0.846, 0.588, 0.846, 0.953, 0.953, 0.588, 0.588, 0.588, 0.953, 0.953, 0.846, 0.953, 0.846, 0.846, 0.846, 0.953, 0.953, 0.588, 0.588, 0.846, 0.953, 0.588, 0.588, 0.953, 0.588, 0.846, 0.846, 0.953, 0.588, 0.588, 0.953, 0.588, 0.846, 0.846, 0.588, 0.588, 0.588, 0.588, 0.846, 0.953, 0.588, 0.588, 0.588, 0.846, 0.588, 0.846, 0.953, 0.953, 0.953, 0.588, 0.588, 0.953, 0.588, 0.953, 0.953, 0.588, 0.846, 0.953, 0.588, 0.846, 0.953, 0.846, 0.953, 0.953 ]