4
[ 10.055, 0.891, 10.055, 0.891, 0.891, 10.055, 1.075, 0.891, 10.055, 4.873, 10.055, 0.891, 0.891, 10.055, 10.055, 0.891, 0.891, 0.891, 0.891, 0.891, 10.055, 0.891, 0.891, 0.891, 10.055, 0.891, 0.891, 0.891, 0.891, 10.055, 0.891, 0.891, 1.075, 0.891, 0.891, 0.891, 1.075, 0.891, 0.891, 0.891, 0.891, 1.075, 0.891, 10.055, 1.075, 0.891, 0.891, 0.891, 1.075, 10.055, 0.891, 1.075, 0.891, 10.055, 0.891, 0.891, 0.891, 1.075, 0.891, 0.891, 0.891, 0.891, 0.891, 0.891, 0.891, 0.891, 0.891, 0.891, 0.891, 0.891, 0.891, 10.055, 0.891, 0.891, 10.055, 10.055, 10.055, 0.891, 0.891, 10.055, 0.891, 0.891, 10.055, 1.075, 1.075, 1.075, 0.891, 0.891, 10.055, 0.891, 10.055, 10.055, 10.055, 0.891, 0.891, 0.891, 0.891, 1.075, 10.055, 10.055 ]
6
[ 0.553, 0.529, 0.529, 0.529, 0.529, 0.553, 0.529, 0.529, 0.529, 0.529, 0.351, 0.529, 0.529, 0.182, 0.529, 0.351, 0.529, 0.529, 0.553, 0.529, 0.529, 0.529, 0.529, 0.529, 0.529, 0.351, 0.529, 0.529, 0.529, 0.529, 0.351, 0.529, 0.529, 0.182, 0.529, 0.529, 0.529, 0.529, 0.529, 0.182, 0.351, 0.529, 0.529, 0.529, 0.529, 0.529, 0.182, 0.529, 0.529, 0.843, 0.529, 0.529, 0.182, 0.529, 0.529, 0.529, 0.529, 0.553, 0.553, 0.529, 0.182, 0.529, 0.529, 0.529, 0.529, 0.529, 0.529, 0.529, 0.529, 0.843, 0.529, 0.529, 0.529, 0.529, 0.553, 0.529, 0.529, 0.182, 0.351, 0.553, 0.529, 0.182, 0.553, 0.529, 0.529, 0.529, 0.529, 0.529, 0.529, 0.553, 0.529, 0.529, 0.529, 0.529, 0.529, 0.529, 0.529, 0.529, 0.553, 0.529 ]