3
[ 2.682, 6.585, 2.682, 1.810, 6.585, 2.682, 2.682, 2.682, 6.585, 2.682, 6.585, 1.810, 1.810, 6.585, 1.810, 2.682, 1.810, 2.682, 6.585, 6.585, 6.585, 1.810, 6.585, 1.810, 1.810, 2.682, 1.810, 2.682, 6.585, 6.585, 6.585, 6.585, 6.585, 2.682, 1.810, 2.682, 6.585, 1.810, 2.682, 2.682, 2.682, 2.682, 6.585, 1.810, 6.585, 6.585, 6.585, 6.585, 1.810, 6.585 ]
3
[ 0.002, 0.272, 0.272, 0.002, 0.002, 0.520, 0.272, 0.520, 0.272, 0.002, 0.002, 0.520, 0.002, 0.520, 0.002, 0.002, 0.272, 0.272, 0.520, 0.272, 0.002, 0.272, 0.520, 0.520, 0.002, 0.002, 0.002, 0.002, 0.520, 0.520, 0.520, 0.272, 0.272, 0.002, 0.272, 0.520, 0.272, 0.002, 0.002, 0.002, 0.002, 0.272, 0.520, 0.272, 0.002, 0.520, 0.272, 0.520, 0.520, 0.272 ]