3
[ 4.389, 1.748, 4.389, 1.067, 1.067, 4.389, 1.748, 4.389, 4.389, 1.067, 1.067, 4.389, 4.389, 4.389, 1.067, 1.748, 1.748, 4.389, 1.748, 1.748, 4.389, 1.748, 4.389, 4.389, 1.067, 4.389, 1.067, 4.389, 4.389, 1.067, 1.067, 1.748, 4.389, 1.067, 1.067, 4.389, 1.748, 4.389, 4.389, 1.748, 1.748, 1.748, 1.748, 1.067, 1.748, 4.389, 4.389, 1.067, 1.067, 1.748, 1.748, 4.389, 4.389, 1.067, 4.389, 1.067, 1.067, 4.389, 1.748, 1.067, 1.067, 1.748, 1.067, 1.748, 1.067, 1.748, 1.748, 1.067, 4.389, 1.067, 4.389, 1.067, 4.389, 4.389, 1.748, 1.067, 1.748, 4.389, 4.389, 1.067, 1.748, 1.067, 4.389, 1.748, 1.748, 4.389, 1.067, 1.748, 1.748, 1.067, 4.389, 1.748, 4.389, 1.067, 1.067, 1.067, 4.389, 1.067, 1.067, 1.748 ]
3
[ 0.513, 0.296, 0.535, 0.513, 0.296, 0.296, 0.513, 0.535, 0.535, 0.535, 0.535, 0.513, 0.296, 0.513, 0.296, 0.535, 0.296, 0.513, 0.296, 0.535, 0.296, 0.535, 0.535, 0.535, 0.513, 0.513, 0.535, 0.535, 0.513, 0.535, 0.535, 0.535, 0.535, 0.535, 0.513, 0.535, 0.513, 0.513, 0.535, 0.535, 0.296, 0.513, 0.296, 0.513, 0.535, 0.535, 0.513, 0.535, 0.535, 0.535, 0.535, 0.535, 0.513, 0.513, 0.535, 0.513, 0.296, 0.296, 0.296, 0.513, 0.296, 0.535, 0.296, 0.296, 0.535, 0.513, 0.513, 0.296, 0.296, 0.535, 0.513, 0.513, 0.513, 0.296, 0.296, 0.296, 0.535, 0.296, 0.535, 0.296, 0.513, 0.296, 0.513, 0.535, 0.513, 0.535, 0.535, 0.513, 0.513, 0.513, 0.513, 0.535, 0.513, 0.513, 0.513, 0.296, 0.535, 0.535, 0.296, 0.535 ]