3
[ 1.619, 1.619, 4.120, 1.619, 4.120, 3.098, 1.619, 4.120, 3.098, 3.098, 3.098, 4.120, 4.120, 4.120, 1.619, 3.098, 3.098, 3.098, 1.619, 3.098, 3.098, 3.098, 3.098, 1.619, 4.120, 1.619, 3.098, 3.098, 4.120, 1.619, 1.619, 3.098, 1.619, 4.120, 3.098, 4.120, 4.120, 3.098, 1.619, 4.120, 4.120, 1.619, 3.098, 4.120, 1.619, 3.098, 4.120, 1.619, 4.120, 4.120, 3.098, 1.619, 4.120, 3.098, 3.098, 4.120, 3.098, 3.098, 3.098, 3.098, 3.098, 4.120, 3.098, 4.120, 3.098, 1.619, 4.120, 4.120, 1.619, 3.098, 4.120, 3.098, 4.120, 4.120, 3.098, 4.120, 3.098, 4.120, 1.619, 4.120, 1.619, 3.098, 4.120, 4.120, 3.098, 3.098, 3.098, 3.098, 4.120, 4.120, 3.098, 4.120, 4.120, 4.120, 1.619, 1.619, 3.098, 4.120, 3.098, 4.120 ]
3
[ 0.084, 0.084, 0.528, 0.084, 0.084, 0.084, 0.084, 0.084, 0.528, 0.084, 0.528, 0.528, 0.075, 0.528, 0.528, 0.075, 0.084, 0.075, 0.084, 0.084, 0.528, 0.084, 0.075, 0.528, 0.084, 0.528, 0.075, 0.084, 0.075, 0.075, 0.075, 0.084, 0.075, 0.084, 0.075, 0.084, 0.528, 0.528, 0.084, 0.528, 0.528, 0.075, 0.528, 0.084, 0.084, 0.075, 0.528, 0.084, 0.528, 0.084, 0.528, 0.084, 0.528, 0.075, 0.084, 0.075, 0.075, 0.528, 0.075, 0.084, 0.084, 0.075, 0.084, 0.075, 0.084, 0.075, 0.528, 0.075, 0.528, 0.075, 0.084, 0.528, 0.084, 0.084, 0.528, 0.084, 0.084, 0.528, 0.075, 0.528, 0.084, 0.528, 0.528, 0.528, 0.528, 0.528, 0.084, 0.528, 0.084, 0.075, 0.075, 0.084, 0.528, 0.075, 0.528, 0.075, 0.075, 0.528, 0.084, 0.528 ]