3
[ 1.556, 1.556, 0.765, 0.765, 0.765, 1.556, 1.556, 1.793, 1.793, 1.556, 0.765, 1.793, 1.793, 1.793, 1.793, 0.765, 0.765, 1.793, 1.556, 0.765, 1.793, 1.793, 0.765, 1.793, 1.793, 1.793, 0.765, 1.556, 1.793, 1.793, 1.793, 1.556, 0.765, 1.556, 0.765, 1.793, 1.556, 1.556, 1.793, 1.556, 0.765, 1.556, 1.793, 1.793, 0.765, 1.556, 1.556, 1.793, 1.793, 1.793, 1.556, 1.556, 1.556, 1.556, 1.556, 1.793, 0.765, 1.793, 0.765, 1.793, 0.765, 1.556, 1.556, 1.556, 1.556, 0.765, 1.793, 0.765, 1.556, 1.793, 1.556, 1.793, 0.765, 0.765, 1.793, 1.556, 0.765, 0.765, 0.765, 1.556, 1.556, 1.793, 1.556, 1.556, 1.793, 0.765, 0.765, 0.765, 0.765, 1.556, 0.765, 0.765, 1.556, 1.556, 0.765, 1.793, 1.793, 1.556, 1.556, 1.793, 0.765, 1.556, 1.793, 1.793, 1.556, 1.793, 1.556, 1.556, 0.765, 1.556, 0.765, 1.793, 1.556, 0.765, 1.556, 0.765, 1.556, 0.765, 1.556, 1.556, 1.556, 0.765, 0.765, 0.765, 0.765, 1.793, 1.793, 0.765, 1.556, 1.793, 1.793, 1.793, 1.793, 1.793, 0.765, 1.556, 0.765, 1.556, 1.556, 0.765, 0.765, 1.556, 0.765, 1.556, 1.556, 1.556, 1.556, 1.793, 0.765, 1.556, 1.793, 1.793, 0.765, 1.793, 1.793, 1.793, 1.793, 0.765, 1.556, 1.793, 1.793, 0.765, 1.793, 0.765, 1.556, 1.793, 1.793, 1.556, 0.765, 0.765, 0.765, 1.793, 0.765, 0.765, 1.556, 1.556, 0.765, 1.556, 0.765, 1.556, 1.556, 1.793, 0.765, 1.556, 0.765, 0.765, 1.556, 0.765, 1.793, 1.556, 1.793, 0.765, 1.793, 1.556, 0.765, 1.793, 0.765, 0.765, 0.765, 1.793 ]
3
[ 0.260, 0.133, 0.004, 0.004, 0.133, 0.004, 0.260, 0.004, 0.004, 0.004, 0.004, 0.260, 0.260, 0.260, 0.004, 0.133, 0.133, 0.260, 0.004, 0.133, 0.260, 0.260, 0.004, 0.004, 0.004, 0.260, 0.004, 0.004, 0.133, 0.260, 0.260, 0.133, 0.004, 0.133, 0.133, 0.260, 0.260, 0.133, 0.260, 0.133, 0.133, 0.260, 0.133, 0.133, 0.260, 0.004, 0.260, 0.004, 0.133, 0.004, 0.133, 0.260, 0.133, 0.260, 0.133, 0.260, 0.004, 0.133, 0.004, 0.133, 0.004, 0.133, 0.260, 0.004, 0.260, 0.260, 0.133, 0.260, 0.133, 0.004, 0.004, 0.133, 0.004, 0.133, 0.004, 0.260, 0.260, 0.004, 0.004, 0.004, 0.260, 0.004, 0.004, 0.004, 0.004, 0.133, 0.004, 0.133, 0.004, 0.260, 0.133, 0.260, 0.004, 0.133, 0.004, 0.004, 0.260, 0.133, 0.133, 0.133, 0.260, 0.133, 0.004, 0.004, 0.133, 0.133, 0.260, 0.133, 0.004, 0.133, 0.133, 0.004, 0.133, 0.133, 0.004, 0.133, 0.004, 0.260, 0.004, 0.260, 0.260, 0.133, 0.004, 0.004, 0.004, 0.260, 0.260, 0.004, 0.004, 0.133, 0.004, 0.004, 0.260, 0.133, 0.260, 0.260, 0.004, 0.004, 0.133, 0.004, 0.004, 0.260, 0.004, 0.260, 0.004, 0.133, 0.133, 0.004, 0.004, 0.004, 0.004, 0.260, 0.133, 0.133, 0.004, 0.260, 0.260, 0.260, 0.260, 0.260, 0.260, 0.133, 0.004, 0.133, 0.133, 0.260, 0.004, 0.004, 0.004, 0.004, 0.004, 0.133, 0.004, 0.260, 0.133, 0.260, 0.260, 0.004, 0.004, 0.133, 0.004, 0.004, 0.260, 0.004, 0.133, 0.260, 0.004, 0.260, 0.260, 0.260, 0.004, 0.004, 0.260, 0.260, 0.004, 0.004, 0.004, 0.004, 0.133, 0.260 ]