5
[ 1.438, 1.438, 1.438, 6.972, 1.438, 1.438, 1.438, 1.438, 1.438, 1.731, 1.438, 1.438, 1.438, 5.414, 1.438, 1.438, 1.438, 1.438, 1.731, 1.438, 1.438, 1.438, 1.438, 1.438, 1.438, 1.438, 1.438, 1.386, 1.438, 1.438, 1.438, 1.438, 1.438, 1.438, 1.438, 1.438, 1.438, 1.438, 6.972, 1.438, 1.386, 1.438, 1.438, 1.438, 1.438, 6.972, 1.438, 1.438, 6.972, 1.438 ]
4
[ 0.457, 0.467, 0.467, 0.467, 0.467, 0.467, 0.457, 0.467, 0.457, 0.467, 0.467, 0.467, 0.467, 0.467, 0.467, 0.467, 0.467, 0.457, 0.457, 0.467, 0.467, 0.467, 0.792, 0.792, 0.457, 0.467, 0.467, 0.467, 0.467, 0.467, 0.093, 0.467, 0.467, 0.467, 0.467, 0.467, 0.467, 0.467, 0.467, 0.467, 0.467, 0.467, 0.467, 0.467, 0.467, 0.467, 0.467, 0.467, 0.467, 0.467 ]