3
[ 1.475, 2.709, 1.744, 1.475, 2.709, 2.709, 1.475, 2.709, 1.744, 1.744, 1.744, 1.744, 1.744, 2.709, 1.475, 1.744, 1.744, 1.744, 2.709, 1.475, 2.709, 1.744, 2.709, 2.709, 1.475, 2.709, 2.709, 2.709, 1.744, 2.709, 1.744, 1.744, 2.709, 1.744, 1.475, 1.475, 1.475, 2.709, 1.475, 2.709, 1.475, 1.475, 1.475, 1.475, 2.709, 1.744, 2.709, 2.709, 1.475, 1.744, 1.475, 1.744, 2.709, 2.709, 2.709, 2.709, 1.475, 2.709, 1.744, 2.709, 1.744, 1.744, 1.475, 1.744, 1.744, 1.744, 2.709, 1.744, 1.744, 1.744, 1.475, 1.744, 2.709, 1.744, 2.709, 2.709, 1.475, 2.709, 1.744, 1.744, 1.475, 2.709, 2.709, 1.744, 1.475, 2.709, 2.709, 2.709, 2.709, 1.744, 1.475, 1.744, 1.475, 1.475, 1.475, 2.709, 2.709, 2.709, 1.744, 1.475 ]
3
[ 0.460, 0.460, 0.873, 0.460, 0.460, 0.460, 0.115, 0.460, 0.460, 0.460, 0.873, 0.873, 0.460, 0.115, 0.460, 0.873, 0.873, 0.873, 0.115, 0.873, 0.115, 0.115, 0.873, 0.460, 0.873, 0.873, 0.460, 0.460, 0.460, 0.873, 0.115, 0.873, 0.115, 0.873, 0.115, 0.115, 0.460, 0.115, 0.873, 0.460, 0.460, 0.460, 0.115, 0.115, 0.115, 0.460, 0.873, 0.873, 0.873, 0.873, 0.115, 0.873, 0.873, 0.115, 0.115, 0.873, 0.460, 0.460, 0.460, 0.115, 0.115, 0.873, 0.873, 0.115, 0.460, 0.115, 0.873, 0.115, 0.873, 0.115, 0.460, 0.873, 0.460, 0.115, 0.460, 0.873, 0.115, 0.460, 0.460, 0.873, 0.115, 0.873, 0.460, 0.115, 0.115, 0.873, 0.460, 0.460, 0.460, 0.460, 0.115, 0.460, 0.873, 0.873, 0.115, 0.873, 0.115, 0.873, 0.873, 0.460 ]