5
[ 0.732, 3.677, 0.732, 0.732, 3.275, 0.732, 1.774, 0.732, 3.677, 3.275, 0.732, 0.732, 0.732, 0.732, 0.732, 0.732, 1.774, 1.774, 0.732, 0.732, 0.732, 0.732, 1.774, 0.732, 0.732, 0.732, 0.732, 3.275, 1.774, 0.732, 0.732, 0.732, 0.732, 0.732, 0.732, 1.774, 0.732, 0.732, 0.732, 0.732, 0.732, 0.732, 0.732, 3.677, 3.275, 0.732, 0.732, 3.275, 0.732, 0.732, 1.774, 0.732, 3.275, 0.732, 0.732, 0.732, 1.774, 0.732, 0.732, 0.732, 0.732, 0.732, 3.275, 0.732, 0.732, 0.732, 0.297, 1.774, 3.275, 0.732, 0.732, 0.732, 3.677, 0.732, 0.732, 0.732, 0.732, 0.732, 0.732, 1.774, 1.774, 0.297, 0.732, 0.732, 0.732, 0.732, 1.774, 0.732, 3.275, 0.732, 0.732, 0.732, 0.732, 0.732, 0.732, 0.732, 0.732, 0.732, 0.732, 0.732, 0.732, 0.732, 3.275, 0.732, 0.732, 1.774, 3.677, 3.275, 3.275, 0.732, 0.732, 0.732, 0.732, 0.732, 3.677, 0.732, 3.677, 3.275, 3.677, 0.732, 1.774, 1.774, 1.774, 0.732, 0.732, 0.732, 0.732, 0.732, 0.732, 3.275, 3.275, 1.774, 1.774, 3.677, 0.297, 3.275, 0.732, 3.275, 0.297, 0.732, 1.774, 0.732, 3.677, 0.732, 0.732, 0.732, 0.732, 0.732, 1.774, 0.732, 0.732, 0.732, 0.732, 0.732, 3.275, 0.732, 0.732, 3.275, 0.732, 0.732, 3.677, 0.732, 0.732, 1.774, 0.732, 0.732, 0.732, 3.275, 0.732, 1.774, 0.732, 0.297, 0.732, 3.275, 0.732, 0.732, 0.732, 0.732, 0.732, 0.732, 0.732, 0.732, 0.732, 0.732, 1.774, 0.732, 0.732, 0.732, 1.774, 1.774, 0.732, 0.732, 0.732, 0.732, 0.732, 3.677, 1.774, 0.732, 0.732, 0.732 ]
5
[ 0.528, 0.528, 0.528, 0.528, 0.242, 0.528, 0.017, 0.528, 0.242, 0.528, 0.032, 0.528, 0.242, 0.528, 0.528, 0.528, 0.242, 0.242, 0.528, 0.242, 0.242, 0.242, 0.242, 0.242, 0.528, 0.242, 0.528, 0.528, 0.032, 0.032, 0.378, 0.528, 0.242, 0.242, 0.528, 0.528, 0.528, 0.528, 0.528, 0.528, 0.242, 0.378, 0.528, 0.378, 0.528, 0.242, 0.242, 0.528, 0.528, 0.528, 0.528, 0.528, 0.528, 0.242, 0.242, 0.528, 0.242, 0.528, 0.242, 0.528, 0.242, 0.242, 0.242, 0.242, 0.528, 0.528, 0.528, 0.528, 0.242, 0.242, 0.528, 0.528, 0.242, 0.528, 0.242, 0.528, 0.032, 0.242, 0.242, 0.528, 0.242, 0.528, 0.528, 0.528, 0.528, 0.528, 0.242, 0.032, 0.528, 0.528, 0.528, 0.528, 0.528, 0.528, 0.242, 0.242, 0.528, 0.242, 0.528, 0.528, 0.528, 0.242, 0.528, 0.378, 0.528, 0.528, 0.242, 0.242, 0.528, 0.528, 0.242, 0.242, 0.242, 0.528, 0.528, 0.242, 0.528, 0.528, 0.528, 0.242, 0.242, 0.528, 0.528, 0.242, 0.242, 0.528, 0.242, 0.528, 0.528, 0.528, 0.032, 0.528, 0.528, 0.242, 0.528, 0.378, 0.242, 0.528, 0.017, 0.242, 0.242, 0.242, 0.017, 0.378, 0.528, 0.242, 0.528, 0.528, 0.242, 0.528, 0.528, 0.242, 0.242, 0.528, 0.528, 0.528, 0.528, 0.032, 0.242, 0.242, 0.528, 0.528, 0.528, 0.242, 0.242, 0.242, 0.242, 0.242, 0.528, 0.528, 0.528, 0.528, 0.242, 0.528, 0.528, 0.242, 0.242, 0.528, 0.017, 0.242, 0.528, 0.032, 0.242, 0.528, 0.528, 0.242, 0.528, 0.528, 0.528, 0.528, 0.528, 0.378, 0.528, 0.528, 0.528, 0.528, 0.242, 0.528, 0.242, 0.242 ]