3
[ 2.659, 1.704, 1.704, 1.704, 2.659, 1.344, 1.344, 2.659, 2.659, 2.659, 1.704, 1.704, 2.659, 1.344, 1.704, 2.659, 2.659, 1.704, 1.344, 1.344, 1.344, 1.344, 1.704, 1.704, 1.344, 1.344, 1.704, 1.344, 1.704, 2.659, 1.344, 2.659, 1.704, 1.344, 1.344, 2.659, 1.704, 2.659, 1.344, 1.344, 1.704, 1.704, 1.344, 1.704, 1.344, 2.659, 1.704, 1.344, 1.704, 2.659 ]
3
[ 0.784, 0.784, 0.937, 0.937, 0.784, 0.257, 0.937, 0.937, 0.257, 0.937, 0.257, 0.937, 0.257, 0.784, 0.257, 0.257, 0.784, 0.784, 0.257, 0.257, 0.937, 0.937, 0.937, 0.784, 0.937, 0.937, 0.257, 0.937, 0.937, 0.784, 0.784, 0.257, 0.937, 0.784, 0.937, 0.937, 0.937, 0.937, 0.937, 0.257, 0.257, 0.937, 0.937, 0.784, 0.784, 0.257, 0.257, 0.784, 0.784, 0.937 ]