7
[ 16.192, 16.192, 1.455, 1.455, 13.957, 0.877, 0.877, 16.192, 0.877, 0.877, 0.877, 1.455, 4.333, 16.192, 4.596, 4.596, 4.333, 0.877, 4.596, 4.333, 1.455, 16.192, 16.192, 0.877, 4.333, 0.877, 1.455, 1.455, 0.877, 1.455, 0.877, 1.455, 0.877, 0.877, 16.192, 1.455, 1.455, 1.455, 0.877, 16.192, 1.455, 0.877, 0.877, 4.333, 1.455, 0.877, 4.596, 0.877, 0.877, 16.192, 0.877, 1.455, 16.192, 4.333, 0.877, 0.877, 4.596, 4.333, 16.192, 0.877, 0.877, 0.877, 0.877, 7.921, 16.192, 4.333, 1.455, 13.957, 0.877, 1.455, 16.192, 0.877, 0.877, 1.455, 0.877, 4.596, 0.877, 0.877, 0.877, 16.192, 0.877, 4.333, 16.192, 16.192, 16.192, 4.596, 0.877, 4.333, 16.192, 16.192, 1.455, 0.877, 0.877, 0.877, 16.192, 0.877, 0.877, 0.877, 16.192, 16.192 ]
5
[ 0.213, 0.213, 0.213, 0.213, 0.213, 0.213, 0.588, 0.213, 0.213, 0.213, 0.213, 0.213, 0.883, 0.213, 0.213, 0.213, 0.213, 0.184, 0.213, 0.213, 0.213, 0.213, 0.213, 0.213, 0.213, 0.213, 0.213, 0.213, 0.213, 0.213, 0.213, 0.213, 0.213, 0.213, 0.213, 0.213, 0.213, 0.213, 0.213, 0.213, 0.213, 0.213, 0.213, 0.213, 0.213, 0.213, 0.213, 0.213, 0.213, 0.213, 0.213, 0.213, 0.213, 0.213, 0.213, 0.213, 0.213, 0.213, 0.213, 0.213, 0.213, 0.213, 0.213, 0.213, 0.213, 0.213, 0.213, 0.213, 0.213, 0.213, 0.213, 0.213, 0.184, 0.213, 0.213, 0.213, 0.213, 0.213, 0.213, 0.213, 0.213, 0.213, 0.213, 0.675, 0.213, 0.213, 0.883, 0.213, 0.213, 0.213, 0.213, 0.213, 0.213, 0.213, 0.213, 0.213, 0.213, 0.213, 0.213, 0.213 ]