5
[ 7.117, 7.117, 7.117, 5.786, 5.786, 7.117, 2.050, 7.117, 2.050, 5.786, 7.117, 7.117, 0.867, 5.786, 7.117, 5.786, 7.117, 7.117, 7.117, 7.117, 7.117, 0.867, 2.050, 7.117, 7.117, 5.786, 5.786, 7.117, 7.117, 7.117, 7.117, 7.117, 2.050, 5.786, 5.786, 7.117, 7.117, 7.117, 7.117, 7.117, 7.117, 7.117, 7.117, 7.117, 7.117, 5.786, 7.117, 7.117, 7.117, 7.117, 5.786, 7.117, 5.786, 5.786, 7.117, 7.117, 7.117, 7.117, 7.117, 7.117, 5.786, 2.050, 7.136, 7.117, 2.050, 7.117, 7.117, 7.117, 7.117, 7.117, 7.117, 7.117, 7.117, 7.117, 7.117, 7.117, 7.117, 0.867, 7.117, 7.117, 7.117, 7.117, 7.117, 7.117, 7.117, 7.117, 0.867, 2.050, 5.786, 7.117, 7.117, 7.117, 7.117, 7.117, 7.117, 7.117, 0.867, 7.117, 7.117, 7.117, 7.117, 7.117, 5.786, 7.117, 7.117, 5.786, 7.117, 2.050, 7.117, 7.117, 7.117, 7.117, 7.117, 7.117, 7.117, 7.117, 5.786, 7.117, 7.117, 7.117, 7.117, 7.117, 7.117, 5.786, 7.117, 5.786, 0.867, 7.117, 7.117, 7.117, 7.117, 7.117, 7.117, 7.117, 7.117, 7.117, 5.786, 7.117, 5.786, 7.117, 7.117, 7.117, 0.867, 7.117, 7.117, 7.117, 7.117, 5.786, 5.786, 7.117, 7.117, 7.117, 7.117, 5.786, 5.786, 7.117, 7.117, 7.117, 0.867, 7.117, 0.867, 2.050, 7.117, 7.117, 7.117, 7.117, 7.117, 7.117, 7.117, 7.117, 7.117, 7.117, 7.117, 7.117, 7.117, 7.117, 7.117, 7.117, 7.117, 5.786, 7.117, 7.117, 7.117, 5.786, 7.117, 7.117, 7.117, 7.117, 5.786, 7.117, 7.117, 7.117, 7.117, 7.117, 7.117, 7.117, 2.050, 7.117, 5.786, 7.117 ]
6
[ 0.224, 0.960, 0.960, 0.960, 0.960, 0.960, 0.960, 0.960, 0.960, 0.960, 0.960, 0.960, 0.960, 0.960, 0.960, 0.960, 0.960, 0.960, 0.960, 0.960, 0.960, 0.252, 0.960, 0.960, 0.960, 0.224, 0.960, 0.252, 0.960, 0.960, 0.960, 0.960, 0.960, 0.497, 0.960, 0.960, 0.627, 0.627, 0.960, 0.960, 0.224, 0.252, 0.960, 0.224, 0.224, 0.960, 0.960, 0.252, 0.252, 0.960, 0.960, 0.960, 0.960, 0.627, 0.960, 0.960, 0.960, 0.252, 0.960, 0.960, 0.960, 0.960, 0.960, 0.627, 0.960, 0.960, 0.960, 0.627, 0.960, 0.960, 0.627, 0.960, 0.761, 0.627, 0.960, 0.960, 0.252, 0.252, 0.960, 0.627, 0.960, 0.960, 0.960, 0.960, 0.252, 0.960, 0.960, 0.960, 0.627, 0.960, 0.960, 0.252, 0.960, 0.960, 0.960, 0.224, 0.960, 0.627, 0.960, 0.960, 0.252, 0.960, 0.960, 0.960, 0.960, 0.960, 0.960, 0.960, 0.960, 0.960, 0.960, 0.960, 0.252, 0.960, 0.627, 0.960, 0.960, 0.960, 0.627, 0.960, 0.960, 0.627, 0.960, 0.627, 0.960, 0.761, 0.960, 0.960, 0.960, 0.252, 0.252, 0.224, 0.960, 0.960, 0.960, 0.960, 0.627, 0.960, 0.960, 0.960, 0.960, 0.960, 0.960, 0.960, 0.960, 0.960, 0.960, 0.960, 0.960, 0.960, 0.960, 0.960, 0.960, 0.960, 0.252, 0.627, 0.960, 0.252, 0.627, 0.627, 0.960, 0.627, 0.960, 0.960, 0.960, 0.252, 0.960, 0.627, 0.960, 0.960, 0.960, 0.224, 0.960, 0.627, 0.252, 0.224, 0.627, 0.224, 0.761, 0.960, 0.960, 0.960, 0.627, 0.960, 0.960, 0.960, 0.960, 0.627, 0.960, 0.960, 0.960, 0.960, 0.252, 0.761, 0.252, 0.960, 0.761, 0.960, 0.960, 0.960 ]