6
[ 1.926, 1.926, 1.926, 17.329, 1.926, 4.703, 1.926, 1.926, 2.221, 1.926, 1.723, 1.926, 1.723, 4.703, 1.926, 1.926, 1.926, 1.723, 1.926, 1.926, 1.926, 1.926, 1.723, 1.723, 4.703, 1.926, 1.723, 2.221, 1.926, 4.703, 1.926, 0.849, 4.703, 1.723, 1.926, 1.926, 1.926, 4.703, 4.703, 1.723, 0.849, 1.926, 4.703, 4.703, 4.703, 1.723, 4.703, 1.926, 1.723, 1.926 ]
4
[ 0.983, 0.983, 0.983, 0.983, 0.983, 0.983, 0.983, 0.983, 0.385, 0.983, 0.983, 0.983, 0.983, 0.983, 0.983, 0.983, 0.983, 0.983, 0.983, 0.983, 0.983, 0.983, 0.983, 0.983, 0.983, 0.983, 0.983, 0.983, 0.983, 0.983, 0.627, 0.983, 0.983, 0.983, 0.245, 0.983, 0.983, 0.983, 0.983, 0.983, 0.983, 0.983, 0.983, 0.983, 0.245, 0.983, 0.983, 0.983, 0.983, 0.983 ]