2
[ 3.772, 0.468, 3.772, 0.468, 3.772, 0.468, 3.772, 3.772, 0.468, 0.468, 0.468, 0.468, 3.772, 0.468, 3.772, 0.468, 0.468, 0.468, 3.772, 3.772, 0.468, 0.468, 0.468, 0.468, 0.468, 3.772, 3.772, 3.772, 0.468, 3.772, 3.772, 0.468, 0.468, 3.772, 3.772, 3.772, 3.772, 3.772, 0.468, 3.772, 0.468, 3.772, 3.772, 0.468, 3.772, 0.468, 0.468, 3.772, 3.772, 0.468, 3.772, 3.772, 3.772, 0.468, 3.772, 0.468, 0.468, 3.772, 0.468, 0.468, 0.468, 0.468, 0.468, 3.772, 0.468, 0.468, 0.468, 0.468, 0.468, 3.772, 0.468, 3.772, 3.772, 3.772, 0.468, 0.468, 0.468, 3.772, 3.772, 0.468, 0.468, 0.468, 0.468, 0.468, 0.468, 3.772, 0.468, 0.468, 0.468, 3.772, 3.772, 3.772, 0.468, 3.772, 3.772, 3.772, 3.772, 3.772, 3.772, 3.772 ]
7
[ 0.525, 0.525, 0.525, 0.431, 0.525, 0.525, 0.574, 0.525, 0.431, 0.885, 0.525, 0.525, 0.431, 0.525, 0.525, 0.525, 0.525, 0.639, 0.409, 0.431, 0.525, 0.574, 0.525, 0.431, 0.431, 0.262, 0.431, 0.525, 0.525, 0.525, 0.525, 0.525, 0.525, 0.525, 0.409, 0.409, 0.409, 0.409, 0.525, 0.525, 0.431, 0.574, 0.409, 0.525, 0.431, 0.574, 0.525, 0.431, 0.409, 0.409, 0.409, 0.409, 0.409, 0.525, 0.525, 0.409, 0.525, 0.525, 0.525, 0.525, 0.525, 0.409, 0.409, 0.525, 0.431, 0.409, 0.409, 0.525, 0.409, 0.431, 0.409, 0.525, 0.525, 0.525, 0.525, 0.525, 0.262, 0.525, 0.525, 0.431, 0.525, 0.431, 0.525, 0.409, 0.262, 0.431, 0.409, 0.431, 0.574, 0.525, 0.431, 0.431, 0.525, 0.431, 0.525, 0.525, 0.525, 0.409, 0.409, 0.525 ]