3
[ 1.321, 1.321, 2.190, 2.190, 1.321, 2.190, 1.321, 1.321, 1.321, 1.321, 2.190, 1.321, 2.190, 1.321, 1.321, 1.321, 1.321, 2.190, 1.321, 2.190, 1.321, 1.321, 2.190, 1.321, 1.321, 1.321, 1.321, 1.321, 1.321, 1.321, 1.321, 2.190, 2.190, 1.321, 2.190, 1.321, 2.190, 1.321, 2.190, 1.321, 1.321, 2.190, 1.321, 2.190, 1.321, 2.190, 2.190, 1.321, 2.190, 1.321, 1.321, 1.321, 1.321, 2.190, 1.321, 1.321, 1.321, 2.190, 2.190, 1.321, 1.321, 1.321, 1.321, 1.321, 1.321, 2.190, 1.321, 2.190, 1.321, 1.321, 2.190, 1.321, 1.321, 2.190, 1.321, 1.321, 2.190, 2.190, 2.190, 1.321, 2.190, 1.321, 1.321, 2.190, 1.321, 1.321, 2.190, 2.190, 2.190, 2.190, 1.321, 1.321, 1.321, 2.190, 1.321, 1.321, 2.190, 2.190, 2.190, 2.190, 2.190, 2.190, 1.321, 1.321, 1.321, 2.190, 1.321, 2.190, 2.190, 1.321, 1.321, 1.321, 1.321, 1.321, 2.190, 1.321, 2.190, 1.321, 2.190, 1.321, 1.321, 2.190, 2.190, 2.190, 2.190, 2.190, 1.321, 1.321, 1.321, 2.190, 2.190, 1.321, 2.190, 1.321, 1.321, 1.321, 1.321, 1.321, 1.321, 2.190, 2.190, 1.321, 2.190, 1.321, 1.321, 2.190, 1.321, 1.321, 1.321, 1.321, 2.190, 1.321, 1.321, 1.321, 2.190, 1.321, 2.190, 1.321, 1.321, 1.321, 2.190, 1.321, 1.321, 2.190, 1.321, 1.321, 2.190, 1.321, 2.190, 1.321, 1.321, 1.321, 1.321, 1.321, 1.321, 1.321, 1.321, 2.190, 2.190, 1.321, 1.321, 1.321, 2.190, 1.321, 2.190, 1.321, 1.321, 2.190, 1.321, 1.321, 1.321, 1.321, 1.321, 2.190, 1.321, 1.321, 1.321, 2.190, 1.321, 1.321 ]
3
[ 0.355, 0.059, 0.954, 0.355, 0.954, 0.355, 0.059, 0.059, 0.954, 0.355, 0.355, 0.954, 0.954, 0.355, 0.059, 0.355, 0.954, 0.954, 0.954, 0.355, 0.355, 0.059, 0.355, 0.954, 0.355, 0.355, 0.355, 0.355, 0.355, 0.954, 0.059, 0.355, 0.954, 0.355, 0.355, 0.355, 0.059, 0.954, 0.059, 0.954, 0.954, 0.059, 0.954, 0.954, 0.954, 0.954, 0.059, 0.954, 0.059, 0.059, 0.059, 0.059, 0.954, 0.355, 0.059, 0.355, 0.059, 0.059, 0.059, 0.954, 0.954, 0.059, 0.355, 0.954, 0.954, 0.954, 0.355, 0.355, 0.355, 0.954, 0.954, 0.355, 0.355, 0.059, 0.355, 0.954, 0.059, 0.954, 0.355, 0.954, 0.355, 0.954, 0.355, 0.954, 0.059, 0.059, 0.059, 0.355, 0.059, 0.059, 0.059, 0.059, 0.954, 0.355, 0.954, 0.355, 0.954, 0.954, 0.059, 0.954, 0.954, 0.954, 0.059, 0.355, 0.355, 0.355, 0.355, 0.954, 0.059, 0.355, 0.059, 0.059, 0.059, 0.059, 0.059, 0.954, 0.059, 0.954, 0.059, 0.059, 0.954, 0.059, 0.954, 0.954, 0.954, 0.355, 0.059, 0.059, 0.954, 0.059, 0.954, 0.355, 0.954, 0.954, 0.059, 0.355, 0.954, 0.355, 0.954, 0.954, 0.059, 0.059, 0.355, 0.954, 0.355, 0.954, 0.059, 0.059, 0.954, 0.355, 0.059, 0.355, 0.954, 0.059, 0.954, 0.355, 0.355, 0.355, 0.954, 0.954, 0.059, 0.355, 0.059, 0.059, 0.355, 0.954, 0.355, 0.355, 0.355, 0.355, 0.059, 0.954, 0.059, 0.059, 0.355, 0.059, 0.059, 0.059, 0.355, 0.059, 0.059, 0.954, 0.954, 0.355, 0.954, 0.355, 0.355, 0.059, 0.355, 0.355, 0.059, 0.355, 0.954, 0.954, 0.355, 0.954, 0.059, 0.059, 0.355, 0.355 ]