3
[ 3.399, 5.862, 3.399, 1.303, 3.399, 1.303, 1.303, 3.399, 5.862, 5.862, 3.399, 1.303, 1.303, 1.303, 1.303, 1.303, 3.399, 1.303, 1.303, 5.862, 3.399, 5.862, 3.399, 5.862, 5.862, 3.399, 1.303, 1.303, 3.399, 1.303, 1.303, 1.303, 5.862, 5.862, 5.862, 1.303, 1.303, 1.303, 5.862, 5.862, 1.303, 1.303, 1.303, 1.303, 1.303, 1.303, 5.862, 5.862, 5.862, 3.399, 1.303, 1.303, 3.399, 3.399, 1.303, 1.303, 1.303, 5.862, 1.303, 1.303, 1.303, 1.303, 5.862, 5.862, 3.399, 5.862, 3.399, 1.303, 3.399, 3.399, 3.399, 5.862, 3.399, 1.303, 1.303, 3.399, 1.303, 3.399, 1.303, 1.303, 5.862, 1.303, 3.399, 1.303, 5.862, 5.862, 3.399, 5.862, 5.862, 3.399, 5.862, 5.862, 3.399, 5.862, 1.303, 3.399, 5.862, 3.399, 1.303, 1.303 ]
3
[ 0.790, 0.790, 0.418, 0.209, 0.790, 0.418, 0.418, 0.790, 0.418, 0.418, 0.790, 0.418, 0.209, 0.418, 0.209, 0.790, 0.790, 0.790, 0.790, 0.209, 0.209, 0.790, 0.209, 0.209, 0.790, 0.790, 0.418, 0.790, 0.418, 0.418, 0.790, 0.418, 0.209, 0.790, 0.209, 0.790, 0.790, 0.790, 0.790, 0.209, 0.209, 0.209, 0.209, 0.209, 0.790, 0.418, 0.790, 0.209, 0.790, 0.790, 0.209, 0.209, 0.418, 0.418, 0.790, 0.790, 0.790, 0.418, 0.418, 0.790, 0.790, 0.418, 0.418, 0.209, 0.418, 0.418, 0.790, 0.790, 0.418, 0.209, 0.790, 0.790, 0.209, 0.790, 0.418, 0.209, 0.418, 0.790, 0.790, 0.790, 0.790, 0.790, 0.209, 0.790, 0.209, 0.418, 0.209, 0.418, 0.790, 0.790, 0.790, 0.418, 0.418, 0.209, 0.418, 0.209, 0.209, 0.209, 0.209, 0.790 ]