3
[ 2.622, 2.622, 1.230, 2.012, 2.012, 1.230, 1.230, 1.230, 2.622, 1.230, 2.622, 2.012, 2.622, 2.012, 2.012, 2.012, 2.012, 2.012, 2.622, 2.622, 2.622, 1.230, 2.622, 2.622, 1.230, 1.230, 2.622, 2.622, 1.230, 1.230, 1.230, 1.230, 2.012, 2.622, 2.622, 2.622, 1.230, 1.230, 1.230, 2.622, 2.012, 1.230, 2.622, 1.230, 2.012, 2.622, 2.622, 2.012, 2.012, 2.012 ]
3
[ 0.024, 0.024, 0.024, 0.024, 0.372, 0.124, 0.124, 0.372, 0.124, 0.024, 0.024, 0.024, 0.124, 0.024, 0.372, 0.024, 0.372, 0.024, 0.372, 0.372, 0.124, 0.124, 0.124, 0.372, 0.124, 0.024, 0.124, 0.024, 0.024, 0.024, 0.024, 0.372, 0.124, 0.124, 0.124, 0.124, 0.024, 0.124, 0.024, 0.372, 0.372, 0.372, 0.124, 0.372, 0.024, 0.024, 0.024, 0.124, 0.024, 0.124 ]