3
[ 3.353, 2.836, 2.836, 2.836, 3.353, 3.353, 2.836, 2.836, 3.353, 3.353, 2.299, 2.836, 2.836, 2.836, 2.299, 3.353, 3.353, 2.299, 2.299, 2.836, 2.836, 2.836, 2.299, 2.299, 2.836, 3.353, 3.353, 2.299, 2.836, 2.836, 2.836, 2.836, 2.299, 3.353, 2.299, 3.353, 2.836, 2.299, 2.299, 2.836, 2.299, 3.353, 3.353, 2.836, 2.299, 2.836, 2.836, 3.353, 2.299, 2.836 ]
3
[ 0.522, 0.522, 0.795, 0.795, 0.795, 0.795, 0.795, 0.522, 0.522, 0.522, 0.522, 0.522, 0.140, 0.795, 0.140, 0.140, 0.522, 0.795, 0.795, 0.140, 0.522, 0.522, 0.140, 0.522, 0.795, 0.795, 0.140, 0.140, 0.140, 0.795, 0.522, 0.795, 0.140, 0.522, 0.522, 0.522, 0.140, 0.795, 0.140, 0.140, 0.795, 0.140, 0.522, 0.140, 0.522, 0.140, 0.140, 0.795, 0.795, 0.522 ]