pars_sum	pars_var	pars_disp	obs_disp	sim_disp
4	0.029509183980729	0.011399499614988	0.271502907866545	0.260103408251556
8	0.229448961156279	0.133770032546452	0.412186379928316	0.278416347381864
-10	-0.191508581752484	-0.0984805318138648	0.290123456790123	0.388603988603988
7	0.0115928937067147	-0.0114148753170552	0.321701867156413	0.333116742473468
0	0	0	0.316872427983539	0.316872427983539
3	-0.0279283348389037	-0.0225594162544308	0.314217443249702	0.336776859504132
2	-0.0969587473652511	-0.0722186640190203	0.321701867156413	0.393920531175433
-5	0.0299608551641075	0.033122478150402	0.363201911589009	0.330079433438607
3	0.0251430292080702	0.00803407157268371	0.363201911589009	0.355167840016325
-9	-0.116681722372778	-0.053644447583841	0.288235894296501	0.341880341880342
4	0.0723803071364055	0.0423424432497019	0.314217443249702	0.271875
2	-0.0780713640469734	-0.0526169828364947	0.311407407407407	0.364024390243902
8	0.267652815417044	0.156988240032088	0.464761349275785	0.307773109243697
12	0.000602228244504455	-0.0307703630108003	0.286176887269783	0.316947250280584
-2	-0.0246913580246914	-0.0119800745571942	0.269581056466302	0.281561131023497
-3	-0.0498343872327609	-0.0259815489532008	0.288235894296501	0.314217443249701
9	-0.00978620897320104	-0.0325379298733911	0.319368548876745	0.351906478750136
-1	-0.0498343872327607	-0.0309954989537699	0.304968880726457	0.335964379680227
12	0.16621499548329	0.0845280764635615	0.346873755475906	0.262345679012345
10	0.230096356519122	0.137663229160117	0.346873755475907	0.20921052631579
-26	-0.407708521529658	-0.176448744991312	0.288235894296501	0.464684639287813
10	0.0060222824450461	-0.0223330427672705	0.308446012149716	0.330779054916986
9	0.0916892502258368	0.0439678166950903	0.288235894296501	0.24426807760141
10	0.135501355013551	0.0713352477170631	0.297889287136599	0.226554039419536
16	0.235862691960254	0.12613716078283	0.353164187809857	0.227027027027027
16	0.161999397771755	0.0792277220106917	0.300411522633745	0.221183800623053
2	-0.0222824450466729	-0.0204017576898934	0.290123456790123	0.310525214480017
8	0.0542005420054196	0.0122637965600925	0.376197530864198	0.363933734304105
5	0.0052694971394156	-0.00924585320456617	0.302772718073264	0.31201857127783
2	-0.0499849442938872	-0.040230452674897	0.42479012345679	0.465020576131687
2	-0.0246913580246908	-0.0222822858112824	0.346873755475906	0.369156041287189
7	0.0525444143330324	0.0190014647415779	0.29520987654321	0.276208411801632
7	0.227491719361639	0.138685510250624	0.346873755475906	0.208188245225282
-1	-0.0486299307437511	-0.0289194591416808	0.343802469135803	0.372721928277483
-2	-0.000602228244504288	0.00482943917287376	0.321701867156413	0.316872427983539
0	-0.0246913580246919	-0.0165958308034814	0.302772718073264	0.319368548876746
10	0.229479072568504	0.134793225596848	0.379530067702111	0.244736842105263
6	0.120694068051792	0.0667858699035174	0.408592592592593	0.341806722689075
2	0.0252935862691956	0.0121756283372443	0.300411522633745	0.288235894296501
-6	-0.068654019873532	-0.0281366637955785	0.333333333333333	0.361469997128912
10	0.130096356519121	0.0666105975811694	0.346873755475906	0.280263157894737
-1	-0.024841915085818	-0.0139647844565881	0.319368548876745	0.333333333333333
-8	-0.0373381511592896	-0.000193089798824653	0.379530067702111	0.379723157500936
-6	0.0831074977416437	0.0699937800395813	0.392395061728395	0.322401281688814
12	0.0648148148148146	0.020437103770437	0.283950617283951	0.263513513513514
0	-0.0514077085215305	-0.0274882763900858	0.392860560819217	0.420348837209303
13	0.185335742246311	0.104734433291027	0.306995884773662	0.202261451482636
3	0.0507377295995185	0.0259259259259261	0.349794238683128	0.323868312757201
-4	-0.0740740740740743	-0.0382981328435875	0.321701867156413	0.36
10	0.0951520626317377	0.042817840797639	0.304968880726457	0.262151039928818
16	0.138903944595001	0.0649688807264563	0.304968880726457	0.24
-13	-0.233212887684433	-0.115427457532721	0.290123456790123	0.405550914322844
-10	-0.21095302619693	-0.101654178395982	0.319368548876745	0.421022727272728
-9	-0.00978620897320004	0.0185439704398397	0.363201911589009	0.344657941149169
3	0.07542908762421	0.0419753086419756	0.382716049382716	0.34074074074074
-3	0.0278530563083413	0.0262808641975312	0.36	0.333719135802469
5	0.00677506775067821	-0.00691343951531992	0.271502907866545	0.278416347381864
-17	-0.213640469738031	-0.0934997759767194	0.271502907866545	0.365002683843264
11	0.0896642577536884	0.040906616999513	0.286176887269783	0.24527027027027
-12	-0.232460102378802	-0.115805276889806	0.304968880726457	0.420774157616263
4	0.0493827160493826	0.0215651464136312	0.36	0.338434853586369
12	0.102981029810298	0.0475817389912471	0.271502907866545	0.223921168875297
-4	-0.0728696175850651	-0.0367575485972574	0.335964379680226	0.372721928277484
-4	-0.000150557061126655	0.014535808251655	0.335964379680226	0.321428571428571
-12	-0.109003312255344	-0.0396890604227123	0.304968880726457	0.344657941149169
12	0.139506172839506	0.0733844956067178	0.300411522633745	0.227027027027027
12	0.0853432700993685	0.029239826904478	0.346873755475906	0.317633928571428
-2	0.100572116832279	0.0708606979683091	0.376197530864198	0.305336832895889
-9	0.0314664257753695	0.0409612833855262	0.304968880726457	0.264007597340931
5	-0.0231330924420346	-0.0249106574276369	0.288235894296501	0.313146551724138
5	-0.0164107196627521	-0.0243156199677939	0.290123456790123	0.314439076757917
7	0.202800361336948	0.119426659450555	0.379530067702111	0.260103408251556
-6	0.00722673893405745	0.0228287841191077	0.395858223815214	0.373029439696106
-1	0.0251430292080703	0.0193994424532062	0.363201911589009	0.343802469135803
2	-0.07347184582957	-0.0550283984627423	0.316872427983539	0.371900826446281
-8	-0.0939476061427276	-0.0397681299724989	0.321701867156413	0.361469997128912
0	0.0493827160493827	0.0329218106995884	0.382716049382716	0.349794238683128
6	0.0506172839506168	0.0234884457106676	0.300411522633745	0.276923076923077
-2	-0.173441734417344	-0.110396898275686	0.321701867156413	0.432098765432099
7	-0.0130984643179771	-0.0281478617470116	0.304968880726457	0.333116742473468
2	-0.0493827160493819	-0.0383427672340059	0.314217443249702	0.352560210483708
2	-0.0975609756097563	-0.0717128786345546	0.302772718073264	0.374485596707819
3	0.0498343872327617	0.0243622276857862	0.379530067702111	0.355167840016325
-2	0.149352604637158	0.10348119069744	0.395858223815214	0.292377033117774
8	0.130683529057514	0.0695834878259802	0.330545599362804	0.260962111536824
2	-0.0728696175850643	-0.054563853470957	0.286176887269783	0.34074074074074
17	0.309996988858778	0.177268616219476	0.379530067702111	0.202261451482635
12	0.321589882565492	0.199459071590219	0.369156041287188	0.16969696969697
0	0.0493827160493827	0.0334659728599122	0.321701867156413	0.288235894296501
-9	-0.390996687744656	-0.229476504928702	0.273251028806584	0.502727533735286
3	0.00496838301716424	-0.00359530785494228	0.274821039526922	0.278416347381864
10	0.166214995483288	0.0916963020788159	0.335964379680226	0.24426807760141
1	0.0742246311352001	0.0472913715172366	0.316872427983539	0.269581056466302
-2	0.0246913580246907	0.0214792617401462	0.319368548876745	0.297889287136599
-2	-0.0777627220716642	-0.042592094883299	0.304968880726457	0.347560975609756
-14	-0.114423366455887	-0.0294876456634288	0.379530067702111	0.40901771336554
12	0.141523637458598	0.0681999203504588	0.330545599362804	0.262345679012345
11	0.169075579644685	0.08247269705603	0.428626543209876	0.346153846153846
-7	-0.113971695272508	-0.0528058223207201	0.346873755475907	0.399679577796627
1	0.0498343872327609	0.0314069658331951	0.286176887269783	0.254769921436588
-1	-0.0748268593797055	-0.0483113967962456	0.290123456790123	0.338434853586369
2	0.0493827160493833	0.0280405559799182	0.314217443249702	0.286176887269784
5	0.0763324299909667	0.0393964037227795	0.314217443249702	0.274821039526922
-2	0.125865703101475	0.0872097295708406	0.420928865373309	0.333719135802469
0	-0.0246913580246915	-0.0165958308034812	0.319368548876745	0.335964379680226
5	0.00526949713941527	-0.00995507674317669	0.319368548876745	0.329323625619922
6	0.130683529057513	0.0758606731849618	0.319368548876745	0.243507875691784
10	0.0704607046070463	0.0245773781127319	0.304968880726457	0.280391502613725
12	0.137910267991569	0.0670066644815907	0.311407407407407	0.244400742925817
3	0.0677449601500234	0.0451633067666822	0.382716049382716	0.337552742616034
4	0.0788919000301119	0.0442934045627651	0.321701867156413	0.277408462593648
0	-0.098765432098765	-0.0674897119341561	0.273251028806584	0.34074074074074
1	-0.0736224028906965	-0.052532277569536	0.319368548876745	0.371900826446281
-12	-0.137308039747065	-0.0589225589225593	0.290123456790123	0.349046015712683
0	-0.0246913580246916	-0.0167329864299564	0.288235894296501	0.304968880726457
2	-0.0513550135501359	-0.0364947339052804	0.273251028806584	0.309745762711865
-7	-0.214844926227039	-0.119341563786008	0.300411522633745	0.419753086419753
-6	-0.0427431496537181	-0.00564424225714499	0.363201911589009	0.368846153846154
4	0.0222824450466731	0.00285149541492524	0.369106639447847	0.366255144032922
4	0.128274616079495	0.0789035132469479	0.321701867156413	0.242798353909465
6	0.083107497741645	0.0433478393952708	0.304968880726457	0.261621041331186
-9	-0.259409816320387	-0.135054246165358	0.382716049382716	0.517770295548074
16	0.152363745859681	0.0641558500396419	0.343802469135803	0.279646619096161
5	0.105540499849444	0.0600185062045047	0.338434853586369	0.278416347381864
-8	-0.0174646190906352	0.00659474102097063	0.286176887269783	0.279582146248813
11	0.0669903643480881	0.02147459442914	0.321701867156413	0.300227272727273
-11	-0.334086118638964	-0.182124273033364	0.304968880726457	0.487093153759821
3	-0.0709123757904237	-0.0570315377711366	0.304968880726457	0.362000418497593
19	0.316320385426076	0.167944735903392	0.392860560819217	0.224915824915825
3	-0.120295091839806	-0.0909229255402847	0.288235894296501	0.379158819836785
4	0.0481782595603729	0.0201617177937757	0.372721928277483	0.352560210483708
-1	0.0489310448660045	0.0351135130072043	0.271502907866545	0.23638939485934
-1	-0.246461909063535	-0.159165272799681	0.314217443249702	0.473382716049383
-20	-0.444738030713641	-0.20648962220529	0.321701867156413	0.528191489361702
9	0.0829569883251579	0.043915223240118	0.290123456790123	0.246208233550005
4	0.124661246612467	0.0741669985397588	0.330545599362804	0.256378600823045
8	0.246913580246914	0.143184716289549	0.400991542723827	0.257806826434278
-1	-0.202762722071665	-0.128772302424811	0.288235894296501	0.417008196721312
8	0.108348389039447	0.0610235049159699	0.288235894296501	0.227212389380531
-1	-0.0277627220716648	-0.0125837778346469	0.288235894296501	0.300819672131148
7	-0.00526949713941582	-0.0224807770451012	0.330079433438606	0.352560210483708
-7	-0.216952725082807	-0.119677308519601	0.335964379680226	0.455641688199828
16	0.229012345679012	0.125962462982193	0.349794238683128	0.223831775700935
5	0.0284552845528457	0.00634721350352246	0.316872427983539	0.310525214480017
1	-0.0291327913279145	-0.0171401136586329	0.404859886341367	0.422
-9	-0.210027100271004	-0.108866442199776	0.316872427983539	0.425738870183315
-1	0.0245408009635649	0.0188221007893137	0.302772718073264	0.283950617283951
5	-0.0456187895212281	-0.0444304945246562	0.300411522633745	0.344842017158401
-2	-0.202454080096356	-0.125178739849841	0.288235894296501	0.413414634146341
11	0.0676001204456493	0.0151381540270433	0.349794238683128	0.334656084656084
7	0.202800361336948	0.119426659450555	0.379530067702111	0.260103408251556
4	0.119843420656429	0.0679759060135402	0.349537037037037	0.281561131023497
6	0.0831074977416449	0.0433478393952708	0.304968880726457	0.261621041331186
9	0.108250526949715	0.0525964019185157	0.314217443249702	0.261621041331186
-2	0.0734718458295698	0.0539400741420946	0.304968880726457	0.251028806584362
-9	-0.0919903643480872	-0.0369114611538849	0.304968880726457	0.341880341880342
7	0.207015959048479	0.127161373775771	0.335964379680226	0.208803005904455
-6	-0.0481330924420347	-0.013732609640507	0.288235894296501	0.301968503937008
5	-0.0179162902740134	-0.0250889247754448	0.288235894296501	0.313324819071945
-4	-0.123456790123457	-0.0717641057034996	0.288235894296501	0.36
6	0.0584161397169536	0.0266148529653147	0.288235894296501	0.261621041331186
-9	-0.166064438422161	-0.0824766703554578	0.321701867156413	0.404178537511871
-5	-0.219963866305331	-0.12945034876105	0.319368548876745	0.448818897637796
9	0.207015959048481	0.119186882066733	0.363201911589009	0.244015029522276
10	0.135501355013551	0.064173775737632	0.379530067702111	0.315356291964479
3	0.0269497139415837	0.0105190831645347	0.319368548876745	0.308849465712211
1	-0.123005118940079	-0.0858610948029732	0.302772718073264	0.388633812876237
-2	-0.0280713640469734	-0.00939569381919686	0.321701867156413	0.33109756097561
-11	-0.136555254441434	-0.0594157058803525	0.304968880726457	0.364384586606809
9	0.179614573923517	0.100294593444019	0.343802469135803	0.243507875691784
13	0.243751881963265	0.133707183886396	0.395858223815214	0.262151039928818
-1	-0.0254441433303227	-0.0149848654899164	0.273251028806584	0.288235894296501
10	0.045769346582355	0.00784439168277573	0.288235894296501	0.280391502613725
8	0.0813008130081308	0.034675016135899	0.330545599362804	0.295870583226905
4	-0.0198735320686537	-0.02378267698133	0.288235894296501	0.312018571277831
-7	-0.216952725082807	-0.121478406436258	0.302772718073264	0.424251124509522
1	0.0961457392351707	0.0648959213606476	0.379530067702111	0.314634146341464
6	0.0337247816922621	0.00813581577744998	0.304968880726457	0.296833064949007
14	0.156579343571213	0.0658165475416932	0.381172839506173	0.315356291964479
-1	0.0242396868413131	0.0185176822037231	0.271502907866545	0.252985225662821
0	0.0493827160493827	0.0329218106995884	0.333333333333333	0.300411522633745
-7	-0.085064739536285	-0.0353661932609306	0.324514991181657	0.359881184442588
5	0.10252935862692	0.0585199135104973	0.300411522633745	0.241891609123248
-4	-0.00120445648900946	0.00801805389618998	0.273251028806584	0.265232974910394
-7	-0.0666967780788915	-0.0241215574548905	0.333333333333333	0.357454890788224
3	0.00225835591689161	-0.00607674763894689	0.302772718073264	0.308849465712211
3	0.00135501355013568	-0.00617283950617276	0.283950617283951	0.290123456790123
-21	-0.131135200240891	-0.0260631001371742	0.333333333333333	0.359396433470507
8	-0.042155977115326	-0.0559744022851175	0.379530067702111	0.435504469987229
4	0.0469738030713645	0.0193124007647195	0.369106639447847	0.349794238683128
-11	-0.161246612466125	-0.0761486923103087	0.288235894296501	0.364384586606809
-1	-0.123607347184583	-0.0798084058557649	0.319368548876745	0.39917695473251
-6	-0.0457693465823551	-0.0127947277878975	0.352560210483707	0.365354938271605
-15	-0.152514302920807	-0.0604023776863283	0.290123456790123	0.350525834476452
1	-0.127619692863596	-0.0842107530011161	0.302772718073264	0.38698347107438
9	0.190454682324602	0.112244377395893	0.338434853586369	0.226190476190476
12	0.167133393556157	0.0909643796802261	0.335964379680226	0.245
12	0.113218909966877	0.050809133617393	0.29520987654321	0.244400742925817
2	0.146341463414634	0.0898392145426268	0.385049091085837	0.29520987654321
8	0.0833483890394466	0.043103150933669	0.288235894296501	0.245132743362832
3	0.0269497139415829	0.0105190831645341	0.319368548876745	0.308849465712211
8	0.157783800060223	0.0881731973519416	0.349794238683128	0.261621041331186
4	-0.0493827160493834	-0.0442958881746766	0.327604938271605	0.371900826446282
2	0.0511894007828967	0.0298666145368462	0.321701867156413	0.291835252619567
-1	-0.152311050888287	-0.0910699322978893	0.379530067702111	0.4706
-16	-0.0746763023185789	-0.00890825465988881	0.306995884773662	0.315904139433551
-5	-0.0224330021077999	-0.00256411482262414	0.302772718073264	0.305336832895888
-5	-0.172086720867207	-0.0998910056149105	0.304968880726457	0.404859886341367
3	-0.0462210177657327	-0.0390223066134722	0.271502907866545	0.310525214480017
1	-0.0489310448660054	-0.035662135513105	0.302772718073264	0.338434853586369
8	0.00432098765432043	-0.0130059044551802	0.283950617283951	0.296956521739131
0	0.0246913580246917	0.0163281561131026	0.346873755475906	0.330545599362804
6	-0.0650406504065043	-0.0622882314581921	0.304968880726457	0.367257112184649
0	0.0246913580246914	0.0164609053497943	0.300411522633745	0.283950617283951
-11	-0.348840710629327	-0.186285528858208	0.314217443249702	0.50050297210791
4	0.103583258054803	0.0621705268169918	0.304968880726457	0.242798353909465
14	0.112014453477868	0.0459403818225681	0.304968880726457	0.259028498903889
-2	0.124059018367961	0.0872427983539094	0.366255144032922	0.279012345679012
-8	-0.0867208672086718	-0.0308702315870772	0.379530067702111	0.410400299289188
-1	-0.197982535380909	-0.130707639401132	0.288235894296501	0.418943533697632
8	0.131022282445046	0.0757990338627379	0.302772718073264	0.226973684210526
7	0.22116832279434	0.125880561226144	0.432876445999806	0.306995884773662
2	0.0258958145137004	0.0129258584631989	0.286176887269783	0.273251028806584
2	-0.0469738030713635	-0.0378461323847384	0.306995884773662	0.344842017158401
5	0.0808491418247522	0.0440067691896327	0.304968880726457	0.260962111536824
2	0.149352604637157	0.0967348040207782	0.319368548876745	0.222633744855967
-3	0.127521830773863	0.0897283403743347	0.372721928277483	0.282993587903149
-2	-0.125150557061125	-0.0712401149229097	0.330545599362804	0.401785714285714
5	0.053146642577537	0.0228081188533167	0.333333333333333	0.310525214480017
-10	-0.0837097259861485	-0.0277855131656299	0.316872427983539	0.344657941149169
-3	-0.0965070761818727	-0.0537320827728074	0.363201911589009	0.416933994361816
4	0.103583258054803	0.0621705268169918	0.304968880726457	0.242798353909465
0	-0.0270024089129777	-0.0138067502986856	0.314217443249702	0.328024193548387
5	-0.067299006323396	-0.0599973964655257	0.288235894296501	0.348233290762026
-11	0.0149051490514899	0.0369761684113133	0.335964379680226	0.298988211268913
10	0.240289069557362	0.142965565096713	0.369156041287188	0.226190476190476
2	0.00180668473351381	-0.00359935832306613	0.288235894296501	0.291835252619567
8	-0.0572116832279429	-0.0601998824221042	0.256378600823045	0.31657848324515
-9	-0.0124962360734723	0.0172091283202392	0.366255144032922	0.349046015712683
0	0.0246913580246914	0.0164609053497943	0.349794238683128	0.333333333333333
-9	-0.160644384221621	-0.0748222970445199	0.366255144032922	0.441077441077442
11	-0.0278530563083411	-0.0489360033986629	0.286176887269783	0.335112890668446
4	0.00481782595603708	-0.00762175846350954	0.321701867156413	0.329323625619922
-6	0.0264980427582051	0.0315169511065477	0.304968880726457	0.273451929619909
8	0.133092442035532	0.0717122920021474	0.333333333333333	0.261621041331186
2	-0.00214543812104745	-0.00280422851724066	0.304968880726457	0.307773109243697
10	0.0210779885576636	-0.0088885947471804	0.271502907866545	0.280391502613725
-1	-0.121800662451069	-0.0750819456407313	0.302083333333333	0.377165278974064
0	-0.0246913580246916	-0.0165958308034812	0.335964379680226	0.352560210483708
2	0.147545919903644	0.0925102880658437	0.36	0.267489711934156
2	0.0959876543209875	0.0626747270686663	0.382716049382716	0.32004132231405
5	-0.0306760012044575	-0.0316636381451203	0.388790907309425	0.420454545454546
16	0.185971131159975	0.104464239204042	0.306995884773662	0.20253164556962
8	0.0764829870520928	0.0289693334263328	0.356652949245541	0.327683615819209
8	0.105992171032823	0.0532553317128779	0.314217443249702	0.260962111536824
8	0.205404998494429	0.126753853364437	0.335964379680226	0.20921052631579
11	0.261818729298405	0.153046947413681	0.379530067702111	0.22648312028843
11	-0.0327009936766031	-0.0504856647280887	0.304968880726457	0.355454545454545
2	0.0722673893405604	0.0422669388548656	0.321279284533878	0.279012345679013
-10	0.015055706112617	0.035582784120796	0.349794238683128	0.314211454562332
7	0.110358325805481	0.0606543907979319	0.304968880726457	0.244314489928525
5	0.0314664257753695	0.00909829749955182	0.304968880726457	0.295870583226905
17	0.196778078891899	0.104653964398955	0.302772718073264	0.198118753674309
0	-0.0246913580246912	-0.016732986429956	0.288235894296501	0.304968880726457
3	-0.121198434206565	-0.0911478131021689	0.302772718073264	0.393920531175433
-10	-0.16380608250527	-0.0805323650570008	0.288235894296501	0.368768259353501
1	-0.0489310448660052	-0.0357992911395799	0.319368548876745	0.355167840016325
4	0.0295091839807288	0.0102553637907173	0.304968880726457	0.294713516935739
8	0.0743977717554951	0.0333741690408355	0.327604938271605	0.29423076923077
-7	-0.140770852152966	-0.0708452041785373	0.333333333333333	0.404178537511871
16	0.18187292984041	0.0939569597474818	0.297889287136599	0.203932327389118
-7	-0.144986449864498	-0.0762039587797157	0.304968880726457	0.381172839506172
0	-0.101851851851851	-0.0636103583258051	0.283950617283951	0.347560975609756
-3	-0.0736224028906963	-0.0410297510625384	0.302772718073264	0.343802469135803
2	0.0734718458295696	0.043127572016461	0.36	0.316872427983539
-7	-0.0420054200542003	-0.00943336498892033	0.316872427983539	0.326305792972459
-5	0.0299608551641078	0.0318567296145028	0.330545599362804	0.298688869748301
-3	-0.0745257452574521	-0.042309705066303	0.288235894296501	0.330545599362804
-1	0.0245408009635648	0.0189570262430005	0.319368548876745	0.300411522633745
7	0.0814513700692566	0.0384560806016747	0.316872427983539	0.278416347381864
-6	-0.0915386931647084	-0.0432374475385221	0.314217443249702	0.357454890788224
11	0.0362842517314061	-0.00707472384665375	0.343802469135803	0.350877192982456
-3	0.0506562096211685	0.0491383214365119	0.363201911589009	0.314063590152497
10	0.116832279433906	0.0585046404718539	0.302772718073264	0.24426807760141
5	0.0546522131887979	0.0239458084023957	0.335964379680226	0.312018571277831
19	0.263324299909666	0.151767226633537	0.321701867156413	0.169934640522876
4	-0.0939476061427281	-0.0756978400076043	0.288235894296501	0.363933734304105
1	0.148298705209274	0.0968090130203061	0.349794238683128	0.252985225662821
-7	-0.0956037338151152	-0.0436530711151918	0.321701867156413	0.365354938271605
10	0.0704607046070464	0.0275923306226339	0.271502907866545	0.243910577243911
-7	-0.0462210177657327	-0.0147625242322209	0.271502907866545	0.286265432098765
-16	-0.075278530563083	0.000748095613344046	0.392395061728395	0.391646966115051
4	0.0246913580246912	0.0064385266809508	0.311407407407408	0.304968880726457
4	0.196326407708521	0.119209850843123	0.388790907309425	0.269581056466303
16	0.295694068051791	0.16854969447562	0.356652949245541	0.188103254769921
-4	-0.0975609756097555	-0.054407082943816	0.286176887269783	0.340583970213599
0	-0.0295891793306111	-0.0129410716292184	0.271502907866545	0.284443979495763
-6	-0.0964468533574226	-0.0423502011232545	0.319368548876745	0.36171875
11	0.188738331827762	0.108937352653199	0.335964379680226	0.227027027027027
2	0.0264980427582055	0.0128524014442019	0.321701867156413	0.308849465712211
2	0.0999698885877742	0.0627133508736419	0.335964379680226	0.273251028806584
14	0.109983838938249	0.0453777830938581	0.346873755475906	0.301495972382048
2	6.66133814775094e-16	-0.00568645500780129	0.346873755475906	0.352560210483708
-1	0.073622402890696	0.0522579663165856	0.338434853586369	0.286176887269783
-7	-0.185937970490817	-0.0972749719416391	0.343802469135803	0.441077441077442
3	0.122101776573321	0.0727023319615909	0.356652949245541	0.283950617283951
-4	-0.0740740740740741	-0.0393690439751046	0.288235894296501	0.327604938271605
6	0.00542005420054209	-0.0107628996517885	0.283950617283951	0.294713516935739
7	-0.015206263173743	-0.028262189488134	0.286176887269783	0.314439076757917
-8	-0.0644384221620004	-0.0169635284139107	0.382716049382716	0.399679577796627
0	0.0493827160493827	0.0329218106995884	0.333333333333333	0.300411522633745
7	0.0506479670985183	0.0247112746860395	0.304968880726457	0.280257606040417
-6	-0.224028906955736	-0.133771553065671	0.274821039526922	0.408592592592593
-3	0.00316169828364998	0.0104629629629633	0.36	0.349537037037037
-11	-0.172688949111713	-0.072383442265795	0.392395061728395	0.46477850399419
-7	-0.0956037338151151	-0.0454832415059683	0.288235894296501	0.333719135802469
1	0.123607347184583	0.0800782567631383	0.366255144032922	0.286176887269784
4	-0.0222824450466725	-0.0260054639139605	0.316872427983539	0.3428778918975
-4	-0.0716651610960557	-0.0357733061145137	0.333333333333333	0.369106639447847
10	0.0885953026196931	0.039945110399656	0.321701867156413	0.281756756756757
1	0.147094248720266	0.0924190031801587	0.416933994361816	0.324514991181657
-4	1.66533453693773e-16	0.0108299153147639	0.338434853586369	0.327604938271605
-13	-0.130532971996386	-0.0519152020735014	0.288235894296501	0.340151096370002
3	0.0781391147244803	0.0468924765221059	0.306995884773662	0.260103408251556
8	0.125865703101475	0.0632861361047171	0.356652949245541	0.293366813140824
1	0.0739235170129487	0.0464622328421617	0.346873755475907	0.300411522633745
-12	-0.143932550436615	-0.0602916103451381	0.29520987654321	0.355501486888348
-2	0.0240891297801871	0.0210182634425062	0.304968880726457	0.283950617283951
12	0.110608936609759	0.0528803750772344	0.335964379680226	0.283084004602992
-10	-0.0897320084311953	-0.034165387392313	0.288235894296501	0.322401281688814
-2	-0.0746763023185783	-0.0448253579566708	0.304968880726457	0.349794238683128
10	0.107716049382716	0.0509004333733932	0.349794238683128	0.298893805309734
-1	0.0745257452574529	0.0516638789326964	0.346873755475906	0.29520987654321
2	-0.0475760313158687	-0.037627784508355	0.288235894296501	0.325863678804856
-6	-0.0439626618488408	-0.0132070054550675	0.316872427983539	0.330079433438607
4	0.128274616079495	0.0794755811590832	0.304968880726457	0.225493299567374
9	0.182324601023789	0.102858725953631	0.346873755475906	0.244015029522276
15	0.215748268593797	0.121375754880615	0.321701867156413	0.200326112275798
7	0.0362842517314066	0.00737303927096616	0.304968880726457	0.297595841455491
-4	-0.0481782595603735	-0.0212154213368543	0.319368548876745	0.3405839702136
2	-0.146943691659139	-0.105734331781691	0.319368548876745	0.425102880658436
-4	-0.0246913580246913	-0.00643852668095085	0.304968880726457	0.311407407407408
-9	-0.00165612767238743	0.0255376574660196	0.400991542723827	0.375453885257807
13	0.272357723577236	0.161690983913206	0.349794238683128	0.188103254769922
-4	-0.0246913580246914	-0.00643852668095091	0.304968880726457	0.311407407407408
-3	-0.321439325504366	-0.205591266197327	0.288235894296501	0.493827160493828
15	0.182023486901535	0.0919067215363509	0.333333333333333	0.241426611796982
6	0.127070159590485	0.0714955889003641	0.330545599362804	0.25905001046244
2	-0.0240891297801874	-0.0212903445226682	0.300411522633745	0.321701867156413
1	0.0751279735019563	0.0491890583393845	0.306995884773662	0.257806826434278
-4	-0.146943691659139	-0.0849644856930832	0.335964379680226	0.42092886537331
10	0.152175549533272	0.0806521739130429	0.36	0.279347826086957
-5	0.0127973501957238	0.0213189007589097	0.361469997128912	0.340151096370002
-5	-0.0499849442938871	-0.0164596907021148	0.304968880726457	0.321428571428572
-13	-0.118789521228545	-0.0397346565622207	0.330545599362804	0.370280255925025
2	-0.0523110508882872	-0.0366022819267359	0.302772718073264	0.339375
14	0.150466726889491	0.0777727180732644	0.302772718073264	0.225
4	0.103583258054803	0.0621705268169917	0.304968880726457	0.242798353909465
17	0.097767943924165	0.0251228000222211	0.361469997128912	0.33634719710669
-1	-0.0242396868413127	-0.0131262445240939	0.346873755475906	0.36
-29	-0.393405600722673	-0.163322009556163	0.273251028806584	0.436573038362747
12	0.182113821138212	0.0986697257729711	0.343802469135803	0.245132743362832
9	0.0519064049641897	0.0188365651848751	0.335964379680226	0.317127814495351
-4	-0.0951520626317364	-0.0496067303862996	0.363201911589009	0.412808641975308
9	0.187744655224329	0.106837675723985	0.369156041287188	0.262318365563203
-1	-0.0521604938271609	-0.0273521505376347	0.333333333333333	0.360685483870968
5	0.0576633544113222	0.0277688316335661	0.306995884773662	0.279227053140096
-1	-0.0989159891598919	-0.0634824259596575	0.302772718073264	0.366255144032922
20	0.177657332128878	0.0827895720368845	0.297889287136599	0.215099715099715
4	0.124661246612467	0.0736227266693221	0.346873755475906	0.273251028806584
-22	-0.369768142125864	-0.141935837438664	0.416933994361816	0.55886983180048
-21	-0.260915386931647	-0.105152689852143	0.302772718073264	0.407925407925408
12	0.154920547799009	0.0828592889297943	0.346873755475906	0.264014466546112
0	-0.102311050888287	-0.0644378668285774	0.286176887269783	0.350614754098361
1	-0.02514302920807	-0.0192688172043012	0.327604938271605	0.346873755475906
-2	-0.173441734417344	-0.110668979355848	0.304968880726457	0.415637860082305
-7	-0.165462210177657	-0.0890788224121556	0.283950617283951	0.373029439696106
16	0.13791026799157	0.0555555555555561	0.317901234567901	0.262345679012345
2	-0.0975609756097563	-0.0725426701747286	0.352560210483707	0.425102880658436
4	0.150557061126166	0.0914341045059995	0.366255144032922	0.274821039526922
4	0.0242321589882561	0.0101879723105524	0.302772718073264	0.292584745762712
5	0.10252935862692	0.0550324335635072	0.382716049382716	0.327683615819209
8	0.155374887082205	0.0859116439390825	0.346873755475906	0.260962111536824
4	0.0481481481481482	0.0261161254625308	0.316872427983539	0.290756302521008
-8	-0.136103583258056	-0.0664952994702104	0.297889287136599	0.36438458660681
2	0.120694068051792	0.0780267991568805	0.376197530864198	0.298170731707317
-3	0.10373381511593	0.0743178470212597	0.385049091085837	0.310731244064577
15	0.26513098464318	0.157209603178729	0.338434853586369	0.18122525040764
6	-0.0439626618488408	-0.0462171573282685	0.300411522633745	0.346628679962013
5	-0.0224330021077979	-0.0279743916682557	0.297889287136599	0.325863678804855
8	0.012044564890093	-0.0125835738912148	0.302772718073264	0.315356291964479
10	0.0891297801866904	0.0351797224953564	0.333333333333333	0.298153610837977
-15	-0.217554953327311	-0.0952480141583091	0.319368548876745	0.414616563035054
17	0.142276422764227	0.0566037735849054	0.333333333333333	0.276729559748428
-10	-0.0403492923818127	-0.00197674174079443	0.304968880726457	0.306945622467251
1	-0.0486299307437513	-0.0357718600142839	0.304968880726457	0.340740740740741
12	0.187292984040952	0.0976816344367966	0.36	0.262318365563203
6	0.00903342366757032	-0.0103432214104149	0.321701867156413	0.332045088566828
7	0.0362842517314068	0.00942796742903107	0.271502907866545	0.262074940437513
-5	-0.0194218608852744	0.00299766299599669	0.395858223815214	0.392860560819217
0	0.0987654320987655	0.0669319457198246	0.288235894296501	0.221303948576676
-2	-0.0252935862691956	-0.0116314661769205	0.321701867156413	0.333333333333333
-4	0.0764829870520922	0.060399857425229	0.349794238683128	0.289394381257899
10	0.116832279433905	0.0570228698644	0.319368548876745	0.262345679012345
-5	0.0022583559168915	0.0140317159808569	0.319368548876745	0.305336832895888
8	0.121047877145438	0.0583590534979425	0.365354938271605	0.306995884773662
-10	-0.239799759108702	-0.118626215115921	0.338434853586369	0.45706106870229
-1	-0.123607347184583	-0.0800782567631384	0.286176887269783	0.366255144032922
8	-0.0198735320686543	-0.0352212725546061	0.311407407407407	0.346628679962014
1	0.00105389942788281	-0.00185358093854854	0.306995884773662	0.308849465712211
6	0.0301114122252333	0.00485385670570854	0.316872427983539	0.312018571277831
-16	-0.390846130683528	-0.198320296528657	0.304968880726457	0.503289177255114
-2	-0.149954832881662	-0.0973610135820476	0.257806826434278	0.355167840016325
16	0.310147545919903	0.18045459790008	0.382716049382716	0.202261451482636
2	-0.0969587473652514	-0.0719374373563322	0.304968880726457	0.376906318082789
1	-0.0530713640469732	-0.034548132843587	0.321701867156413	0.35625
-2	-0.127454080096356	-0.0757884959474015	0.288235894296501	0.364024390243902
9	0.163053297199638	0.0915636367544096	0.335964379680226	0.244400742925817
2	0.0264980427582053	0.0131336281068901	0.304968880726457	0.291835252619567
8	0.0614272809394755	0.0217727074212546	0.319368548876745	0.297595841455491
9	0.105540499849443	0.0466751809280547	0.36	0.313324819071945
6	0.107798855766336	0.0609538512041812	0.304968880726457	0.244015029522276
-6	0.00361336946702795	0.0172852155434123	0.319368548876745	0.302083333333333
-1	-0.197079193014152	-0.126900836320191	0.297889287136599	0.42479012345679
6	0.102378801565794	0.0551674327872618	0.314217443249702	0.25905001046244
8	0.0517916290274006	0.0129003543943903	0.340583970213599	0.327683615819209
-2	-0.153071364046973	-0.0917127669899284	0.321701867156413	0.413414634146341
3	0.14769647696477	0.0904189435336976	0.36	0.269581056466303
14	0.13670581150256	0.0692414563839091	0.271502907866545	0.202261451482635
-3	-0.0507377295995184	-0.0267489711934157	0.290123456790123	0.316872427983539
1	-0.12789822342668	-0.081416029786401	0.340583970213599	0.422
-6	-0.0933453778982232	-0.0445975691453726	0.316872427983539	0.361469997128912
6	0.00903342366757021	-0.00947019603146076	0.304968880726457	0.314439076757917
8	0.059018367961457	0.0177491501162996	0.349794238683128	0.332045088566828
0	-0.123456790123457	-0.0829791540174055	0.319368548876745	0.402347702894151
0	-0.0246913580246914	-0.0164609053497942	0.316872427983539	0.333333333333333
1	-0.0739235170129476	-0.0521486878499627	0.300411522633745	0.352560210483708
11	0.116982836495032	0.0545267489711939	0.316872427983539	0.262345679012345
10	0.0424721469436916	0.0113786008230452	0.256378600823045	0.245
-15	-0.10601475459199	-0.0225119545940303	0.330545599362804	0.353057553956834
0	0.0246913580246914	0.0167329864299561	0.304968880726457	0.288235894296501
9	0.0889792231255638	0.0391325606761551	0.319368548876745	0.28023598820059
-16	-0.0403492923818136	0.0149767253592384	0.335964379680226	0.320987654320988
5	0.0299608551641065	0.00734997759891459	0.319368548876745	0.312018571277831
5	0.0995182174043963	0.0543539094650206	0.327604938271605	0.273251028806584
10	0.136269196025293	0.0755405752161216	0.302772718073264	0.227232142857143
5	0.0314664257753693	0.00837704808446743	0.321701867156413	0.313324819071945
7	0.272658837699487	0.164067272999734	0.404859886341367	0.240792613341633
5	-0.0467253839205059	-0.04131418858472	0.273251028806584	0.314565217391304
3	0.00225835591689166	-0.00649512992811024	0.319368548876745	0.325863678804856
1	-0.0733212887684425	-0.0523654048906569	0.271502907866545	0.323868312757201
14	0.121296296296297	0.0537990334881264	0.316872427983539	0.263073394495413
-2	-0.0746763023185784	-0.044553276876509	0.321701867156413	0.366255144032922
-8	-0.163203854260766	-0.0828071498130876	0.316872427983539	0.399679577796627
-13	-0.0742246311352003	-0.0138231127302166	0.286176887269783	0.3
-1	-0.123908461306834	-0.0806458357377378	0.321701867156413	0.402347702894151
0	0.0493827160493824	0.033465972859912	0.321701867156413	0.288235894296501
-2	0.0499849442938871	0.0381234567901232	0.333333333333333	0.29520987654321
0	-0.123456790123456	-0.0843621399176951	0.256378600823045	0.34074074074074
-7	-0.218669075579645	-0.118474275520915	0.286176887269783	0.404651162790698
-26	-0.194519722975007	-0.0517579473582451	0.316872427983539	0.368630375341784
-9	-0.14137308039747	-0.0669021214475755	0.321701867156413	0.388603988603988
4	0.0529960855164103	0.0260017357359209	0.319368548876745	0.293366813140824
-4	-0.123456790123457	-0.0717641057034995	0.288235894296501	0.36
11	0.194369165913881	0.107005001358371	0.369156041287188	0.262151039928818
-9	-0.163354411321892	-0.0803110289198812	0.319368548876745	0.399679577796627
7	-0.0377898223426684	-0.0469357763350325	0.321701867156413	0.368637643491445
0	0.0493827160493825	0.033191661606962	0.286176887269783	0.252985225662821
11	0.123607347184583	0.0633200693806758	0.288235894296501	0.224915824915825
-4	-0.0234869015356823	-0.00567329407645151	0.302772718073264	0.308446012149716
6	-0.193917494730501	-0.152393873735225	0.346873755475906	0.499267629211131
-4	-0.0995332731105089	-0.050798710498164	0.302772718073264	0.353571428571428
9	0.207015959048481	0.120464737762541	0.346873755475906	0.226409017713365
5	0.0778380006022284	0.039269024203111	0.349794238683128	0.310525214480017
11	0.164610371666304	0.0980770600146331	0.306995884773662	0.208918824759029
5	0.10252935862692	0.0550324335635073	0.382716049382716	0.327683615819209
-18	-0.209628600505413	-0.0643252768581296	0.363201911589009	0.427527188447138
-5	-0.196778078891899	-0.115295977248839	0.321701867156413	0.436997844405251
-7	-0.0688045769346587	-0.0273067153653423	0.302772718073264	0.330079433438607
0	-5.55111512312578e-17	-5.55111512312578e-17	0.288235894296501	0.288235894296501
-8	-0.216508581752484	-0.112804205003659	0.302772718073264	0.415576923076923
0	0.0987654320987654	0.0658436213991769	0.316872427983539	0.251028806584362
5	0.00677506775067782	-0.00763468893040453	0.288235894296501	0.295870583226905
-2	-0.0746763023185784	-0.0450974390368327	0.288235894296501	0.333333333333333
-8	0.043962661848842	0.0485762324976876	0.369106639447847	0.32053040695016
-5	-0.22146943691659	-0.132028963678795	0.304968880726457	0.436997844405251
2	0.0480277024992468	0.0315721559601029	0.306995884773662	0.275423728813559
-2	0.0752785305630841	0.0539783681958119	0.314217443249702	0.26023907505389
-17	-0.0850647395362842	-0.0111226137487096	0.319368548876745	0.330491162625455
-5	0.0791704305931953	0.069695433117539	0.395858223815214	0.326162790697675
10	0.02710027100271	-0.00482557956923851	0.274821039526922	0.279646619096161
7	0.135049683830172	0.0794423053859527	0.288235894296501	0.208793588910548
-7	-0.120295091839806	-0.0613011427405361	0.288235894296501	0.349537037037037
11	0.0775368864799756	0.0307547098576658	0.273251028806584	0.242496318948919
5	0.00526949713941516	-0.00995507674317675	0.319368548876745	0.329323625619922
1	-0.0489310448660054	-0.0357992911395801	0.319368548876745	0.355167840016325
1	0.0463113520024089	0.0318426921545201	0.376197530864198	0.344354838709677
-8	-0.119429388738332	-0.0525892588084272	0.304968880726457	0.357558139534884
5	0.148148148148148	0.0908314152193627	0.366255144032922	0.275423728813559
-6	-0.065040650406505	-0.0242239185750642	0.36	0.384223918575064
23	0.227792833483891	0.117695473251029	0.300411522633745	0.182716049382716
-3	-0.0224330021077987	-0.00667613680906365	0.330545599362804	0.337221736171868
4	-0.0210779885576632	-0.0260360388173668	0.335964379680226	0.362000418497593
3	-0.0049683830171644	-0.0127554568499456	0.404178537511871	0.416933994361816
5	0.0490740740740736	0.0242876822208269	0.316872427983539	0.292584745762712
3	-0.00339506172839565	-0.00686985596707862	0.366255144032922	0.373125
0	0.0493827160493826	0.032395061728395	0.36	0.327604938271605
1	0.0739235170129485	0.0464622328421616	0.346873755475906	0.300411522633745
0	0.148148148148149	0.0979689366786145	0.412186379928316	0.314217443249701
4	-0.0457693465823548	-0.0415067285494257	0.286176887269783	0.327683615819209
2	0.0252935862691955	0.0110873040165966	0.366255144032922	0.355167840016325
-2	-0.195724179464017	-0.121469038592398	0.311407407407407	0.432876445999806
-7	-0.219060523938572	-0.124572747678808	0.288235894296501	0.412808641975308
-10	-0.0590183679614575	-0.0125622698722115	0.316872427983539	0.329434697855751
6	0.0499999999999998	0.0217948717948717	0.333333333333333	0.311538461538462
10	0.122854561878952	0.0652076318742984	0.290123456790123	0.224915824915825
-2	0.201144233664559	0.133469848053181	0.428626543209876	0.295156695156695
2	0.0969587473652513	0.0571890735880237	0.400991542723826	0.343802469135803
-16	-0.257753688647996	-0.113686828315125	0.333333333333333	0.447020161648458
8	0.133092442035532	0.0728573984612635	0.316872427983539	0.244015029522276
-2	-0.174043962661849	-0.112224246104028	0.290123456790123	0.402347702894151
3	0.00316169828364987	-0.00470550393508767	0.271502907866545	0.276208411801632
-5	-0.13986750978621	-0.0745512668045896	0.3405839702136	0.415135237018189
-13	-0.126618488407106	-0.0445568823225169	0.335964379680226	0.380521262002743
-4	-0.0234869015356819	-0.00567329407645129	0.302772718073264	0.308446012149716
5	-0.0426076482987051	-0.0432644100355699	0.304968880726457	0.348233290762027
5	0.0441132189099663	0.0158619901889049	0.330079433438606	0.314217443249702
1	0.025143029208069	0.0143996681502885	0.319368548876745	0.304968880726457
3	-0.0263851249623608	-0.021596221973914	0.286176887269783	0.307773109243697
-1	0.0489310448660045	0.0353878242601543	0.304968880726457	0.269581056466302
-2	-0.0770024089129786	-0.0413169349942226	0.319368548876745	0.360685483870968
12	0.0710629328515507	0.0146813480146814	0.349794238683128	0.335112890668446
8	0.0885275519421864	0.0438351513706838	0.288235894296501	0.244400742925817
8	0.0367359229147848	0.00634149632328146	0.286176887269783	0.279835390946502
-2	-8.88178419700125e-16	0.00595412969817988	0.369156041287188	0.363201911589009
-2	-0.0740740740740751	-0.0441010374026422	0.302772718073264	0.346873755475906
9	0.0552469135802466	0.01624160710418	0.349794238683128	0.333552631578948
-3	0.0031616982836502	0.0104629629629635	0.36	0.349537037037037
3	-0.0215296597410412	-0.0227147350927521	0.304968880726457	0.327683615819209
3	-0.0513851249623605	-0.0386130286966029	0.286176887269783	0.324789915966386
-3	0.101927130382415	0.0744938271604941	0.392395061728395	0.317901234567901
-12	-0.20776874435411	-0.100582033596388	0.304968880726457	0.405550914322844
-11	-0.136555254441434	-0.0608101214161823	0.288235894296501	0.349046015712683
6	0.161261668172238	0.0904374432152214	0.379723157500936	0.289285714285714
8	0.0614272809394754	0.0217727074212545	0.319368548876745	0.297595841455491
12	0.117750677506775	0.0577727180732642	0.302772718073264	0.245
14	0.148750376392654	0.0729734622207747	0.297889287136599	0.224915824915825
4	-0.100293586269196	-0.0763750559205104	0.321701867156413	0.398076923076923
-11	-0.281940680517917	-0.144838150324202	0.286176887269783	0.431015037593985
3	0.15040650406504	0.0943350017602663	0.369156041287188	0.274821039526922
12	0.194519722975007	0.10766321877433	0.333333333333333	0.225670114559003
9	0.224706413730804	0.13161919965943	0.392395061728395	0.260775862068966
1	0.146763023185788	0.0980932676710284	0.346873755475906	0.248780487804878
2	-0.00301114122252399	-0.00714230273326127	0.330079433438606	0.337221736171868
4	-0.0198735320686537	-0.0232106090691947	0.271502907866545	0.294713516935739
-3	0.0260463715748273	0.0248873211836177	0.333333333333333	0.308446012149716
-1	0.0492321589882561	0.0354179315927947	0.319368548876745	0.283950617283951
6	0.105992171032821	0.0584064373399212	0.319368548876745	0.260962111536824
-5	-0.045618789521228	-0.0149176954732507	0.366255144032922	0.381172839506172
2	0.00120445648900913	-0.00477636106051421	0.335964379680226	0.340740740740741
14	0.132490213791026	0.0548921720749277	0.352560210483707	0.29766803840878
20	0.251731406202952	0.131774040376191	0.346873755475906	0.215099715099715
10	0.110343270099367	0.0530066390551361	0.352560210483707	0.299553571428571
12	0.078289671785607	0.0234800979866314	0.321701867156413	0.298221769169781
-4	-0.0246913580246913	-0.00643852668095085	0.304968880726457	0.311407407407408
-9	-0.160644384221621	-0.0793116348671908	0.300411522633745	0.379723157500936
10	0.0415462210177653	0.00676861204638957	0.306995884773662	0.300227272727273
1	-0.102469135802469	-0.0668015921203536	0.300411522633745	0.367213114754099
5	0.0823547124360134	0.0453748434424764	0.306995884773662	0.261621041331186
5	0.00677506775067799	-0.00907718776057304	0.321701867156413	0.330779054916986
-9	-0.188045769346584	-0.0980470313052809	0.286176887269783	0.384223918575064
-29	-0.335290575127972	-0.127566574839301	0.288235894296501	0.415802469135802
-13	-0.155224330021078	-0.0654014896439138	0.304968880726457	0.370370370370371
9	0.066997892201145	0.0245456003031766	0.304968880726457	0.28042328042328
0	-0.0493827160493827	-0.032137958063884	0.356652949245541	0.388790907309425
-4	-0.245709123757903	-0.150820957135468	0.286176887269783	0.436997844405251
14	-0.0248419150858182	-0.0556314511232549	0.319368548876745	0.375
1	0.00105389942788264	-0.00142822561123251	0.256378600823045	0.257806826434278
-6	0.0301114122252332	0.0323475930711071	0.283950617283951	0.251603024212843
15	0.134274314965373	0.0658302339191424	0.288235894296501	0.222405660377358
-3	-0.0754290876242096	-0.0436213991769548	0.273251028806584	0.316872427983539
10	0.0895212285456189	0.0444758808395173	0.271502907866545	0.227027027027027
1	0.0254441433303227	0.0148454239363334	0.304968880726457	0.290123456790123
-1	0.123607347184583	0.084826762246117	0.382716049382716	0.297889287136599
12	0.190906353507981	0.104355123172328	0.330545599362804	0.226190476190476
7	0.0630834086118635	0.0267598965730723	0.306995884773662	0.28023598820059
0	0.0246913580246912	0.0160689790319419	0.388790907309426	0.372721928277484
18	0.353507979524239	0.20360572212424	0.388790907309425	0.185185185185185
-8	0.00481782595603758	0.019899883653701	0.271502907866545	0.251603024212843
3	-0.0462210177657319	-0.039873136431944	0.304968880726457	0.344842017158401
0	0.122237277928335	0.0837975308641974	0.376197530864198	0.2924
-3	-0.198885877747666	-0.125925925925926	0.273251028806584	0.39917695473251
11	0.135049683830172	0.0655299978340917	0.327604938271605	0.262074940437513
24	0.236434808792533	0.120318298496516	0.311407407407408	0.191089108910891
14	0.2065642878651	0.115436221487627	0.319368548876745	0.203932327389118
9	0.116380608250528	0.0593561881440675	0.321701867156413	0.262345679012345
1	0.0998193315266478	0.066203271432029	0.306995884773662	0.240792613341633
-1	-0.0983137609153866	-0.061980087614496	0.314217443249702	0.376197530864198
3	-0.146793134598012	-0.107818930041152	0.300411522633745	0.408230452674897
12	0.149262270400482	0.0819958847736626	0.306995884773662	0.225
6	0.134296898524541	0.080441845354126	0.306995884773662	0.226554039419536
6	0.143270099367661	0.0817433059618698	0.385049091085837	0.303305785123967
0	-0.148148148148148	-0.0995749848208866	0.319368548876745	0.418943533697632
2	0.0740740740740747	0.0438333627122631	0.363201911589009	0.319368548876746
14	0.0799533273110509	0.0287458985207499	0.271502907866545	0.242757009345795
4	0.00120445648901046	-0.0101951413779364	0.330545599362804	0.34074074074074
-2	0.000602228244505065	0.00520164609053525	0.300411522633745	0.29520987654321
1	0.0742246311352002	0.0472913715172367	0.316872427983539	0.269581056466302
1	-0.100421559771153	-0.0674017848597953	0.392860560819217	0.460262345679012
17	0.163360176323281	0.0784343965933399	0.324514991181657	0.246080594588318
0	-0.0740740740740741	-0.0493827160493827	0.300411522633745	0.349794238683128
3	-0.0251204456489013	-0.0209797404241852	0.273251028806584	0.29423076923077
-6	-0.0686540198735323	-0.0281366637955787	0.333333333333333	0.361469997128912
-10	-0.0993676603432703	-0.0360514576200853	0.324514991181658	0.360566448801743
1	0.000150557061126044	-0.00249612089320661	0.316872427983539	0.319368548876746
4	0.0542005420054206	0.0281324860449443	0.288235894296501	0.260103408251556
-1	-0.0492321589882569	-0.0296030797822915	0.366255144032922	0.395858223815213
7	-0.0708295694068051	-0.0636057214258687	0.286176887269783	0.349782608695652
7	0.0305706112616684	0.00694256493698298	0.304968880726457	0.298026315789474
-2	-0.149352604637157	-0.0956284153005462	0.290123456790123	0.38575187209067
-5	0.00376392652815416	0.0141460905349794	0.300411522633745	0.286265432098765
-5	-0.049676302318578	-0.017121248560642	0.288235894296501	0.305357142857143
-11	-0.164558867810901	-0.0772280338014017	0.306995884773662	0.384223918575064
5	0.0284552845528459	0.00634721350352263	0.316872427983539	0.310525214480016
-15	0.0609756097560973	0.0756451973075571	0.392860560819217	0.31721536351166
7	0.054652213188799	0.0204808245429515	0.297889287136599	0.277408462593648
-9	-0.0618789521228554	-0.0123456790123462	0.382716049382716	0.395061728395062
17	0.338903944595001	0.184715965965966	0.428626543209876	0.243910577243911
5	0.0254441433303224	0.00306172839506186	0.343802469135802	0.340740740740741
-17	-0.341478470340258	-0.162796251239073	0.290123456790123	0.452919708029196
-1	-0.102002408912978	-0.0613840883399726	0.286176887269783	0.347560975609756
-3	0.00135501355013584	0.00881834215167571	0.333333333333333	0.324514991181658
3	0.193465823547125	0.115431415173017	0.439946406354675	0.324514991181657
-6	-0.14453477868112	-0.0784001214329084	0.302772718073264	0.381172839506173
-4	-0.0704607046070448	-0.0337888291517315	0.363201911589009	0.39699074074074
15	0.206714844926226	0.110653863740283	0.333333333333333	0.22267946959305
-1	0.0248419150858171	0.0189831408469399	0.316872427983539	0.297889287136599
-2	0.0012044564890108	0.00680813942462788	0.379530067702111	0.372721928277483
16	0.17163504968383	0.0850175638054423	0.321701867156413	0.236684303350971
3	0.0754290876242097	0.0423868312757203	0.366255144032922	0.323868312757202
3	-0.0285456187895208	-0.0233741784083912	0.346873755475906	0.370247933884298
6	0.053718759409816	0.0264967638617175	0.288235894296501	0.261739130434783
-5	-0.115176151761519	-0.0590956075830272	0.3405839702136	0.399679577796627
4	-0.0740740740740746	-0.063170696867667	0.392395061728395	0.455565758596062
9	0.160343270099368	0.0890188434048085	0.333333333333333	0.244314489928525
6	0.0267012947907254	0.00622199715260741	0.319368548876745	0.313146551724138
-13	-0.0694068051791619	-0.0101771184888674	0.330545599362804	0.340722717851671
-5	-0.148900933453779	-0.0860740740740744	0.290123456790123	0.376197530864198
14	0.152965974104185	0.0722618643107938	0.333333333333333	0.261071469022539
10	0.0836419753086425	0.0373584252886125	0.300411522633745	0.263053097345132
10	0.0921409214092143	0.0374634978460117	0.335964379680226	0.298500881834215
-13	-0.2039972899729	-0.0903669401690659	0.304968880726457	0.395335820895523
2	0.0240891297801866	0.00967901234567897	0.392395061728395	0.382716049382716
24	0.19993977717555	0.101845277727815	0.271502907866545	0.16965763013873
-4	0	0.0097590041832466	0.304968880726457	0.29520987654321
16	0.142125865703101	0.0667499131258279	0.286176887269783	0.219426974143955
6	-0.00180668473351431	-0.0187366386364242	0.353164187809857	0.371900826446282
21	0.208822643781993	0.11142287068213	0.290123456790123	0.178700586107994
-7	-0.0215296597410413	0.00288554739312352	0.304968880726457	0.302083333333333
5	0.076332429990967	0.0387103467432376	0.330545599362804	0.291835252619566
1	-0.0001505570611256	-0.00278773397052928	0.330545599362804	0.333333333333333
2	0.0511894007828964	0.0304290678622227	0.288235894296501	0.257806826434278
15	0.282896717856067	0.150490276412105	0.412808641975308	0.262318365563204
10	0.277627220716651	0.159966753836486	0.420928865373309	0.260962111536824
8	-0.0143179765130983	-0.0263025426219869	0.273251028806584	0.299553571428571
10	0.122854561878952	0.0636737747848858	0.306995884773662	0.243322109988777
-3	-0.0974104185486298	-0.0554575739760924	0.333333333333333	0.388790907309426
-15	-0.129930743751882	-0.037530864197531	0.36	0.397530864197531
3	0.0240891297801873	0.0128121654829415	0.288235894296501	0.275423728813559
8	0.0837097259861491	0.0399355877616749	0.283950617283951	0.244015029522276
-4	0.0307136404697377	0.030347156273082	0.356652949245541	0.326305792972459
4	0.148148148148148	0.0884970921334557	0.36	0.271502907866544
8	0.113218909966878	0.0605681378006399	0.304968880726457	0.244400742925817
14	0.179644685335742	0.102254585885285	0.288235894296501	0.185981308411215
3	0.0781391147244804	0.0473251028806583	0.290123456790123	0.242798353909465
3	-0.0727190605239382	-0.0572016460905347	0.300411522633745	0.35761316872428
5	0.0793435712134892	0.041250862744487	0.335964379680226	0.294713516935739
-5	0.000752785305631498	0.0132558550066972	0.321701867156413	0.308446012149716
-1	-0.0983137609153866	-0.0621107128634009	0.297889287136599	0.36
12	0.198133092442035	0.114669463303343	0.302772718073264	0.188103254769921
2	0.0752785305630829	0.046394117250219	0.302772718073264	0.256378600823045
-22	-0.279433905450166	-0.115400616159572	0.286176887269783	0.401577503429356
-3	0.024239686841313	0.0234077497029599	0.304968880726457	0.281561131023497
4	0.0764829870520923	0.039838157485216	0.382716049382716	0.3428778918975
16	0.255947003914484	0.142941428086789	0.346873755475906	0.203932327389118
5	0.00677506775067777	-0.00979843717565748	0.338434853586369	0.348233290762026
13	0.132038542607648	0.0655564247034504	0.288235894296501	0.22267946959305
-1	0.0242396868413131	0.0187919934566732	0.304968880726457	0.286176887269784
-2	-0.127762722071665	-0.0755189241515919	0.304968880726457	0.380487804878049
6	0.00310147545919925	-0.0104720458870655	0.321701867156413	0.332173913043478
-2	-0.246913580246915	-0.15813045550398	0.319368548876745	0.477499004380725
4	0.0963451320518831	0.0622453700967807	0.300411522633745	0.238166152536964
-8	-0.0915386931647093	-0.0380863419114784	0.319368548876745	0.357454890788224
14	0.161397169527251	0.0881638055243267	0.271502907866545	0.183339102342218
-3	-0.200767841011744	-0.119227281926736	0.302772718073264	0.422
-8	-0.143330322192111	-0.0721963982476079	0.304968880726457	0.377165278974065
-7	-0.157031014754592	-0.0809759891124719	0.289394381257899	0.37037037037037
11	0.0860910050732016	0.0402968439025212	0.304968880726457	0.264672036823936
-8	-0.0915386931647099	-0.0380863419114788	0.319368548876745	0.357454890788224
8	0.0638361939174949	0.0259175287332971	0.288235894296501	0.262318365563204
-16	-0.24269798253538	-0.111601899701877	0.288235894296501	0.399837793998378
-3	-0.150308641975308	-0.0841343327454436	0.349794238683128	0.433928571428571
9	0.113670581150255	0.0570501833135418	0.319368548876745	0.262318365563203
-3	-0.0251430292080699	-0.00924856252324485	0.304968880726457	0.314217443249702
3	-0.0956037338151155	-0.073764524201093	0.288235894296501	0.362000418497594
2	0.0246913580246924	0.0106417011053013	0.363201911589009	0.352560210483708
5	0.164227642276422	0.0949530864197525	0.419753086419753	0.3248
-8	-0.170430593194821	-0.0910493827160493	0.290123456790123	0.381172839506173
-1	0.123607347184583	0.0844285145360414	0.333333333333333	0.248904818797292
0	-0.197530864197531	-0.132766646427849	0.286176887269783	0.418943533697632
-11	-0.309394760614273	-0.165391286603408	0.321701867156413	0.487093153759821
13	0.16064438422162	0.0858120841506093	0.306995884773662	0.221183800623053
9	0.0507377295995197	0.00589027124905156	0.385049091085837	0.379158819836785
-10	-0.139114724480578	-0.0637993786270443	0.304968880726457	0.368768259353501
-4	-0.0975609756097561	-0.0538802311722772	0.302772718073264	0.356652949245541
4	0.0764829870520927	0.0414980807137669	0.333333333333333	0.291835252619566
-2	-0.198133092442035	-0.127401965785804	0.288235894296501	0.415637860082305
7	0.0341764528756391	0.00492947211882772	0.319368548876745	0.314439076757918
1	-0.024239686841314	-0.0189291490831489	0.302772718073264	0.321701867156413
15	0.145528455284554	0.0652223793291177	0.346873755475907	0.281651376146789
8	0.0614272809394758	0.0229373271267623	0.302772718073264	0.279835390946502
1	-0.102928334838903	-0.0664056201493909	0.330545599362804	0.396951219512195
0	-0.0782068654019876	-0.0492515432098767	0.290123456790123	0.339375
13	0.0892403633951943	0.0361261844591396	0.319368548876745	0.283242364417606
-3	0.0534477566997889	0.0426424948388771	0.372721928277484	0.330079433438606
-15	-0.291629027401385	-0.141401383035143	0.302772718073264	0.444174101108407
22	0.227642276422764	0.120056668690548	0.302772718073264	0.182716049382716
4	-0.0481782595603722	-0.045028541085888	0.363201911589009	0.408230452674897
18	0.251731406202951	0.143205206046736	0.319368548876745	0.176163342830009
-2	-0.000602228244504233	0.0045573580927119	0.304968880726457	0.300411522633745
0	-0.0493827160493827	-0.0334659728599123	0.304968880726457	0.338434853586369
-4	-0.170430593194822	-0.0995431126664728	0.333333333333333	0.432876445999806
-10	-0.127070159590484	-0.0541161408321899	0.311407407407407	0.365523548239597
21	0.257603131586872	0.134360271117762	0.346873755475906	0.212513484358145
5	-0.126693766937669	-0.0949678557205434	0.297889287136599	0.392857142857143
-8	-0.0126467931345979	0.0131663106573501	0.346873755475907	0.333707444818556
-8	-0.163203854260766	-0.0807966575566242	0.349794238683128	0.430590896239752
8	0.234266787112315	0.142602001867652	0.369156041287188	0.226554039419536
6	0.0072267389340559	-0.00969369595712172	0.286176887269783	0.295870583226905
-6	-0.070460704607046	-0.0309464177292046	0.302772718073264	0.333719135802469
1	-0.075730201746462	-0.051461264235812	0.377165278974064	0.428626543209876
9	0.0149051490514899	-0.0146203072360047	0.319368548876745	0.33398885611275
-11	-0.0311653116531166	0.00829187396351566	0.333333333333333	0.325041459369818
7	0.0094850948509485	-0.0126765396900821	0.319368548876745	0.332045088566827
-7	-0.167570009033424	-0.0900878427459527	0.302772718073264	0.392860560819217
-10	0.0150557061126167	0.0331074600080448	0.316872427983539	0.283764967975494
0	0.0246913580246909	0.0165958308034808	0.302772718073264	0.286176887269784
8	0.137910267991569	0.0796703966454571	0.288235894296501	0.208565497651044
6	-0.0156579343571207	-0.0253301570824623	0.271502907866545	0.296833064949007
-6	-0.0210779885576634	0.00146731430884434	0.319368548876745	0.317901234567901
-1	0.0489310448660044	0.0352506686336791	0.288235894296501	0.252985225662821
-4	-0.0248419150858177	-0.00206002255182597	0.319368548876745	0.321428571428571
-2	-0.321589882565492	-0.209706492534775	0.288235894296501	0.497942386831276
-3	0.0507377295995184	0.0405643738977073	0.316872427983539	0.276308054085832
-1	0.12330623306233	0.0849355730958641	0.335964379680226	0.251028806584362
6	0.00542005420054165	-0.0124511976363831	0.316872427983539	0.329323625619922
-4	-0.0495332731105095	-0.0186558533553073	0.302772718073264	0.321428571428572
21	0.220867208672086	0.116365188431411	0.302772718073264	0.186407529641853
4	0.00361336946702784	-0.0077524964067523	0.302772718073264	0.310525214480017
-4	-0.071665161096056	-0.0347363986909048	0.366255144032922	0.400991542723827
-6	-0.213188798554653	-0.116216002261804	0.376197530864198	0.492413533126002
9	0.116380608250528	0.0607008031250462	0.304968880726457	0.244268077601411
-16	-0.17079945799458	-0.0666386770757684	0.273251028806584	0.339889705882353
2	-0.0722673893405594	-0.0549232242636872	0.304968880726457	0.359892104990144
-8	-0.143330322192111	-0.0721963982476079	0.304968880726457	0.377165278974065
1	0.0748268593797053	0.0484508383498285	0.321701867156413	0.273251028806584
1	-0.0239385727190598	-0.0188994320307447	0.304968880726457	0.323868312757201
1	0.0254441433303227	0.0148454239363334	0.304968880726457	0.290123456790123
-13	-0.20069256248118	-0.0943443747329598	0.286176887269783	0.380521262002743
-7	-0.0462210177657325	-0.0129323538414443	0.304968880726457	0.317901234567901
8	0.0740740740740741	0.0294440319143113	0.321279284533878	0.291835252619567
-6	-0.118036735922915	-0.0587616039812423	0.349794238683128	0.40855584266437
2	-0.24631135200241	-0.17134306023195	0.267489711934156	0.438832772166106
1	0.0733212887684425	0.0448598863413673	0.404859886341367	0.36
0	0.0740740740740745	0.0489844683393074	0.379530067702111	0.330545599362804
-16	-0.109605540499848	-0.0243952985759534	0.349794238683128	0.374189537259081
-2	-0.123456790123457	-0.0767573496288466	0.302772718073264	0.379530067702111
0	-0.0246913580246917	-0.0165958308034813	0.302772718073264	0.319368548876746
21	0.162195121951219	0.071584599261383	0.302772718073264	0.231188118811881
-4	-0.0975609756097562	-0.0533533794007383	0.319368548876745	0.372721928277484
-3	-0.0745257452574522	-0.0427145353831568	0.271502907866545	0.314217443249701
-6	-0.0686540198735321	-0.0266054167862954	0.366255144032922	0.392860560819217
7	0.0362842517314069	0.0084005033499987	0.288235894296501	0.279835390946502
-2	0.0752785305630842	0.0544967223581327	0.346873755475906	0.292377033117774
13	0.33077386329419	0.188561956071281	0.432876445999806	0.244314489928525
-6	-0.0493827160493829	-0.0175191064079954	0.306995884773662	0.324514991181658
9	0.113670581150255	0.0570501833135417	0.319368548876745	0.262318365563204
-4	-0.0970641373080386	-0.0464856195240933	0.346873755475906	0.393359375
1	-0.0489310448660052	-0.0357992911395799	0.319368548876745	0.355167840016325
7	0.142652815417043	0.0766264459998057	0.432876445999806	0.35625
4	0.125865703101475	0.0760798146419057	0.316872427983539	0.240792613341633
-6	-0.216817223727792	-0.116936402904144	0.314217443249702	0.431153846153846
4	0.0429030450642066	0.025649168972975	0.363201911589009	0.337552742616034
-9	-0.0919903643480872	-0.035753023631811	0.321701867156413	0.357454890788224
10	0.138512496236073	0.0724716850577223	0.316872427983539	0.244400742925817
-1	-0.123908461306835	-0.081057302617163	0.271502907866545	0.352560210483708
-5	-0.0733212887684421	-0.0362790968851567	0.288235894296501	0.324514991181657
18	0.20776874435411	0.109188382798268	0.321701867156413	0.212513484358145
11	0.182874134296899	0.103333209982273	0.330545599362804	0.227212389380531
8	0.0833483890394467	0.043103150933669	0.288235894296501	0.245132743362832
18	0.240891297801868	0.121901369821841	0.379530067702111	0.25762869788027
-15	-0.0401987353206875	0.0141349078547141	0.349794238683128	0.335659330828414
-18	-0.150459199036435	-0.0402856203197732	0.335964379680226	0.37625
-6	0.0337247816922616	0.0375987183111867	0.36	0.322401281688813
6	0.051392652815417	0.0228178279560888	0.335964379680226	0.313146551724138
-12	-0.0795813656097176	-0.0154663994124553	0.288235894296501	0.303702293708956
8	0.128274616079494	0.0675015300200487	0.327604938271605	0.260103408251556
11	0.258506473953629	0.149643491444661	0.376197530864198	0.226554039419536
2	0.0499849442938868	0.0289086147672002	0.300411522633745	0.271502907866545
-1	-0.0492321589882568	-0.0302668259657509	0.283950617283951	0.314217443249702
-5	-0.0934959349593487	-0.0472525538792099	0.314217443249702	0.361469997128912
4	0.0742321589882563	0.0445100062088576	0.302772718073264	0.258262711864407
6	-0.0712812405901834	-0.0615467143991517	0.288235894296501	0.349782608695652
-3	-0.123005118940079	-0.0734248127909333	0.302772718073264	0.376197530864198
-22	-0.205359831376092	-0.0605421754480654	0.369156041287188	0.429698216735254
2	8.88178419700125e-16	-0.00568645500780118	0.346873755475906	0.352560210483708
1	0.000752785305631387	-0.00216644560078866	0.321701867156413	0.323868312757202
-1	-0.0251430292080694	-0.0146739794032389	0.271502907866545	0.286176887269783
6	0.0704607046070459	0.0301684881602913	0.349537037037037	0.319368548876746
7	-0.0214468533574227	-0.0304140598189067	0.319368548876745	0.349782608695652
6	0.00180668473351403	-0.0152729536258948	0.327604938271605	0.3428778918975
-6	-0.0192713038241495	0.00172265288544349	0.300411522633745	0.298688869748301
4	-0.218608852755194	-0.162740678995194	0.319368548876745	0.482109227871939
6	0.052996085516412	0.0191901396566979	0.346873755475906	0.327683615819209
-9	0.0615778380006022	0.0609801720912831	0.333333333333333	0.27235316124205
9	0.207015959048481	0.116631170675117	0.395858223815214	0.279227053140096
2	-0.030623306233062	-0.0204272442156339	0.384223918575064	0.404651162790698
5	-0.0731330924420344	-0.0598244505310851	0.288235894296501	0.348060344827586
-11	-0.189250225835593	-0.0955172305469172	0.273251028806584	0.368768259353502
-6	-0.118036735922915	-0.0602928509905257	0.316872427983539	0.377165278974065
11	0.174104757221975	0.0959399248237803	0.376197530864198	0.280257606040417
-4	-0.123456790123457	-0.0717641057034996	0.288235894296501	0.36
6	0.079494128274616	0.0386198163975941	0.333333333333333	0.294713516935739
-7	0.052544414333033	0.0512543362922156	0.321701867156413	0.270447530864197
4	-0.0198735320686537	-0.0243547448934652	0.304968880726457	0.329323625619922
-11	-0.114626618488407	-0.0432734897747623	0.290123456790123	0.333396946564886
10	-0.00662451068955106	-0.0304015959753662	0.286176887269783	0.31657848324515
3	0.00225835591689177	-0.00607674763894678	0.302772718073264	0.308849465712211
17	0.259710930442638	0.132897201372654	0.377165278974064	0.24426807760141
5	0.104034929238181	0.059265140625189	0.319368548876745	0.260103408251556
-16	-0.0903342366756996	-0.00515009438893926	0.416933994361816	0.422084088750756
14	0.1162300511894	0.0515956207780105	0.290123456790123	0.238527836012113
18	0.0927431496537193	0.0183870216331166	0.314217443249702	0.295830421616585
2	-0.0282369768142124	-0.0200691547355569	0.330545599362804	0.350614754098361
-7	-0.0462210177657328	-0.0138474390368327	0.288235894296501	0.302083333333333
8	0.10840108401084	0.0518160672750043	0.366255144032922	0.314439076757918
1	0.0745257452574513	0.0477284853837254	0.335964379680226	0.288235894296501
16	0.13472598614875	0.0637712268924249	0.286176887269783	0.222405660377358
7	0.210629328515508	0.110895622895623	0.487093153759821	0.376197530864198
-16	-0.183679614573923	-0.0718832341534175	0.316872427983539	0.388755662136957
14	0.202348690153568	0.109412164458036	0.333333333333333	0.223921168875297
-10	-0.0265281541704308	0.0161975308641975	0.376197530864198	0.36
6	0.051189400782897	0.0163054258740535	0.376197530864198	0.359892104990144
-6	-0.139114724480579	-0.0705908962397515	0.36	0.430590896239752
8	0.0614272809394757	0.0217727074212548	0.319368548876745	0.297595841455491
8	-0.0212962962962961	-0.0329101807121129	0.316872427983539	0.349782608695652
7	0.0257452574525737	-0.00323915574460293	0.356652949245541	0.359892104990144
-3	-0.092893706714846	-0.0483313306945629	0.428626543209876	0.476957873904439
0	0.0740740740740741	0.0501989592898684	0.271502907866545	0.221303948576676
-2	-0.0777627220716646	-0.0425920948832992	0.304968880726457	0.347560975609756
-6	-0.0740740740740738	-0.0343915343915342	0.290123456790123	0.324514991181658
10	0.160192713038242	0.0819342262466207	0.379530067702111	0.297595841455491
6	0.132490213791028	0.0794328883920457	0.288235894296501	0.208803005904455
-6	0.00180668473351414	0.0163650342605247	0.321701867156413	0.305336832895888
1	0.0495332731105088	0.0306955407137556	0.316872427983539	0.286176887269784
-5	-0.0471243601324912	-0.0185065664606138	0.302772718073264	0.321279284533878
19	0.136555254441433	0.0482612516204244	0.330079433438606	0.281818181818182
-8	-0.168021680216802	-0.0889293846775638	0.288235894296501	0.377165278974064
9	0.0149051490514899	-0.0132985154020991	0.302772718073264	0.316071233475363
0	-0.123456790123457	-0.0829791540174056	0.302772718073264	0.38575187209067
9	0.0555555555555555	0.0175438596491228	0.333333333333333	0.315789473684211
-17	-0.191787112315567	-0.0720187137664832	0.306995884773662	0.379014598540146
8	-0.0349292381812701	-0.0457529618162492	0.288235894296501	0.33398885611275
13	0.112466124661246	0.0424303593756229	0.3405839702136	0.298153610837977
-5	-0.101663655525445	-0.0508765432098769	0.290123456790123	0.341
12	0.0921409214092153	0.030295272230757	0.346873755475906	0.31657848324515
9	0.108491418247516	0.0576399747104327	0.302772718073264	0.245132743362832
3	-0.0543510990665472	-0.0439045546657101	0.373029439696106	0.416933994361816
10	0.0150557061126166	-0.0156597108416185	0.300411522633745	0.316071233475363
10	0.0891297801866904	0.0366364397829489	0.316872427983539	0.28023598820059
8	0.0367359229147844	0.00517687661777372	0.302772718073264	0.297595841455491
-5	-0.0194218608852748	0.00173191446009702	0.363201911589009	0.361469997128912
11	0.212436013249022	0.118801168663192	0.363201911589009	0.244400742925817
4	0.074706413730804	0.0447787902333356	0.321701867156413	0.276923076923077
-7	0.0137006925624805	0.0297554586053607	0.404859886341367	0.375104427736007
-11	-0.0130984643179763	0.0158827330544504	0.288235894296501	0.27235316124205
9	-0.0185185185185188	-0.0318388564002601	0.283950617283951	0.315789473684211
3	-0.0206263173742848	-0.0214624881291547	0.273251028806584	0.294713516935739
2	0.100572116832279	0.0644574940475117	0.288235894296501	0.223778400248989
-3	-0.123908461306835	-0.074561186975654	0.304968880726457	0.379530067702111
3	0.0206940680517914	0.00938524590163919	0.36	0.350614754098361
10	0.156022282445047	0.0886787608208097	0.297889287136599	0.20921052631579
-1	-0.048629930743751	-0.0291765628061919	0.311407407407407	0.340583970213599
-3	-0.0453176753989772	-0.0208860269153127	0.340583970213599	0.361469997128912
5	0.127220716651611	0.0735858268814955	0.349794238683128	0.276208411801632
2	0.0946928635953027	0.0594907407407408	0.396990740740741	0.3375
2	-0.124059018367961	-0.0880329218106995	0.327604938271605	0.415637860082305
0	0.123456790123457	0.0823045267489712	0.349794238683128	0.267489711934156
16	0.142125865703101	0.0667499131258281	0.286176887269783	0.219426974143955
0	-0.0493827160493827	-0.0334659728599122	0.304968880726457	0.338434853586369
-8	-0.0716651610960553	-0.0277777777777777	0.290123456790123	0.317901234567901
11	0.163053297199639	0.0829659233884189	0.363201911589009	0.28023598820059
-10	0.0180668473351406	0.0381604522191912	0.363201911589009	0.325041459369818
9	0.190454682324602	0.11493360735785	0.304968880726457	0.190035273368607
-5	-0.0703101475459195	-0.033307613168724	0.300411522633745	0.333719135802469
12	0.117750677506775	0.0577727180732642	0.302772718073264	0.245
-2	-0.150308641975309	-0.0894493827160499	0.283950617283951	0.3734
6	-0.00536735922914844	-0.0180840926905746	0.388790907309425	0.406875
6	0.0287187594098161	0.00888806820954369	0.288235894296501	0.279347826086957
1	-0.0245408009635648	-0.019361802604061	0.349794238683128	0.369156041287189
-8	-0.136103583258055	-0.0645161290322582	0.330545599362804	0.395061728395062
-8	-0.338452273411623	-0.1948531128859	0.302772718073264	0.497625830959164
-1	0.0739235170129474	0.0520137623962758	0.335964379680226	0.283950617283951
0	2.22044604925031e-16	1.11022302462516e-16	0.363201911589009	0.363201911589009
3	-0.00200240891297843	-0.00542136708964119	0.319368548876745	0.324789915966386
-6	-0.070460704607046	-0.0317243472981177	0.286176887269783	0.317901234567901
-3	-0.174194519722975	-0.109053497942387	0.290123456790123	0.39917695473251
4	0.0788919000301119	0.0448654724749004	0.304968880726457	0.260103408251556
2	-0.0228846732911775	-0.0206135714157106	0.288235894296501	0.308849465712211
-7	-0.0688045769346588	-0.0255056174486855	0.335964379680226	0.361469997128912
10	0.141523637458597	0.0780640124902423	0.286176887269783	0.208112874779541
11	0.116982836495032	0.0561434450323343	0.300411522633745	0.244268077601411
9	0.0328741342968977	0.00122986640588979	0.335964379680226	0.334734513274337
-1	0.0248419150858173	0.0192486393203238	0.349794238683128	0.330545599362804
-1	-0.0739235170129483	-0.0461967343687776	0.333333333333333	0.379530067702111
-8	-0.311352002408914	-0.176546351270694	0.300411522633745	0.476957873904439
3	0.123005118940078	0.0738231127302166	0.36	0.286176887269784
-2	-0.0234869015356806	-0.0100383708507952	0.330545599362804	0.340583970213599
0	-0.148148148148149	-0.0941716910709161	0.330079433438606	0.424251124509523
1	-0.0483288166215002	-0.0357402220147323	0.290123456790123	0.325863678804856
18	0.219211080999699	0.108803310886644	0.333719135802469	0.224915824915825
-8	-0.111412225233364	-0.0481879729191558	0.346873755475906	0.395061728395062
-5	-0.0239385727190599	-0.00347713142325895	0.304968880726457	0.308446012149716
2	-0.0246913580246905	-0.0220146111209036	0.330545599362804	0.352560210483708
-4	-0.0493827160493825	-0.0231715131109069	0.288235894296501	0.311407407407408
2	-0.0722673893405595	-0.0549232242636873	0.304968880726457	0.359892104990144
-4	-0.214995483288167	-0.124767270927437	0.321279284533878	0.446046555461314
-7	-0.169677807889189	-0.0929369452096719	0.288235894296501	0.381172839506173
-5	-0.0965070761818739	-0.0503914697365932	0.302772718073264	0.353164187809857
0	0.0740740740740745	0.0489844683393073	0.314217443249702	0.265232974910394
17	0.119768142125866	0.0527529078665442	0.271502907866545	0.21875
-7	-0.165462210177657	-0.0881924659702433	0.300411522633745	0.388603988603988
5	-0.0194218608852763	-0.0272601310852683	0.319368548876745	0.346628679962014
-3	-0.0251430292080695	-0.00924856252324463	0.304968880726457	0.314217443249701
0	-0.0246913580246914	-0.0164609053497943	0.333333333333333	0.349794238683128
7	0.126851851851852	0.0735534624662975	0.316872427983539	0.243318965517242
15	0.163956639566397	0.0748760571595225	0.337221736171868	0.262345679012345
5	0.0269497139415844	0.00468192055794869	0.330545599362804	0.325863678804855
14	0.0746763023185799	0.0156764780420702	0.314217443249702	0.298540965207631
2	-0.0252935862691959	-0.0232427983539094	0.392395061728395	0.415637860082305
0	0.148148148148148	0.0956547098279382	0.400991542723827	0.305336832895888
0	-0.102762722071665	-0.0652765023977143	0.288235894296501	0.353512396694215
-8	-0.0397470641373087	-0.00351836144881135	0.349794238683128	0.353312600131939
3	0.0722222222222222	0.0445833333333333	0.333333333333333	0.28875
7	0.0714844926227035	0.0337586886606491	0.324514991181658	0.290756302521008
0	0.0493827160493829	0.0321379580638841	0.404859886341367	0.372721928277483
-3	0.000451671183377855	0.00756284153005421	0.302772718073264	0.29520987654321
-6	-0.140921409214091	-0.0751401525595067	0.297889287136599	0.373029439696106
8	0.0316395663956639	0.00708105646630236	0.269581056466302	0.2625
-8	-0.192713038241493	-0.103586961937913	0.304968880726457	0.40855584266437
-5	-0.145889792231256	-0.0822763730125724	0.302772718073264	0.385049091085837
18	0.213888888888889	0.112619047619047	0.333333333333333	0.220714285714286
-5	0.0501355013550138	0.0447298056725668	0.304968880726457	0.26023907505389
7	-0.0822477978647578	-0.0667310411319565	0.327604938271605	0.394335979403562
8	0.10840108401084	0.0518160672750046	0.366255144032922	0.314439076757917
-18	-0.376392652815418	-0.17939688322202	0.319368548876745	0.498765432098766
0	-0.0987654320987659	-0.0669319457198248	0.321701867156413	0.388633812876238
3	-0.048931044866004	-0.041760057400331	0.346873755475907	0.388633812876238
-2	0.0493827160493822	0.03753974316287	0.302772718073264	0.265232974910394
5	0.0476889491117145	0.022772490119107	0.330545599362804	0.307773109243697
4	0.0529960855164106	0.0254391652002098	0.335964379680226	0.310525214480016
5	0.0237654320987651	0.00642655367231615	0.333333333333333	0.326906779661017
-7	-0.118187292984041	-0.0595978280139756	0.286176887269783	0.345774715283759
-4	-0.0987654320987654	-0.0561020304050607	0.271502907866545	0.327604938271605
5	-0.124209575429088	-0.0962567797584638	0.292377033117774	0.388633812876237
-12	-0.116651610960553	-0.0366286383707304	0.327604938271605	0.364233576642335
-19	-0.148900933453779	-0.0457957085093466	0.302772718073264	0.348568426582611
20	0.236434808792533	0.130612758245522	0.321701867156413	0.191089108910891
7	0.157633242999097	0.0939697121688093	0.302772718073264	0.208803005904455
6	0.0794941282746159	0.038619816397594	0.333333333333333	0.294713516935739
10	0.0777928334838902	0.0306484165324744	0.327604938271605	0.296956521739131
8	0.152965974104186	0.0870216313179277	0.29520987654321	0.208188245225282
13	0.111261668172237	0.0541171493404097	0.256378600823045	0.202261451482636
13	0.198283649503162	0.106472128694351	0.349794238683128	0.243322109988776
8	0.010373381511593	-0.00943011463844795	0.290123456790123	0.299553571428571
8	0.163806082505269	0.0757080513208417	0.420365992470011	0.344657941149169
-3	-0.00135501355013568	0.00617283950617276	0.290123456790123	0.283950617283951
0	0.123456790123457	0.0823045267489712	0.366255144032922	0.283950617283951
4	0.174043962661849	0.108456126377274	0.314217443249702	0.205761316872428
-2	-0.0228846732911777	-0.00961679790026265	0.327604938271605	0.337221736171868
0	-0.0246913580246916	-0.0167329864299564	0.321701867156413	0.338434853586369
11	0.169075579644685	0.08247269705603	0.428626543209876	0.346153846153846
-11	-0.0624811803673593	-0.0161888242696324	0.271502907866545	0.287691732136177
6	0.20114423366456	0.122140547691851	0.346873755475906	0.224733207784055
0	-0.0493827160493824	-0.033744855967078	0.273251028806584	0.306995884773662
-1	-0.0242396868413123	-0.0133874950219033	0.314217443249702	0.327604938271605
-14	-0.303206865401988	-0.130497256515775	0.404859886341367	0.535357142857143
-6	-0.045769346582355	-0.0120167982189842	0.369156041287188	0.381172839506173
2	-0.023486901535682	-0.0208189975038791	0.286176887269783	0.306995884773662
-1	0.0495332731105083	0.0358422939068096	0.382716049382716	0.346873755475906
