pars_sum	pars_var	pars_disp	obs_disp	sim_disp
-18	-0.151346153846154	-0.07983032873807	0.182608695652174	0.262439024390244
-24	0.0866379310344828	0.0640300258034248	0.253333333333333	0.189303307529908
-6	-0.0600108225108225	-0.0620546869422432	0.182608695652174	0.244663382594417
-9	0.0134881422924902	0.00363142292490121	0.182608695652174	0.178977272727273
-11	0.0225	0.00613810741687981	0.182608695652174	0.176470588235294
-11	-0.0390384615384614	-0.0479795396419436	0.182608695652174	0.230588235294118
-15	-0.0496693121693123	-0.0474107975252141	0.182608695652174	0.230019493177388
-10	0.0179347826086957	0.00474308300395257	0.182608695652174	0.177865612648221
-17	0.008531746031746	0.0048309178743961	0.182608695652174	0.177777777777778
-14	0.036309523809524	0.0114375244810029	0.182608695652174	0.171171171171171
-13	0.0661538461538463	0.0320720720720722	0.266666666666667	0.234594594594595
-10	0.0578846153846155	0.0213965744400527	0.182608695652174	0.161212121212121
-4	0.078517316017316	0.0326968790736906	0.182608695652174	0.149911816578483
-13	0.176666666666667	0.0912820512820513	0.317948717948718	0.226666666666667
-13	-0.0366666666666666	-0.044102564102564	0.235897435897436	0.28
-16	-0.0708333333333334	-0.0481605351170569	0.182608695652174	0.230769230769231
-17	0.0186576354679803	0.00582298136645965	0.182608695652174	0.176785714285714
-10	0.0179347826086957	0.00474308300395257	0.182608695652174	0.177865612648221
-6	-0.208552631578947	-0.142255188195376	0.182608695652174	0.32486388384755
-16	-0.0429187192118225	-0.0444975314540531	0.182608695652174	0.227106227106227
-6	0.0609189723320157	0.0227340875017036	0.182608695652174	0.15987460815047
-14	-0.056588319088319	-0.0502395371960589	0.182608695652174	0.232848232848233
-5	0.0547077922077922	0.0193433895297249	0.182608695652174	0.163265306122449
-10	-0.0853260869565217	-0.0598155467720685	0.182608695652174	0.242424242424242
-15	-0.0808333333333334	-0.0432684973302823	0.182608695652174	0.225877192982456
-14	-0.0713461538461538	-0.0519858989424206	0.182608695652174	0.234594594594595
1	0.122149122807018	0.0613965744400527	0.182608695652174	0.121212121212121
-10	0.0578846153846154	0.0213965744400527	0.182608695652174	0.161212121212121
-17	0.0326149425287357	0.0101949025487257	0.182608695652174	0.172413793103448
-15	-0.0808333333333335	-0.0432684973302823	0.182608695652174	0.225877192982456
-3	-0.0942251461988304	-0.0780750650315868	0.182608695652174	0.260683760683761
-10	0.0179347826086957	0.00474308300395257	0.182608695652174	0.177865612648221
-12	0.0124999999999998	0.0040372670807452	0.182608695652174	0.178571428571429
-10	-0.0946428571428571	-0.0554865424430642	0.182608695652174	0.238095238095238
-14	0.0203347578347579	0.00589351893699722	0.182608695652174	0.176715176715177
-19	-0.0708333333333333	-0.0396135265700483	0.182608695652174	0.222222222222222
-7	-0.0751623376623377	-0.0650103519668738	0.182608695652174	0.247619047619048
-4	0.0482142857142857	0.0159420289855072	0.182608695652174	0.166666666666667
-9	0.0525	0.0185461956521739	0.182608695652174	0.1640625
-13	0.00583333333333336	0.00436795491143319	0.182608695652174	0.178240740740741
-9	-0.0774209486166008	-0.0617094861660079	0.182608695652174	0.244318181818182
-15	-0.0759615384615385	-0.0489702517162472	0.182608695652174	0.231578947368421
-11	0.0225	0.00613810741687981	0.182608695652174	0.176470588235294
-14	-0.0808333333333335	-0.0493732863298082	0.182608695652174	0.231981981981982
-11	0.008876811594203	0.00358056265984663	0.182608695652174	0.179028132992327
-10	0.0358333333333333	0.0108915239350022	0.182608695652174	0.171717171717172
-7	0.0668478260869565	0.0260869565217391	0.182608695652174	0.156521739130435
-12	-0.0708333333333335	-0.0554865424430643	0.182608695652174	0.238095238095238
-8	0.0469202898550724	0.0157082748948106	0.182608695652174	0.166900420757363
-18	-0.069510582010582	-0.0441302384038333	0.182608695652174	0.226738934056007
-13	0.0317307692307692	0.00953177257525081	0.182608695652174	0.173076923076923
0	0.17202380952381	0.1	0.182608695652174	0.0826086956521739
-4	0.0482142857142857	0.0159420289855072	0.182608695652174	0.166666666666667
-3	0.217967720685112	0.107229437229437	0.253333333333333	0.146103896103896
-20	0.0173387096774193	0.00586450960566223	0.182608695652174	0.176744186046512
-7	0.0411561264822133	0.0129117259552041	0.182608695652174	0.16969696969697
-11	0.0225	0.00613810741687984	0.182608695652174	0.176470588235294
-6	0.0352272727272727	0.0101949025487256	0.182608695652174	0.172413793103448
-11	0.00887681159420295	0.00358056265984658	0.182608695652174	0.179028132992327
-11	0.0225	0.00613810741687984	0.182608695652174	0.176470588235294
-8	0.0253458498023716	0.0066556164732883	0.182608695652174	0.175953079178886
-15	0.0040384615384616	0.00576659038901606	0.182608695652174	0.176842105263158
-16	0.0619871794871796	0.0416260162601626	0.253333333333333	0.211707317073171
-4	0.078517316017316	0.0326968790736906	0.182608695652174	0.149911816578483
-11	0.0225	0.00613810741687984	0.182608695652174	0.176470588235294
-4	0.0482142857142857	0.0159420289855072	0.182608695652174	0.166666666666667
-7	0.0668478260869565	0.0260869565217391	0.182608695652174	0.156521739130435
-6	0.0352272727272727	0.0101949025487256	0.182608695652174	0.172413793103448
-14	-0.0808333333333334	-0.0493732863298081	0.182608695652174	0.231981981981982
-21	-0.0675492610837438	-0.0349237718802936	0.182608695652174	0.217532467532468
-9	0.0306159420289855	0.00869565217391299	0.182608695652174	0.173913043478261
-8	-0.0655632411067193	-0.0607930638786179	0.182608695652174	0.243401759530792
-12	0.0459757834757835	0.0155757286192069	0.182608695652174	0.167032967032967
-4	0.0230263157894738	0.00522078142215449	0.182608695652174	0.177387914230019
-13	-0.0636538461538462	-0.0529468599033817	0.182608695652174	0.235555555555556
-15	0.0244047619047619	0.00717009916094583	0.182608695652174	0.175438596491228
-13	0.00163043478260871	0.00869565217391305	0.182608695652174	0.173913043478261
-11	0.0409615384615386	0.0131969309462917	0.182608695652174	0.169411764705882
-4	0.0482142857142858	0.00160919540229887	0.253333333333333	0.251724137931034
-13	0.0317307692307693	0.00953177257525087	0.182608695652174	0.173076923076923
-8	-0.0859848484848483	-0.0647031323048152	0.182608695652174	0.247311827956989
-25	0.00443548387096776	0.0105656848994858	0.182608695652174	0.172043010752688
-9	-0.0774209486166007	-0.0617094861660079	0.182608695652174	0.244318181818182
-6	-0.0851190476190475	-0.0691154422788605	0.182608695652174	0.251724137931034
-15	0.0244047619047619	0.00717009916094585	0.182608695652174	0.175438596491228
-18	-0.0695105820105821	-0.0441302384038334	0.182608695652174	0.226738934056007
-20	0.130151888341544	0.0815238095238096	0.338666666666667	0.257142857142857
-12	0.0271153846153847	0.00775155279503112	0.182608695652174	0.174857142857143
-14	0.0203347578347579	0.00589351893699722	0.182608695652174	0.176715176715177
-17	-0.0655423280423281	-0.0470209339774558	0.182608695652174	0.22962962962963
-5	-0.0953947368421054	-0.0730304020921871	0.182608695652174	0.255639097744361
-9	0.0306159420289855	0.00869565217391302	0.182608695652174	0.173913043478261
-10	0.0179347826086957	0.00474308300395257	0.182608695652174	0.177865612648221
-14	-0.0808333333333335	-0.0493732863298082	0.182608695652174	0.231981981981982
-4	0.0230263157894736	0.0052207814221544	0.182608695652174	0.17738791423002
-10	0.0179347826086957	0.00474308300395257	0.182608695652174	0.177865612648221
-5	0.117572463768116	0.0583850931677019	0.182608695652174	0.124223602484472
-12	0.0124999999999998	0.0040372670807452	0.182608695652174	0.178571428571429
-11	0.0225	0.00613810741687984	0.182608695652174	0.176470588235294
-12	-0.0811594202898551	-0.0444444444444445	0.177777777777778	0.222222222222222
-13	-0.0775	-0.0535024154589372	0.182608695652174	0.236111111111111
-1	-0.0904411764705881	-0.0820971867007672	0.182608695652174	0.264705882352941
-11	-0.0780797101449275	-0.0578005115089514	0.182608695652174	0.240409207161125
-14	0.0166666666666667	0.00544871794871798	0.317948717948718	0.3125
-14	-0.0713461538461537	-0.0519858989424206	0.182608695652174	0.234594594594595
-7	0.0411561264822133	0.0129117259552041	0.182608695652174	0.16969696969697
-7	0.0411561264822133	0.0129117259552041	0.182608695652174	0.16969696969697
-11	0.15	0.088095238095238	0.266666666666667	0.178571428571429
-5	0.0291666666666667	0.0076086956521739	0.182608695652174	0.175
-9	0.142210144927536	0.074305200341006	0.253333333333333	0.179028132992327
-14	-0.151346153846154	-0.108202115158637	0.182608695652174	0.290810810810811
-5	0.0846343873517787	0.0365047995482778	0.182608695652174	0.146103896103896
-7	0.00535714285714284	0.00260869565217389	0.182608695652174	0.18
-14	0.0203347578347579	0.00589351893699722	0.182608695652174	0.176715176715177
-11	-0.0390384615384615	-0.0479795396419437	0.182608695652174	0.230588235294118
-5	0.0547077922077922	0.0193433895297249	0.182608695652174	0.163265306122449
-9	-0.0308333333333332	-0.0465579710144927	0.182608695652174	0.229166666666667
-10	-0.189880952380952	-0.118978605935128	0.182608695652174	0.301587301587302
-7	0.0411561264822133	0.0129117259552041	0.182608695652174	0.16969696969697
-9	0.0552536231884059	0.0129241261722081	0.253333333333333	0.240409207161125
-9	0.0134881422924902	0.00363142292490121	0.182608695652174	0.178977272727273
-9	0.0525000000000001	0.018546195652174	0.182608695652174	0.1640625
-4	-0.0333333333333332	-0.0583333333333333	0.266666666666667	0.325
-8	0.0253458498023716	0.0066556164732883	0.182608695652174	0.175953079178886
-10	-0.0475	-0.052239789196311	0.182608695652174	0.234848484848485
-3	0.0720238095238096	0.0287625418060201	0.182608695652174	0.153846153846154
-14	0.0363095238095239	0.0114375244810028	0.182608695652174	0.171171171171171
0	0.087061403508772	0.0376811594202899	0.182608695652174	0.144927536231884
-6	0.1225	0.0619190404797601	0.182608695652174	0.120689655172414
-2	0.0344298245614036	0.00927536231884066	0.182608695652174	0.173333333333333
-7	-0.0497529644268775	-0.0567852437417656	0.182608695652174	0.239393939393939
0	0.0500816993464052	0.0163682864450128	0.182608695652174	0.166240409207161
-15	0.0244047619047618	0.0071700991609458	0.182608695652174	0.175438596491228
-12	0.0271153846153847	0.00775155279503112	0.182608695652174	0.174857142857143
-13	0.0508597883597883	0.0179996421542315	0.182608695652174	0.164609053497942
-5	0.00986842105263147	0.00215756783262494	0.182608695652174	0.180451127819549
-3	0.011417748917749	-0.0298455168020385	0.182608695652174	0.212454212454212
-14	0.0203347578347579	0.00589351893699724	0.182608695652174	0.176715176715177
-1	0.133928571428571	0.0701086956521739	0.182608695652174	0.1125
-5	0.0846343873517786	0.0365047995482777	0.182608695652174	0.146103896103896
-24	-0.062231182795699	-0.0315757015109467	0.182608695652174	0.214184397163121
-8	0.100961538461538	0.047124824684432	0.182608695652174	0.135483870967742
3	0.108088235294118	0.0513586956521739	0.182608695652174	0.13125
-11	0.00887681159420295	0.00358056265984658	0.182608695652174	0.179028132992327
-6	0.1225	0.0329032258064516	0.253333333333333	0.220430107526882
-17	0.00324074074074071	0.00760869565217387	0.182608695652174	0.175
-15	0.00403846153846155	0.005766590389016	0.182608695652174	0.176842105263158
-10	-0.0690217391304347	-0.058498023715415	0.182608695652174	0.241106719367589
-10	-0.0221153846153844	-0.0416337285902502	0.182608695652174	0.224242424242424
1	0.0794934640522876	0.0328760753313183	0.182608695652174	0.149732620320856
-15	0.0117877492877494	0.00447104383031169	0.182608695652174	0.178137651821862
0	0.128289473684211	0.065903890160183	0.182608695652174	0.116704805491991
-9	0.0306159420289855	0.00869565217391305	0.182608695652174	0.173913043478261
-15	-0.0226282051282051	-0.0186666666666666	0.253333333333333	0.272
-5	0.0846343873517786	0.0365047995482777	0.182608695652174	0.146103896103896
-10	0.0358333333333333	0.0108915239350022	0.182608695652174	0.171717171717172
-8	0.0253458498023716	0.0066556164732883	0.182608695652174	0.175953079178886
-11	0.0225	0.00613810741687984	0.182608695652174	0.176470588235294
-12	0.0124999999999998	0.0040372670807452	0.182608695652174	0.178571428571429
-4	0.0482142857142857	0.0159420289855072	0.182608695652174	0.166666666666667
-5	0.0547077922077921	0.0193433895297249	0.182608695652174	0.163265306122449
-4	0.0482142857142857	0.0159420289855072	0.182608695652174	0.166666666666667
-7	0.0200757575757576	0.00483091787439613	0.182608695652174	0.177777777777778
-20	-0.143584656084656	-0.0818185222634163	0.182608695652174	0.26442721791559
-18	-0.0601600985221674	-0.0456143008635055	0.182608695652174	0.228222996515679
-11	0.0409615384615386	0.0131969309462917	0.182608695652174	0.169411764705882
-4	0.0785173160173159	0.0326968790736906	0.182608695652174	0.149911816578483
-18	-0.0695105820105821	-0.0441302384038334	0.182608695652174	0.226738934056007
-4	0.00519005847953213	0.00153873680443725	0.182608695652174	0.181069958847737
-9	0.0525000000000001	0.018546195652174	0.182608695652174	0.1640625
-8	0.0253458498023716	0.0066556164732883	0.182608695652174	0.175953079178886
-11	0.0630698005698005	0.024237654928192	0.182608695652174	0.158371040723982
-3	0.143922924901186	0.077713590757069	0.182608695652174	0.104895104895105
-18	-0.150605413105413	-0.0894363324904152	0.182608695652174	0.272045028142589
-4	0.0785173160173159	0.0326968790736906	0.182608695652174	0.149911816578483
-5	0.0846343873517786	0.0365047995482778	0.182608695652174	0.146103896103896
-7	0.0668478260869565	0.0260869565217391	0.182608695652174	0.156521739130435
-9	-0.0563405797101448	-0.0565217391304347	0.182608695652174	0.239130434782609
-6	-0.0600108225108225	-0.0620546869422432	0.182608695652174	0.244663382594417
-7	0.0200757575757576	0.00483091787439613	0.182608695652174	0.177777777777778
-8	0.0725000000000001	0.0293828892005611	0.182608695652174	0.153225806451613
-18	0.00456349206349205	0.0064569341345587	0.182608695652174	0.176151761517615
-5	0.0846343873517786	0.0365047995482778	0.182608695652174	0.146103896103896
-8	0.000595238095238204	0.00518934081346431	0.182608695652174	0.17741935483871
-15	-0.0496693121693124	-0.0474107975252142	0.182608695652174	0.230019493177388
-8	0.0253458498023716	0.0066556164732883	0.182608695652174	0.175953079178886
-22	-0.051008064516129	-0.0403303724481845	0.182608695652174	0.222939068100358
-9	0.0306159420289855	0.00869565217391305	0.182608695652174	0.173913043478261
-21	0.0108870967741934	0.00533596837944655	0.182608695652174	0.177272727272727
-17	0.0326149425287357	0.0101949025487257	0.182608695652174	0.172413793103448
-8	0.0253458498023716	0.00665561647328833	0.182608695652174	0.175953079178886
-13	-0.0636538461538462	-0.0529468599033817	0.182608695652174	0.235555555555556
2	0.2125	0.134989648033126	0.182608695652174	0.0476190476190476
-7	0.0411561264822134	0.0129117259552042	0.182608695652174	0.16969696969697
-13	-0.0853260869565217	-0.0492753623188406	0.182608695652174	0.231884057971014
-5	0.0547077922077922	0.0193433895297249	0.182608695652174	0.163265306122449
-26	-0.0321839080459769	-0.00153256704980836	0.177777777777778	0.179310344827586
-15	0.127050264550264	0.057185185185185	0.338666666666667	0.281481481481482
-13	-0.0451923076923077	-0.0481605351170569	0.182608695652174	0.230769230769231
-11	0.0225	0.00613810741687981	0.182608695652174	0.176470588235294
-19	0.0063423645320197	0.00573794735285418	0.182608695652174	0.17687074829932
-8	0.0469202898550724	0.0157082748948106	0.182608695652174	0.166900420757363
-5	-0.0708333333333334	-0.0673913043478261	0.182608695652174	0.25
-1	0.094078947368421	0.0422578184591914	0.182608695652174	0.140350877192982
-14	-0.0713461538461537	-0.0519858989424206	0.182608695652174	0.234594594594595
-15	0.00403846153846155	0.005766590389016	0.182608695652174	0.176842105263158
-25	-0.123706896551724	-0.0587706146926537	0.182608695652174	0.241379310344828
-9	0.0525000000000001	0.018546195652174	0.182608695652174	0.1640625
-14	0.0203347578347579	0.00589351893699724	0.182608695652174	0.176715176715177
-11	0.0409615384615385	0.0131969309462916	0.182608695652174	0.169411764705882
-12	0.0459757834757835	0.0155757286192069	0.182608695652174	0.167032967032967
-14	0.0203347578347579	0.00589351893699724	0.182608695652174	0.176715176715177
-10	0.0830128205128204	0.035755548799027	0.182608695652174	0.146853146853147
-2	0.211850649350649	0.10342151675485	0.253333333333333	0.149911816578483
-5	0.0846343873517786	0.0365047995482778	0.182608695652174	0.146103896103896
-16	0.00608974358974351	0.00509390275276556	0.182608695652174	0.177514792899408
-10	-0.0221153846153843	-0.0416337285902501	0.182608695652174	0.224242424242424
-8	0.0469202898550725	0.0157082748948107	0.182608695652174	0.166900420757363
-5	0.0547077922077922	0.0193433895297249	0.182608695652174	0.163265306122449
-9	0.0306159420289855	0.00869565217391299	0.182608695652174	0.173913043478261
-25	-0.105316091954023	-0.0526896551724137	0.168	0.220689655172414
-11	0.0225	0.00613810741687984	0.182608695652174	0.176470588235294
-16	-0.147756410256411	-0.10141497298688	0.182608695652174	0.284023668639053
-9	0.0399999999999999	0.00606060606060599	0.177777777777778	0.171717171717172
-7	0.0200757575757576	0.00483091787439613	0.182608695652174	0.177777777777778
-4	0.078517316017316	0.0326968790736906	0.182608695652174	0.149911816578483
-15	-0.0496693121693121	-0.0474107975252139	0.182608695652174	0.230019493177388
-18	-0.0601600985221675	-0.0456143008635056	0.182608695652174	0.228222996515679
-11	0.0225	0.00613810741687978	0.182608695652174	0.176470588235294
-5	0.0547077922077922	0.0193433895297249	0.182608695652174	0.163265306122449
-8	0.0253458498023716	0.0066556164732883	0.182608695652174	0.175953079178886
-4	0.0785173160173159	0.0326968790736906	0.182608695652174	0.149911816578483
-7	0.0411561264822134	0.0129117259552042	0.182608695652174	0.16969696969697
-7	0.163949275362319	0.0794202898550724	0.253333333333333	0.173913043478261
-7	0.0411561264822133	0.0129117259552041	0.182608695652174	0.16969696969697
-8	0.0725000000000001	0.0293828892005611	0.182608695652174	0.153225806451613
-10	-0.0690217391304347	-0.058498023715415	0.182608695652174	0.241106719367589
-11	0.0630698005698005	0.024237654928192	0.182608695652174	0.158371040723982
-9	0.0524999999999999	0.0185461956521739	0.182608695652174	0.1640625
-13	0.00583333333333336	0.00436795491143319	0.182608695652174	0.178240740740741
-12	0.0271153846153847	0.00775155279503109	0.182608695652174	0.174857142857143
-5	0.117572463768116	0.0583850931677019	0.182608695652174	0.124223602484472
-8	0.0253458498023716	0.0066556164732883	0.182608695652174	0.175953079178886
-9	0.0525000000000001	0.018546195652174	0.182608695652174	0.1640625
-10	-0.155978260869565	-0.121739130434783	0.182608695652174	0.304347826086957
-6	0.0903985507246377	0.0401799100449775	0.182608695652174	0.142428785607196
-7	0.0668478260869565	0.0260869565217391	0.182608695652174	0.156521739130435
-6	0.0352272727272727	0.0101949025487256	0.182608695652174	0.172413793103448
-3	-0.0279761904761905	-0.0520066889632107	0.182608695652174	0.234615384615385
-12	0.0459757834757835	0.0155757286192069	0.182608695652174	0.167032967032967
-14	0.00865384615384623	0.00423031727379558	0.182608695652174	0.178378378378378
-5	0.0291666666666666	0.00760869565217387	0.182608695652174	0.175
-4	0.0785173160173159	0.0326968790736906	0.182608695652174	0.149911816578483
-15	0.0408251231527092	0.0134357633213467	0.182608695652174	0.169172932330827
-13	-0.0853260869565217	-0.0396135265700483	0.182608695652174	0.222222222222222
-14	0.00865384615384623	0.00423031727379558	0.182608695652174	0.178378378378378
-8	-0.0704710144927537	-0.0820795951230735	0.214814814814815	0.296894409937888
-11	-0.144166666666667	-0.116410912190963	0.182608695652174	0.299019607843137
-7	0.0668478260869565	0.0260869565217391	0.182608695652174	0.156521739130435
-13	0.00583333333333336	0.00436795491143319	0.182608695652174	0.178240740740741
-13	0.0317307692307693	0.00953177257525087	0.182608695652174	0.173076923076923
-7	0.00535714285714278	0.00260869565217386	0.182608695652174	0.18
-9	0.0525	0.0185461956521739	0.182608695652174	0.1640625
-8	0.0092532467532469	0.00288519334802656	0.182608695652174	0.179723502304147
-13	0.0508597883597883	0.0179996421542315	0.182608695652174	0.164609053497942
-24	-0.062231182795699	-0.0315757015109467	0.182608695652174	0.214184397163121
-9	0.0306159420289855	0.00869565217391302	0.182608695652174	0.173913043478261
-19	-0.0650862068965516	-0.0435817805383022	0.182608695652174	0.226190476190476
-9	0.0525	0.0185461956521739	0.182608695652174	0.1640625
-9	0.0525000000000001	0.018546195652174	0.182608695652174	0.1640625
-10	0.0179347826086957	0.00474308300395257	0.182608695652174	0.177865612648221
-6	0.0148809523809525	0.00329835082458776	0.182608695652174	0.179310344827586
-18	0.011268472906404	0.00490834722011821	0.182608695652174	0.177700348432056
-26	-0.173460591133005	-0.0754087970591962	0.182608695652174	0.25801749271137
-20	-0.0675492610837438	-0.0399826664740719	0.182608695652174	0.222591362126246
5	0.203676470588235	0.127053140096618	0.182608695652174	0.0555555555555556
-5	0.0846343873517786	0.0365047995482777	0.182608695652174	0.146103896103896
-6	0.0903985507246377	0.0401799100449775	0.182608695652174	0.142428785607196
-13	-0.0775	-0.0535024154589372	0.182608695652174	0.236111111111111
-17	-0.139616402116403	-0.0988727858293079	0.182608695652174	0.281481481481482
-12	0.0271153846153847	0.00775155279503112	0.182608695652174	0.174857142857143
-10	0.0179347826086957	0.00474308300395257	0.182608695652174	0.177865612648221
-7	0.0769927536231886	0.0142028985507247	0.253333333333333	0.239130434782609
-8	-0.040036231884058	-0.0516129032258064	0.182608695652174	0.23422159887798
-11	0.0630698005698005	0.024237654928192	0.182608695652174	0.158371040723982
-8	0.0253458498023716	0.0066556164732883	0.182608695652174	0.175953079178886
-10	0.0358333333333333	0.0108915239350022	0.182608695652174	0.171717171717172
-1	0.0578216374269006	0.0205716586151368	0.182608695652174	0.162037037037037
-7	0.0958333333333333	0.043719806763285	0.182608695652174	0.138888888888889
-7	0.0668478260869565	0.0260869565217391	0.182608695652174	0.156521739130435
-12	-0.0708333333333335	-0.0554865424430643	0.182608695652174	0.238095238095238
-22	-0.0650862068965517	-0.0357821089455272	0.182608695652174	0.218390804597701
-14	0.148478835978836	0.0757454890788225	0.253333333333333	0.177587844254511
-11	0.0225	0.00613810741687981	0.182608695652174	0.176470588235294
-9	0.0306159420289855	0.00869565217391305	0.182608695652174	0.173913043478261
-13	0.0163461538461538	0.00483091787439607	0.182608695652174	0.177777777777778
-20	0.0682471264367816	0.0349425287356322	0.253333333333333	0.218390804597701
-6	0.0609189723320158	0.0227340875017037	0.182608695652174	0.15987460815047
-7	0.0958333333333333	0.043719806763285	0.182608695652174	0.138888888888889
-10	-0.0690217391304347	-0.058498023715415	0.182608695652174	0.241106719367589
-15	-0.142058404558404	-0.104840697060377	0.182608695652174	0.28744939271255
-15	-0.155961538461539	-0.10370709382151	0.182608695652174	0.286315789473684
-13	-0.0853260869565217	-0.0492753623188406	0.182608695652174	0.231884057971014
-11	0.0409615384615385	0.0131969309462916	0.182608695652174	0.169411764705882
-3	0.0720238095238096	0.0287625418060201	0.182608695652174	0.153846153846154
-13	0.00163043478260871	0.00869565217391305	0.182608695652174	0.173913043478261
-13	0.0317307692307692	0.00953177257525081	0.182608695652174	0.173076923076923
-8	0.0469202898550724	0.0157082748948106	0.182608695652174	0.166900420757363
-8	0.0725	0.029382889200561	0.182608695652174	0.153225806451613
-8	-0.0859848484848483	-0.0647031323048152	0.182608695652174	0.247311827956989
-13	-0.143653846153846	-0.110724637681159	0.182608695652174	0.293333333333333
-8	0.0253458498023716	0.0066556164732883	0.182608695652174	0.175953079178886
-10	0.0358333333333332	0.0108915239350021	0.182608695652174	0.171717171717172
-7	0.146821475625823	0.0743560606060606	0.253333333333333	0.178977272727273
-25	-0.0600806451612902	-0.0257246376811593	0.182608695652174	0.208333333333333
-10	0.0830128205128204	0.035755548799027	0.182608695652174	0.146853146853147
-14	-0.164166666666667	-0.105679592636114	0.182608695652174	0.288288288288288
-6	0.0352272727272727	0.0101949025487256	0.182608695652174	0.172413793103448
-2	0.0651315789473684	0.0247139588100687	0.182608695652174	0.157894736842105
-11	0.0630698005698006	0.024237654928192	0.182608695652174	0.158371040723982
-8	0.0253458498023716	0.0066556164732883	0.182608695652174	0.175953079178886
-15	-0.0651353276353274	-0.0501848266150324	0.182608695652174	0.232793522267206
-3	-0.0279761904761907	-0.0520066889632108	0.182608695652174	0.234615384615385
-14	0.0203347578347579	0.00589351893699722	0.182608695652174	0.176715176715177
-13	0.0163461538461538	0.00483091787439607	0.182608695652174	0.177777777777778
2	0.0713235294117648	0.0278467908902692	0.182608695652174	0.154761904761905
-8	0.0253458498023716	0.00665561647328833	0.182608695652174	0.175953079178886
4	0.206944444444444	0.129977116704805	0.182608695652174	0.0526315789473684
-15	0.0244047619047619	0.00717009916094583	0.182608695652174	0.175438596491228
-12	0.0271153846153847	0.00775155279503109	0.182608695652174	0.174857142857143
-25	-0.123706896551724	-0.0587706146926537	0.182608695652174	0.241379310344828
-10	0.0358333333333333	0.0108915239350022	0.182608695652174	0.171717171717172
-5	0.153409090909091	0.0755555555555555	0.253333333333333	0.177777777777778
-8	0.0725000000000001	0.0293828892005611	0.182608695652174	0.153225806451613
-18	0.0222701149425288	0.0068307309759755	0.182608695652174	0.175777964676198
-3	0.106655844155844	0.0507405637840421	0.182608695652174	0.131868131868132
-13	0.0566666666666665	0.0346846846846846	0.266666666666667	0.231981981981982
-12	0.0459757834757835	0.0155757286192069	0.182608695652174	0.167032967032967
-9	0.0306159420289855	0.00869565217391302	0.182608695652174	0.173913043478261
-3	0.106655844155844	0.050740563784042	0.182608695652174	0.131868131868132
-9	0.0373188405797102	-0.00136964484790569	0.235897435897436	0.237267080745342
-9	-0.0924783549783549	-0.0614389233954451	0.182608695652174	0.244047619047619
-21	0.00502873563218381	0.00706010631048104	0.182608695652174	0.175548589341693
-13	0.00583333333333336	0.00436795491143319	0.182608695652174	0.178240740740741
-4	0.0482142857142857	0.0159420289855072	0.182608695652174	0.166666666666667
-3	0.00935672514619879	-0.00329218106995888	0.177777777777778	0.181069958847737
-6	0.14258658008658	0.073609831029186	0.253333333333333	0.179723502304147
-16	0.00608974358974362	0.00509390275276564	0.182608695652174	0.177514792899408
-9	0.0525	0.0185461956521739	0.182608695652174	0.1640625
-8	0.0469202898550724	0.0157082748948106	0.182608695652174	0.166900420757363
-11	0.0225	0.00613810741687981	0.182608695652174	0.176470588235294
-13	0.00583333333333336	0.00436795491143319	0.182608695652174	0.178240740740741
-8	-0.0108333333333333	-0.0378214118747078	0.182608695652174	0.220430107526882
-12	0.0271153846153847	0.00775155279503109	0.182608695652174	0.174857142857143
-8	0.0253458498023716	0.0066556164732883	0.182608695652174	0.175953079178886
-17	0.0040384615384616	0.014608695652174	0.182608695652174	0.168
-6	0.0352272727272727	0.0101949025487256	0.182608695652174	0.172413793103448
-17	-0.0655423280423281	-0.0470209339774558	0.182608695652174	0.22962962962963
-3	0.106655844155844	0.050740563784042	0.182608695652174	0.131868131868132
-10	0.0594202898550726	0.0262574595055415	0.266666666666667	0.240409207161125
-11	0.0630698005698005	0.024237654928192	0.182608695652174	0.158371040723982
-6	0.0352272727272727	0.0101949025487256	0.182608695652174	0.172413793103448
-4	0.103343214756258	0.0213584117032392	0.253333333333333	0.231974921630094
-5	0.117572463768116	0.0583850931677019	0.182608695652174	0.124223602484472
-14	-0.0713461538461537	-0.0519858989424206	0.182608695652174	0.234594594594595
-6	0.0352272727272727	0.0101949025487256	0.182608695652174	0.172413793103448
-22	-0.0650862068965517	-0.0357821089455272	0.182608695652174	0.218390804597701
-12	-0.0308333333333336	-0.0349549549549552	0.253333333333333	0.288288288288288
-8	0.0725000000000001	0.0293828892005611	0.182608695652174	0.153225806451613
-9	0.0306159420289855	0.00869565217391305	0.182608695652174	0.173913043478261
-8	0.0469202898550724	0.0157082748948106	0.182608695652174	0.166900420757363
-17	-0.0655423280423282	-0.0470209339774559	0.182608695652174	0.22962962962963
-12	0.00344202898550727	0.0049689440993789	0.182608695652174	0.177639751552795
-7	0.00535714285714284	0.00260869565217389	0.182608695652174	0.18
-3	0.0414473684210527	0.0125682098222144	0.182608695652174	0.170040485829959
-7	0.0668478260869565	0.0260869565217391	0.182608695652174	0.156521739130435
-18	0.00456349206349205	0.0064569341345587	0.182608695652174	0.176151761517615
-12	0.169230769230769	0.0935897435897436	0.266666666666667	0.173076923076923
-11	-0.0103205128205127	-0.0399999999999999	0.253333333333333	0.293333333333333
-9	0.0778846153846154	0.0326086956521739	0.182608695652174	0.15
-18	-0.217658730158731	-0.145304583480618	0.182608695652174	0.327913279132792
-13	0.00163043478260871	0.00869565217391305	0.182608695652174	0.173913043478261
-10	0.0933333333333334	0.0239672364672365	0.317948717948718	0.293981481481481
-17	0.0186576354679803	0.00582298136645965	0.182608695652174	0.176785714285714
-15	-0.0651353276353274	-0.0501848266150324	0.182608695652174	0.232793522267206
-21	-0.0639367816091955	-0.0399618372631867	0.182608695652174	0.222570532915361
-19	-0.144907407407407	-0.088996242619431	0.182608695652174	0.271604938271605
-19	-0.144907407407407	-0.088996242619431	0.182608695652174	0.271604938271605
-11	-0.0608333333333333	-0.0551364023870417	0.182608695652174	0.237745098039216
-10	0.0358333333333333	0.0108915239350022	0.182608695652174	0.171717171717172
-8	0.138916337285902	0.0742699724517906	0.253333333333333	0.179063360881543
-14	0.0363095238095238	0.0114375244810027	0.182608695652174	0.171171171171171
-8	0.0253458498023716	0.00665561647328833	0.182608695652174	0.175953079178886
-13	-0.110737812911726	-0.0554778554778555	0.235897435897436	0.291375291375291
-19	-0.00128205128205133	0.00512820512820511	0.235897435897436	0.230769230769231
-20	0.00387931034482769	0.0081900910010112	0.182608695652174	0.174418604651163
2	0.115441176470588	0.0565582754841067	0.182608695652174	0.126050420168067
-15	0.0040384615384616	0.00576659038901606	0.182608695652174	0.176842105263158
-18	-0.0736823361823362	-0.0387796720776573	0.182608695652174	0.221388367729831
-12	0.0459757834757835	0.0155757286192069	0.182608695652174	0.167032967032967
-7	0.319166666666667	0.174604166666667	0.338666666666667	0.1640625
-7	0.0200757575757576	0.00483091787439616	0.182608695652174	0.177777777777778
-11	0.0409615384615386	0.0131969309462917	0.182608695652174	0.169411764705882
-12	0.0271153846153848	0.00775155279503117	0.182608695652174	0.174857142857143
1	0.122149122807018	0.0613965744400527	0.182608695652174	0.121212121212121
-2	0.100595238095238	0.0466086956521738	0.182608695652174	0.136
-18	-0.143584656084656	-0.0947174109422256	0.182608695652174	0.2773261065944
-8	0.0469202898550724	0.0157082748948106	0.182608695652174	0.166900420757363
-7	0.0200757575757575	0.00483091787439605	0.182608695652174	0.177777777777778
-12	-0.0528846153846152	-0.0516770186335402	0.182608695652174	0.234285714285714
-18	-0.0736823361823362	-0.0387796720776573	0.182608695652174	0.221388367729831
-12	0.0680555555555556	0.0270531400966184	0.182608695652174	0.155555555555556
-14	0.0203347578347579	0.00589351893699722	0.182608695652174	0.176715176715177
-18	-0.143584656084656	-0.0947174109422255	0.182608695652174	0.277326106594399
-1	0.0578216374269006	0.0205716586151368	0.182608695652174	0.162037037037037
-16	-0.0775	-0.0440579710144928	0.182608695652174	0.226666666666667
-23	-0.131588669950739	-0.0658385093167703	0.182608695652174	0.248447204968944
0	0.00424836601307194	-0.0265460030165912	0.235897435897436	0.262443438914027
-16	-0.0708333333333334	-0.0481605351170569	0.182608695652174	0.230769230769231
-5	0.0547077922077922	0.0193433895297249	0.182608695652174	0.163265306122449
-22	0.00387931034482758	0.0101949025487256	0.182608695652174	0.172413793103448
-11	-0.0780797101449274	-0.0578005115089513	0.182608695652174	0.240409207161125
-9	-0.0308333333333333	-0.0465579710144927	0.182608695652174	0.229166666666667
-10	0.0830128205128204	0.035755548799027	0.182608695652174	0.146853146853147
-10	0.0578846153846154	0.0213965744400527	0.182608695652174	0.161212121212121
-7	0.0411561264822134	0.0129117259552042	0.182608695652174	0.16969696969697
-11	-0.0608333333333333	-0.0551364023870417	0.182608695652174	0.237745098039216
-6	0.0609189723320158	0.0227340875017037	0.182608695652174	0.15987460815047
-10	0.0179347826086957	0.00474308300395257	0.182608695652174	0.177865612648221
0	-0.105147058823529	-0.0891304347826087	0.182608695652174	0.271739130434783
-11	0.0225	0.00613810741687984	0.182608695652174	0.176470588235294
-16	-0.0102513227513231	-0.0239927732610662	0.253333333333333	0.2773261065944
-15	0.00403846153846155	0.005766590389016	0.182608695652174	0.176842105263158
-4	0.112302371541502	0.054662567706046	0.182608695652174	0.127946127946128
-13	0.00583333333333336	0.00436795491143319	0.182608695652174	0.178240740740741
-5	0.0547077922077922	0.0193433895297249	0.182608695652174	0.163265306122449
-13	0.0317307692307693	0.00953177257525087	0.182608695652174	0.173076923076923
-11	0.0409615384615385	0.0131969309462916	0.182608695652174	0.169411764705882
-17	0.0186576354679803	0.00582298136645965	0.182608695652174	0.176785714285714
-18	-0.22752849002849	-0.140092992903173	0.182608695652174	0.322701688555347
-14	0.00249999999999984	0.00693301997649812	0.182608695652174	0.175675675675676
-21	0.0693965517241378	0.040439780109945	0.253333333333333	0.212893553223388
-6	0.0352272727272727	0.0101949025487256	0.182608695652174	0.172413793103448
-15	0.0408251231527093	0.0134357633213467	0.182608695652174	0.169172932330827
-2	0.0651315789473684	0.0247139588100687	0.182608695652174	0.157894736842105
-19	-0.218981481481481	-0.138378958668814	0.182608695652174	0.320987654320988
-12	0.0271153846153847	0.00775155279503112	0.182608695652174	0.174857142857143
-18	-0.0736823361823362	-0.0387796720776572	0.182608695652174	0.221388367729831
-21	-0.0639367816091955	-0.0399618372631867	0.182608695652174	0.222570532915361
-12	0.0459757834757835	0.0155757286192069	0.182608695652174	0.167032967032967
-20	-0.212884615384615	-0.104833164812942	0.182608695652174	0.287441860465116
-2	0.100595238095238	0.0466086956521738	0.182608695652174	0.136
-18	-0.2275	-0.116171792152704	0.182608695652174	0.298780487804878
-3	0.0720238095238096	0.0287625418060201	0.182608695652174	0.153846153846154
-13	0.0317307692307692	0.00953177257525079	0.182608695652174	0.173076923076923
-5	-0.0708333333333332	-0.067391304347826	0.182608695652174	0.25
-7	0.0668478260869565	0.0260869565217391	0.182608695652174	0.156521739130435
-18	-0.0736823361823362	-0.0387796720776572	0.182608695652174	0.221388367729831
-6	0.0903985507246377	0.0401799100449775	0.182608695652174	0.142428785607196
-5	0.0547077922077922	0.0193433895297249	0.182608695652174	0.163265306122449
-8	0.0469202898550725	0.0157082748948107	0.182608695652174	0.166900420757363
-14	0.0203347578347579	0.00589351893699722	0.182608695652174	0.176715176715177
-15	0.0117877492877494	0.00447104383031163	0.182608695652174	0.178137651821862
-2	0.178947368421053	0.0966261808367072	0.266666666666667	0.170040485829959
-1	0.0578216374269006	0.0205716586151368	0.182608695652174	0.162037037037037
-14	-0.0808333333333334	-0.0493732863298081	0.182608695652174	0.231981981981982
-18	0.115188834154351	0.0533383283383283	0.317948717948718	0.26461038961039
-9	-0.0924783549783549	-0.0614389233954451	0.182608695652174	0.244047619047619
-10	-0.0475000000000001	-0.052239789196311	0.182608695652174	0.234848484848485
-14	-0.0808333333333333	-0.0493732863298081	0.182608695652174	0.231981981981982
-16	-0.0708333333333334	-0.0481605351170569	0.182608695652174	0.230769230769231
-10	0.0358333333333333	0.0108915239350022	0.182608695652174	0.171717171717172
-15	0.0244047619047618	0.0071700991609458	0.182608695652174	0.175438596491228
-1	0.205357142857143	0.0994871794871795	0.253333333333333	0.153846153846154
-13	-0.0636538461538462	-0.0529468599033817	0.182608695652174	0.235555555555556
-14	0.0615384615384615	0.0350877192982456	0.266666666666667	0.231578947368421
-8	0.0725	0.029382889200561	0.182608695652174	0.153225806451613
-3	0.0720238095238096	0.0287625418060201	0.182608695652174	0.153846153846154
-29	-0.0439516129032258	-0.00597691228827274	0.182608695652174	0.188585607940447
-3	0.106655844155844	0.0507405637840421	0.182608695652174	0.131868131868132
-8	0.0469202898550725	0.0157082748948107	0.182608695652174	0.166900420757363
-5	-0.0708333333333332	-0.067391304347826	0.182608695652174	0.25
-9	0.0134881422924902	0.00363142292490121	0.182608695652174	0.178977272727273
-11	0.00887681159420295	0.00358056265984658	0.182608695652174	0.179028132992327
-9	0.0306159420289855	0.00869565217391302	0.182608695652174	0.173913043478261
-4	0.112302371541502	0.0546625677060461	0.182608695652174	0.127946127946128
-8	-0.0400362318840581	-0.0516129032258065	0.182608695652174	0.23422159887798
-20	-0.133002645502645	-0.0780905349794238	0.168	0.246090534979424
-8	-0.0429018445322794	-0.0524517906336089	0.253333333333333	0.305785123966942
-6	-0.103289473684211	-0.069659906888661	0.182608695652174	0.252268602540835
-14	0.00865384615384618	0.00423031727379555	0.182608695652174	0.178378378378378
-7	0.0668478260869565	0.0260869565217391	0.182608695652174	0.156521739130435
-12	0.0459757834757835	0.0155757286192069	0.182608695652174	0.167032967032967
-11	-0.0892786561264821	-0.0553592187863287	0.182608695652174	0.237967914438503
-15	-0.0759615384615385	-0.0489702517162472	0.182608695652174	0.231578947368421
-5	0.1525	0.0843944099378882	0.182608695652174	0.0982142857142857
-12	0.0124999999999998	0.0040372670807452	0.182608695652174	0.178571428571429
-6	0.0609189723320158	0.0227340875017037	0.182608695652174	0.15987460815047
-12	0.0124999999999998	0.0040372670807452	0.182608695652174	0.178571428571429
-11	0.0225	0.00613810741687978	0.182608695652174	0.176470588235294
-17	0.008531746031746	0.0048309178743961	0.182608695652174	0.177777777777778
-16	0.0151455026455028	0.00502085139766312	0.182608695652174	0.177587844254511
-5	0.117572463768116	0.0583850931677019	0.182608695652174	0.124223602484472
-1	0.0150326797385621	-0.00339869281045752	0.177777777777778	0.181176470588235
-18	-0.00872507122507099	-0.000691711389385674	0.253333333333333	0.254025044722719
-10	0.0179347826086957	0.00474308300395257	0.182608695652174	0.177865612648221
-7	0.0411561264822133	0.0129117259552041	0.182608695652174	0.16969696969697
-6	-0.0851190476190475	-0.0691154422788605	0.182608695652174	0.251724137931034
-5	0.0547077922077922	0.0193433895297249	0.182608695652174	0.163265306122449
-10	0.0179347826086957	0.00474308300395257	0.182608695652174	0.177865612648221
-11	0.00887681159420295	0.00358056265984658	0.182608695652174	0.179028132992327
-10	-0.0690217391304347	-0.058498023715415	0.182608695652174	0.241106719367589
-2	0.0651315789473684	0.0247139588100687	0.182608695652174	0.157894736842105
-4	0.0785173160173159	0.0326968790736906	0.182608695652174	0.149911816578483
-2	0.100595238095238	0.046608695652174	0.182608695652174	0.136
-5	0.0547077922077922	0.0193433895297249	0.182608695652174	0.163265306122449
-3	0.0720238095238095	0.0287625418060201	0.182608695652174	0.153846153846154
-15	-0.0759615384615385	-0.0489702517162472	0.182608695652174	0.231578947368421
-15	-0.0651353276353275	-0.0501848266150325	0.182608695652174	0.232793522267206
-11	-0.0389492753623188	-0.0365217391304348	0.253333333333333	0.289855072463768
-10	0.0358333333333333	0.0108915239350022	0.182608695652174	0.171717171717172
-11	0.0409615384615385	0.0131969309462916	0.182608695652174	0.169411764705882
-5	0.117572463768116	0.0583850931677019	0.182608695652174	0.124223602484472
3	0.108088235294118	0.0513586956521739	0.182608695652174	0.13125
-20	0.00847701149425295	0.00538335483421085	0.182608695652174	0.177225340817963
-6	0.0352272727272727	0.0101949025487256	0.182608695652174	0.172413793103448
-15	0.213895730706075	0.110095238095238	0.338666666666667	0.228571428571429
0	0.0870614035087719	0.0376811594202899	0.182608695652174	0.144927536231884
-9	0.0524999999999999	0.0185461956521739	0.182608695652174	0.1640625
-15	-0.155961538461538	-0.10370709382151	0.182608695652174	0.286315789473684
-6	0.0903985507246377	0.0401799100449775	0.182608695652174	0.142428785607196
-18	-0.0695105820105821	-0.0441302384038334	0.182608695652174	0.226738934056007
-5	0.0547077922077922	0.0193433895297249	0.182608695652174	0.163265306122449
-12	0.0271153846153847	0.00775155279503112	0.182608695652174	0.174857142857143
-3	0.0720238095238096	0.0287625418060201	0.182608695652174	0.153846153846154
-7	0.0125	-0.0257246376811595	0.182608695652174	0.208333333333333
-19	-0.0547413793103449	-0.043992289569501	0.182608695652174	0.226600985221675
-17	0.0682471264367816	0.0271428571428571	0.253333333333333	0.226190476190476
-24	0.00544354838709676	0.00759153710721852	0.182608695652174	0.175017158544955
-1	0.094078947368421	0.0422578184591914	0.182608695652174	0.140350877192983
-16	-0.0708333333333334	-0.0481605351170569	0.182608695652174	0.230769230769231
-19	-0.0407258064516128	-0.0412008281573498	0.182608695652174	0.223809523809524
-9	0.0306159420289855	0.00869565217391302	0.182608695652174	0.173913043478261
-5	0.0846343873517786	0.0365047995482777	0.182608695652174	0.146103896103896
-7	-0.105921052631579	-0.0630053394355454	0.182608695652174	0.245614035087719
-13	-0.0451923076923077	-0.0481605351170569	0.182608695652174	0.230769230769231
-9	-0.0563405797101449	-0.0565217391304348	0.182608695652174	0.239130434782609
-14	0.0723646723646724	0.0338731443994602	0.266666666666667	0.232793522267206
-1	0.143859649122807	0.0585095216674165	0.235897435897436	0.177387914230019
-8	0.0480072463768115	0.0109090909090908	0.253333333333333	0.242424242424242
-9	-0.0774209486166007	-0.0617094861660079	0.182608695652174	0.244318181818182
-8	0.0253458498023715	0.00665561647328825	0.182608695652174	0.175953079178886
-4	0.148214285714286	0.0740229885057472	0.253333333333333	0.179310344827586
-18	-0.0601600985221674	-0.0456143008635055	0.182608695652174	0.228222996515679
1	0.122149122807018	0.0613965744400527	0.182608695652174	0.121212121212121
-3	0.0720238095238096	0.0287625418060201	0.182608695652174	0.153846153846154
-5	0.0846343873517787	0.0365047995482778	0.182608695652174	0.146103896103896
-16	0.0151455026455028	0.00502085139766312	0.182608695652174	0.177587844254511
-18	-0.143584656084656	-0.0947174109422254	0.182608695652174	0.277326106594399
-11	-0.0608333333333333	-0.0551364023870417	0.182608695652174	0.237745098039216
-7	-0.0497529644268775	-0.0567852437417656	0.182608695652174	0.239393939393939
-3	0.106655844155844	0.050740563784042	0.182608695652174	0.131868131868132
-1	0.0578216374269006	0.0205716586151368	0.182608695652174	0.162037037037037
-16	0.0151455026455028	0.00502085139766306	0.182608695652174	0.177587844254511
-4	0.112302371541502	0.054662567706046	0.182608695652174	0.127946127946128
-6	0.0609189723320158	0.0227340875017037	0.182608695652174	0.15987460815047
-15	0.0117877492877494	0.00447104383031163	0.182608695652174	0.178137651821862
-9	-0.0563405797101448	-0.0565217391304347	0.182608695652174	0.239130434782609
-13	0.137371794871795	0.0764912280701754	0.253333333333333	0.176842105263158
-2	0.100595238095238	0.0466086956521738	0.182608695652174	0.136
-8	0.0253458498023716	0.0066556164732883	0.182608695652174	0.175953079178886
-7	0.0200757575757576	0.00483091787439616	0.182608695652174	0.177777777777778
-15	0.0408251231527093	0.0134357633213467	0.182608695652174	0.169172932330827
-4	-0.0517857142857143	-0.0618357487922706	0.182608695652174	0.244444444444444
-4	0.112302371541502	0.054662567706046	0.182608695652174	0.127946127946128
-15	-0.0496693121693121	-0.0474107975252139	0.182608695652174	0.230019493177388
-16	-0.0184615384615384	-0.00533333333333325	0.266666666666667	0.272
-13	0.0508597883597883	0.0179996421542315	0.182608695652174	0.164609053497942
-11	0.0225	0.00613810741687978	0.182608695652174	0.176470588235294
-10	0.0578846153846154	0.0213965744400527	0.182608695652174	0.161212121212121
-16	-0.0589285714285713	-0.0481605351170568	0.182608695652174	0.230769230769231
-6	0.0609189723320157	0.0227340875017036	0.182608695652174	0.15987460815047
-17	-0.0655423280423282	-0.0470209339774558	0.182608695652174	0.22962962962963
-15	0.0244047619047618	0.0071700991609458	0.182608695652174	0.175438596491228
-13	-0.0775	-0.0535024154589372	0.182608695652174	0.236111111111111
-7	0.0958333333333333	0.043719806763285	0.182608695652174	0.138888888888889
-5	0.0547077922077922	0.0193433895297249	0.182608695652174	0.163265306122449
-8	-0.181222943722944	-0.132291457957657	0.182608695652174	0.314900153609831
-6	0.0609189723320158	0.0227340875017037	0.182608695652174	0.15987460815047
-17	-0.0759615384615385	-0.0373913043478261	0.182608695652174	0.22
-9	-0.0563405797101448	-0.0565217391304347	0.182608695652174	0.239130434782609
-10	0.0358333333333332	0.0108915239350021	0.182608695652174	0.171717171717172
-15	0.165948275862069	0.080919540229885	0.253333333333333	0.172413793103448
-10	0.0482213438735179	0.028698752228164	0.266666666666667	0.237967914438503
-9	0.0306159420289855	0.00869565217391299	0.182608695652174	0.173913043478261
-3	0.106655844155844	0.0507405637840421	0.182608695652174	0.131868131868132
-3	0.143922924901186	0.077713590757069	0.182608695652174	0.104895104895105
-1	0.105357142857143	0.0187179487179487	0.253333333333333	0.234615384615385
-7	0.0668478260869565	0.0260869565217391	0.182608695652174	0.156521739130435
-4	0.0482142857142857	0.0159420289855072	0.182608695652174	0.166666666666667
-23	-0.123743386243386	-0.0524959742351047	0.182608695652174	0.235104669887279
-11	-0.18771645021645	-0.10870783095847	0.182608695652174	0.291316526610644
-21	-0.0675492610837438	-0.0349237718802936	0.182608695652174	0.217532467532468
-17	0.008531746031746	0.0048309178743961	0.182608695652174	0.177777777777778
-15	0.0408251231527092	0.0134357633213467	0.182608695652174	0.169172932330827
-1	0.205357142857143	0.0994871794871795	0.253333333333333	0.153846153846154
-12	0.0271153846153847	0.00775155279503112	0.182608695652174	0.174857142857143
-3	0.106655844155844	0.0507405637840421	0.182608695652174	0.131868131868132
-4	0.112302371541502	0.054662567706046	0.182608695652174	0.127946127946128
-2	0.0344298245614036	0.00927536231884063	0.182608695652174	0.173333333333333
-10	-0.0690217391304347	-0.058498023715415	0.182608695652174	0.241106719367589
-14	0.00249999999999984	0.00693301997649812	0.182608695652174	0.175675675675676
-17	0.0186576354679803	0.00582298136645965	0.182608695652174	0.176785714285714
-4	0.0230263157894736	0.0052207814221544	0.182608695652174	0.17738791423002
-10	0.0578846153846154	0.0213965744400527	0.182608695652174	0.161212121212121
-6	0.0352272727272727	0.0101949025487256	0.182608695652174	0.172413793103448
-3	0.00935672514619879	-0.00329218106995888	0.177777777777778	0.181069958847737
-18	0.00456349206349205	0.0064569341345587	0.182608695652174	0.176151761517615
-13	0.00583333333333336	0.00436795491143319	0.182608695652174	0.178240740740741
-3	0.0720238095238096	0.0287625418060201	0.182608695652174	0.153846153846154
-11	0.0225	0.00613810741687981	0.182608695652174	0.176470588235294
-13	0.0317307692307693	0.00953177257525087	0.182608695652174	0.173076923076923
-20	-0.138977832512315	-0.0881554239491549	0.182608695652174	0.270764119601329
-6	0.0352272727272727	0.0101949025487256	0.182608695652174	0.172413793103448
-21	-0.0557795698924731	-0.0416337285902503	0.182608695652174	0.224242424242424
-14	0.00865384615384623	0.00423031727379558	0.182608695652174	0.178378378378378
-4	0.0230263157894738	0.00522078142215449	0.182608695652174	0.177387914230019
-13	-0.112987012987013	-0.0383526383526383	0.266666666666667	0.305019305019305
-3	0.143922924901186	0.077713590757069	0.182608695652174	0.104895104895105
-14	-0.0713461538461537	-0.0519858989424206	0.182608695652174	0.234594594594595
-4	0.0785173160173159	0.0326968790736906	0.182608695652174	0.149911816578483
-9	0.0027597402597403	0.00403726708074537	0.182608695652174	0.178571428571429
-5	0.0846343873517786	0.0365047995482778	0.182608695652174	0.146103896103896
-4	0.0230263157894736	0.0052207814221544	0.182608695652174	0.17738791423002
-18	-0.21765873015873	-0.145304583480618	0.182608695652174	0.327913279132792
-13	0.0317307692307692	0.00953177257525081	0.182608695652174	0.173076923076923
-14	0.0363095238095238	0.0114375244810028	0.182608695652174	0.171171171171171
-14	-0.164166666666667	-0.105679592636114	0.182608695652174	0.288288288288288
-5	0.0547077922077921	0.0193433895297249	0.182608695652174	0.163265306122449
-13	0.278454415954416	0.160529014844804	0.338666666666667	0.178137651821862
-16	-0.14775641025641	-0.101414972986879	0.182608695652174	0.284023668639053
-4	0.078517316017316	0.0326968790736906	0.182608695652174	0.149911816578483
-6	0.0903985507246377	0.0401799100449775	0.182608695652174	0.142428785607196
-9	0.0525	0.0185461956521739	0.182608695652174	0.1640625
-17	-0.155961538461538	-0.089391304347826	0.182608695652174	0.272
-7	-0.0751623376623375	-0.0650103519668736	0.182608695652174	0.247619047619048
-17	-0.0736823361823363	-0.0443143812709031	0.182608695652174	0.226923076923077
-7	0.185833333333333	0.0892708333333333	0.253333333333333	0.1640625
-17	0.0186576354679803	0.00582298136645965	0.182608695652174	0.176785714285714
-14	-0.0713461538461538	-0.0519858989424206	0.182608695652174	0.234594594594595
-8	-0.040036231884058	-0.0516129032258064	0.182608695652174	0.23422159887798
-12	0.0271153846153847	0.00775155279503109	0.182608695652174	0.174857142857143
-9	0.0306159420289855	0.00869565217391305	0.182608695652174	0.173913043478261
-6	0.0609189723320158	0.0227340875017037	0.182608695652174	0.15987460815047
-12	0.0459757834757835	0.0155757286192069	0.182608695652174	0.167032967032967
-13	0.0317307692307692	0.00953177257525079	0.182608695652174	0.173076923076923
-7	0.0668478260869565	0.0260869565217391	0.182608695652174	0.156521739130435
-19	-0.0708333333333334	-0.0316770186335404	0.182608695652174	0.214285714285714
-15	0.0244047619047618	0.0071700991609458	0.182608695652174	0.175438596491228
-19	-0.0803571428571431	-0.0496969696969699	0.253333333333333	0.303030303030303
-8	0.0725000000000001	0.0293828892005611	0.182608695652174	0.153225806451613
-19	-0.0650862068965517	-0.0435817805383023	0.182608695652174	0.226190476190476
-6	0.176745718050066	0.0736305361305362	0.317948717948718	0.244318181818182
-18	-0.0601600985221674	-0.0456143008635055	0.182608695652174	0.228222996515679
-8	0.0469202898550724	0.0157082748948106	0.182608695652174	0.166900420757363
-12	0.0459757834757835	0.0155757286192069	0.182608695652174	0.167032967032967
1	0.122149122807018	0.0613965744400527	0.182608695652174	0.121212121212121
-9	0.0306159420289855	0.00869565217391305	0.182608695652174	0.173913043478261
-4	0.0482142857142857	0.0159420289855073	0.182608695652174	0.166666666666667
-2	0.139123376623377	0.0740372670807454	0.182608695652174	0.108571428571428
-7	0.0411561264822133	0.0129117259552041	0.182608695652174	0.16969696969697
1	0.167763157894737	0.0964842937382983	0.182608695652174	0.0861244019138756
-9	0.0134881422924902	0.00363142292490121	0.182608695652174	0.178977272727273
-9	0.0525	0.0185461956521739	0.182608695652174	0.1640625
-12	-0.170471014492754	-0.114285714285714	0.182608695652174	0.296894409937888
-1	0.277256258234519	0.148438228438228	0.253333333333333	0.104895104895105
-7	0.0411561264822134	0.0129117259552042	0.182608695652174	0.16969696969697
-2	0.100595238095238	0.0466086956521739	0.182608695652174	0.136
-5	-0.0405303030303032	-0.0554865424430643	0.182608695652174	0.238095238095238
-3	-0.0942251461988304	-0.0780750650315868	0.182608695652174	0.260683760683761
-14	-0.056588319088319	-0.0502395371960589	0.182608695652174	0.232848232848233
-16	0.0025	0.00927536231884057	0.182608695652174	0.173333333333333
-15	-0.0759615384615385	-0.0489702517162472	0.182608695652174	0.231578947368421
-14	0.0203347578347579	0.00589351893699722	0.182608695652174	0.176715176715177
-17	0.00853174603174595	0.00483091787439607	0.182608695652174	0.177777777777778
-19	-0.0708333333333333	-0.0396135265700483	0.182608695652174	0.222222222222222
-6	0.226630434782609	0.104445067788686	0.338666666666667	0.23422159887798
-12	-0.0708333333333335	-0.0554865424430643	0.182608695652174	0.238095238095238
-8	0.0253458498023716	0.0066556164732883	0.182608695652174	0.175953079178886
-8	0.0092532467532469	0.00288519334802656	0.182608695652174	0.179723502304147
-7	0.0411561264822133	0.0129117259552041	0.182608695652174	0.16969696969697
-13	-0.0451923076923075	-0.0481605351170568	0.182608695652174	0.230769230769231
-14	-0.0808333333333335	-0.0493732863298082	0.182608695652174	0.231981981981982
-9	0.0134881422924902	0.00363142292490121	0.182608695652174	0.178977272727273
-27	-0.0560483870967742	-0.0212622720897616	0.182608695652174	0.203870967741935
-2	0.0651315789473684	0.0247139588100687	0.182608695652174	0.157894736842105
-8	0.0253458498023716	0.00665561647328833	0.182608695652174	0.175953079178886
-10	0.0358333333333333	0.0108915239350022	0.182608695652174	0.171717171717172
-9	-0.0308333333333334	-0.0465579710144928	0.182608695652174	0.229166666666667
-5	0.0846343873517786	0.0365047995482778	0.182608695652174	0.146103896103896
-8	0.0092532467532469	0.00288519334802656	0.182608695652174	0.179723502304147
-7	0.272101449275362	0.140083105300497	0.317948717948718	0.177865612648221
-18	0.0766666666666665	0.0679487179487179	0.317948717948718	0.25
-8	0.0253458498023716	0.0066556164732883	0.182608695652174	0.175953079178886
-8	0.0092532467532469	0.00288519334802656	0.182608695652174	0.179723502304147
-4	0.327585638998683	0.178792058516196	0.338666666666667	0.15987460815047
-7	0.0411561264822134	0.0129117259552042	0.182608695652174	0.16969696969697
-5	0.0547077922077922	0.0193433895297249	0.182608695652174	0.163265306122449
-11	0.0225	0.00613810741687981	0.182608695652174	0.176470588235294
-10	0.0179347826086957	0.00474308300395257	0.182608695652174	0.177865612648221
-22	-0.051008064516129	-0.0403303724481845	0.182608695652174	0.222939068100358
-9	0.0134881422924902	0.00363142292490121	0.182608695652174	0.178977272727273
-5	0.0547077922077922	0.0193433895297249	0.182608695652174	0.163265306122449
-13	0.0317307692307692	0.00953177257525079	0.182608695652174	0.173076923076923
-13	0.00583333333333336	0.00436795491143319	0.182608695652174	0.178240740740741
-13	0.0163461538461538	0.00483091787439607	0.182608695652174	0.177777777777778
-7	-0.0751623376623375	-0.0650103519668736	0.182608695652174	0.247619047619048
-9	0.155833333333333	0.0768627450980392	0.253333333333333	0.176470588235294
-1	-0.0532894736842106	-0.0673913043478261	0.182608695652174	0.25
-8	0.0469202898550724	0.0157082748948106	0.182608695652174	0.166900420757363
-4	0.078517316017316	0.0326968790736906	0.182608695652174	0.149911816578483
-15	0.0040384615384616	0.00576659038901606	0.182608695652174	0.176842105263158
-7	0.0668478260869565	0.0260869565217391	0.182608695652174	0.156521739130435
-14	0.0363095238095238	0.0114375244810028	0.182608695652174	0.171171171171171
-13	-0.0231389986824769	-0.000255183413078119	0.253333333333333	0.253588516746411
-10	-0.0690217391304347	-0.058498023715415	0.182608695652174	0.241106719367589
-6	0.0609189723320157	0.0227340875017036	0.182608695652174	0.15987460815047
-21	0.008531746031746	0.0209925340360123	0.182608695652174	0.161616161616162
-8	0.0253458498023716	0.0066556164732883	0.182608695652174	0.175953079178886
-15	0.00249999999999984	0.0115560640732264	0.182608695652174	0.171052631578947
-6	0.0903985507246377	0.0401799100449775	0.182608695652174	0.142428785607196
-14	-0.151346153846154	-0.108202115158637	0.182608695652174	0.290810810810811
-2	0.0344298245614036	0.00927536231884063	0.182608695652174	0.173333333333333
-17	-0.0759615384615385	-0.0373913043478261	0.182608695652174	0.22
-10	0.0358333333333333	0.0108915239350022	0.182608695652174	0.171717171717172
-5	0.0291666666666666	0.00760869565217387	0.182608695652174	0.175
-7	0.0668478260869565	0.0260869565217391	0.182608695652174	0.156521739130435
-12	0.0271153846153847	0.00775155279503112	0.182608695652174	0.174857142857143
-9	0.0306159420289856	0.0086956521739131	0.182608695652174	0.173913043478261
-2	0.139123376623377	0.0740372670807454	0.182608695652174	0.108571428571429
-6	0.0434123847167326	-0.00842074592074585	0.235897435897436	0.244318181818182
-7	0.0668478260869565	0.0260869565217391	0.182608695652174	0.156521739130435
-14	0.195833333333333	0.107897435897436	0.338666666666667	0.230769230769231
-5	0.0547077922077921	0.0193433895297249	0.182608695652174	0.163265306122449
-14	0.0363095238095239	0.0114375244810028	0.182608695652174	0.171171171171171
-10	0.0179347826086957	0.00474308300395257	0.182608695652174	0.177865612648221
-5	0.0547077922077922	0.0193433895297249	0.182608695652174	0.163265306122449
-3	-0.0942251461988304	-0.0780750650315868	0.182608695652174	0.260683760683761
-14	-0.0266666666666667	-0.0140350877192983	0.266666666666667	0.280701754385965
-13	0.00583333333333336	0.00436795491143319	0.182608695652174	0.178240740740741
0	-0.0675653594771242	-0.0757033248081842	0.182608695652174	0.258312020460358
-12	0.0271153846153847	0.00775155279503109	0.182608695652174	0.174857142857143
-19	-0.0547413793103449	-0.043992289569501	0.182608695652174	0.226600985221675
-2	0.100595238095238	0.0466086956521739	0.182608695652174	0.136
-10	0.0179347826086957	0.00474308300395257	0.182608695652174	0.177865612648221
-3	0.0414473684210527	0.0125682098222145	0.182608695652174	0.170040485829959
-3	0.0414473684210527	0.0125682098222145	0.182608695652174	0.170040485829959
-7	0.0125	-0.0257246376811595	0.182608695652174	0.208333333333333
-8	0.0469202898550725	0.0157082748948107	0.182608695652174	0.166900420757363
-9	-0.0774209486166008	-0.0617094861660079	0.182608695652174	0.244318181818182
-10	0.00558300395256922	0.00354533477063124	0.182608695652174	0.179063360881543
-11	0.00887681159420295	0.00358056265984658	0.182608695652174	0.179028132992327
-4	0.021393280632411	-0.0227785097350315	0.182608695652174	0.205387205387205
0	0.0870614035087719	0.0376811594202899	0.182608695652174	0.144927536231884
-16	0.0285098522167489	0.00861602165949998	0.182608695652174	0.173992673992674
-8	0.0253458498023716	0.00665561647328833	0.182608695652174	0.175953079178886
-13	-0.0853260869565217	-0.0492753623188406	0.182608695652174	0.231884057971014
-18	0.011268472906404	0.00490834722011821	0.182608695652174	0.177700348432056
-24	0.0191844919786097	0.00659322176435967	0.182608695652174	0.176015473887814
-2	0.139123376623377	0.0740372670807454	0.182608695652174	0.108571428571428
-8	0.0253458498023716	0.0066556164732883	0.182608695652174	0.175953079178886
-8	0.0253458498023716	0.00665561647328833	0.182608695652174	0.175953079178886
-3	0.0720238095238096	0.0287625418060201	0.182608695652174	0.153846153846154
-17	0.00250000000000006	0.0192063492063492	0.253333333333333	0.234126984126984
-18	-0.0601600985221675	-0.0456143008635056	0.182608695652174	0.228222996515679
-14	0.0363095238095239	0.0114375244810028	0.182608695652174	0.171171171171171
-20	0.00387931034482769	0.0081900910010112	0.182608695652174	0.174418604651163
-15	-0.0651353276353276	-0.0501848266150325	0.182608695652174	0.232793522267206
-11	0.0225	0.00613810741687984	0.182608695652174	0.176470588235294
-13	-0.0853260869565217	-0.0492753623188406	0.182608695652174	0.231884057971014
-11	0.0225	0.00613810741687981	0.182608695652174	0.176470588235294
-9	-0.0774209486166008	-0.0617094861660079	0.182608695652174	0.244318181818182
-8	0.0469202898550724	0.0157082748948106	0.182608695652174	0.166900420757363
-15	-0.0496693121693123	-0.0474107975252141	0.182608695652174	0.230019493177388
-4	-0.105921052631579	-0.0766505636070854	0.182608695652174	0.259259259259259
-12	-0.0594871794871795	-0.0577777777777778	0.177777777777778	0.235555555555556
-10	0.0179347826086957	0.00474308300395257	0.182608695652174	0.177865612648221
-14	0.0363095238095239	0.0114375244810028	0.182608695652174	0.171171171171171
1	0.122149122807018	0.0613965744400527	0.182608695652174	0.121212121212121
-25	-0.116091954022989	-0.0493079990616937	0.266666666666667	0.31597466572836
-6	0.0903985507246377	0.0401799100449775	0.182608695652174	0.142428785607196
-18	0.011268472906404	0.00490834722011821	0.182608695652174	0.177700348432056
-15	-0.0759615384615385	-0.0489702517162472	0.182608695652174	0.231578947368421
-6	0.0903985507246377	0.0401799100449775	0.182608695652174	0.142428785607196
-7	0.0668478260869565	0.0260869565217391	0.182608695652174	0.156521739130435
-13	-0.0451923076923075	-0.0481605351170568	0.182608695652174	0.230769230769231
-7	-0.0751623376623376	-0.0650103519668737	0.182608695652174	0.247619047619048
-2	0.0651315789473684	0.0247139588100687	0.182608695652174	0.157894736842105
-11	-0.0608333333333333	-0.0551364023870417	0.182608695652174	0.237745098039216
-16	-0.0708333333333334	-0.0481605351170569	0.182608695652174	0.230769230769231
-4	0.0482142857142857	0.0159420289855072	0.182608695652174	0.166666666666667
-15	0.00403846153846155	0.005766590389016	0.182608695652174	0.176842105263158
-18	-0.0331908831908829	-0.0194638694638693	0.317948717948718	0.337412587412587
-13	-0.0775	-0.0535024154589372	0.182608695652174	0.236111111111111
-1	0.133928571428571	0.0701086956521739	0.182608695652174	0.1125
-5	0.229166666666667	0.114444444444444	0.253333333333333	0.138888888888889
-11	0.0225	0.00613810741687978	0.182608695652174	0.176470588235294
-6	0.0352272727272727	0.0101949025487256	0.182608695652174	0.172413793103448
-14	0.00865384615384623	0.00423031727379558	0.182608695652174	0.178378378378378
4	0.152205882352941	0.0839244851258581	0.182608695652174	0.0986842105263158
-10	0.0179347826086957	0.00474308300395257	0.182608695652174	0.177865612648221
-7	-0.0751623376623375	-0.0650103519668736	0.182608695652174	0.247619047619048
-10	0.0358333333333333	0.0108915239350022	0.182608695652174	0.171717171717172
-10	0.0179347826086957	0.00474308300395257	0.182608695652174	0.177865612648221
-7	0.239138176638177	0.121121794871795	0.253333333333333	0.132211538461538
-8	0.0253458498023716	0.0066556164732883	0.182608695652174	0.175953079178886
-7	0.0200757575757576	0.00483091787439616	0.182608695652174	0.177777777777778
-9	0.0134881422924902	0.00363142292490121	0.182608695652174	0.178977272727273
-10	-0.0690217391304347	-0.058498023715415	0.182608695652174	0.241106719367589
-14	0.0203347578347579	0.00589351893699724	0.182608695652174	0.176715176715177
-18	0.011268472906404	0.00490834722011821	0.182608695652174	0.177700348432056
-10	0.0358333333333333	0.0108915239350022	0.182608695652174	0.171717171717172
-16	0.0151455026455028	0.00502085139766312	0.182608695652174	0.177587844254511
-10	0.0179347826086957	0.00474308300395257	0.182608695652174	0.177865612648221
-19	-0.123706896551724	-0.0932533733133434	0.182608695652174	0.275862068965517
-5	-0.0708333333333332	-0.067391304347826	0.182608695652174	0.25
-13	0.0163461538461538	0.00483091787439607	0.182608695652174	0.177777777777778
-9	-0.199404761904762	-0.120516304347826	0.182608695652174	0.303125
-6	0.0148809523809525	0.00329835082458776	0.182608695652174	0.179310344827586
-15	0.0244047619047619	0.00717009916094583	0.182608695652174	0.175438596491228
-11	-0.0390384615384613	-0.0479795396419436	0.182608695652174	0.230588235294117
-16	-0.160833333333333	-0.0887588257153474	0.182608695652174	0.271367521367521
-8	0.0253458498023716	0.0066556164732883	0.182608695652174	0.175953079178886
-16	-0.0589285714285712	-0.0481605351170567	0.182608695652174	0.230769230769231
-7	0.0668478260869565	0.0260869565217391	0.182608695652174	0.156521739130435
-8	0.0253458498023716	0.00665561647328833	0.182608695652174	0.175953079178886
-5	0.117572463768116	0.0583850931677019	0.182608695652174	0.124223602484472
-4	0.078517316017316	0.0326968790736906	0.182608695652174	0.149911816578483
-12	0.0271153846153847	0.00775155279503112	0.182608695652174	0.174857142857143
-8	0.0725000000000001	0.0293828892005611	0.182608695652174	0.153225806451613
-9	-0.0924783549783549	-0.0614389233954451	0.182608695652174	0.244047619047619
-10	0.0179347826086957	0.00474308300395257	0.182608695652174	0.177865612648221
-1	0.133928571428571	0.0701086956521739	0.182608695652174	0.1125
-4	-0.0822368421052633	-0.0727519281295026	0.182608695652174	0.255360623781677
-15	-0.0172720797720798	-0.0255128205128206	0.253333333333333	0.278846153846154
-9	-0.172068511198946	-0.128007346189164	0.177777777777778	0.305785123966942
0	-0.024049707602339	-0.0541062801932366	0.182608695652174	0.23671497584541
-13	0.0508597883597883	0.0179996421542315	0.182608695652174	0.164609053497942
-8	0.0253458498023716	0.0066556164732883	0.182608695652174	0.175953079178886
-5	0.0846343873517786	0.0365047995482778	0.182608695652174	0.146103896103896
-18	-0.150605413105413	-0.0894363324904152	0.182608695652174	0.272045028142589
-20	-0.138977832512315	-0.0881554239491551	0.182608695652174	0.270764119601329
-18	-0.0601600985221674	-0.0456143008635055	0.182608695652174	0.228222996515679
-8	0.0253458498023715	0.00665561647328825	0.182608695652174	0.175953079178886
-12	-0.0835144927536232	-0.0546583850931677	0.182608695652174	0.237267080745342
-5	-0.0405303030303032	-0.0554865424430643	0.182608695652174	0.238095238095238
-13	-0.0636538461538462	-0.0529468599033817	0.182608695652174	0.235555555555556
-3	0.0414473684210527	0.0125682098222144	0.182608695652174	0.170040485829959
-18	-0.0782051282051283	-0.0368298368298368	0.235897435897436	0.272727272727273
-13	0.00583333333333336	0.00436795491143319	0.182608695652174	0.178240740740741
-9	0.0306159420289855	0.00869565217391305	0.182608695652174	0.173913043478261
-5	0.0547077922077922	0.0193433895297249	0.182608695652174	0.163265306122449
-15	0.0117877492877494	0.00447104383031169	0.182608695652174	0.178137651821862
-3	0.0379385964912279	-0.00230576441102776	0.253333333333333	0.255639097744361
-7	0.1025	0.0241666666666667	0.253333333333333	0.229166666666667
-1	0.239989177489177	0.121465201465201	0.253333333333333	0.131868131868132
-8	0.0469202898550724	0.0157082748948106	0.182608695652174	0.166900420757363
-17	-0.0527709359605912	-0.0459627329192547	0.182608695652174	0.228571428571429
-9	-0.0774209486166007	-0.0617094861660079	0.182608695652174	0.244318181818182
-8	0.138916337285902	0.0742699724517906	0.253333333333333	0.179063360881543
-9	-0.0924783549783549	-0.0614389233954451	0.182608695652174	0.244047619047619
-11	0.0630698005698005	0.024237654928192	0.182608695652174	0.158371040723982
-21	-0.0675492610837438	-0.0349237718802936	0.182608695652174	0.217532467532468
-6	0.0352272727272727	0.0101949025487256	0.182608695652174	0.172413793103448
-1	0.0578216374269006	0.0205716586151368	0.182608695652174	0.162037037037037
-7	0.0411561264822133	0.0129117259552041	0.182608695652174	0.16969696969697
-5	0.0291666666666666	0.00760869565217387	0.182608695652174	0.175
-17	-0.0736823361823363	-0.0443143812709031	0.182608695652174	0.226923076923077
-11	-0.0390384615384614	-0.0479795396419436	0.182608695652174	0.230588235294118
-2	0.0651315789473684	0.0247139588100687	0.182608695652174	0.157894736842105
-17	0.0326149425287357	0.0101949025487257	0.182608695652174	0.172413793103448
-10	-0.0690217391304347	-0.058498023715415	0.182608695652174	0.241106719367589
-15	0.00403846153846155	0.005766590389016	0.182608695652174	0.176842105263158
-6	0.0609189723320158	0.0227340875017037	0.182608695652174	0.15987460815047
-7	0.0411561264822133	0.0129117259552041	0.182608695652174	0.16969696969697
-1	0.0578216374269006	0.0205716586151368	0.182608695652174	0.162037037037037
-23	-0.131588669950739	-0.0658385093167702	0.182608695652174	0.248447204968944
-11	0.0409615384615385	0.0131969309462916	0.182608695652174	0.169411764705882
-19	0.0063423645320197	0.00573794735285418	0.182608695652174	0.17687074829932
-15	-0.2475	-0.1529176201373	0.182608695652174	0.335526315789474
-10	-0.155978260869565	-0.121739130434783	0.182608695652174	0.304347826086957
-22	-0.0643678160919541	-0.0361819090454774	0.266666666666667	0.302848575712144
-9	0.196403133903134	0.0949622926093514	0.253333333333333	0.158371040723982
-18	-0.217658730158731	-0.145304583480618	0.182608695652174	0.327913279132792
-2	0.05109649122807	-0.00202729044834321	0.253333333333333	0.255360623781677
-12	0.0459757834757835	0.0155757286192069	0.182608695652174	0.167032967032967
-10	0.0358333333333333	0.0108915239350022	0.182608695652174	0.171717171717172
-15	0.0244047619047619	0.00717009916094585	0.182608695652174	0.175438596491228
-15	-0.0759615384615384	-0.0489702517162471	0.182608695652174	0.231578947368421
-9	0.0778846153846154	0.0326086956521739	0.182608695652174	0.15
-5	0.0846343873517787	0.0365047995482778	0.182608695652174	0.146103896103896
-6	0.14258658008658	0.073609831029186	0.253333333333333	0.179723502304147
-4	0.112302371541502	0.054662567706046	0.182608695652174	0.127946127946128
-6	-0.0851190476190475	-0.0691154422788605	0.182608695652174	0.251724137931034
-19	-0.213690476190476	-0.135030303030303	0.168	0.303030303030303
-12	0.0619871794871796	0.0187387387387388	0.253333333333333	0.234594594594594
-12	0.0271153846153847	0.00775155279503109	0.182608695652174	0.174857142857143
-9	0.0306159420289855	0.00869565217391305	0.182608695652174	0.173913043478261
-6	0.234294871794872	0.117849462365591	0.253333333333333	0.135483870967742
-8	-0.0655632411067193	-0.0607930638786179	0.182608695652174	0.243401759530792
-8	0.0469202898550724	0.0157082748948106	0.182608695652174	0.166900420757363
-1	0.0307189542483663	0.000784313725490371	0.266666666666667	0.265882352941176
-8	0.0092532467532469	0.00288519334802656	0.182608695652174	0.179723502304147
-3	0.0414473684210527	0.0125682098222145	0.182608695652174	0.170040485829959
-21	-0.213690476190476	-0.120421607378129	0.182608695652174	0.303030303030303
0	0.0313725490196078	0.00130718954248363	0.177777777777778	0.176470588235294
-2	0.100595238095238	0.0466086956521739	0.182608695652174	0.136
-20	-0.129454022988506	-0.0908475994560858	0.182608695652174	0.27345629510826
0	0.0870614035087719	0.0376811594202899	0.182608695652174	0.144927536231884
-14	-0.0565883190883191	-0.0502395371960589	0.182608695652174	0.232848232848233
-6	0.0609189723320157	0.0227340875017036	0.182608695652174	0.15987460815047
-1	0.0578216374269006	0.0205716586151368	0.182608695652174	0.162037037037037
-12	-0.0835144927536232	-0.0546583850931677	0.182608695652174	0.237267080745342
-12	0.0124999999999998	0.0040372670807452	0.182608695652174	0.178571428571429
-17	0.0186576354679803	0.00582298136645965	0.182608695652174	0.176785714285714
-5	0.0291666666666667	0.0076086956521739	0.182608695652174	0.175
-6	0.0609189723320158	0.0227340875017037	0.182608695652174	0.15987460815047
-6	0.0609189723320158	0.0227340875017037	0.182608695652174	0.15987460815047
-3	0.0414473684210527	0.0125682098222144	0.182608695652174	0.170040485829959
-9	-0.0563405797101448	-0.0565217391304347	0.182608695652174	0.239130434782609
-22	-0.0600806451612902	-0.0396135265700482	0.182608695652174	0.222222222222222
-12	0.0124999999999998	0.0040372670807452	0.182608695652174	0.178571428571429
-11	0.0409615384615386	0.0131969309462917	0.182608695652174	0.169411764705882
-18	0.0222701149425288	0.0068307309759755	0.182608695652174	0.175777964676198
-9	0.0306159420289855	0.00869565217391305	0.182608695652174	0.173913043478261
-2	0.100595238095238	0.0466086956521739	0.182608695652174	0.136
-1	0.0272058823529411	0.00613810741687976	0.182608695652174	0.176470588235294
-22	-0.0650862068965515	-0.0285024154589371	0.182608695652174	0.211111111111111
-2	0.211850649350649	0.10342151675485	0.253333333333333	0.149911816578483
1	0.167763157894737	0.0964842937382983	0.182608695652174	0.0861244019138756
-2	0.0651315789473684	0.0247139588100687	0.182608695652174	0.157894736842105
-8	-0.0429018445322792	-0.0524517906336088	0.253333333333333	0.305785123966942
-9	0.0225	-0.00847058823529412	0.168	0.176470588235294
-15	0.213895730706075	0.110095238095238	0.338666666666667	0.228571428571429
-4	0.148214285714286	0.0740229885057472	0.253333333333333	0.179310344827586
-17	0.0087301587301587	0.00162601626016257	0.177777777777778	0.176151761517615
-12	0.0271153846153847	0.00775155279503112	0.182608695652174	0.174857142857143
-10	0.195833333333333	0.100571428571428	0.338666666666667	0.238095238095238
-5	0.0547077922077922	0.0193433895297249	0.182608695652174	0.163265306122449
-10	0.0179347826086957	0.00474308300395257	0.182608695652174	0.177865612648221
-23	-0.120564516129032	-0.0838709677419355	0.182608695652174	0.266479663394109
-12	-0.0708333333333335	-0.0554865424430643	0.182608695652174	0.238095238095238
-12	0.00344202898550727	0.0049689440993789	0.182608695652174	0.177639751552795
-11	0.141168091168091	0.0591822591822593	0.235897435897436	0.176715176715177
-13	0.0317307692307691	0.00953177257525073	0.182608695652174	0.173076923076923
-6	0.0148809523809525	0.00329835082458776	0.182608695652174	0.179310344827586
-3	0.0414473684210527	0.0125682098222144	0.182608695652174	0.170040485829959
-16	-0.1575	-0.0973913043478261	0.182608695652174	0.28
-6	0.0352272727272727	0.0101949025487256	0.182608695652174	0.172413793103448
0	0.087061403508772	0.0376811594202899	0.182608695652174	0.144927536231884
-13	0.0317307692307693	0.00953177257525087	0.182608695652174	0.173076923076923
-15	0.0244047619047618	0.0071700991609458	0.182608695652174	0.175438596491228
-21	-0.0639367816091955	-0.0399618372631867	0.182608695652174	0.222570532915361
-13	0.0317307692307693	0.00953177257525087	0.182608695652174	0.173076923076923
-7	0.0958333333333333	0.043719806763285	0.182608695652174	0.138888888888889
2	0.163084795321637	0.092661605705084	0.182608695652174	0.0899470899470899
-6	0.0903985507246377	0.0401799100449775	0.182608695652174	0.142428785607196
-16	-0.0775	-0.0440579710144928	0.182608695652174	0.226666666666667
-7	-0.0201086956521739	-0.0434782608695652	0.182608695652174	0.226086956521739
0	0.128289473684211	0.065903890160183	0.182608695652174	0.116704805491991
-6	0.134321475625823	0.0569201631701632	0.235897435897436	0.178977272727273
-8	-0.0994047619047618	-0.0625525946704066	0.182608695652174	0.245161290322581
1	0.167763157894737	0.0964842937382983	0.182608695652174	0.0861244019138756
-15	-0.0208333333333334	-0.00708333333333339	0.253333333333333	0.260416666666667
-4	0.281547619047619	0.159356321839081	0.338666666666667	0.179310344827586
-10	0.0358333333333333	0.0108915239350022	0.182608695652174	0.171717171717172
-9	0.0306159420289855	0.00869565217391305	0.182608695652174	0.173913043478261
-4	0.112302371541502	0.054662567706046	0.182608695652174	0.127946127946128
-4	0.112302371541502	0.054662567706046	0.182608695652174	0.127946127946128
-22	0.0238636363636365	0.00760869565217398	0.182608695652174	0.175
-12	0.14198717948718	0.074954954954955	0.253333333333333	0.178378378378378
-12	0.0271153846153847	0.00775155279503109	0.182608695652174	0.174857142857143
-16	-0.0708333333333334	-0.0481605351170569	0.182608695652174	0.230769230769231
-4	0.0482142857142857	0.0159420289855072	0.182608695652174	0.166666666666667
-3	0.106655844155844	0.050740563784042	0.182608695652174	0.131868131868132
-16	-0.0775	-0.035340022296544	0.182608695652174	0.217948717948718
-11	0.0225	0.00613810741687984	0.182608695652174	0.176470588235294
-11	0.0225	0.00613810741687981	0.182608695652174	0.176470588235294
-14	-0.056588319088319	-0.0502395371960589	0.182608695652174	0.232848232848233
-6	0.0148809523809525	0.00329835082458776	0.182608695652174	0.179310344827586
-7	0.0200757575757576	0.00483091787439613	0.182608695652174	0.177777777777778
1	0.214880952380952	0.137154150197628	0.182608695652174	0.0454545454545455
-17	0.0326149425287356	0.0101949025487256	0.182608695652174	0.172413793103448
-15	-0.0496693121693123	-0.0474107975252141	0.182608695652174	0.230019493177388
-16	-0.0429187192118225	-0.0444975314540531	0.182608695652174	0.227106227106227
-10	-0.0690217391304347	-0.058498023715415	0.182608695652174	0.241106719367589
-15	0.0244047619047619	0.00717009916094585	0.182608695652174	0.175438596491228
-10	-0.0221153846153844	-0.0416337285902502	0.182608695652174	0.224242424242424
-16	-0.0775	-0.0440579710144928	0.182608695652174	0.226666666666667
-8	0.0253458498023716	0.0066556164732883	0.182608695652174	0.175953079178886
