3
[ 1.479, 1.513, 1.479, 2.331, 1.513, 1.513, 1.479, 2.331, 1.479, 1.479, 2.331, 2.331, 1.513, 1.513, 1.479, 1.513, 1.513, 1.479, 2.331, 1.513, 1.513, 1.479, 2.331, 1.479, 1.513, 1.513, 1.479, 1.479, 2.331, 1.479, 2.331, 1.513, 1.479, 1.479, 1.479, 1.479, 2.331, 1.479, 1.479, 2.331, 2.331, 2.331, 1.513, 2.331, 1.479, 1.479, 2.331, 1.479, 2.331, 1.479, 2.331, 1.479, 2.331, 2.331, 2.331, 1.479, 1.479, 2.331, 1.479, 1.479, 1.513, 1.513, 1.513, 1.513, 1.513, 1.513, 1.513, 2.331, 1.513, 1.513, 2.331, 2.331, 1.479, 2.331, 2.331, 2.331, 1.479, 2.331, 1.479, 1.479, 1.479, 1.513, 2.331, 1.513, 1.513, 2.331, 1.513, 1.479, 1.513, 1.479, 2.331, 2.331, 1.479, 1.479, 1.513, 2.331, 1.479, 1.479, 1.479, 1.513 ]
3
[ 0.680, 0.680, 0.493, 0.680, 0.680, 0.665, 0.493, 0.493, 0.665, 0.680, 0.665, 0.665, 0.493, 0.493, 0.665, 0.680, 0.493, 0.680, 0.493, 0.665, 0.665, 0.680, 0.493, 0.665, 0.665, 0.680, 0.680, 0.665, 0.493, 0.493, 0.493, 0.680, 0.680, 0.665, 0.665, 0.680, 0.493, 0.665, 0.493, 0.680, 0.680, 0.665, 0.680, 0.665, 0.665, 0.665, 0.665, 0.493, 0.493, 0.493, 0.665, 0.665, 0.493, 0.680, 0.665, 0.680, 0.493, 0.680, 0.665, 0.665, 0.493, 0.665, 0.680, 0.680, 0.680, 0.680, 0.665, 0.680, 0.665, 0.665, 0.665, 0.680, 0.665, 0.665, 0.493, 0.680, 0.680, 0.665, 0.680, 0.493, 0.493, 0.680, 0.493, 0.665, 0.680, 0.680, 0.493, 0.493, 0.680, 0.680, 0.665, 0.493, 0.665, 0.493, 0.680, 0.665, 0.665, 0.493, 0.665, 0.665 ]