3
[ 1.418, 1.418, 1.418, 3.471, 2.712, 3.471, 1.418, 1.418, 2.712, 3.471, 3.471, 2.712, 2.712, 2.712, 1.418, 3.471, 1.418, 3.471, 1.418, 3.471, 2.712, 1.418, 2.712, 2.712, 1.418, 3.471, 2.712, 2.712, 1.418, 1.418, 3.471, 2.712, 3.471, 1.418, 1.418, 2.712, 2.712, 3.471, 3.471, 3.471, 1.418, 3.471, 1.418, 1.418, 1.418, 1.418, 2.712, 2.712, 1.418, 2.712, 3.471, 2.712, 1.418, 3.471, 3.471, 2.712, 2.712, 3.471, 3.471, 3.471, 2.712, 3.471, 3.471, 1.418, 3.471, 1.418, 3.471, 3.471, 2.712, 1.418, 2.712, 3.471, 1.418, 2.712, 1.418, 2.712, 1.418, 3.471, 1.418, 2.712, 1.418, 1.418, 2.712, 1.418, 2.712, 2.712, 3.471, 2.712, 2.712, 1.418, 2.712, 3.471, 1.418, 3.471, 2.712, 3.471, 1.418, 2.712, 2.712, 2.712, 2.712, 3.471, 2.712, 1.418, 3.471, 3.471, 2.712, 3.471, 1.418, 1.418, 3.471, 1.418, 1.418, 1.418, 3.471, 1.418, 2.712, 2.712, 2.712, 3.471, 3.471, 3.471, 3.471, 1.418, 1.418, 3.471, 3.471, 1.418, 1.418, 2.712, 1.418, 1.418, 2.712, 2.712, 1.418, 2.712, 3.471, 1.418, 3.471, 1.418, 3.471, 3.471, 3.471, 1.418, 3.471, 1.418, 1.418, 2.712, 1.418, 3.471, 1.418, 1.418, 2.712, 2.712, 2.712, 1.418, 3.471, 3.471, 3.471, 3.471, 2.712, 3.471, 3.471, 1.418, 1.418, 1.418, 2.712, 2.712, 2.712, 1.418, 2.712, 1.418, 1.418, 3.471, 2.712, 1.418, 3.471, 1.418, 2.712, 3.471, 2.712, 2.712, 2.712, 2.712, 2.712, 1.418, 3.471, 1.418, 3.471, 1.418, 2.712, 3.471, 1.418, 3.471, 3.471, 2.712, 2.712, 2.712, 2.712, 2.712 ]
3
[ 0.519, 0.605, 0.848, 0.519, 0.519, 0.519, 0.605, 0.519, 0.519, 0.605, 0.848, 0.605, 0.519, 0.519, 0.519, 0.519, 0.605, 0.519, 0.519, 0.519, 0.848, 0.605, 0.519, 0.605, 0.519, 0.519, 0.848, 0.848, 0.848, 0.519, 0.519, 0.519, 0.848, 0.519, 0.848, 0.519, 0.605, 0.605, 0.605, 0.519, 0.605, 0.519, 0.519, 0.848, 0.519, 0.605, 0.519, 0.605, 0.848, 0.605, 0.519, 0.519, 0.519, 0.519, 0.519, 0.605, 0.519, 0.519, 0.519, 0.605, 0.848, 0.848, 0.519, 0.519, 0.519, 0.519, 0.848, 0.605, 0.519, 0.848, 0.519, 0.848, 0.605, 0.848, 0.605, 0.519, 0.848, 0.848, 0.605, 0.519, 0.519, 0.519, 0.605, 0.605, 0.605, 0.519, 0.605, 0.848, 0.605, 0.519, 0.605, 0.519, 0.605, 0.519, 0.519, 0.519, 0.519, 0.848, 0.519, 0.848, 0.519, 0.605, 0.605, 0.848, 0.605, 0.848, 0.848, 0.605, 0.605, 0.519, 0.519, 0.848, 0.605, 0.519, 0.605, 0.605, 0.519, 0.519, 0.605, 0.519, 0.605, 0.605, 0.519, 0.848, 0.848, 0.848, 0.519, 0.605, 0.605, 0.848, 0.848, 0.519, 0.848, 0.848, 0.519, 0.848, 0.605, 0.605, 0.605, 0.848, 0.605, 0.519, 0.848, 0.848, 0.848, 0.605, 0.848, 0.848, 0.848, 0.519, 0.519, 0.605, 0.605, 0.519, 0.848, 0.605, 0.848, 0.848, 0.605, 0.519, 0.605, 0.848, 0.848, 0.848, 0.519, 0.605, 0.848, 0.519, 0.605, 0.519, 0.605, 0.848, 0.605, 0.605, 0.848, 0.519, 0.848, 0.519, 0.605, 0.519, 0.519, 0.519, 0.519, 0.605, 0.848, 0.519, 0.519, 0.848, 0.519, 0.519, 0.605, 0.605, 0.848, 0.605, 0.848, 0.605, 0.519, 0.605, 0.519, 0.519 ]