3
[ 5.662, 1.204, 1.838, 1.838, 5.662, 1.838, 5.662, 5.662, 5.662, 1.838, 5.662, 1.204, 1.838, 1.204, 5.662, 5.662, 1.838, 5.662, 1.204, 1.204, 1.838, 1.838, 1.838, 1.838, 5.662, 1.204, 5.662, 1.838, 1.838, 1.838, 1.838, 5.662, 1.204, 1.838, 1.204, 5.662, 1.838, 1.204, 1.838, 1.204, 1.838, 1.204, 5.662, 1.204, 5.662, 1.838, 1.204, 5.662, 1.204, 5.662, 5.662, 1.204, 1.838, 5.662, 5.662, 5.662, 5.662, 1.838, 1.838, 1.838, 1.204, 1.204, 1.838, 1.838, 5.662, 5.662, 5.662, 5.662, 1.204, 1.838, 1.838, 5.662, 5.662, 5.662, 1.838, 1.204, 5.662, 1.838, 5.662, 1.204, 1.204, 1.204, 1.204, 1.838, 5.662, 1.204, 5.662, 1.204, 1.838, 5.662, 5.662, 5.662, 1.204, 5.662, 1.204, 5.662, 1.838, 5.662, 1.204, 5.662, 1.838, 1.204, 1.204, 5.662, 1.838, 5.662, 1.838, 1.838, 1.838, 1.204, 5.662, 1.204, 1.838, 1.204, 1.838, 5.662, 1.838, 1.838, 1.204, 1.204, 1.204, 1.204, 1.204, 5.662, 1.838, 1.838, 5.662, 5.662, 1.204, 1.204, 1.838, 1.838, 5.662, 1.838, 5.662, 1.838, 5.662, 5.662, 1.204, 5.662, 5.662, 1.838, 1.204, 1.838, 1.204, 1.204, 1.838, 1.838, 5.662, 1.204, 5.662, 1.204, 1.204, 1.204, 5.662, 1.838, 5.662, 5.662, 1.838, 1.204, 1.204, 1.838, 1.838, 1.838, 1.204, 1.204, 5.662, 1.838, 1.204, 5.662, 5.662, 1.838, 1.838, 1.838, 5.662, 1.838, 1.204, 1.204, 1.204, 1.838, 5.662, 5.662, 1.838, 1.838, 1.838, 1.838, 5.662, 5.662, 1.838, 5.662, 5.662, 1.838, 1.204, 1.838, 1.204, 1.204, 1.838, 1.838, 1.204, 1.204 ]
3
[ 0.242, 0.279, 0.242, 0.279, 0.279, 0.080, 0.242, 0.080, 0.242, 0.242, 0.080, 0.242, 0.242, 0.242, 0.279, 0.242, 0.080, 0.279, 0.080, 0.242, 0.080, 0.080, 0.080, 0.279, 0.080, 0.080, 0.279, 0.279, 0.242, 0.242, 0.242, 0.242, 0.242, 0.242, 0.279, 0.279, 0.080, 0.279, 0.242, 0.242, 0.279, 0.080, 0.080, 0.279, 0.242, 0.279, 0.242, 0.080, 0.080, 0.080, 0.242, 0.279, 0.242, 0.242, 0.279, 0.242, 0.242, 0.080, 0.242, 0.242, 0.242, 0.279, 0.279, 0.080, 0.080, 0.242, 0.080, 0.242, 0.279, 0.242, 0.242, 0.080, 0.242, 0.080, 0.242, 0.242, 0.242, 0.080, 0.242, 0.279, 0.080, 0.279, 0.242, 0.242, 0.242, 0.279, 0.279, 0.242, 0.242, 0.279, 0.242, 0.279, 0.242, 0.080, 0.279, 0.279, 0.242, 0.080, 0.242, 0.080, 0.279, 0.080, 0.242, 0.242, 0.242, 0.080, 0.279, 0.279, 0.279, 0.279, 0.279, 0.242, 0.279, 0.242, 0.080, 0.080, 0.279, 0.279, 0.279, 0.242, 0.242, 0.279, 0.080, 0.080, 0.242, 0.279, 0.279, 0.080, 0.242, 0.242, 0.279, 0.242, 0.242, 0.242, 0.080, 0.080, 0.080, 0.242, 0.279, 0.242, 0.279, 0.242, 0.080, 0.080, 0.242, 0.242, 0.279, 0.080, 0.242, 0.279, 0.242, 0.242, 0.279, 0.242, 0.279, 0.279, 0.279, 0.080, 0.080, 0.080, 0.242, 0.242, 0.080, 0.279, 0.279, 0.279, 0.242, 0.279, 0.279, 0.242, 0.080, 0.242, 0.279, 0.242, 0.242, 0.242, 0.080, 0.080, 0.080, 0.279, 0.080, 0.080, 0.080, 0.080, 0.080, 0.242, 0.279, 0.080, 0.242, 0.279, 0.080, 0.242, 0.242, 0.279, 0.242, 0.279, 0.242, 0.242, 0.080, 0.279 ]