rate_constant_pi_constant_tree_unrooted_run_1	rate_constant_pi_constant_tree_unrooted_run_2	rate_constant_pi_constant_tree_unrooted_run_3	rate_constant_pi_constant_tree_unrooted_run_4	rate_DPP_pi_DPP_tree_unrooted_run_1	rate_DPP_pi_DPP_tree_unrooted_run_2	rate_DPP_pi_DPP_tree_unrooted_run_3	rate_DPP_pi_DPP_tree_unrooted_run_4	rate_discrete_gamma_pi_discrete_beta_tree_unrooted_run_1	rate_discrete_gamma_pi_discrete_beta_tree_unrooted_run_2	rate_discrete_gamma_pi_discrete_beta_tree_unrooted_run_3	rate_discrete_gamma_pi_discrete_beta_tree_unrooted_run_4
1	1	1	1	1	1	1	1	1	1	1	1
0.710763078973675	0.694435188270576	0.706097967344219	0.693435521492836	0.63678773742086	0.659113628790403	0.665444851716095	0.655781406197934	0.755414861712762	0.744418527157614	0.747084305231589	0.754748417194269
0.913028990336554	0.909030323225592	0.906031322892369	0.910696434521826	0.905698100633122	0.905698100633122	0.896034655114962	0.901366211262912	0.950349883372209	0.941686104631789	0.942352549150283	0.940686437854049
0.392535821392869	0.396201266244585	0.390536487837388	0.390869710096634	0.381539486837721	0.384538487170943	0.374208597134289	0.404531822725758	0.404198600466511	0.388537154281906	0.400866377874042	0.409196934355215
0.697434188603799	0.696434521826058	0.685104965011663	0.69943352215928	0.633122292569144	0.632122625791403	0.640786404531823	0.635121626124625	0.747750749750083	0.73408863712096	0.742085971342886	0.741086304565145
0.971009663445518	0.976341219593469	0.972009330223259	0.969343552149284	0.955348217260913	0.953015661446185	0.956347884038654	0.951682772409197	0.979006997667444	0.978673775408197	0.975674775074975	0.97834055314895
0.97400866377874	0.972675774741753	0.974341886037987	0.973008997001	0.952349216927691	0.948017327557481	0.954015328223925	0.951682772409197	0.983672109296901	0.98267244251916	0.983338887037654	0.984338553815395
0.117960679773409	0.112962345884705	0.113628790403199	0.122292569143619	0.147950683105631	0.134621792735755	0.133622125958014	0.139953348883705	0.093302232589137	0.0949683438853715	0.0999666777740753	0.0899700099966678
0.273242252582473	0.279240253248917	0.280239920026658	0.294568477174275	0.281906031322892	0.285238253915362	0.275908030656448	0.277574141952682	0.26924358547151	0.28757080973009	0.258247250916361	0.268577140953016
0.316227924025325	0.302232589136954	0.309563478840387	0.296567810729757	0.307230923025658	0.303565478173942	0.321559480173276	0.288237254248584	0.31022992335888	0.302232589136954	0.31456181272909	0.299900033322226
0.0816394535154948	0.0879706764411863	0.0939686771076308	0.0896367877374209	0.0923025658113962	0.093302232589137	0.0979673442185938	0.0936354548483839	0.0806397867377541	0.088970343218927	0.089303565478174	0.0806397867377541
0.0253248917027657	0.0296567810729757	0.0263245584805065	0.0249916694435188	0.0409863378873709	0.0366544485171609	0.0303232255914695	0.0343218927024325	0.0169943352215928	0.0239920026657781	0.0223258913695435	0.0193268910363212
0.124958347217594	0.11996001332889	0.126291236254582	0.114961679440187	0.143952015994668	0.150949683438854	0.149283572142619	0.148950349883372	0.117294235254915	0.11462845718094	0.107297567477508	0.123625458180606
0.0569810063312229	0.0489836721092969	0.0496501166277907	0.052649116961013	0.0816394535154948	0.0756414528490503	0.0773075641452849	0.0806397867377541	0.0389870043318894	0.0436521159613462	0.0399866711096301	0.040653115628124
0.0293235588137288	0.0279906697767411	0.0266577807397534	0.0306564478507164	0.0389870043318894	0.0396534488503832	0.0383205598133955	0.0379873375541486	0.0226591136287904	0.0253248917027657	0.020326557814062	0.0213262245918027
0.00399866711096301	0.00133288903698767	0.00333222259246918	0.00333222259246918	0.00333222259246918	0.00199933355548151	0.000999666777740753	0.00299900033322226	0.000333222259246918	0.000666444518493835	0.000333222259246918	0.00133288903698767
0.00133288903698767	0.000999666777740753	0.00166611129623459	0.000666444518493835	0.000999666777740753	0.000666444518493835	0.000666444518493835	0.000333222259246918	0	0.000333222259246918	0.000666444518493835	0
0.0196601132955681	0.0193268910363212	0.0216594468510496	0.0196601132955681	0.0196601132955681	0.0199933355548151	0.0216594468510496	0.0209930023325558	0.0106631122959014	0.012329223592136	0.0166611129623459	0.0106631122959014
0.0106631122959014	0.0136621126291236	0.0136621126291236	0.012329223592136	0.012329223592136	0.0143285571476175	0.016327890703099	0.0143285571476175	0.00799733422192602	0.00966344551816061	0.00599800066644452	0.0116627790736421
0.00833055648117294	0.00499833388870377	0.00966344551816061	0.0103298900366544	0.0133288903698767	0.0109963345551483	0.0116627790736421	0.0143285571476175	0.00766411196267911	0.00833055648117294	0.0116627790736421	0.00999666777740753
0.00266577807397534	0.00399866711096301	0.0036654448517161	0.00399866711096301	0.00666444518493835	0.00966344551816061	0.00733088970343219	0.00699766744418527	0.00299900033322226	0.00266577807397534	0.00333222259246918	0.00299900033322226
0.00733088970343219	0.00599800066644452	0.00533155614795068	0.00699766744418527	0.00733088970343219	0.00433188937020993	0.00599800066644452	0.00533155614795068	0.000999666777740753	0.00299900033322226	0.0036654448517161	0.00266577807397534
0.0306564478507164	0.0299900033322226	0.0273242252582473	0.0209930023325558	0.0389870043318894	0.0306564478507164	0.0279906697767411	0.0333222259246918	0.0179940019993336	0.0206597800733089	0.0239920026657781	0.0179940019993336
0.0126624458513829	0.011996001332889	0.0116627790736421	0.0129956681106298	0.0239920026657781	0.0223258913695435	0.0223258913695435	0.0199933355548151	0.00799733422192602	0.00799733422192602	0.00766411196267911	0.00499833388870377
0.00599800066644452	0.00666444518493835	0.00533155614795068	0.00599800066644452	0.00299900033322226	0.00299900033322226	0.00499833388870377	0.00533155614795068	0.000999666777740753	0.00266577807397534	0.000999666777740753	0.00133288903698767
0.0179940019993336	0.0206597800733089	0.0206597800733089	0.0193268910363212	0.0209930023325558	0.0209930023325558	0.0219926691102966	0.0213262245918027	0.0133288903698767	0.0179940019993336	0.0179940019993336	0.015994668443852
0.0859713428857048	0.106297900699767	0.0926357880706431	0.0966344551816061	0.105298233922026	0.0979673442185938	0.0989670109963346	0.0946351216261246	0.0943018993668777	0.0913028990336554	0.0906364545151616	0.0939686771076308
0.0113295568143952	0.0136621126291236	0.012329223592136	0.0113295568143952	0.0206597800733089	0.0256581139620127	0.0196601132955681	0.0233255581472842	0.00799733422192602	0.00866377874041986	0.00899700099966678	0.0103298900366544
0.0113295568143952	0.0106631122959014	0.0109963345551483	0.0103298900366544	0.0113295568143952	0.0133288903698767	0.0139953348883705	0.012329223592136	0.00599800066644452	0.00666444518493835	0.00866377874041986	0.00866377874041986
0.000666444518493835	0	0	0.000333222259246918	0.000333222259246918	0.00133288903698767	0.00199933355548151	0.000999666777740753	0	0	0.000333222259246918	0
0.00766411196267911	0.00799733422192602	0.00999666777740753	0.00766411196267911	0.00999666777740753	0.0093302232589137	0.0109963345551483	0.00766411196267911	0.00433188937020993	0.00666444518493835	0.00866377874041986	0.0036654448517161
0.00333222259246918	0.00199933355548151	0.00266577807397534	0.00133288903698767	0.000999666777740753	0.00266577807397534	0.0036654448517161	0.00266577807397534	0.000666444518493835	0.000999666777740753	0.000333222259246918	0.000999666777740753
0.00866377874041986	0.0143285571476175	0.0109963345551483	0.0126624458513829	0.00999666777740753	0.0153282239253582	0.012329223592136	0.012329223592136	0.00733088970343219	0.00899700099966678	0.00966344551816061	0.0093302232589137
0.00433188937020993	0.00399866711096301	0.00399866711096301	0.00399866711096301	0.00666444518493835	0.0113295568143952	0.00966344551816061	0.00899700099966678	0.00699766744418527	0.0056647784071976	0.00699766744418527	0.0056647784071976
0.00166611129623459	0.00266577807397534	0.00199933355548151	0.00199933355548151	0.00233255581472842	0.00199933355548151	0.000999666777740753	0.00233255581472842	0.00133288903698767	0.000333222259246918	0.000333222259246918	0.000666444518493835
0.000666444518493835	0.000666444518493835	0.000666444518493835	0.000999666777740753	0.000999666777740753	0.000666444518493835	0.000666444518493835	0.000666444518493835	0.000333222259246918	0.000666444518493835	0.000333222259246918	0
0.000666444518493835	0	0.000666444518493835	0.000666444518493835	0.000333222259246918	0.000666444518493835	0.000666444518493835	0.000666444518493835	0	0	0.000666444518493835	0
0.00466511162945685	0.0036654448517161	0.0036654448517161	0.00299900033322226	0.00299900033322226	0.00266577807397534	0.0036654448517161	0.00466511162945685	0.000333222259246918	0.00199933355548151	0.00199933355548151	0.0036654448517161
0.000333222259246918	0.00133288903698767	0.00199933355548151	0.000333222259246918	0.00133288903698767	0.00199933355548151	0	0.000333222259246918	0.00166611129623459	0.000333222259246918	0.000333222259246918	0.000999666777740753
0.00166611129623459	0.00199933355548151	0	0.00233255581472842	0.00133288903698767	0.000666444518493835	0.00199933355548151	0.00199933355548151	0.000666444518493835	0.000333222259246918	0.000666444518493835	0.000333222259246918
0.00299900033322226	0.00299900033322226	0.00166611129623459	0.00233255581472842	0.00399866711096301	0.00299900033322226	0.00199933355548151	0.00233255581472842	0.00166611129623459	0.000666444518493835	0.00133288903698767	0.00133288903698767
0.000333222259246918	0.000666444518493835	0	0.000666444518493835	0.000999666777740753	0.000333222259246918	0	0.000333222259246918	0.000333222259246918	0	0.000666444518493835	0.000333222259246918
0.00666444518493835	0.00266577807397534	0.00399866711096301	0.0056647784071976	0.00999666777740753	0.00633122292569144	0.00699766744418527	0.00833055648117294	0.00233255581472842	0.00199933355548151	0.00266577807397534	0.00166611129623459
0.00166611129623459	0.000333222259246918	0.000333222259246918	0.000666444518493835	0.000666444518493835	0.00133288903698767	0.000666444518493835	0.000333222259246918	0.000333222259246918	0	0	0
0.00166611129623459	0.000666444518493835	0.000333222259246918	0.000999666777740753	0.000666444518493835	0.000333222259246918	0	0.000333222259246918	0	0.000333222259246918	0	0
0.00333222259246918	0.00166611129623459	0.00266577807397534	0.00266577807397534	0.00333222259246918	0.00433188937020993	0.00533155614795068	0.00333222259246918	0.000999666777740753	0.00266577807397534	0.00133288903698767	0.00233255581472842
0.00166611129623459	0.00233255581472842	0.00399866711096301	0.00433188937020993	0.00166611129623459	0.00266577807397534	0.00233255581472842	0.00299900033322226	0.000999666777740753	0.00166611129623459	0.000666444518493835	0.000999666777740753
0.00133288903698767	0.00166611129623459	0.00166611129623459	0.00333222259246918	0.00333222259246918	0.00333222259246918	0.00166611129623459	0.00299900033322226	0.000666444518493835	0.000999666777740753	0.000333222259246918	0.00166611129623459
0.00233255581472842	0.00166611129623459	0.00466511162945685	0.00399866711096301	0.00233255581472842	0.00166611129623459	0.00299900033322226	0.00199933355548151	0.00133288903698767	0.00166611129623459	0.000333222259246918	0.000999666777740753
0.000333222259246918	0.000999666777740753	0.000666444518493835	0.000999666777740753	0.000666444518493835	0	0	0.000999666777740753	0	0.000333222259246918	0	0
0.00199933355548151	0.00199933355548151	0.00299900033322226	0.00399866711096301	0.00466511162945685	0.00299900033322226	0.00299900033322226	0.0056647784071976	0.000999666777740753	0.000999666777740753	0.000333222259246918	0.000666444518493835
0.000999666777740753	0.00166611129623459	0.000333222259246918	0.00133288903698767	0.000999666777740753	0.00133288903698767	0.000666444518493835	0.00133288903698767	0	0	0.000333222259246918	0
0.00233255581472842	0.00133288903698767	0.00199933355548151	0.00133288903698767	0.00499833388870377	0.00533155614795068	0.00199933355548151	0.00433188937020993	0.00299900033322226	0.00166611129623459	0.00133288903698767	0.00166611129623459
0.000333222259246918	0.000333222259246918	0.000333222259246918	0	0	0.000333222259246918	0	0.000333222259246918	0	0	0	0
0.000333222259246918	0.000333222259246918	0	0	0.000666444518493835	0.000999666777740753	0.000333222259246918	0.000999666777740753	0.000333222259246918	0	0	0
0.000666444518493835	0.00133288903698767	0.000666444518493835	0.000333222259246918	0.000333222259246918	0.000333222259246918	0.000666444518493835	0.000999666777740753	0	0	0.000333222259246918	0.000333222259246918
0.000333222259246918	0	0	0.000333222259246918	0	0	0	0	0	0	0	0
0.000333222259246918	0	0	0	0	0	0	0	0	0	0	0
0.000333222259246918	0.000333222259246918	0	0	0	0	0	0	0	0	0	0
0.00199933355548151	0.00333222259246918	0.00299900033322226	0.00299900033322226	0.00266577807397534	0.00166611129623459	0.00199933355548151	0.00266577807397534	0.000666444518493835	0.000999666777740753	0.000666444518493835	0.00133288903698767
0.000333222259246918	0	0	0	0	0	0	0.000333222259246918	0	0	0	0
0.000333222259246918	0.00166611129623459	0.000666444518493835	0.000333222259246918	0.000333222259246918	0.000666444518493835	0.000999666777740753	0.000333222259246918	0	0	0	0
0.00199933355548151	0.00199933355548151	0.00266577807397534	0.00199933355548151	0.00399866711096301	0.00233255581472842	0.0036654448517161	0.00299900033322226	0.00133288903698767	0.000666444518493835	0.00133288903698767	0.000999666777740753
0.000999666777740753	0.00199933355548151	0.00166611129623459	0.00133288903698767	0.00233255581472842	0.000999666777740753	0.000666444518493835	0.000666444518493835	0	0.000666444518493835	0	0.000333222259246918
0.000333222259246918	0.000999666777740753	0.000999666777740753	0	0.000666444518493835	0.000666444518493835	0.000333222259246918	0	0	0	0	0
0.00233255581472842	0.00199933355548151	0.00199933355548151	0.00333222259246918	0.00333222259246918	0.00433188937020993	0.00399866711096301	0.00399866711096301	0.000999666777740753	0.000999666777740753	0.00133288903698767	0.00133288903698767
0.000666444518493835	0.000333222259246918	0.000333222259246918	0	0.000333222259246918	0.000333222259246918	0.000333222259246918	0	0	0.000333222259246918	0.000333222259246918	0.000333222259246918
0.000666444518493835	0.00133288903698767	0.000666444518493835	0.000666444518493835	0.000999666777740753	0.000999666777740753	0.000333222259246918	0.000999666777740753	0.000666444518493835	0.000999666777740753	0.00133288903698767	0.000333222259246918
0.000333222259246918	0.000333222259246918	0	0	0	0	0	0	0	0	0	0
0.000999666777740753	0.00133288903698767	0.000666444518493835	0.00133288903698767	0.000666444518493835	0.000999666777740753	0.000666444518493835	0.000333222259246918	0	0.000666444518493835	0.000666444518493835	0.000333222259246918
0.000333222259246918	0.000666444518493835	0.000333222259246918	0	0.00166611129623459	0.00133288903698767	0.000666444518493835	0.00133288903698767	0.000666444518493835	0.000666444518493835	0.000666444518493835	0.000666444518493835
0.000666444518493835	0.000666444518493835	0.000333222259246918	0.000333222259246918	0.000666444518493835	0.00166611129623459	0.000333222259246918	0.000333222259246918	0.000333222259246918	0.000333222259246918	0	0.000666444518493835
0.000333222259246918	0	0.000666444518493835	0.000333222259246918	0.000333222259246918	0.000666444518493835	0.000666444518493835	0.000999666777740753	0	0.000333222259246918	0	0
0.000333222259246918	0	0.000333222259246918	0	0	0.000333222259246918	0	0.000333222259246918	0	0	0	0
0.000666444518493835	0.00199933355548151	0.000999666777740753	0.00399866711096301	0.000999666777740753	0.00166611129623459	0.00133288903698767	0.00199933355548151	0.000333222259246918	0.000666444518493835	0.000333222259246918	0.000666444518493835
0.000666444518493835	0.000666444518493835	0.000333222259246918	0.000666444518493835	0.000333222259246918	0.000333222259246918	0.000666444518493835	0.00166611129623459	0	0.000333222259246918	0.000333222259246918	0.000999666777740753
0.000999666777740753	0.000999666777740753	0.00299900033322226	0.00199933355548151	0.000999666777740753	0.0036654448517161	0.00299900033322226	0.00266577807397534	0.00266577807397534	0.00166611129623459	0.00266577807397534	0.00199933355548151
0.000333222259246918	0	0	0	0.000333222259246918	0	0	0	0	0	0	0
0.000666444518493835	0.000999666777740753	0.00266577807397534	0.000666444518493835	0.00133288903698767	0.00266577807397534	0.00199933355548151	0.00266577807397534	0.00166611129623459	0.00133288903698767	0.000999666777740753	0.00133288903698767
0.000666444518493835	0.000999666777740753	0.00133288903698767	0.000999666777740753	0.000999666777740753	0.00133288903698767	0.000999666777740753	0.000999666777740753	0.000666444518493835	0.000333222259246918	0.000333222259246918	0.000999666777740753
0.000333222259246918	0.000999666777740753	0.000666444518493835	0.000666444518493835	0.000666444518493835	0.000333222259246918	0.00133288903698767	0.000666444518493835	0	0	0.000333222259246918	0
0.000333222259246918	0	0	0	0.000333222259246918	0.000333222259246918	0	0.000333222259246918	0	0.000333222259246918	0	0.000333222259246918
0.00199933355548151	0.00133288903698767	0.00233255581472842	0.00299900033322226	0.00233255581472842	0.00233255581472842	0.00333222259246918	0.00299900033322226	0.00166611129623459	0.00133288903698767	0.00166611129623459	0.000666444518493835
0.000333222259246918	0.000999666777740753	0.000666444518493835	0.000666444518493835	0.000333222259246918	0.000333222259246918	0	0	0	0	0	0
0.000333222259246918	0	0	0	0	0	0	0	0	0	0	0
0.000333222259246918	0.000666444518493835	0.000333222259246918	0	0	0.000333222259246918	0.000333222259246918	0	0	0	0	0
0.000333222259246918	0.000666444518493835	0.000999666777740753	0.000333222259246918	0	0.000333222259246918	0.000999666777740753	0.000666444518493835	0.000333222259246918	0.000333222259246918	0.000333222259246918	0
0.000333222259246918	0.000333222259246918	0.000333222259246918	0.000999666777740753	0.000333222259246918	0.000333222259246918	0	0	0	0.000333222259246918	0	0.000666444518493835
0.000333222259246918	0	0	0	0	0	0	0	0	0	0	0
0	0.000333222259246918	0	0	0.000333222259246918	0	0	0	0	0	0	0
0	0.000666444518493835	0.000666444518493835	0	0	0.000333222259246918	0.000333222259246918	0	0.000333222259246918	0	0	0
0	0.000666444518493835	0	0.000666444518493835	0.000666444518493835	0.000333222259246918	0	0.000333222259246918	0	0	0	0
0	0.000333222259246918	0.000666444518493835	0.000666444518493835	0.000666444518493835	0	0.00133288903698767	0.000999666777740753	0	0.000666444518493835	0.000999666777740753	0.00166611129623459
0	0.000333222259246918	0.000333222259246918	0	0	0	0	0	0	0	0	0
0	0.000666444518493835	0.000333222259246918	0	0.000666444518493835	0	0	0	0	0.000333222259246918	0	0
0	0.000999666777740753	0.000666444518493835	0.000999666777740753	0.000666444518493835	0.000999666777740753	0.000666444518493835	0.00266577807397534	0.000333222259246918	0.000333222259246918	0	0.000666444518493835
0	0.000333222259246918	0	0.000333222259246918	0	0.000333222259246918	0	0.000999666777740753	0	0	0	0
0	0.000333222259246918	0	0	0	0	0	0	0	0	0	0
0	0.000333222259246918	0.000333222259246918	0.000333222259246918	0	0.000333222259246918	0.00133288903698767	0.000666444518493835	0	0.000333222259246918	0.000333222259246918	0.000333222259246918
0	0.000666444518493835	0.000999666777740753	0.000999666777740753	0.000666444518493835	0.000333222259246918	0.000666444518493835	0.00133288903698767	0.000333222259246918	0.000666444518493835	0.000333222259246918	0.000666444518493835
0	0.000333222259246918	0	0.000666444518493835	0.000333222259246918	0.000666444518493835	0.000333222259246918	0	0	0	0	0
0	0.000333222259246918	0	0	0.000333222259246918	0.000333222259246918	0	0	0	0	0	0
0	0.000333222259246918	0.000333222259246918	0	0	0.000333222259246918	0	0	0	0	0	0
0	0	0.00199933355548151	0	0.000333222259246918	0	0.000999666777740753	0	0.000333222259246918	0.000333222259246918	0	0
0	0	0.000333222259246918	0	0	0	0	0.000333222259246918	0.000333222259246918	0	0	0
0	0	0.000333222259246918	0	0	0	0	0	0	0	0	0
0	0	0.000333222259246918	0	0	0	0	0	0	0	0	0
0	0	0.000333222259246918	0.000333222259246918	0	0	0.000333222259246918	0	0	0	0	0
0	0	0.000333222259246918	0.000666444518493835	0.000333222259246918	0	0.000333222259246918	0.000333222259246918	0	0.000333222259246918	0	0
0	0	0.000333222259246918	0	0	0	0	0	0	0	0	0
0	0	0.000333222259246918	0	0.000333222259246918	0	0.000666444518493835	0	0	0	0	0
0	0	0	0.000333222259246918	0.000333222259246918	0	0	0	0	0	0	0
0	0	0	0.000333222259246918	0	0	0	0	0	0	0	0
0	0	0	0.000333222259246918	0	0	0	0	0	0	0	0
0	0	0	0.000333222259246918	0	0	0	0	0	0	0	0
0	0	0	0	0.000333222259246918	0	0	0.000333222259246918	0	0	0	0
0	0	0	0	0.000333222259246918	0	0	0.000333222259246918	0	0	0	0
0	0	0	0	0.000333222259246918	0	0	0	0	0	0	0
0	0	0	0	0.000333222259246918	0	0.00166611129623459	0.000333222259246918	0.000333222259246918	0	0	0
0	0	0	0	0.000333222259246918	0.000666444518493835	0	0.000333222259246918	0	0	0	0
0	0	0	0	0.000333222259246918	0.000666444518493835	0.000333222259246918	0.000333222259246918	0	0	0	0
0	0	0	0	0.000666444518493835	0	0	0	0	0	0	0
0	0	0	0	0.000333222259246918	0	0.000333222259246918	0.000333222259246918	0	0	0	0
0	0	0	0	0	0.000333222259246918	0.000333222259246918	0.000333222259246918	0	0	0	0
0	0	0	0	0	0.000333222259246918	0	0	0	0	0	0
0	0	0	0	0	0.000333222259246918	0	0	0	0	0	0
0	0	0	0	0	0.000333222259246918	0	0	0	0	0	0
0	0	0	0	0	0.000333222259246918	0.000333222259246918	0	0	0	0	0
0	0	0	0	0	0.000333222259246918	0	0	0	0	0	0
0	0	0	0	0	0.000333222259246918	0	0	0	0	0	0
0	0	0	0	0	0	0.000333222259246918	0.000333222259246918	0.000333222259246918	0.000333222259246918	0	0.000333222259246918
0	0	0	0	0	0	0	0.000333222259246918	0	0	0	0
0	0	0	0	0	0	0	0.000666444518493835	0	0	0.000333222259246918	0
0	0	0	0	0	0	0	0.000333222259246918	0	0	0	0
0	0	0	0	0	0	0	0.000333222259246918	0	0	0	0
