3
[ 0.593, 1.863, 1.341, 1.341, 0.593, 1.341, 0.593, 1.341, 0.593, 1.341, 1.341, 0.593, 0.593, 0.593, 1.863, 1.863, 0.593, 1.341, 0.593, 1.863, 1.341, 1.863, 1.863, 1.863, 1.863, 0.593, 1.341, 1.863, 1.863, 1.341, 1.863, 1.863, 1.341, 1.341, 0.593, 1.863, 1.341, 1.863, 0.593, 0.593, 0.593, 1.341, 1.341, 1.863, 1.341, 1.341, 0.593, 1.341, 1.341, 1.341, 1.341, 0.593, 0.593, 1.863, 1.863, 1.341, 1.341, 1.863, 1.863, 1.863, 0.593, 1.863, 1.341, 0.593, 1.341, 1.341, 0.593, 1.863, 0.593, 0.593, 1.863, 1.341, 0.593, 0.593, 1.863, 1.863, 1.341, 1.863, 0.593, 1.341, 1.341, 1.341, 1.341, 1.341, 0.593, 1.863, 0.593, 1.341, 1.863, 1.341, 0.593, 0.593, 1.863, 0.593, 1.863, 1.863, 0.593, 1.341, 1.341, 1.863, 0.593, 1.863, 1.863, 1.341, 0.593, 1.863, 1.863, 0.593, 1.341, 1.341, 0.593, 0.593, 0.593, 0.593, 1.341, 0.593, 1.341, 0.593, 0.593, 1.863, 0.593, 1.341, 1.863, 1.863, 1.863, 1.863, 1.863, 0.593, 1.863, 1.863, 1.863, 1.341, 0.593, 1.863, 0.593, 0.593, 0.593, 0.593, 1.863, 0.593, 1.341, 1.341, 1.341, 1.863, 1.341, 0.593, 1.863, 1.863, 1.341, 1.341, 1.863, 1.341, 1.341, 0.593, 1.341, 0.593, 1.341, 1.341, 1.341, 1.863, 1.341, 1.341, 1.863, 1.863, 1.341, 1.863, 0.593, 0.593, 1.863, 0.593, 0.593, 1.341, 1.341, 0.593, 0.593, 0.593, 1.863, 1.341, 0.593, 0.593, 1.863, 0.593, 1.341, 1.863, 1.341, 1.341, 1.341, 1.863, 1.863, 1.341, 1.341, 1.341, 1.341, 1.863, 1.863, 0.593, 1.341, 0.593, 1.341, 1.341 ]
3
[ 0.825, 0.150, 0.020, 0.020, 0.825, 0.020, 0.020, 0.150, 0.825, 0.825, 0.020, 0.825, 0.150, 0.825, 0.020, 0.020, 0.150, 0.150, 0.150, 0.020, 0.825, 0.150, 0.020, 0.150, 0.150, 0.020, 0.150, 0.020, 0.020, 0.150, 0.020, 0.825, 0.020, 0.020, 0.150, 0.150, 0.150, 0.020, 0.150, 0.825, 0.825, 0.150, 0.825, 0.020, 0.825, 0.825, 0.150, 0.825, 0.020, 0.825, 0.020, 0.825, 0.825, 0.825, 0.020, 0.825, 0.020, 0.150, 0.020, 0.020, 0.150, 0.020, 0.020, 0.825, 0.825, 0.020, 0.825, 0.825, 0.825, 0.825, 0.825, 0.150, 0.020, 0.150, 0.020, 0.825, 0.825, 0.020, 0.150, 0.020, 0.020, 0.150, 0.150, 0.150, 0.825, 0.825, 0.150, 0.825, 0.150, 0.825, 0.825, 0.150, 0.150, 0.150, 0.825, 0.150, 0.825, 0.825, 0.020, 0.020, 0.150, 0.020, 0.825, 0.020, 0.150, 0.825, 0.825, 0.825, 0.150, 0.020, 0.020, 0.825, 0.020, 0.825, 0.020, 0.825, 0.150, 0.150, 0.150, 0.020, 0.150, 0.150, 0.020, 0.020, 0.150, 0.825, 0.020, 0.020, 0.020, 0.020, 0.150, 0.825, 0.150, 0.150, 0.150, 0.150, 0.020, 0.020, 0.150, 0.150, 0.020, 0.150, 0.825, 0.020, 0.825, 0.020, 0.020, 0.825, 0.825, 0.150, 0.150, 0.020, 0.825, 0.150, 0.150, 0.020, 0.150, 0.150, 0.020, 0.150, 0.825, 0.825, 0.020, 0.150, 0.020, 0.150, 0.825, 0.150, 0.825, 0.150, 0.020, 0.150, 0.150, 0.150, 0.150, 0.020, 0.825, 0.020, 0.020, 0.020, 0.020, 0.150, 0.150, 0.020, 0.020, 0.020, 0.020, 0.150, 0.150, 0.825, 0.825, 0.020, 0.825, 0.825, 0.825, 0.150, 0.020, 0.825, 0.825, 0.150 ]