7
[ 4.219, 1.622, 4.219, 4.219, 1.622, 4.219, 1.622, 1.622, 4.219, 4.219, 1.622, 1.622, 4.219, 1.622, 4.219, 1.622, 1.622, 4.219, 4.219, 4.219, 1.622, 4.219, 4.219, 1.622, 4.219, 4.219, 4.219, 4.219, 0.571, 1.622, 5.631, 1.622, 1.622, 1.622, 1.622, 0.861, 1.622, 1.622, 0.571, 1.622, 1.622, 4.219, 0.237, 4.219, 4.219, 4.219, 4.219, 1.622, 4.219, 4.219, 1.622, 4.219, 4.219, 4.219, 4.219, 1.622, 4.219, 1.622, 1.622, 4.219, 1.422, 4.219, 1.622, 1.622, 4.219, 1.422, 1.422, 4.219, 4.219, 4.219, 0.571, 1.622, 4.219, 1.622, 1.622, 4.219, 4.219, 4.219, 1.622, 4.219, 4.219, 0.571, 1.622, 1.622, 4.219, 1.622, 0.571, 4.219, 1.422, 4.219, 4.219, 4.219, 4.219, 4.219, 1.622, 1.622, 0.237, 4.219, 1.622, 4.219 ]
5
[ 0.027, 0.644, 0.644, 0.539, 0.539, 0.539, 0.539, 0.539, 0.644, 0.644, 0.027, 0.539, 0.644, 0.539, 0.539, 0.539, 0.539, 0.539, 0.027, 0.539, 0.539, 0.027, 0.644, 0.027, 0.644, 0.027, 0.644, 0.644, 0.539, 0.539, 0.539, 0.539, 0.252, 0.252, 0.539, 0.539, 0.539, 0.644, 0.539, 0.539, 0.539, 0.539, 0.027, 0.539, 0.252, 0.539, 0.539, 0.252, 0.539, 0.644, 0.644, 0.539, 0.027, 0.539, 0.027, 0.539, 0.539, 0.539, 0.027, 0.454, 0.252, 0.539, 0.539, 0.252, 0.539, 0.539, 0.539, 0.252, 0.539, 0.644, 0.644, 0.644, 0.539, 0.539, 0.644, 0.644, 0.027, 0.027, 0.252, 0.539, 0.539, 0.252, 0.539, 0.644, 0.539, 0.539, 0.027, 0.644, 0.539, 0.644, 0.252, 0.252, 0.539, 0.539, 0.644, 0.539, 0.644, 0.539, 0.539, 0.644 ]