rate_constant_pi_constant_tree_unrooted_run_1	rate_constant_pi_constant_tree_unrooted_run_2	rate_constant_pi_constant_tree_unrooted_run_3	rate_constant_pi_constant_tree_unrooted_run_4	rate_DPP_pi_DPP_tree_unrooted_run_1	rate_DPP_pi_DPP_tree_unrooted_run_2	rate_DPP_pi_DPP_tree_unrooted_run_3	rate_DPP_pi_DPP_tree_unrooted_run_4	rate_discrete_gamma_pi_discrete_beta_tree_unrooted_run_1	rate_discrete_gamma_pi_discrete_beta_tree_unrooted_run_2	rate_discrete_gamma_pi_discrete_beta_tree_unrooted_run_3	rate_discrete_gamma_pi_discrete_beta_tree_unrooted_run_4
NA	NA	NA	NA	NA	NA	NA	NA	NA	NA	NA	NA
6.61770874335947	6.47327366138266	6.55451289809901	6.64055895574817	6.441094135891	6.35549090454797	6.45281365546258	6.36143165683456	6.80154315590246	6.86012372865975	6.87124170160085	6.86846337882654
7.50827581283925	7.38124948162663	7.62682171320401	7.52620168819958	6.84624210263053	6.9442127455921	6.95422403375865	6.90730997460447	6.65393453899447	6.74246672907193	6.78428723693806	6.7981341417567
7.34266666724996	7.26195232256475	7.27542686953584	7.39899731596418	7.23227409385101	7.17547440247562	7.0037438133782	7.08306653676094	7.00923074514087	6.97351960518287	7.00648759589867	7.09124450106472
8.04881569846088	8.14659902628964	8.07181604200172	8.14187087866362	7.60047539086728	7.42893936897428	7.47105749654557	7.55286328621464	7.77673403503773	7.722468301985	7.78094531773321	7.81057609532651
7.12197301475083	7.15727526600338	7.11845964422322	7.02128092278738	7.81057609532651	7.94072005296678	7.87933114770074	7.70182932015794	7.64470149755753	7.68131596927869	7.57262285101143	7.64065736106827
4.50752462307905	4.64329643759531	4.4779831953368	4.53672186682949	4.97579116567434	4.95118578878635	4.74558888297988	4.9263500015159	4.58701584018124	4.61531215030482	4.43300503556552	4.43300503556552
3.91222130827653	3.930907359252	3.87439991880897	3.5365642509986	4.41782979219121	4.25258876064505	4.23625467476129	4.25258876064505	4.10146428428807	3.91222130827653	4.04890871428641	4.01321938947452
-2.77147233929146	-2.32250337236577	-3.92688525563391	-2.53456578535478	-3.71549566338942	-3.34951475710949	-3.18876010969996	-2.90121928611146	-4.16311966446334	-4.43085056396613	-3.18876010969996	-3.18876010969996
-2.99192752400421	-2.91913312445243	-2.6827083961019	-2.58904537904792	-3.1061420808917	-3.1061420808917	-3.02930457277084	-3.06736737993821	-3.54006076865768	-3.40004628501955	-3.02930457277084	-2.81450745308779
0.412255469850417	0.950779071615763	0.88779347299978	0.686856382919932	-0.275680555697821	0.0652280282048494	-0.313057604464452	-0.0982604847814015	-0.0982604847814015	0.127201589258466	-0.0313202948652638	0.490750932454669
3.38536124567661	3.68143542949851	3.67506904100165	3.57766241889793	3.192667018612	3.36386856138696	3.17720765106252	3.22329897447788	3.12232350991614	2.90693346657474	2.70829179600282	3.04172385704797
4.08407339947106	4.11011275636627	4.16136148875027	4.41782979219121	3.25541738947244	3.03272238331685	3.0464541158669	3.29252422055835	2.83098703162431	2.36162792600743	2.7542277537308	2.64204512523496
4.72840810715398	4.70184327911067	4.77219632824295	4.68400862218464	5.26857224251624	5.25726303681984	5.31718513468632	5.25726303681984	5.39441492052634	5.24591905426274	5.37982424733381	5.36517799514707
2.80060388109089	2.39872772299496	2.72275729880573	2.47107195838155	3.35304732967291	3.60176226817157	3.37681136537214	3.15336944311454	3.48078260985389	3.86484903177922	3.89338637208461	3.67556959249264
0.599055362833182	-0.523061436435828	-0.678328056573848	-0.846434909033894	0.599055362833182	0.510731501000169	0.271785337620404	-0.378798066106638	0.555366018893508	0.510731501000169	0.724838346566129	0.843410406081503
1.44751430752163	1.41437630480512	1.34655021281589	1.29425612153691	1.8791355892606	1.57526460798301	1.49629780855142	1.62131702800057	1.55969693601747	1.32925828327742	1.34655021281589	1.39761667198937
3.52551593311408	3.32903178851094	3.4694613942759	3.24291160581464	3.76714159624128	3.685924113108	3.51441417544279	3.87439991880897	3.90282261371615	4.07533048041866	4.16136148875027	4.04003624241807
5.83350462530662	5.99702746678165	6.0398282898452	5.81074108558864	5.51835811018542	5.38434201893334	5.63682033982107	5.4314425317195	5.38961398436023	5.37906025987779	5.30948491002468	5.33644805708404
1.68125999844028	1.49629780855142	1.32925828327742	1.4801572162695	1.81047139498684	1.81047139498684	1.94575033554081	1.69599481142258	1.8791355892606	2.20579865980775	2.11022815092427	1.99765144037951
2.79156670380693	2.67031821406589	3.0823558203256	2.93278618554341	3.00040232054113	2.88954258175773	3.1381299966544	2.88954258175773	3.17720765106252	3.0499045857047	3.04172385704797	3.0335155501151
-8.84436348041287	-9.65596069680213	-11.0429218357245	-Inf	-7.82137756483002	-7.45606678306699	-6.87936663276973	-6.4317426316958	-5.90500707800634	-5.48771930759784	-7.14709753227252	-5.7561216776257
-4.35755432679783	-3.2363197462528	-3.2363197462528	-3.2363197462528	-2.15498393939616	-1.70668846839814	-2.15498393939616	-1.57694152157813	-1.23122994672077	-1.34003496764145	-1.57694152157813	-2.15498393939616
-0.770496632765578	-1.11017390492882	-1.00561490573355	-0.850676023885103	-1.35254119218184	-1.91542939142431	-1.66443750712017	-1.62531884588305	-2.22549603585172	-2.35799363651152	-2.12517504247282	-2.55873342802669
-3.52420651929033	-4.7398198147606	-2.77147233929146	-6.12811651210648	-4.43085056396613	-3.18876010969996	-4.43085056396613	-4.16311966446334	-6.93971372849574	-3.92688525563391	-4.16311966446334	-2.90121928611146
-2.52885381724257	-2.33081953918325	-2.33081953918325	-2.71488596110858	-1.72448333169877	-1.35254119218184	-1.93773886331632	-1.76546789669062	-1.72448333169877	-1.64478929221406	-1.78625786704309	-1.64478929221406
3.685924113108	4.09278458253805	3.75714283317154	4.01321938947452	4.39489142054974	4.69154151781339	4.53672186682949	4.60826763716713	4.11873024744224	4.2607149509971	4.17820550147687	4.52216569474614
2.28545894013667	2.41704162305883	2.06091012995936	2.59214748970269	2.64204512523496	2.47107195838155	3.19218225809284	2.69082862626475	3.70649567995801	3.36496043245171	3.45808384395622	3.40032947752108
0.908995297174272	1.09092812242334	0.686856382919932	0.541506020702665	0.971369269615776	1.11022411217856	1.39761667198937	1.3807272037326	1.57526460798301	1.60607306337756	1.98478825391308	1.59072278105681
4.49279751110863	4.4630804888754	4.41020723255942	4.52945432281428	4.43300503556552	4.2607149509971	4.32477028281562	4.44055804104447	4.25258876064505	4.49279751110863	4.10146428428807	4.34052610568312
1.88622452613744	1.84463695534334	1.87703129075386	1.73570388732928	1.61261277740718	1.74533410902532	1.82597095347767	1.89539048281583	1.37148236591907	1.30503688285457	1.4629908753887	1.35501929067029
-1.40441926731988	-1.72448333169877	-1.45756667609567	-1.78625786704309	-0.606018817382123	-0.757408342905174	-0.905775573319544	-0.731458714393306	-0.298326276632439	-0.452693942063496	-0.452693942063496	-0.731458714393306
-0.132554646628939	-0.469692471147198	-0.683799316713158	-0.639164798819818	0.330723880906956	0.157513540279699	0.516280786702611	0.385427429123136	1.05180946118622	0.710142188713514	0.663312531681255	0.99176363660762
-4.43383922245554	-4.1548467550472	-6.06576172541588	-5.61746625441785	-4.84678769913393	-5.7561216776257	-5.48771930759784	-5.48771930759784	-6.87936663276973	-5.03875034067216	-6.06576172541588	-5.90500707800634
-0.0573011057536057	-0.179898058332352	-0.678328056573848	-0.523061436435828	-0.760643975739947	-0.599214474320782	-1.57694152157813	-0.936009913114217	-1.99422929198663	-1.23122994672077	-1.12797255465245	-1.23122994672077
2.39649246353747	2.26355302624289	2.27493057656257	2.50170184404748	1.20419690528164	0.929989101263302	1.24067104594126	1.36370577612455	1.07145767609233	1.14830551543453	0.971369269615776	0.566434025310122
-3.74292947611836	-3.79694084796751	-3.63899244839931	-3.96807889177332	-4.1548467550472	-4.5099922603405	-4.43383922245554	-4.2210996880249	-4.09067584435207	-4.09067584435207	-5.25081275366117	-4.5099922603405
-0.905775573319544	-1.26873266078476	-1.15655003228892	-0.783661833664722	-0.330543741364506	-0.396363610576924	-0.31975450476892	-0.235208193527076	-0.363218104621319	-0.256056948854586	-0.352275017876559	-0.429995176165827
0.516280786702611	0.929989101263302	0.800817576882079	0.639504662820218	0.490750932454669	1.05180946118622	0.88779347299978	0.950779071615763	0.302829400016766	0.358253331794869	-0.0313202948652638	0.302829400016766
-0.378798066106638	-0.760643975739947	-0.760643975739947	-0.760643975739947	-0.179898058332352	0.510731501000169	0.418454030441348	0.113836938052208	0.370717017362031	-0.179898058332352	-0.117681000045868	0.271785337620404
0.0652280282048494	-0.0982604847814015	0.127201589258466	-0.132554646628939	0.0964442874108444	-0.132554646628939	0.187393151063822	-0.683799316713158	-0.389895112585311	-1.19318265453454	-0.313057604464452	-0.351120411631824
-0.167423207491719	-0.202886156146045	-0.389895112585311	0.157513540279699	-1.87285887428718	-1.6441843577634	-1.6441843577634	-1.25183192346693	-2.04096572674722	-2.53456578535478	-1.6441843577634	-2.32250337236577
-1.74487769869061	-1.68426689767996	-1.78625786704309	-1.60602285612783	-2.55873342802669	-2.14981294299627	-2.6827083961019	-2.30399149845597	-2.65101894010154	-2.52885381724257	-2.81450745308779	-2.52885381724257
-5.90500707800634	-5.36579993495887	-6.6431322239403	-6.24045348759672	-4.67142176175966	-5.03875034067216	-4.75721269505361	-4.94049898397605	-3.96807889177332	-4.5099922603405	-4.2210996880249	-4.09067584435207
1.11022411217856	1.0119659985804	1.44751430752163	0.733175721051672	1.69599481142258	1.82437464057912	1.62131702800057	1.72517310580459	1.7539718453663	2.26355302624289	1.76823211298362	1.39761667198937
-0.776076787271979	-1.19318265453454	-1.08069387966112	-1.13616647806904	-1.02668250781197	-1.25183192346693	-1.19318265453454	-0.776076787271979	-1.71759225414915	-1.6441843577634	-1.71759225414915	-1.43859978674081
1.12934886578336	1.09092812242334	1.1670971082941	1.54401812088687	0.358253331794869	0.686856382919932	0.755962560585011	0.88779347299978	-0.0645217244364451	0.0335385722044919	-0.238964542818688	-0.167423207491719
0.991644661567282	0.510731501000169	0.765121452376635	1.22806938991782	0.804635705128016	0.113836938052208	0.321846124368118	0.804635705128016	-0.760643975739947	-0.378798066106638	-1.12797255465245	-0.523061436435828
-1.06475484130561	-0.796904913297628	-0.976627701187549	-0.976627701187549	-0.770496632765578	-0.718595527926875	-0.475620484823216	-0.705805556034618	-0.407519368986323	-0.133680036251702	-0.287686284652498	-0.298326276632439
-0.117681000045868	0.113836938052208	-0.523061436435828	0.167848309901355	0.271785337620404	-0.0573011057536057	0.22047438819952	0.113836938052208	0.843410406081503	0.804635705128016	0.641839343923651	0.843410406081503
1.13000909327688	1.49736021773009	1.5527841495082	0.991644661567282	0.113836938052208	0.321846124368118	0.321846124368118	0.00134816317878794	-0.179898058332352	0.167848309901355	0.724838346566129	-0.523061436435828
-4.2210996880249	-5.14200773274049	-4.84678769913393	-4.94049898397605	-4.94049898397605	-5.61746625441785	-5.7561216776257	-4.84678769913393	-6.24045348759672	-5.25081275366117	-4.67142176175966	-5.03875034067216
-2.04096572674722	-1.71759225414915	-2.22425201566967	-2.4257607644341	-2.22425201566967	-2.77147233929146	-3.34951475710949	-2.22425201566967	-2.90121928611146	-2.53456578535478	-3.52420651929033	-3.18876010969996
0.0583643396442834	0.765121452376635	0.418454030441348	0.465109313727284	0.881473213248874	1.22806938991782	0.918850262015505	0.113836938052208	1.06197617108439	1.29097510512417	1.29097510512417	1.06197617108439
-5.10513059652363	-5.55208514451116	-5.10513059652363	-4.7398198147606	-5.55208514451116	-Inf	-8.3266748674181	-4.16311966446334	-4.43085056396613	-Inf	-8.3266748674181	-5.55208514451116
-1.02972119795634	-1.34003496764145	-1.12797255465245	-0.599214474320782	-1.84534389160599	-2.15498393939616	-2.15498393939616	-1.34003496764145	-1.84534389160599	-1.84534389160599	-2.96858884675001	-2.15498393939616
-5.55208514451116	-5.10513059652363	-6.93971372849574	-6.93971372849574	-5.55208514451116	-8.3266748674181	-5.55208514451116	-5.55208514451116	-4.7398198147606	-4.7398198147606	-6.12811651210648	-4.16311966446334
-5.90500707800634	-5.7561216776257	-5.03875034067216	-5.48771930759784	-7.82137756483002	-6.87936663276973	-8.84436348041287	-5.90500707800634	-5.25081275366117	-7.45606678306699	-6.24045348759672	-6.24045348759672
-2.32967570157701	-2.73235443792058	-2.96858884675001	-3.2363197462528	-1.99422929198663	-1.70668846839814	-0.760643975739947	-1.57694152157813	-0.523061436435828	-0.0573011057536057	-0.310321902005191	-0.378798066106638
-2.73235443792058	-2.32967570157701	-3.9105997788103	-4.93358569439315	-4.35755432679783	-3.2363197462528	-2.96858884675001	-4.35755432679783	-4.35755432679783	-3.54528899704728	-4.93358569439315	-3.9105997788103
-2.64955296665248	-2.90121928611146	-3.03987470931932	-3.18876010969996	-1.37442887604568	-1.02668250781197	-1.6441843577634	-2.22425201566967	-0.974056429513807	-1.6441843577634	-0.922745480092923	-0.974056429513807
1.29097510512417	1.73603683841599	1.65943960590847	2.01742684901797	0.555366018893508	0.881473213248874	1.22806938991782	1.19589182491113	0.510731501000169	0.370717017362031	0.321846124368118	0.465109313727284
-5.74518291078241	-Inf	-4.35755432679783	-Inf	-5.74518291078241	-7.13214404970478	-5.74518291078241	-Inf	-5.74518291078241	-4.93358569439315	-7.13214404970478	-4.93358569439315
-1.45502214893916	-2.52096484567609	-1.12797255465245	-1.23122994672077	-1.23122994672077	-3.54528899704728	-3.9105997788103	-2.73235443792058	-3.54528899704728	-2.96858884675001	-2.15498393939616	-2.15498393939616
-8.3266748674181	-5.55208514451116	-8.3266748674181	-Inf	-3.34951475710949	-3.52420651929033	-3.92688525563391	-3.71549566338942	-2.4257607644341	-3.71549566338942	-3.18876010969996	-3.52420651929033
-1.70668846839814	-1.12797255465245	-1.45502214893916	-1.23122994672077	-0.599214474320782	-0.117681000045868	-0.449653540050074	-0.523061436435828	-0.760643975739947	0.0583643396442834	-0.936009913114217	-1.12797255465245
-8.84436348041287	-9.65596069680213	-11.0429218357245	-8.84436348041287	-6.6431322239403	-6.4317426316958	-5.61746625441785	-6.87936663276973	-5.25081275366117	-5.25081275366117	-4.67142176175966	-5.36579993495887
-3.18876010969996	-3.92688525563391	-3.03987470931932	-3.18876010969996	-2.90121928611146	-3.18876010969996	-2.53456578535478	-2.90121928611146	-2.53456578535478	-3.71549566338942	-2.77147233929146	-2.64955296665248
-1.84534389160599	-1.23122994672077	-2.52096484567609	-2.73235443792058	-0.378798066106638	-1.57694152157813	-1.12797255465245	-0.244068969027483	-0.449653540050074	-0.523061436435828	-1.02972119795634	-0.449653540050074
-2.52096484567609	-4.35755432679783	-5.74518291078241	-3.9105997788103	-2.52096484567609	-2.73235443792058	-2.32967570157701	-1.57694152157813	-2.15498393939616	-1.57694152157813	-1.23122994672077	-1.70668846839814
-2.52096484567609	-5.74518291078241	-Inf	-4.35755432679783	-2.52096484567609	-2.32967570157701	-2.15498393939616	-2.15498393939616	-2.32967570157701	-3.2363197462528	-2.73235443792058	-3.2363197462528
-4.7398198147606	-5.10513059652363	-6.12811651210648	-5.10513059652363	-3.71549566338942	-3.71549566338942	-5.10513059652363	-2.90121928611146	-4.16311966446334	-3.18876010969996	-3.34951475710949	-3.71549566338942
-2.73235443792058	-1.45502214893916	-1.70668846839814	-4.93358569439315	-3.9105997788103	-3.2363197462528	-2.32967570157701	-2.32967570157701	-3.54528899704728	-3.54528899704728	-4.93358569439315	-4.93358569439315
-4.02845878606558	-5.03875034067216	-4.43383922245554	-4.28957585212635	-5.03875034067216	-4.5099922603405	-5.03875034067216	-5.03875034067216	-5.48771930759784	-5.25081275366117	-4.58910584259356	-5.36579993495887
-4.67142176175966	-3.44566847229243	-3.79694084796751	-3.54006076865768	-4.43383922245554	-4.28957585212635	-4.67142176175966	-4.36043132606979	-4.1548467550472	-4.58910584259356	-4.2210996880249	-4.1548467550472
-4.02845878606558	-3.63899244839931	-3.90942962284093	-3.31172242318653	-5.48771930759784	-4.5099922603405	-4.36043132606979	-4.36043132606979	-5.14200773274049	-4.75721269505361	-5.03875034067216	-5.7561216776257
-1.12797255465245	-1.70668846839814	-1.99422929198663	-1.57694152157813	-1.70668846839814	-1.70668846839814	-1.99422929198663	-1.70668846839814	-3.54528899704728	-1.34003496764145	-2.52096484567609	-1.57694152157813
-1.34003496764145	-0.936009913114217	-1.12797255465245	-2.73235443792058	-3.9105997788103	-1.57694152157813	-2.32967570157701	-1.99422929198663	-3.2363197462528	-2.15498393939616	-2.15498393939616	-2.32967570157701
-2.32967570157701	-2.32967570157701	-2.73235443792058	-2.96858884675001	-1.70668846839814	-1.70668846839814	-1.70668846839814	-1.84534389160599	-2.32967570157701	-1.70668846839814	-1.34003496764145	-1.84534389160599
-3.9105997788103	-2.96858884675001	-3.9105997788103	-3.2363197462528	-4.93358569439315	-4.35755432679783	-3.9105997788103	-3.9105997788103	-2.96858884675001	-4.35755432679783	-3.54528899704728	-3.54528899704728
-5.55208514451116	-4.43085056396613	-6.12811651210648	-5.55208514451116	-5.10513059652363	-3.18876010969996	-8.3266748674181	-5.55208514451116	-4.16311966446334	-3.34951475710949	-3.34951475710949	-3.92688525563391
-2.52096484567609	-2.96858884675001	-4.35755432679783	-2.96858884675001	-2.73235443792058	-3.2363197462528	-2.96858884675001	-4.35755432679783	-4.93358569439315	-4.35755432679783	-3.2363197462528	-3.9105997788103
-3.2363197462528	-4.35755432679783	-3.54528899704728	-4.93358569439315	-1.70668846839814	-1.99422929198663	-1.99422929198663	-1.99422929198663	-0.523061436435828	-1.57694152157813	-1.34003496764145	-1.34003496764145
-2.90121928611146	-3.03987470931932	-3.18876010969996	-2.13054073082754	-4.43085056396613	-3.03987470931932	-3.52420651929033	-4.43085056396613	-4.43085056396613	-3.71549566338942	-2.77147233929146	-5.55208514451116
-7.13214404970478	-4.93358569439315	-Inf	-Inf	-Inf	-7.13214404970478	-7.13214404970478	-7.13214404970478	-7.13214404970478	-7.13214404970478	-4.35755432679783	-5.74518291078241
-4.16311966446334	-3.18876010969996	-4.16311966446334	-3.71549566338942	-2.90121928611146	-2.53456578535478	-3.03987470931932	-2.53456578535478	-2.4257607644341	-2.77147233929146	-2.13054073082754	-2.4257607644341
-3.92688525563391	-3.71549566338942	-4.16311966446334	-3.92688525563391	-3.71549566338942	-4.16311966446334	-4.7398198147606	-5.55208514451116	-4.43085056396613	-5.55208514451116	-3.92688525563391	-4.43085056396613
-7.14709753227252	-5.90500707800634	-9.65596069680213	-6.6431322239403	-5.61746625441785	-4.58910584259356	-4.28957585212635	-4.43383922245554	-4.1548467550472	-4.94049898397605	-4.28957585212635	-4.67142176175966
-6.93971372849574	-5.55208514451116	-6.12811651210648	-8.3266748674181	-3.71549566338942	-5.55208514451116	-4.43085056396613	-6.12811651210648	-3.52420651929033	-3.92688525563391	-4.16311966446334	-4.43085056396613
-5.74518291078241	-4.93358569439315	-4.93358569439315	-7.13214404970478	-4.35755432679783	-4.93358569439315	-5.74518291078241	-5.74518291078241	-4.93358569439315	-4.93358569439315	-5.74518291078241	-3.54528899704728
-7.13214404970478	-7.13214404970478	-5.74518291078241	-7.13214404970478	-7.13214404970478	-7.13214404970478	-7.13214404970478	-4.93358569439315	-7.13214404970478	-4.35755432679783	-4.93358569439315	-7.13214404970478
-6.93971372849574	-8.3266748674181	-6.93971372849574	-8.3266748674181	-6.12811651210648	-4.7398198147606	-5.55208514451116	-8.3266748674181	-6.12811651210648	-8.3266748674181	-5.10513059652363	-8.3266748674181
-4.7398198147606	-4.7398198147606	-5.10513059652363	-5.55208514451116	-2.22425201566967	-2.32250337236577	-2.04096572674722	-1.95517479345327	-1.25183192346693	-2.22425201566967	-1.13616647806904	-1.87285887428718
-5.74518291078241	-5.74518291078241	-Inf	-5.74518291078241	-7.13214404970478	-Inf	-7.13214404970478	-7.13214404970478	-7.13214404970478	-5.74518291078241	-4.35755432679783	-7.13214404970478
-8.3266748674181	-Inf	-8.3266748674181	-Inf	-6.93971372849574	-6.93971372849574	-6.93971372849574	-5.55208514451116	-6.12811651210648	-6.12811651210648	-6.12811651210648	-6.93971372849574
-5.74518291078241	-3.54528899704728	-4.93358569439315	-4.35755432679783	-3.9105997788103	-4.35755432679783	-3.9105997788103	-3.9105997788103	-4.35755432679783	-5.74518291078241	-4.93358569439315	-5.74518291078241
-6.93971372849574	-6.12811651210648	-6.93971372849574	-6.12811651210648	-8.3266748674181	-Inf	-8.3266748674181	-8.3266748674181	-6.93971372849574	-6.12811651210648	-6.93971372849574	-5.55208514451116
-7.13214404970478	-Inf	-7.13214404970478	-Inf	-4.35755432679783	-2.73235443792058	-5.74518291078241	-2.96858884675001	-2.96858884675001	-3.9105997788103	-3.54528899704728	-3.9105997788103
-7.13214404970478	-7.13214404970478	-5.74518291078241	-7.13214404970478	-7.13214404970478	-4.93358569439315	-Inf	-5.74518291078241	-3.2363197462528	-4.35755432679783	-5.74518291078241	-3.2363197462528
-7.13214404970478	-7.13214404970478	-Inf	-7.13214404970478	-Inf	-Inf	-7.13214404970478	-5.74518291078241	-7.13214404970478	-4.93358569439315	-4.35755432679783	-7.13214404970478
-5.74518291078241	-7.13214404970478	-5.74518291078241	-5.74518291078241	-4.35755432679783	-4.35755432679783	-4.35755432679783	-5.74518291078241	-3.2363197462528	-4.35755432679783	-3.54528899704728	-3.54528899704728
-6.12811651210648	-5.10513059652363	-6.93971372849574	-6.93971372849574	-4.43085056396613	-5.55208514451116	-4.7398198147606	-6.93971372849574	-3.71549566338942	-2.90121928611146	-4.16311966446334	-3.71549566338942
-7.13214404970478	-Inf	-7.13214404970478	-7.13214404970478	-5.74518291078241	-4.93358569439315	-Inf	-Inf	-4.35755432679783	-4.35755432679783	-4.35755432679783	-Inf
-7.13214404970478	-5.74518291078241	-5.74518291078241	-4.93358569439315	-5.74518291078241	-5.74518291078241	-7.13214404970478	-5.74518291078241	-4.93358569439315	-4.93358569439315	-4.35755432679783	-5.74518291078241
-Inf	-7.13214404970478	-Inf	-Inf	-Inf	-7.13214404970478	-7.13214404970478	-Inf	-Inf	-Inf	-Inf	-5.74518291078241
-Inf	-4.35755432679783	-5.74518291078241	-4.93358569439315	-2.73235443792058	-2.32967570157701	-3.2363197462528	-3.9105997788103	-1.12797255465245	-2.15498393939616	-2.52096484567609	-1.34003496764145
-Inf	-6.93971372849574	-8.3266748674181	-5.55208514451116	-8.3266748674181	-6.93971372849574	-6.93971372849574	-5.55208514451116	-6.12811651210648	-8.3266748674181	-6.93971372849574	-6.93971372849574
-Inf	-4.93358569439315	-Inf	-4.35755432679783	-4.35755432679783	-4.35755432679783	-5.74518291078241	-3.9105997788103	-2.32967570157701	-3.2363197462528	-3.54528899704728	-4.35755432679783
-Inf	-8.3266748674181	-Inf	-Inf	-Inf	-Inf	-Inf	-8.3266748674181	-Inf	-Inf	-Inf	-8.3266748674181
-Inf	-7.13214404970478	-Inf	-Inf	-7.13214404970478	-7.13214404970478	-7.13214404970478	-7.13214404970478	-5.74518291078241	-5.74518291078241	-Inf	-4.35755432679783
-Inf	-7.13214404970478	-7.13214404970478	-Inf	-7.13214404970478	-Inf	-5.74518291078241	-Inf	-Inf	-Inf	-5.74518291078241	-7.13214404970478
-Inf	-7.13214404970478	-Inf	-7.13214404970478	-Inf	-7.13214404970478	-4.35755432679783	-Inf	-3.9105997788103	-4.35755432679783	-4.93358569439315	-5.74518291078241
-Inf	-5.74518291078241	-7.13214404970478	-Inf	-4.93358569439315	-5.74518291078241	-7.13214404970478	-5.74518291078241	-4.35755432679783	-5.74518291078241	-4.93358569439315	-3.9105997788103
-Inf	-7.13214404970478	-7.13214404970478	-4.35755432679783	-Inf	-Inf	-Inf	-Inf	-5.74518291078241	-5.74518291078241	-4.93358569439315	-7.13214404970478
-Inf	-8.3266748674181	-8.3266748674181	-8.3266748674181	-Inf	-6.93971372849574	-5.10513059652363	-5.10513059652363	-6.93971372849574	-6.12811651210648	-5.55208514451116	-8.3266748674181
-Inf	-7.13214404970478	-Inf	-Inf	-Inf	-Inf	-7.13214404970478	-Inf	-5.74518291078241	-5.74518291078241	-Inf	-7.13214404970478
-Inf	-Inf	-Inf	-8.3266748674181	-8.3266748674181	-Inf	-6.93971372849574	-8.3266748674181	-5.55208514451116	-6.12811651210648	-8.3266748674181	-8.3266748674181
-Inf	-Inf	-Inf	-Inf	-Inf	-8.3266748674181	-6.93971372849574	-8.3266748674181	-Inf	-8.3266748674181	-8.3266748674181	-6.93971372849574
-Inf	-Inf	-Inf	-Inf	-Inf	-8.3266748674181	-Inf	-Inf	-8.3266748674181	-8.3266748674181	-6.93971372849574	-8.3266748674181
-Inf	-Inf	-Inf	-Inf	-Inf	-Inf	-7.13214404970478	-Inf	-Inf	-Inf	-7.13214404970478	-Inf
