4
[ 4.764, 20.473, 20.473, 20.473, 20.473, 20.473, 20.473, 20.473, 20.473, 20.473, 20.473, 20.473, 20.473, 20.473, 20.473, 20.473, 20.473, 20.473, 20.473, 20.473, 5.209, 20.473, 20.473, 20.473, 1.874, 20.473, 20.473, 20.473, 20.473, 20.473, 20.473, 20.473, 20.473, 20.473, 20.473, 20.473, 20.473, 20.473, 20.473, 20.473, 5.209, 20.473, 20.473, 20.473, 20.473, 20.473, 20.473, 20.473, 20.473, 20.473, 20.473, 20.473, 20.473, 20.473, 20.473, 20.473, 20.473, 20.473, 20.473, 5.209, 20.473, 20.473, 20.473, 20.473, 20.473, 20.473, 20.473, 20.473, 20.473, 5.209, 5.209, 20.473, 20.473, 20.473, 20.473, 20.473, 20.473, 20.473, 20.473, 20.473, 20.473, 20.473, 20.473, 20.473, 20.473, 1.874, 20.473, 5.209, 20.473, 20.473, 20.473, 20.473, 20.473, 20.473, 20.473, 20.473, 20.473, 5.209, 20.473, 20.473 ]
5
[ 0.123, 0.123, 0.123, 0.123, 0.123, 0.123, 0.011, 0.123, 0.123, 0.123, 0.123, 0.123, 0.123, 0.123, 0.011, 0.974, 0.123, 0.123, 0.123, 0.123, 0.123, 0.123, 0.123, 0.123, 0.123, 0.123, 0.123, 0.123, 0.123, 0.123, 0.123, 0.123, 0.123, 0.123, 0.123, 0.123, 0.123, 0.123, 0.123, 0.123, 0.123, 0.123, 0.123, 0.123, 0.123, 0.123, 0.123, 0.123, 0.123, 0.123, 0.929, 0.808, 0.011, 0.123, 0.123, 0.123, 0.123, 0.123, 0.123, 0.123, 0.123, 0.123, 0.123, 0.123, 0.123, 0.123, 0.123, 0.011, 0.123, 0.123, 0.123, 0.123, 0.123, 0.123, 0.123, 0.123, 0.123, 0.123, 0.123, 0.011, 0.123, 0.123, 0.123, 0.123, 0.011, 0.123, 0.123, 0.123, 0.123, 0.123, 0.123, 0.123, 0.123, 0.123, 0.123, 0.011, 0.123, 0.123, 0.123, 0.123 ]