3
[ 1.193, 2.805, 2.805, 1.858, 2.805, 1.193, 2.805, 1.858, 1.858, 1.193, 1.858, 2.805, 2.805, 1.858, 1.858, 2.805, 1.858, 2.805, 1.193, 2.805, 1.858, 2.805, 1.858, 1.193, 2.805, 1.858, 1.858, 1.858, 2.805, 2.805, 1.193, 1.858, 1.858, 1.193, 1.858, 1.193, 1.193, 1.193, 1.193, 1.193, 1.193, 1.193, 2.805, 1.193, 1.858, 2.805, 1.193, 1.858, 1.858, 1.858, 1.858, 2.805, 1.858, 1.858, 1.858, 1.193, 1.193, 1.193, 2.805, 1.193, 2.805, 2.805, 1.193, 1.193, 1.193, 1.858, 2.805, 1.858, 1.858, 1.858, 1.193, 2.805, 2.805, 1.858, 2.805, 1.858, 1.858, 1.858, 1.193, 1.858, 2.805, 1.193, 1.858, 1.858, 2.805, 2.805, 1.193, 1.193, 1.858, 1.193, 2.805, 1.193, 1.193, 2.805, 2.805, 2.805, 1.858, 2.805, 1.858, 1.858, 1.193, 2.805, 1.858, 2.805, 2.805, 2.805, 1.858, 1.858, 1.858, 1.193, 1.193, 2.805, 2.805, 1.193, 1.858, 2.805, 2.805, 2.805, 1.858, 1.193, 1.858, 1.193, 1.193, 2.805, 1.858, 2.805, 1.193, 1.858, 1.858, 1.193, 2.805, 1.858, 2.805, 2.805, 1.193, 2.805, 1.858, 1.858, 1.858, 1.193, 1.858, 1.193, 1.858, 1.858, 1.193, 2.805, 1.858, 1.858, 1.193, 2.805, 1.193, 2.805, 1.858, 1.858, 1.858, 1.858, 1.858, 1.193, 2.805, 1.858, 1.193, 1.193, 2.805, 2.805, 1.193, 1.858, 1.858, 1.858, 2.805, 2.805, 1.193, 2.805, 2.805, 1.858, 1.193, 1.193, 1.858, 1.858, 2.805, 1.193, 1.193, 1.193, 1.193, 1.193, 2.805, 2.805, 2.805, 2.805, 1.858, 1.193, 1.858, 1.193, 1.858, 2.805, 1.193, 1.193, 2.805, 1.193, 2.805, 1.193 ]
3
[ 0.340, 0.340, 0.259, 0.259, 0.340, 0.365, 0.259, 0.340, 0.259, 0.365, 0.365, 0.259, 0.340, 0.259, 0.259, 0.340, 0.365, 0.365, 0.365, 0.340, 0.340, 0.259, 0.340, 0.365, 0.259, 0.259, 0.365, 0.340, 0.365, 0.259, 0.259, 0.259, 0.365, 0.259, 0.340, 0.259, 0.365, 0.340, 0.365, 0.259, 0.259, 0.259, 0.340, 0.365, 0.365, 0.365, 0.340, 0.365, 0.259, 0.259, 0.365, 0.259, 0.365, 0.365, 0.259, 0.365, 0.340, 0.365, 0.365, 0.365, 0.340, 0.259, 0.259, 0.340, 0.365, 0.259, 0.259, 0.340, 0.365, 0.365, 0.365, 0.365, 0.365, 0.340, 0.340, 0.259, 0.340, 0.340, 0.340, 0.340, 0.259, 0.259, 0.259, 0.259, 0.340, 0.365, 0.259, 0.365, 0.340, 0.340, 0.365, 0.365, 0.340, 0.365, 0.340, 0.340, 0.365, 0.340, 0.259, 0.259, 0.365, 0.365, 0.340, 0.365, 0.340, 0.365, 0.340, 0.365, 0.365, 0.365, 0.259, 0.259, 0.259, 0.365, 0.259, 0.365, 0.365, 0.259, 0.365, 0.365, 0.340, 0.259, 0.340, 0.340, 0.340, 0.365, 0.259, 0.340, 0.365, 0.340, 0.259, 0.340, 0.365, 0.259, 0.259, 0.340, 0.259, 0.259, 0.259, 0.259, 0.340, 0.365, 0.365, 0.259, 0.259, 0.259, 0.340, 0.365, 0.259, 0.340, 0.259, 0.365, 0.365, 0.365, 0.259, 0.259, 0.340, 0.259, 0.365, 0.365, 0.365, 0.365, 0.259, 0.365, 0.340, 0.365, 0.365, 0.365, 0.365, 0.259, 0.259, 0.259, 0.365, 0.340, 0.365, 0.259, 0.259, 0.340, 0.340, 0.259, 0.365, 0.365, 0.259, 0.365, 0.340, 0.259, 0.365, 0.365, 0.365, 0.259, 0.365, 0.259, 0.259, 0.365, 0.259, 0.340, 0.340, 0.365, 0.259, 0.340 ]