3
[ 2.594, 2.594, 4.197, 0.294, 0.294, 0.294, 0.294, 0.294, 4.197, 2.594, 0.294, 0.294, 2.594, 2.594, 4.197, 4.197, 4.197, 0.294, 2.594, 4.197, 0.294, 0.294, 0.294, 2.594, 0.294, 4.197, 4.197, 0.294, 4.197, 4.197, 4.197, 2.594, 0.294, 0.294, 0.294, 0.294, 2.594, 0.294, 0.294, 4.197, 0.294, 2.594, 0.294, 2.594, 2.594, 0.294, 4.197, 4.197, 0.294, 0.294, 0.294, 0.294, 0.294, 0.294, 0.294, 2.594, 0.294, 2.594, 4.197, 2.594, 0.294, 2.594, 4.197, 4.197, 4.197, 0.294, 4.197, 2.594, 0.294, 0.294, 0.294, 0.294, 2.594, 4.197, 4.197, 4.197, 2.594, 2.594, 2.594, 0.294, 0.294, 4.197, 2.594, 4.197, 4.197, 0.294, 2.594, 0.294, 4.197, 2.594, 2.594, 2.594, 0.294, 4.197, 0.294, 0.294, 2.594, 2.594, 0.294, 0.294 ]
3
[ 0.256, 0.256, 0.952, 0.952, 0.952, 0.256, 0.578, 0.256, 0.256, 0.256, 0.256, 0.578, 0.578, 0.256, 0.952, 0.256, 0.578, 0.578, 0.256, 0.578, 0.578, 0.952, 0.952, 0.578, 0.578, 0.578, 0.256, 0.256, 0.952, 0.256, 0.578, 0.578, 0.952, 0.578, 0.578, 0.578, 0.952, 0.578, 0.256, 0.256, 0.578, 0.256, 0.578, 0.256, 0.952, 0.578, 0.952, 0.256, 0.578, 0.578, 0.578, 0.952, 0.578, 0.578, 0.578, 0.256, 0.256, 0.578, 0.578, 0.256, 0.578, 0.952, 0.578, 0.952, 0.578, 0.952, 0.256, 0.256, 0.578, 0.578, 0.256, 0.952, 0.256, 0.256, 0.952, 0.256, 0.256, 0.952, 0.256, 0.256, 0.256, 0.256, 0.952, 0.952, 0.952, 0.578, 0.952, 0.952, 0.256, 0.578, 0.256, 0.578, 0.578, 0.952, 0.952, 0.578, 0.578, 0.578, 0.952, 0.578 ]