3
[ 3.115, 1.899, 1.899, 5.842, 5.842, 3.115, 1.899, 3.115, 5.842, 5.842, 3.115, 3.115, 5.842, 3.115, 1.899, 1.899, 5.842, 1.899, 5.842, 5.842, 5.842, 1.899, 3.115, 5.842, 3.115, 5.842, 5.842, 3.115, 3.115, 5.842, 5.842, 1.899, 3.115, 5.842, 3.115, 3.115, 1.899, 3.115, 3.115, 3.115, 3.115, 5.842, 5.842, 5.842, 3.115, 1.899, 1.899, 3.115, 1.899, 3.115, 3.115, 1.899, 5.842, 1.899, 1.899, 1.899, 5.842, 1.899, 3.115, 3.115, 5.842, 5.842, 3.115, 5.842, 1.899, 3.115, 1.899, 5.842, 3.115, 1.899, 3.115, 5.842, 3.115, 3.115, 3.115, 3.115, 3.115, 3.115, 3.115, 1.899, 5.842, 1.899, 1.899, 1.899, 5.842, 1.899, 1.899, 1.899, 1.899, 3.115, 5.842, 3.115, 3.115, 1.899, 5.842, 1.899, 1.899, 5.842, 3.115, 5.842 ]
3
[ 0.554, 0.554, 0.838, 0.821, 0.554, 0.554, 0.554, 0.821, 0.554, 0.838, 0.838, 0.821, 0.821, 0.821, 0.554, 0.838, 0.821, 0.838, 0.821, 0.554, 0.554, 0.821, 0.838, 0.821, 0.554, 0.821, 0.838, 0.554, 0.821, 0.554, 0.554, 0.838, 0.821, 0.554, 0.838, 0.838, 0.838, 0.838, 0.838, 0.838, 0.554, 0.838, 0.554, 0.821, 0.838, 0.554, 0.838, 0.554, 0.838, 0.554, 0.821, 0.554, 0.554, 0.838, 0.554, 0.838, 0.554, 0.554, 0.554, 0.838, 0.838, 0.554, 0.554, 0.554, 0.838, 0.821, 0.838, 0.554, 0.554, 0.554, 0.821, 0.821, 0.821, 0.821, 0.554, 0.838, 0.554, 0.821, 0.821, 0.838, 0.554, 0.821, 0.554, 0.838, 0.821, 0.838, 0.554, 0.554, 0.838, 0.821, 0.838, 0.554, 0.821, 0.821, 0.821, 0.554, 0.838, 0.821, 0.838, 0.838 ]