2
[ 3.217, 3.217, 3.217, 3.217, 0.565, 3.217, 3.217, 3.217, 3.217, 3.217, 3.217, 3.217, 3.217, 3.217, 3.217, 3.217, 3.217, 3.217, 3.217, 3.217, 3.217, 3.217, 3.217, 3.217, 3.217, 3.217, 3.217, 3.217, 3.217, 3.217, 0.565, 3.217, 3.217, 3.217, 3.217, 3.217, 3.217, 3.217, 3.217, 3.217, 0.565, 3.217, 3.217, 3.217, 3.217, 3.217, 3.217, 0.565, 0.565, 3.217, 3.217, 3.217, 3.217, 3.217, 3.217, 3.217, 0.565, 3.217, 3.217, 3.217, 3.217, 3.217, 3.217, 3.217, 3.217, 3.217, 3.217, 3.217, 3.217, 3.217, 0.565, 0.565, 3.217, 3.217, 3.217, 3.217, 3.217, 3.217, 3.217, 3.217, 3.217, 3.217, 3.217, 3.217, 0.565, 3.217, 3.217, 3.217, 0.565, 3.217, 3.217, 3.217, 3.217, 0.565, 3.217, 3.217, 3.217, 0.565, 3.217, 3.217 ]
2
[ 0.774, 0.774, 0.774, 0.518, 0.774, 0.518, 0.774, 0.518, 0.774, 0.774, 0.774, 0.774, 0.774, 0.774, 0.774, 0.774, 0.774, 0.774, 0.774, 0.774, 0.774, 0.774, 0.774, 0.774, 0.774, 0.774, 0.518, 0.774, 0.774, 0.518, 0.774, 0.774, 0.774, 0.774, 0.518, 0.774, 0.774, 0.774, 0.774, 0.518, 0.774, 0.774, 0.774, 0.774, 0.774, 0.774, 0.518, 0.518, 0.774, 0.774, 0.774, 0.774, 0.774, 0.774, 0.774, 0.518, 0.774, 0.774, 0.774, 0.774, 0.518, 0.774, 0.774, 0.774, 0.774, 0.774, 0.518, 0.774, 0.774, 0.518, 0.774, 0.774, 0.518, 0.774, 0.774, 0.774, 0.774, 0.774, 0.774, 0.774, 0.774, 0.774, 0.774, 0.518, 0.774, 0.774, 0.774, 0.774, 0.774, 0.774, 0.518, 0.774, 0.774, 0.774, 0.774, 0.774, 0.774, 0.774, 0.774, 0.774 ]