6
[ 6.928, 6.928, 0.943, 6.928, 6.928, 6.928, 6.928, 0.943, 6.928, 6.928, 6.928, 6.928, 6.928, 6.928, 0.943, 6.928, 6.928, 6.928, 0.943, 6.928, 6.928, 6.928, 6.928, 0.943, 0.943, 6.928, 0.943, 6.928, 6.928, 6.928, 6.928, 6.928, 6.928, 6.928, 6.928, 6.928, 6.928, 0.943, 6.928, 6.928, 6.928, 6.928, 6.928, 2.318, 6.928, 6.928, 6.928, 0.943, 6.928, 6.928, 6.928, 6.928, 6.928, 1.479, 6.928, 6.928, 6.928, 6.928, 6.928, 2.318, 6.928, 6.928, 6.928, 6.928, 6.928, 0.943, 6.928, 6.928, 3.435, 6.928, 6.928, 6.928, 6.928, 6.928, 6.928, 6.928, 6.928, 6.928, 6.928, 0.943, 6.928, 6.928, 6.928, 0.659, 6.928, 6.928, 6.928, 0.943, 6.928, 6.928, 6.928, 6.928, 0.943, 6.928, 6.928, 6.928, 0.943, 0.943, 6.928, 6.928 ]
5
[ 0.266, 0.266, 0.590, 0.266, 0.352, 0.266, 0.266, 0.590, 0.266, 0.266, 0.266, 0.266, 0.266, 0.266, 0.266, 0.590, 0.266, 0.266, 0.266, 0.266, 0.266, 0.266, 0.266, 0.266, 0.266, 0.266, 0.266, 0.266, 0.266, 0.682, 0.266, 0.266, 0.266, 0.266, 0.725, 0.682, 0.266, 0.266, 0.266, 0.266, 0.266, 0.266, 0.266, 0.266, 0.266, 0.266, 0.266, 0.266, 0.682, 0.725, 0.266, 0.266, 0.590, 0.266, 0.266, 0.266, 0.266, 0.266, 0.266, 0.266, 0.266, 0.266, 0.590, 0.266, 0.590, 0.682, 0.266, 0.266, 0.266, 0.590, 0.266, 0.266, 0.266, 0.266, 0.725, 0.266, 0.266, 0.266, 0.266, 0.266, 0.682, 0.266, 0.682, 0.590, 0.590, 0.266, 0.266, 0.266, 0.590, 0.266, 0.266, 0.682, 0.266, 0.266, 0.266, 0.266, 0.266, 0.266, 0.266, 0.266 ]