3
[ 3.419, 0.903, 0.903, 3.026, 3.419, 3.026, 0.903, 3.026, 0.903, 3.419, 0.903, 3.419, 0.903, 3.026, 3.419, 3.026, 3.026, 3.419, 0.903, 0.903, 0.903, 0.903, 3.026, 3.026, 3.026, 0.903, 0.903, 0.903, 3.026, 0.903, 3.026, 3.026, 3.026, 3.026, 3.026, 3.419, 0.903, 3.026, 0.903, 0.903, 3.419, 3.419, 3.419, 3.026, 3.026, 3.419, 3.026, 3.026, 3.419, 0.903, 0.903, 3.419, 3.026, 3.419, 3.026, 3.026, 0.903, 3.419, 0.903, 3.419, 3.419, 0.903, 0.903, 3.026, 3.026, 3.419, 3.026, 0.903, 3.026, 3.026, 0.903, 3.419, 0.903, 3.026, 3.026, 3.419, 3.419, 0.903, 3.419, 3.419, 0.903, 0.903, 3.419, 0.903, 0.903, 3.026, 3.026, 3.419, 0.903, 0.903, 3.419, 3.026, 3.419, 3.419, 3.026, 3.419, 3.026, 0.903, 3.026, 3.419, 0.903, 0.903, 0.903, 3.419, 0.903, 3.026, 0.903, 3.026, 3.419, 0.903, 3.026, 3.419, 3.419, 3.026, 0.903, 0.903, 3.026, 3.419, 3.419, 3.026, 3.419, 3.026, 3.026, 3.419, 0.903, 3.026, 0.903, 3.026, 0.903, 3.026, 0.903, 0.903, 3.419, 3.026, 3.026, 3.419, 0.903, 3.026, 3.419, 3.419, 0.903, 0.903, 0.903, 0.903, 3.419, 0.903, 0.903, 0.903, 0.903, 3.026, 3.419, 0.903, 3.026, 3.419, 3.419, 0.903, 3.026, 3.026, 3.419, 3.419, 0.903, 3.419, 3.026, 0.903, 3.026, 3.026, 0.903, 3.026, 0.903, 0.903, 0.903, 3.026, 3.026, 3.026, 0.903, 3.026, 0.903, 0.903, 3.419, 0.903, 3.026, 0.903, 3.026, 3.026, 0.903, 3.419, 0.903, 3.419, 3.419, 0.903, 3.419, 0.903, 3.026, 3.419, 3.419, 3.026, 3.419, 3.419, 3.419, 3.026 ]
3
[ 0.234, 0.883, 0.883, 0.234, 0.144, 0.234, 0.144, 0.883, 0.234, 0.883, 0.234, 0.883, 0.883, 0.234, 0.234, 0.883, 0.144, 0.144, 0.144, 0.234, 0.144, 0.883, 0.234, 0.883, 0.234, 0.234, 0.144, 0.144, 0.883, 0.234, 0.144, 0.883, 0.883, 0.234, 0.144, 0.883, 0.883, 0.883, 0.883, 0.883, 0.234, 0.144, 0.883, 0.234, 0.883, 0.144, 0.234, 0.883, 0.144, 0.234, 0.234, 0.234, 0.234, 0.883, 0.883, 0.883, 0.234, 0.883, 0.144, 0.144, 0.234, 0.144, 0.234, 0.234, 0.883, 0.234, 0.144, 0.144, 0.234, 0.234, 0.883, 0.883, 0.883, 0.883, 0.144, 0.234, 0.883, 0.883, 0.883, 0.144, 0.234, 0.883, 0.144, 0.883, 0.883, 0.234, 0.883, 0.883, 0.144, 0.883, 0.883, 0.234, 0.234, 0.883, 0.883, 0.144, 0.144, 0.144, 0.234, 0.144, 0.883, 0.144, 0.144, 0.883, 0.234, 0.234, 0.883, 0.144, 0.883, 0.144, 0.234, 0.144, 0.234, 0.883, 0.883, 0.234, 0.144, 0.883, 0.144, 0.883, 0.144, 0.883, 0.883, 0.883, 0.883, 0.883, 0.234, 0.144, 0.234, 0.883, 0.883, 0.883, 0.234, 0.234, 0.883, 0.883, 0.144, 0.234, 0.144, 0.144, 0.883, 0.883, 0.883, 0.883, 0.144, 0.144, 0.234, 0.234, 0.144, 0.883, 0.883, 0.234, 0.234, 0.234, 0.144, 0.234, 0.234, 0.144, 0.144, 0.234, 0.234, 0.883, 0.883, 0.234, 0.883, 0.144, 0.144, 0.883, 0.883, 0.883, 0.883, 0.234, 0.883, 0.883, 0.234, 0.234, 0.144, 0.883, 0.234, 0.883, 0.883, 0.883, 0.144, 0.234, 0.234, 0.883, 0.144, 0.883, 0.144, 0.144, 0.234, 0.883, 0.234, 0.144, 0.883, 0.883, 0.144, 0.883, 0.234, 0.144 ]