7
[ 2.218, 3.703, 3.703, 13.379, 3.860, 3.860, 3.860, 13.379, 13.379, 0.651, 3.703, 3.860, 2.683, 3.703, 3.860, 0.651, 3.703, 0.651, 0.651, 13.379, 3.703, 13.379, 3.860, 13.379, 0.651, 3.860, 3.703, 3.703, 3.860, 13.379, 13.379, 3.860, 0.651, 3.703, 0.651, 0.651, 13.379, 13.379, 3.703, 3.703, 0.651, 13.379, 3.703, 3.703, 3.703, 2.218, 3.628, 3.703, 0.651, 3.703, 3.703, 0.651, 3.703, 13.379, 3.860, 13.379, 13.379, 3.860, 3.860, 3.860, 13.379, 0.651, 13.379, 0.651, 3.703, 13.379, 3.860, 0.651, 0.651, 0.651, 13.379, 13.379, 0.651, 13.379, 3.860, 3.703, 13.379, 13.379, 3.628, 3.860, 3.860, 0.651, 13.379, 13.379, 3.860, 13.379, 3.703, 3.703, 3.860, 13.379, 0.651, 2.218, 3.703, 3.860, 3.860, 3.703, 0.651, 13.379, 13.379, 3.860 ]
6
[ 0.465, 0.169, 0.868, 0.842, 0.010, 0.465, 0.465, 0.465, 0.465, 0.465, 0.465, 0.465, 0.465, 0.936, 0.842, 0.936, 0.465, 0.465, 0.169, 0.465, 0.868, 0.465, 0.842, 0.868, 0.010, 0.465, 0.010, 0.868, 0.842, 0.465, 0.868, 0.868, 0.842, 0.465, 0.868, 0.465, 0.936, 0.465, 0.936, 0.465, 0.842, 0.465, 0.868, 0.465, 0.465, 0.010, 0.868, 0.465, 0.842, 0.842, 0.868, 0.465, 0.842, 0.868, 0.465, 0.465, 0.465, 0.465, 0.465, 0.010, 0.465, 0.868, 0.465, 0.868, 0.465, 0.868, 0.465, 0.936, 0.465, 0.465, 0.465, 0.010, 0.465, 0.465, 0.465, 0.465, 0.842, 0.010, 0.465, 0.868, 0.868, 0.842, 0.465, 0.868, 0.842, 0.465, 0.842, 0.936, 0.465, 0.465, 0.868, 0.842, 0.465, 0.842, 0.169, 0.842, 0.465, 0.465, 0.936, 0.868 ]