pars_sum	pars_var	pars_disp	obs_disp	sim_disp
0	0.206949602122016	0.128648648648649	0.290810810810811	0.162162162162162
-2	0.0183435083435084	0.00686019352686024	0.290810810810811	0.283950617283951
1	0.224190981432361	0.138033033033033	0.290810810810811	0.152777777777778
-6	-0.0600530503978781	-0.0403065134099618	0.235555555555556	0.275862068965517
5	0.18	0.116952380952381	0.234285714285714	0.117333333333333
-1	0.0543008715422508	0.0239682539682539	0.234285714285714	0.21031746031746
0	0.0555210306934444	0.0164478764478764	0.234594594594595	0.218146718146718
2	0.243895414929898	0.149994484280199	0.290810810810811	0.140816326530612
-1	0.0543008715422508	0.0239682539682539	0.234285714285714	0.21031746031746
3	0.106062902614627	0.052327958210311	0.178378378378378	0.126050420168067
-3	0.022281167108753	0.0106015037593982	0.234285714285714	0.223684210526316
-4	-0.0386269644334161	-0.0427598330037355	0.178378378378378	0.221138211382114
-1	0.0321712769988629	0.00920544604755105	0.178378378378378	0.169172932330827
-3	0.0937097385373244	0.0651127819548869	0.234285714285714	0.169172932330827
1	0.118196988196989	0.0590885622464573	0.286315789473684	0.227227227227227
4	0.199169719169719	0.124444444444445	0.235555555555556	0.111111111111111
-6	0.0229114971050455	0.0131475029036004	0.234285714285714	0.221138211382114
-1	0.0237717121588089	-0.0307399577167019	0.287441860465116	0.318181818181818
-14	-0.338638373121131	-0.166136523574947	0.234285714285714	0.400422237860661
1	0.224190981432361	0.138033033033033	0.290810810810811	0.152777777777778
-4	-0.354528230390299	-0.251935210471796	0.178378378378378	0.430313588850174
-5	0.00011367942402396	0.00571428571428548	0.234285714285714	0.228571428571429
2	0.258370594922319	0.167282913165266	0.293333333333333	0.126050420168067
-7	-0.0658001768346593	-0.0379007395527041	0.235555555555556	0.27345629510826
-5	0.0399669148056248	0.0134475724194209	0.286315789473684	0.272868217054263
-3	0.113085764809903	0.0745760954109411	0.234285714285714	0.159709618874773
2	0.21940170940171	0.135255255255255	0.290810810810811	0.155555555555556
2	0.163268213268213	0.105217251883918	0.234285714285714	0.129068462401796
-4	0.0291777188328912	0.0141265630920802	0.234285714285714	0.220159151193634
0	0.145433876468359	0.0934693877551019	0.234285714285714	0.140816326530612
1	0.337171215880893	0.205917496443812	0.341052631578947	0.135135135135135
1	0.0219173929518757	-0.0250340136054422	0.293333333333333	0.318367346938775
-4	-0.0291315136476429	-0.0353992673992676	0.174857142857143	0.21025641025641
-7	-0.0658001768346593	-0.0379007395527041	0.235555555555556	0.27345629510826
-4	0.0108829101932549	0.0069841269841269	0.235555555555556	0.228571428571429
2	0.163895414929898	0.0937782680639823	0.234594594594595	0.140816326530612
4	0.199169719169719	0.124444444444445	0.235555555555556	0.111111111111111
3	0.0697435897435896	0.0257653457653457	0.235555555555556	0.20979020979021
-5	-0.0713148920045477	-0.046071428571429	0.234285714285714	0.280357142857143
-6	-0.219060250094733	-0.140558498698034	0.178378378378378	0.318936877076412
0	-0.0197044334975374	-0.0531135531135534	0.333333333333333	0.386446886446887
-4	0.0823114816218265	0.0587698412698413	0.235555555555556	0.176785714285714
-5	0.0399669148056249	0.013447572419421	0.286315789473684	0.272868217054263
0	0.160636604774536	0.0976245210727969	0.235555555555556	0.137931034482759
6	0.190769230769231	0.118222222222222	0.235555555555556	0.117333333333333
-1	0.0330428192497159	0.004472720262194	0.231578947368421	0.227106227106227
-7	-0.070822281167109	-0.0415763546798032	0.234285714285714	0.275862068965517
4	0.157435897435898	0.0810206010206011	0.290810810810811	0.20979020979021
-1	0.142581786030062	0.0766547309560016	0.290810810810811	0.214156079854809
0	0.136498673740053	0.0827777777777778	0.235555555555556	0.152777777777778
-1	0.281220159151194	0.173943878263298	0.341052631578947	0.16710875331565
2	0.270167992926614	0.167658101451205	0.290810810810811	0.123152709359606
-11	-0.209346567411084	-0.119337474120083	0.234285714285714	0.353623188405797
-1	0.205988420181969	0.102861788617886	0.324	0.221138211382114
6	0.314639804639805	0.201205076043786	0.290810810810811	0.0896057347670251
2	0.178370594922319	0.109505135387488	0.235555555555556	0.126050420168067
2	0.135897435897436	0.0874325674325672	0.234285714285714	0.146853146853147
-2	-0.0616564916564918	-0.0493560226893562	0.234594594594595	0.283950617283951
-1	0.112944297082228	0.046731707317073	0.376	0.329268292682927
-2	0.130327144120247	0.0842391159632538	0.234285714285714	0.15004659832246
-1	0.125729442970822	0.0815079365079364	0.234285714285714	0.152777777777778
1	0.14078144078144	0.0904948646125114	0.234285714285714	0.143790849673203
1	0.167601364153088	0.108235294117647	0.234285714285714	0.126050420168067
1	0.0876013641530882	0.0488067226890755	0.174857142857143	0.126050420168067
4	0.219264873057977	0.11981513981514	0.290810810810811	0.170995670995671
-2	0.15409429280397	0.099150579150579	0.234285714285714	0.135135135135135
0	0.0740053050397879	0.0342857142857143	0.234285714285714	0.2
-3	-0.0693487993487995	-0.0483950617283951	0.235555555555556	0.283950617283951
4	0.248882152330428	0.172073732718894	0.234285714285714	0.0622119815668202
-4	0.00996589617279259	0.00717948717948705	0.234285714285714	0.227106227106227
-4	0.00403744403744338	0.0118518518518514	0.293333333333333	0.281481481481482
-3	0.128304383788255	0.0782905982905983	0.235555555555556	0.157264957264957
-2	-0.0600895400895399	-0.0490448343079921	0.235555555555556	0.284600389863548
1	0.167601364153088	0.108235294117647	0.234285714285714	0.126050420168067
0	0.133793103448276	0.0598408488063661	0.28	0.220159151193634
1	0.182475685234306	0.11240284619595	0.235555555555556	0.123152709359606
-7	-0.203731211317418	-0.134131693843001	0.235555555555556	0.369687249398556
3	0.146666666666667	0.0887024087024086	0.235555555555556	0.146853146853147
4	0.160742705570292	0.0937388799457763	0.178378378378378	0.084639498432602
-5	0.00011367942402396	0.00571428571428548	0.234285714285714	0.228571428571429
-2	0.0344827586206894	0.0040650406504063	0.333333333333333	0.329268292682927
0	0.0650701023114818	0.0252380952380954	0.235555555555556	0.21031746031746
1	0.167601364153088	0.108235294117647	0.234285714285714	0.126050420168067
3	0.233050397877984	0.150916057122954	0.235555555555556	0.084639498432602
3	0.25448275862069	0.142068965517241	0.28	0.137931034482759
1	-0.0259422059422058	-0.0452407963519073	0.234594594594595	0.279835390946502
1	0.128131868131868	0.0685885885885887	0.290810810810811	0.222222222222222
-1	0.00769230769230722	0.00351648351648312	0.234285714285714	0.230769230769231
-1	0.125729442970822	0.0815079365079364	0.234285714285714	0.152777777777778
1	0.15620310723759	0.0947392290249433	0.235555555555556	0.140816326530612
-7	-0.0451892551892551	0.00278102664067587	0.341052631578947	0.338271604938272
-2	0.123854995579134	0.0758459366807825	0.235555555555556	0.159709618874773
-2	-0.215730565730566	-0.158753625420292	0.178378378378378	0.337132003798671
-1	0.103744403744404	0.0696766607877717	0.234285714285714	0.164609053497942
3	0.0999633699633701	0.0436363636363637	0.235555555555556	0.191919191919192
0	0.160636604774536	0.0976245210727969	0.235555555555556	0.137931034482759
1	0.122205942205942	0.0699855410966521	0.234594594594595	0.164609053497942
1	0.167601364153088	0.108235294117647	0.234285714285714	0.126050420168067
-7	-0.0658001768346593	-0.0379007395527041	0.235555555555556	0.27345629510826
-1	0.0721308576480992	0.0295909702806256	0.235555555555556	0.20596458527493
-2	0.0212201591511936	-0.00660098522167493	0.22	0.226600985221675
-8	-0.276145004420866	-0.175102751654476	0.235555555555556	0.410658307210031
-2	0.0548894783377544	0.0213994757007463	0.235555555555556	0.214156079854809
-1	0.102958892958893	0.0571020142949968	0.341052631578947	0.283950617283951
-2	-0.0923076923076924	-0.0507602339181287	0.235555555555556	0.286315789473684
3	0.129314134141721	0.0349752429855127	0.313170731707317	0.278195488721804
-2	0.168058608058608	0.117894736842105	0.293333333333333	0.175438596491228
-6	0.0199469496021216	0.0174712643678158	0.293333333333333	0.275862068965517
3	0.108400488400488	0.0637460317460318	0.174857142857143	0.111111111111111
-4	0.0273032714412024	0.0114176245210728	0.235555555555556	0.224137931034483
-1	0.0493141341417208	0.0126153220890066	0.290810810810811	0.278195488721804
4	0.350678287230011	0.21500221141088	0.341052631578947	0.126050420168067
-1	0.184471390678287	0.11232311548101	0.286315789473684	0.173992673992674
3	0.0323076923076924	-0.000953895071542088	0.290810810810811	0.291764705882353
-1	0.164863523573201	0.10042042042042	0.235555555555556	0.135135135135135
4	0.0774358974358972	0.0248043848043846	0.234594594594595	0.20979020979021
0	0.0740053050397877	0.0342857142857142	0.234285714285714	0.2
5	0.132820512820513	0.0825494505494504	0.174857142857143	0.0923076923076924
-2	0.0370594922319059	0.0161389961389961	0.234285714285714	0.218146718146718
1	0.0961727927245169	0.0473109243697479	0.234285714285714	0.186974789915966
2	0.0859492231906027	0.0184586466165416	0.286315789473684	0.267857142857143
1	0.194061207609595	0.114224224224224	0.234594594594595	0.12037037037037
-6	0.0884122773777948	0.0687833219412168	0.286315789473684	0.217532467532467
3	0.188400488400488	0.123174603174603	0.234285714285714	0.111111111111111
-2	0.145508684863524	0.088187134502924	0.235555555555556	0.147368421052632
2	0.178370594922319	0.109505135387488	0.235555555555556	0.126050420168067
3	0.106062902614627	0.0523279582103109	0.178378378378378	0.126050420168067
1	0.0883289124668433	0.0404473438956196	0.178378378378378	0.137931034482759
5	0.195099715099715	0.121411634960022	0.235555555555556	0.114143920595534
0	0.0468660968660967	0.0194708994708993	0.234285714285714	0.214814814814815
3	0.200215053763441	0.106296296296296	0.226666666666667	0.12037037037037
-1	-0.0481847781847779	-0.0477277277277275	0.235555555555556	0.283283283283283
-2	0.123854995579134	0.0758459366807826	0.235555555555556	0.159709618874773
-6	0.0229114971050454	0.0131475029036004	0.234285714285714	0.221138211382114
-1	0.0416142478211443	0.00609600925390391	0.286315789473684	0.28021978021978
4	0.181729751729752	0.105526132192799	0.234594594594595	0.129068462401796
3	0.0230769230769231	-0.0120902255639097	0.341052631578947	0.353142857142857
-1	0.149867374005305	0.0963546798029555	0.234285714285714	0.137931034482759
-2	0.15409429280397	0.099150579150579	0.234285714285714	0.135135135135135
-6	-0.0470733863837306	-0.0307609614425969	0.290810810810811	0.321571772253408
-6	-0.25396993810787	-0.163826566218707	0.262439024390244	0.426265590608951
-2	-0.0455172413793106	-0.049268292682927	0.28	0.329268292682927
0	0.228788682581786	0.140764212488351	0.290810810810811	0.15004659832246
-1	0.272655086848635	0.153268292682927	0.324	0.170731707317073
-6	-0.00727548313755233	0.00606271777003464	0.234285714285714	0.228222996515679
-7	-0.0507857733664187	-0.0365692007797272	0.231578947368421	0.268148148148148
1	0.131564986737401	0.069416785206259	0.231578947368421	0.162162162162162
8	0.201254180602007	0.132836438923395	0.234285714285714	0.101449275362319
1	0.272271062271062	0.169881460407776	0.341052631578947	0.171171171171171
4	0.181729751729752	0.105526132192799	0.234594594594595	0.129068462401796
-2	0.130327144120248	0.0842391159632539	0.234285714285714	0.15004659832246
3	0.174037444037444	0.10648709315376	0.235555555555556	0.129068462401796
0	0.262928039702233	0.126666666666667	0.35047619047619	0.223809523809524
-3	0.113085764809903	0.0745760954109411	0.234285714285714	0.159709618874773
-5	-0.0524314765694076	-0.0415763546798029	0.234285714285714	0.275862068965517
0	0.145433876468359	0.0934693877551018	0.234285714285714	0.140816326530612
-2	-0.047073386383731	-0.0591327478631641	0.262439024390244	0.321571772253408
5	0.226947496947497	0.14594982078853	0.235555555555556	0.0896057347670251
4	0.248882152330428	0.172073732718894	0.234285714285714	0.0622119815668202
-1	0.211547303271442	0.131101191936038	0.290810810810811	0.159709618874773
-1	-0.170769230769231	-0.11847619047619	0.174857142857143	0.293333333333333
5	0.162051282051282	0.0765255796834745	0.286315789473684	0.20979020979021
2	0.243895414929898	0.149994484280199	0.290810810810811	0.140816326530612
3	-0.0671794871794871	-0.0624242424242423	0.235555555555556	0.297979797979798
-3	-0.0179840848806368	-0.0329266136162689	0.293333333333333	0.326259946949602
5	0.325396825396825	0.189542483660131	0.333333333333333	0.143790849673203
-2	0.0476392572944297	0.0144354434009606	0.234594594594595	0.220159151193634
0	-0.188640618640619	-0.160800800800801	0.234594594594595	0.395395395395395
5	0.295308829101933	0.178090681248576	0.286315789473684	0.108225108225108
-3	0.113085764809903	0.0745760954109412	0.234285714285714	0.159709618874773
-1	0.142581786030062	0.0766547309560017	0.290810810810811	0.214156079854809
5	0.275099715099715	0.1791894127378	0.293333333333333	0.114143920595534
0	0.0555210306934445	0.0164478764478765	0.234594594594595	0.218146718146718
-1	0.0632891246684352	0.0131062404020664	0.286315789473684	0.273209549071618
-5	0.000113679424023905	0.00571428571428545	0.234285714285714	0.228571428571429
0	0.171706454465075	0.111133004926108	0.234285714285714	0.123152709359606
5	0.22994301994302	0.109185185185185	0.324	0.214814814814815
0	-0.0477818477818475	-0.0530214424951265	0.231578947368421	0.284600389863548
-3	0.188912466843501	0.126224580017683	0.293333333333333	0.16710875331565
-2	0.123854995579134	0.0758459366807826	0.235555555555556	0.159709618874773
-4	0.0962687886825819	0.0631417624521074	0.235555555555556	0.172413793103448
5	0.246601546601546	0.170088183421517	0.234285714285714	0.0641975308641975
1	0.228735632183908	0.119177253478524	0.333333333333333	0.214156079854809
-5	0.0165340406719717	0.0101477832512315	0.234285714285714	0.224137931034483
-8	-0.00760389036251113	0.00894489632260273	0.234285714285714	0.225340817963111
3	0.25448275862069	0.142068965517241	0.28	0.137931034482759
-1	0.0543008715422508	0.0239682539682539	0.234285714285714	0.21031746031746
4	0.249458689458689	0.161121794871795	0.293333333333333	0.132211538461538
3	0.20300113679424	0.127330447330447	0.235555555555556	0.108225108225108
-1	0.0296703296703295	0.0120634920634919	0.234285714285714	0.222222222222222
4	0.16945868945869	0.103344017094017	0.235555555555556	0.132211538461538
-7	-0.00185676392572975	0.00768472906403914	0.234285714285714	0.226600985221675
-2	0.225508684863523	0.145964912280702	0.293333333333333	0.147368421052632
2	0.192231906025009	0.126060606060606	0.234285714285714	0.108225108225108
-1	0.0276027676027681	0.00621042094726343	0.290810810810811	0.284600389863548
1	0.0013338385752179	-0.0332625482625482	0.234594594594595	0.267857142857143
6	0.233846153846154	0.136315789473684	0.286315789473684	0.15
2	0.178370594922319	0.109505135387488	0.235555555555556	0.126050420168067
1	0.126878868258178	0.0679571138800345	0.234285714285714	0.16632860040568
-1	0.062581786030062	0.0204385147397852	0.234594594594595	0.214156079854809
-3	0.0207351269420236	0.0084493284493285	0.235555555555556	0.227106227106227
-1	-0.048184778184778	-0.0477277277277275	0.235555555555556	0.283283283283283
-1	-0.146780626780626	-0.109558789558789	0.235555555555556	0.345114345114345
5	0.259651383099659	0.173343573988735	0.235555555555556	0.0622119815668202
0	-0.131908831908832	-0.110769230769231	0.234285714285714	0.345054945054945
4	0.184330484330484	0.120141793690181	0.234285714285714	0.114143920595534
-6	-0.0458734369079197	-0.0177136021872864	0.341052631578947	0.358766233766234
-7	0.0219098143236075	0.0219479733817303	0.286315789473684	0.264367816091954
-3	0.0349955791335101	0.0104566635601118	0.234594594594595	0.224137931034483
1	0.167601364153088	0.108235294117647	0.234285714285714	0.126050420168067
-4	0.00996589617279259	0.00717948717948705	0.234285714285714	0.227106227106227
1	0.126896551724138	0.0563157894736842	0.28	0.223684210526316
2	0.0589743589743587	0.0244955044955043	0.234285714285714	0.20979020979021
-3	-0.0506934444865481	-0.0446642246642248	0.235555555555556	0.28021978021978
4	0.243858363858364	0.142524939800482	0.286315789473684	0.143790849673203
-11	-0.217948717948718	-0.113540372670808	0.234285714285714	0.347826086956522
-10	-0.140529363110009	-0.07978835978836	0.234285714285714	0.314074074074074
-4	-0.0614778325123154	-0.0440974529346623	0.226666666666667	0.270764119601329
-3	0.0239610963748894	0.00596458527493002	0.178378378378378	0.172413793103448
-7	-0.130488821523304	-0.067955422955423	0.290810810810811	0.358766233766234
-4	0.0383377541998232	0.0174712643678161	0.293333333333333	0.275862068965517
7	0.278461538461539	0.173477477477478	0.290810810810811	0.117333333333333
-3	0.0293065555134516	0.0131135531135528	0.293333333333333	0.28021978021978
6	0.233846153846154	0.126052631578948	0.341052631578947	0.215
6	0.234639804639804	0.144988859827569	0.234594594594595	0.0896057347670251
4	0.210693444486548	0.126369486369486	0.234594594594595	0.108225108225108
-4	0.115235732009926	0.0625062656641606	0.286315789473684	0.223809523809524
0	0.0640924592648728	0.0166795366795365	0.290810810810811	0.274131274131274
-2	0.145508684863524	0.088187134502924	0.235555555555556	0.147368421052632
2	-0.0461538461538459	-0.0568825910931173	0.231578947368421	0.288461538461538
-3	0.0222811671087531	0.0106015037593983	0.234285714285714	0.223684210526316
-5	0.253300248138958	0.164308445532436	0.341052631578947	0.176744186046512
0	0.0468660968660967	0.0194708994708993	0.234285714285714	0.214814814814815
-5	-0.121396993810787	-0.0933004926108375	0.234285714285714	0.327586206896552
-5	0.0165340406719717	0.0101477832512315	0.234285714285714	0.224137931034483
-1	0.0407427055702916	0.0109103840682786	0.234594594594595	0.223684210526316
4	0.16978428978429	0.081522761151244	0.286315789473684	0.20479302832244
-1	0.175599669148056	0.113915343915344	0.234285714285714	0.12037037037037
1	0.257171215880893	0.151180654338549	0.286315789473684	0.135135135135135
1	0.113510167992927	0.0532895457033389	0.235555555555556	0.182266009852217
-2	-0.0140760389036252	-0.0330469852792903	0.235555555555556	0.268602540834846
6	0.314639804639805	0.201205076043786	0.290810810810811	0.0896057347670251
0	0.0468660968660967	0.0194708994708993	0.234285714285714	0.214814814814815
1	0.0601364153088293	0.0134322292217031	0.231578947368421	0.218146718146718
1	0.328328912466844	0.209095992544268	0.347027027027027	0.137931034482759
5	0.286862026862027	0.1796996996997	0.290810810810811	0.111111111111111
4	0.230094732853354	0.148501984126984	0.235555555555556	0.0870535714285714
0	0.199255583126551	0.131428571428571	0.234285714285714	0.102857142857143
0	0.0800000000000002	0.0562162162162164	0.290810810810811	0.234594594594595
-6	-0.0627763041556144	-0.0424173975729905	0.234285714285714	0.276703111858705
-3	-0.049147404319818	-0.0439097744360901	0.234285714285714	0.278195488721804
0	0.0654338764683592	0.0340408163265306	0.174857142857143	0.140816326530612
-1	0.175750915750916	0.115372214319583	0.290810810810811	0.175438596491228
-7	0.0276592224979322	0.0204651162790698	0.293333333333333	0.272868217054263
2	0.145327635327635	0.0759959959959961	0.290810810810811	0.214814814814815
-4	-0.251794871794872	-0.162420963651733	0.174857142857143	0.337278106508876
-4	-0.0251612903225805	-0.0409302325581394	0.28	0.320930232558139
-4	0.0181432360742706	0.00774838954149301	0.174857142857143	0.16710875331565
1	0.0667073667073664	0.0294926859632739	0.234285714285714	0.20479302832244
0	0.171706454465075	0.111133004926108	0.234285714285714	0.123152709359606
-3	0.078799348799349	0.0579677113010448	0.235555555555556	0.177587844254511
-3	0.00580382580382555	0.00496496496496476	0.234594594594595	0.22962962962963
4	0.250049261083744	0.139183673469388	0.28	0.140816326530612
4	0.145185185185186	0.0605096451536083	0.341052631578947	0.280542986425339
-2	0.0476392572944296	0.0144354434009606	0.234594594594595	0.220159151193634
2	0.227197170645447	0.109843920145191	0.324	0.214156079854809
-5	0.00011367942402396	0.00571428571428548	0.234285714285714	0.228571428571429
-8	-0.0582139699381083	-0.0232810867293629	0.293333333333333	0.316614420062696
-6	0.0229114971050454	0.0131475029036004	0.234285714285714	0.221138211382114
5	0.118176638176638	0.0544141163496001	0.235555555555556	0.181141439205955
1	0.0576353276353276	0.0207407407407407	0.235555555555556	0.214814814814815
-5	-0.121396993810787	-0.0933004926108375	0.234285714285714	0.327586206896552
0	0.202758620689655	0.11289124668435	0.28	0.16710875331565
-1	0.131547303271441	0.0748849757198215	0.234594594594595	0.159709618874773
9	0.190313390313391	0.0936479128856627	0.231578947368421	0.137931034482758
-1	0.0831653404067197	0.0314507611059335	0.293333333333333	0.2618825722274
-7	0.0425475599669148	0.0269785575048734	0.341052631578947	0.314074074074074
3	0.188400488400488	0.123174603174603	0.234285714285714	0.111111111111111
8	0.298131868131868	0.200111835973905	0.234594594594595	0.0344827586206897
-6	-0.0738107869142351	-0.0513833954103087	0.174857142857143	0.226240538267451
3	0.0110948310948309	-0.0312006123770831	0.234594594594595	0.265795206971678
-6	-0.207146646456991	-0.130136054421769	0.293333333333333	0.423469387755102
-1	0.00512820512820517	0.000809716599190297	0.231578947368421	0.230769230769231
-3	0.0293065555134515	0.0131135531135527	0.293333333333333	0.28021978021978
-4	-0.0614626752557793	-0.0459340659340664	0.234285714285714	0.28021978021978
-3	-0.0708587708587708	-0.0503146755778335	0.234285714285714	0.284600389863548
3	0.205014245014245	0.114679005205321	0.341052631578947	0.226373626373626
-2	0.130327144120247	0.0842391159632538	0.234285714285714	0.15004659832246
0	0.120940170940171	0.0787301587301586	0.234285714285714	0.155555555555556
6	0.0553846153846156	0.00242424242424261	0.226666666666667	0.224242424242424
7	0.245181115181115	0.129804439413947	0.286315789473684	0.156511350059737
-1	0.0543008715422508	0.0239682539682539	0.234285714285714	0.21031746031746
-4	0.104650751547304	0.0645702725433595	0.290810810810811	0.226240538267451
0	0.0654338764683591	0.0340408163265305	0.174857142857143	0.140816326530612
3	0.194634331186056	0.103836020894845	0.290810810810811	0.186974789915966
2	0.0246153846153849	0.00496732026143809	0.235555555555556	0.230588235294117
2	0.0307692307692307	0.0136450216450216	0.174857142857143	0.161212121212121
4	0.230094732853354	0.148501984126984	0.235555555555556	0.0870535714285714
1	0.0441229141229145	0.00303250619040119	0.286315789473684	0.283283283283283
-4	0.0908829101932546	0.0647619047619045	0.293333333333333	0.228571428571429
2	0.106942023493748	0.0485807656395894	0.235555555555556	0.186974789915966
0	0.145433876468359	0.0934693877551019	0.234285714285714	0.140816326530612
6	0.267883597883598	0.150931537598204	0.28	0.129068462401796
0	0.0988603988603987	0.0672527472527471	0.234285714285714	0.167032967032967
-8	-0.0406366047745355	-0.00929481205343252	0.347027027027027	0.35632183908046
-4	-0.110627763041556	-0.092030651340996	0.235555555555556	0.327586206896552
3	0.06994301994302	0.0167641325536063	0.231578947368421	0.214814814814815
0	0.00257673361121646	-0.0248979591836734	0.234285714285714	0.259183673469388
-7	-0.0836301629405077	-0.0412244897959184	0.234285714285714	0.275510204081633
0	-0.092820512820513	-0.0536936936936938	0.234594594594595	0.288288288288288
-2	0.0151200651200648	0.00705848705848675	0.234285714285714	0.227227227227227
-5	0.104597701149425	0.063740856844305	0.333333333333333	0.269592476489028
2	0.196604774535809	0.095330271074594	0.262439024390244	0.16710875331565
-3	0.0399469496021221	0.0153964043619217	0.235555555555556	0.220159151193634
1	-0.0128205128205126	-0.00482482482482471	0.347027027027027	0.351851851851852
1	0.144190981432361	0.0818168168168167	0.234594594594595	0.152777777777778
-6	-0.123650793650794	-0.0582716049382715	0.28	0.338271604938272
1	0.224190981432361	0.138033033033033	0.290810810810811	0.152777777777778
-3	-0.243019943019943	-0.162475419317525	0.234285714285714	0.396761133603239
-6	-0.26500442086649	-0.170537730615751	0.211707317073171	0.382245047688922
-4	0.0981432360742704	0.0671769609700643	0.234285714285714	0.16710875331565
4	0.216178266178266	0.144679979518689	0.234285714285714	0.0896057347670251
-4	0.0108829101932549	0.00698412698412693	0.235555555555556	0.228571428571429
0	0.265889164598842	0.156036036036036	0.347027027027027	0.190990990990991
1	0.144190981432361	0.0818168168168168	0.234594594594595	0.152777777777778
2	0.163268213268213	0.105217251883918	0.234285714285714	0.129068462401796
-6	-0.129018567639257	-0.0895675971538041	0.235555555555556	0.32512315270936
4	0.0957102157102157	0.0205205825020066	0.286315789473684	0.265795206971678
3	0.219325502084123	0.147232142857143	0.234285714285714	0.0870535714285714
-1	-0.0171276998863206	-0.0335714285714286	0.234285714285714	0.267857142857143
3	0.0910948310948312	0.0250156038391333	0.290810810810811	0.265795206971678
-5	-0.0534924845269668	-0.0418773477398384	0.231578947368421	0.27345629510826
1	0.167601364153088	0.108235294117647	0.234285714285714	0.126050420168067
-3	-0.0708587708587708	-0.0503146755778335	0.234285714285714	0.284600389863548
6	0.264843304843305	0.143937246963563	0.341052631578947	0.197115384615385
-2	0.0559966914805622	0.0211134211134209	0.178378378378378	0.157264957264957
0	0.199255583126551	0.131428571428571	0.234285714285714	0.102857142857143
3	0.20300113679424	0.127330447330447	0.235555555555556	0.108225108225108
3	0.0415384615384619	0.0113131313131316	0.235555555555556	0.224242424242424
2	0.270167992926614	0.167658101451205	0.290810810810811	0.123152709359606
2	-0.088746438746439	-0.0956956956956958	0.178378378378378	0.274074074074074
-1	0.25615763546798	0.156547619047619	0.333333333333333	0.176785714285714
6	0.187883597883598	0.097598204264871	0.226666666666667	0.129068462401796
2	0.0832682132682133	0.0457886804553472	0.174857142857143	0.129068462401796
-3	-0.113969938107869	-0.0974836905871388	0.178378378378378	0.275862068965517
-1	0.0478287230011369	0.0174088374088375	0.235555555555556	0.218146718146718
1	0.177032967032967	0.0932307692307693	0.324	0.230769230769231
3	0.158689458689459	0.102074175824176	0.234285714285714	0.132211538461538
-1	-0.0422588522588522	-0.046006006006006	0.293333333333333	0.339339339339339
-2	0.130327144120247	0.0842391159632538	0.234285714285714	0.15004659832246
2	0.212747252747253	0.118830409356725	0.341052631578947	0.222222222222222
2	0.0653276353276352	0.0197797797797797	0.234594594594595	0.214814814814815
-10	-0.231697191697192	-0.0848732943469786	0.341052631578947	0.425925925925926
1	0.140781440781441	0.0904948646125115	0.234285714285714	0.143790849673203
1	0.211709401709401	0.137777777777778	0.293333333333333	0.155555555555556
4	0.184330484330484	0.120141793690181	0.234285714285714	0.114143920595534
1	0.152762410003789	0.0804933504933506	0.290810810810811	0.21031746031746
7	0.278461538461539	0.173477477477477	0.290810810810811	0.117333333333333
1	0.0847745358090188	0.0355555555555557	0.235555555555556	0.2
-6	0.0895947063689001	0.0609523809523811	0.235555555555556	0.174603174603174
0	0.0953846153846155	0.0624786324786325	0.235555555555556	0.173076923076923
0	0.0650701023114817	0.0252380952380953	0.235555555555556	0.21031746031746
-1	0.0543008715422508	0.0239682539682539	0.234285714285714	0.21031746031746
-3	0.0937097385373244	0.0651127819548869	0.234285714285714	0.169172932330827
-3	-0.022935455349248	-0.0367753960857406	0.290810810810811	0.327586206896552
-1	0.103744403744403	0.0696766607877717	0.234285714285714	0.164609053497942
3	0.146666666666667	0.0887024087024087	0.235555555555556	0.146853146853147
1	0.0961727927245167	0.0473109243697477	0.234285714285714	0.186974789915966
-3	0.11499557913351	0.066672879776328	0.290810810810811	0.224137931034483
-1	0.281220159151194	0.173943878263298	0.341052631578947	0.16710875331565
-3	-0.0179840848806367	-0.0329266136162689	0.293333333333333	0.326259946949602
3	0.174037444037444	0.10648709315376	0.235555555555556	0.129068462401796
-4	0.0108829101932549	0.0069841269841269	0.235555555555556	0.228571428571429
-2	0.0548894783377545	0.0213994757007464	0.235555555555556	0.214156079854809
-11	-0.134765694076039	-0.0586484062933073	0.235555555555556	0.294203961848863
6	0.244159544159544	0.167972716938234	0.234285714285714	0.0663129973474801
10	0.388461538461538	0.242838345864662	0.341052631578947	0.0982142857142858
-1	0.101676841676842	0.060791317633423	0.290810810810811	0.230019493177388
-1	0.0543008715422508	0.0239682539682539	0.234285714285714	0.21031746031746
-3	-0.12212201591512	-0.097777777777778	0.235555555555556	0.333333333333334
-3	0.0123768823768821	0.00898968287928475	0.286315789473684	0.2773261065944
0	0.160636604774536	0.0976245210727969	0.235555555555556	0.137931034482759
7	0.311282051282051	0.198503118503119	0.290810810810811	0.0923076923076923
1	0.0607814407814406	0.0310662931839401	0.174857142857143	0.143790849673203
2	-0.0779487179487179	-0.0636940836940837	0.234285714285714	0.297979797979798
8	0.315384615384615	0.234285714285714	0.234285714285714	0
2	0.133929518757105	0.0458045112781956	0.324	0.278195488721804
-5	-0.0982795698924735	-0.0851515151515154	0.28	0.365151515151515
0	-0.135384615384615	-0.11059829059829	0.235555555555556	0.346153846153846
-5	-0.166731786731787	-0.106624338624339	0.174857142857143	0.281481481481482
2	0.126723646723647	0.0771845148315737	0.235555555555556	0.158371040723982
-1	0.0999633699633701	0.0643843843843845	0.235555555555556	0.171171171171171
-1	0.0296703296703295	0.0120634920634919	0.234285714285714	0.222222222222222
0	0.126949602122016	0.0724324324324324	0.234594594594595	0.162162162162162
-2	0.196604774535809	0.123702057495161	0.290810810810811	0.16710875331565
-2	0.119610963748895	0.0621778584392016	0.286315789473684	0.224137931034483
0	0.171706454465075	0.111133004926108	0.234285714285714	0.123152709359606
1	0.195844385499558	0.128809040857722	0.234285714285714	0.105476673427992
6	0.223589743589744	0.143247863247863	0.235555555555556	0.0923076923076923
-3	0.167409372236958	0.0906001987919564	0.313170731707317	0.222570532915361
2	-0.113447293447294	-0.110460350460351	0.234594594594595	0.345054945054945
-1	0.149867374005305	0.0963546798029555	0.234285714285714	0.137931034482759
-4	0.0291777188328911	0.0141265630920802	0.234285714285714	0.220159151193634
1	0.257171215880893	0.151180654338549	0.286315789473684	0.135135135135135
-3	-0.240866489832007	-0.196439888164026	0.234594594594595	0.43103448275862
0	-0.0464183964183964	-0.0488488488488488	0.178378378378378	0.227227227227227
2	0.237377794619174	0.130735171261487	0.341052631578947	0.21031746031746
-5	0.00349374763167865	0.00733255903987609	0.235555555555556	0.228222996515679
1	0.15620310723759	0.0947392290249434	0.235555555555556	0.140816326530612
-4	0.128569065343259	0.0680367585630744	0.341052631578947	0.273015873015873
-6	-0.290488821523305	-0.188731256173117	0.178378378378378	0.367109634551495
1	0.15620310723759	0.0947392290249433	0.235555555555556	0.140816326530612
1	0.239354838709677	0.132631578947368	0.28	0.147368421052632
4	0.154358974358974	0.0877414477414476	0.234594594594595	0.146853146853147
-2	0.103190602500947	0.0577443609022557	0.286315789473684	0.228571428571429
5	0.2694783377542	0.174249767008388	0.234594594594595	0.0603448275862069
-1	0.149867374005305	0.0963546798029555	0.234285714285714	0.137931034482759
-2	0.108488063660477	0.072123552123552	0.234285714285714	0.162162162162162
-6	0.0923683213338384	0.076262907425698	0.347027027027027	0.270764119601329
5	0.339651383099659	0.231121351766513	0.293333333333333	0.0622119815668202
0	0.187655677655678	0.11963963963964	0.290810810810811	0.171171171171171
-5	-0.0737400530503979	-0.0478120978120979	0.178378378378378	0.226190476190476
9	0.235674470457079	0.160707118967988	0.234285714285714	0.0735785953177257
1	0.220136415308829	0.122905913432229	0.341052631578947	0.218146718146718
2	0.0891941391941391	0.0423665223665223	0.234285714285714	0.191919191919192
-4	-0.052906403940887	-0.0389368770764122	0.28	0.318936877076412
-6	-0.404880636604775	-0.286611932129174	0.235555555555556	0.522167487684729
-2	-0.0123076923076924	0.00397660818713447	0.235555555555556	0.231578947368421
2	0.163268213268213	0.105217251883918	0.234285714285714	0.129068462401796
-4	0.0212201591511936	0.00497796214674615	0.231578947368421	0.226600985221675
2	0.206821326821327	0.121706735975742	0.286315789473684	0.164609053497942
3	0.188400488400488	0.123174603174603	0.234285714285714	0.111111111111111
-2	0.130327144120247	0.0842391159632538	0.234285714285714	0.15004659832246
3	0.0792429792429789	0.0345875287051755	0.178378378378378	0.143790849673203
1	0.167601364153088	0.108235294117647	0.234285714285714	0.126050420168067
-2	-0.0293545534924843	-0.044283121597096	0.231578947368421	0.275862068965517
2	0.179454338764683	0.0701190476190472	0.35047619047619	0.280357142857143
-2	-0.196945812807882	-0.153124274099884	0.226666666666667	0.379790940766551
0	0.0097435897435893	-0.00402366863905357	0.28	0.284023668639054
3	0.188400488400488	0.123174603174603	0.234285714285714	0.111111111111111
1	0.167601364153088	0.108235294117647	0.234285714285714	0.126050420168067
-2	-0.00370370370370382	0.00143748143748135	0.234285714285714	0.232848232848233
4	0.16945868945869	0.103344017094017	0.235555555555556	0.132211538461538
0	0.102740937223696	0.0520197044334975	0.234285714285714	0.182266009852217
-2	0.0946191739295188	0.0547932330827068	0.231578947368421	0.176785714285714
6	0.341766381766382	0.208841093117409	0.341052631578947	0.132211538461538
-2	0.13889164598842	0.0696491228070177	0.286315789473684	0.216666666666667
1	0.0847745358090188	0.0355555555555557	0.235555555555556	0.2
-7	-0.246096866096866	-0.146130511463845	0.174857142857143	0.320987654320988
3	0.158689458689459	0.102074175824176	0.234285714285714	0.132211538461538
3	0.106062902614627	0.052327958210311	0.178378378378378	0.126050420168067
-2	0.123854995579134	0.0758459366807826	0.235555555555556	0.159709618874773
6	0.209230769230769	0.139113300492611	0.234285714285714	0.0951724137931035
-8	-0.298184778184778	-0.161750841750842	0.235555555555556	0.397306397306397
3	0.20300113679424	0.127330447330447	0.235555555555556	0.108225108225108
0	0.120940170940171	0.0787301587301586	0.234285714285714	0.155555555555556
-1	0.142581786030062	0.0766547309560016	0.290810810810811	0.214156079854809
-4	0.0273032714412024	0.0114176245210728	0.235555555555556	0.224137931034483
9	0.406153846153846	0.293333333333333	0.293333333333333	0
-3	0.0459884201819689	0.0104407359863074	0.231578947368421	0.221138211382114
-1	-0.302564102564103	-0.2122080348801	0.231578947368421	0.443786982248521
-1	0.149867374005305	0.0963546798029555	0.234285714285714	0.137931034482759
-3	-0.011927212572374	-0.0268972431077695	0.174857142857143	0.201754385964912
4	0.0392497158014402	-0.0101326846528083	0.176842105263158	0.186974789915966
1	0.228735632183908	0.119177253478524	0.333333333333333	0.214156079854809
-1	0.0543008715422508	0.0239682539682539	0.234285714285714	0.21031746031746
0	0.122758620689655	0.0595579133510169	0.226666666666667	0.16710875331565
3	0.158689458689459	0.102074175824176	0.234285714285714	0.132211538461538
0	0.240636604774536	0.155402298850574	0.293333333333333	0.137931034482759
-4	0.0994467601364156	0.0655424274973149	0.341052631578947	0.275510204081632
1	0.0954415954415956	0.0458839406207829	0.333333333333333	0.28744939271255
-6	-0.0590602500947329	-0.0281260662656012	0.290810810810811	0.318936877076412
3	0.131572565365669	0.0645598845598847	0.235555555555556	0.170995670995671
2	0.0891941391941391	0.0423665223665223	0.234285714285714	0.191919191919192
0	0.171706454465075	0.111133004926108	0.234285714285714	0.123152709359606
1	0.0847745358090188	0.0355555555555558	0.235555555555556	0.2
1	0.182475685234306	0.11240284619595	0.235555555555556	0.123152709359606
-1	0.0721308576480993	0.0295909702806257	0.235555555555556	0.20596458527493
-6	0.090857648099028	0.0654699928476997	0.290810810810811	0.225340817963111
-5	-0.0651686244789692	-0.040915609487038	0.234594594594595	0.275510204081632
0	0.145433876468359	0.0934693877551019	0.234285714285714	0.140816326530612
-6	-0.0437386269644334	-0.0374603174603175	0.235555555555556	0.273015873015873
1	0.140136415308829	0.0681690713269663	0.286315789473684	0.218146718146718
-2	0.0183435083435085	0.00686019352686029	0.290810810810811	0.283950617283951
-4	-0.0157981803143092	-0.0289621489621489	0.234285714285714	0.263247863247863
1	0.115954415954416	0.0759146735617322	0.234285714285714	0.158371040723982
4	0.107407407407407	0.0531442750797587	0.234285714285714	0.181141439205955
-13	-0.312125723738627	-0.16108843537415	0.293333333333333	0.454421768707483
0	0.120940170940171	0.0787301587301586	0.234285714285714	0.155555555555556
0	0.0219373219373218	0.00791208791208781	0.234285714285714	0.226373626373626
6	0.273333333333333	0.161616161616162	0.333333333333333	0.171717171717172
-2	0.183190602500947	0.112481203007519	0.341052631578947	0.228571428571429
-1	0.119257294429708	0.0733933933933935	0.235555555555556	0.162162162162162
3	0.0574928774928773	0.0151375810199338	0.234594594594595	0.219457013574661
-1	0.103744403744404	0.0696766607877717	0.234285714285714	0.164609053497942
6	0.244159544159544	0.167972716938234	0.234285714285714	0.0663129973474801
8	0.238717948717949	0.163298059964727	0.234285714285714	0.0709876543209876
-4	-0.0416622458001766	-0.0403065134099615	0.235555555555556	0.275862068965517
-3	0.0207351269420237	0.00844932844932858	0.235555555555556	0.227106227106227
-1	0.121220159151194	0.0644701940527713	0.231578947368421	0.16710875331565
-2	0.0151200651200648	0.00705848705848675	0.234285714285714	0.227227227227227
9	0.287692307692308	0.198518518518519	0.235555555555556	0.037037037037037
1	0.193510167992926	0.111067323481116	0.293333333333333	0.182266009852217
-5	-0.067934823796893	-0.0431900890437478	0.235555555555556	0.278745644599303
4	0.125095645095645	0.0596296296296297	0.235555555555556	0.175925925925926
-3	0.0680727874276259	0.0325313283208018	0.234285714285714	0.201754385964912
1	0.0993633952254641	0.0391922957440198	0.234594594594595	0.195402298850575
-2	0.0616799292661364	0.0134664246823958	0.341052631578947	0.327586206896552
1	0.167601364153088	0.108235294117647	0.234285714285714	0.126050420168067
-8	0.00787427626137283	0.0113131313131312	0.235555555555556	0.224242424242424
-1	0.23394540942928	0.130796221322537	0.341052631578947	0.21025641025641
-4	-0.0663125763125767	-0.0371024683219808	0.290810810810811	0.327913279132792
3	0.134415954415954	0.0762235538706126	0.234594594594595	0.158371040723982
-2	0.0939845339845336	0.0633138401559452	0.293333333333333	0.230019493177388
-5	-0.0926577126577128	-0.0547724867724869	0.174857142857143	0.22962962962963
-3	0.0349955791335098	0.0104566635601115	0.234594594594595	0.224137931034483
1	0.0161727927245169	-0.0121176470588235	0.174857142857143	0.186974789915966
-1	0.0721308576480993	0.0295909702806257	0.235555555555556	0.20596458527493
0	0.0740053050397879	0.0342857142857143	0.234285714285714	0.2
-3	0.0921636983705951	0.0615628815628817	0.235555555555556	0.173992673992674
0	0.199255583126551	0.131428571428571	0.234285714285714	0.102857142857143
0	0.266368899917287	0.172962962962963	0.293333333333333	0.12037037037037
0	0.114513634513634	0.0709465020576132	0.235555555555556	0.164609053497942
-1	-0.0876923076923081	-0.0536936936936939	0.293333333333333	0.347027027027027
1	-0.0378917378917377	-0.046257272139625	0.234285714285714	0.280542986425339
-3	0.0982316534040674	0.0558009826922227	0.231578947368421	0.175777964676198
-1	0.335801439939371	0.199777003484321	0.428	0.228222996515679
-1	0.0216768416768416	0.0045751014172066	0.234594594594595	0.230019493177388
4	0.199169719169719	0.124444444444445	0.235555555555556	0.111111111111111
-3	0.113085764809903	0.0745760954109411	0.234285714285714	0.159709618874773
6	0.223589743589744	0.143247863247863	0.235555555555556	0.0923076923076924
3	0.188400488400488	0.123174603174603	0.234285714285714	0.111111111111111
4	0.154358974358974	0.0877414477414476	0.234594594594595	0.146853146853147
-5	0.100347394540943	0.0648238482384825	0.235555555555556	0.170731707317073
-10	-0.105676392572944	-0.0412704174228673	0.286315789473684	0.327586206896552
-1	0.149867374005305	0.0963546798029555	0.234285714285714	0.137931034482759
0	0.0409401709401709	0.0193015873015872	0.174857142857143	0.155555555555556
-5	-0.055771265771266	-0.0198431479214834	0.341052631578947	0.360895779500431
0	0.145433876468359	0.093469387755102	0.234285714285714	0.140816326530612
0	0.113581603581604	0.0635835835835836	0.290810810810811	0.227227227227227
1	0.140781440781441	0.0904948646125115	0.234285714285714	0.143790849673203
-2	0.123854995579134	0.0758459366807826	0.235555555555556	0.159709618874773
-8	0.00355665839536784	0.00947951273532652	0.234285714285714	0.224806201550388
1	0.113510167992927	0.0532895457033389	0.235555555555556	0.182266009852217
0	0.0262922262922263	0.00155945419103312	0.231578947368421	0.230019493177388
-3	-0.0623443223443219	-0.0425225225225221	0.290810810810811	0.333333333333333
-2	0.123854995579134	0.0758459366807825	0.235555555555556	0.159709618874773
1	0.15276241000379	0.0804933504933507	0.290810810810811	0.21031746031746
-4	-0.029885057471264	-0.036353916065223	0.333333333333333	0.369687249398556
-1	0.178196856906534	0.102342342342342	0.293333333333333	0.190990990990991
-6	-0.179818031430935	-0.133572567783094	0.231578947368421	0.365151515151515
-4	-0.131168091168091	-0.0787004548408057	0.341052631578947	0.419753086419753
-9	-0.217948717948718	-0.12935064935065	0.234285714285714	0.363636363636364
-2	0.0548894783377545	0.0213994757007463	0.235555555555556	0.214156079854809
5	0.18	0.116952380952381	0.234285714285714	0.117333333333333
-4	-0.0200827129859391	-0.032777777777778	0.235555555555556	0.268333333333334
-4	0.181902398676592	0.11171261487051	0.286315789473684	0.174603174603174
-2	0.12763925729443	0.0706516596171771	0.290810810810811	0.220159151193634
2	0.228806366047746	0.133538011695907	0.286315789473684	0.152777777777778
-5	0.0969584438549955	0.0670927950658816	0.293333333333333	0.226240538267452
3	0.214285714285714	0.111111111111111	0.333333333333333	0.222222222222222
-1	0.0625236832133382	0.0155844155844155	0.272727272727273	0.257142857142857
0	0.160636604774536	0.0976245210727969	0.235555555555556	0.137931034482759
-1	-0.0306858658582795	-0.0436008941272098	0.234594594594595	0.278195488721804
4	0.184330484330484	0.120141793690181	0.234285714285714	0.114143920595534
1	0.211564986737401	0.124153627311522	0.286315789473684	0.162162162162162
-7	0.108899917287014	0.075814905814906	0.347027027027027	0.271212121212121
-5	-0.160805860805861	-0.099047619047619	0.234285714285714	0.333333333333333
2	0.0589743589743587	0.0244955044955042	0.234285714285714	0.20979020979021
4	0.141538461538462	0.0783333333333333	0.293333333333333	0.215
2	0.151550671550672	0.091764705882353	0.235555555555556	0.143790849673203
3	0.0346343311860553	-0.00859641153758806	0.178378378378378	0.186974789915966
3	0.174037444037444	0.10648709315376	0.235555555555556	0.129068462401796
1	0.0576353276353276	0.0207407407407407	0.235555555555556	0.214814814814815
4	0.216178266178266	0.144679979518689	0.234285714285714	0.0896057347670251
0	0.0650701023114817	0.0252380952380953	0.235555555555556	0.21031746031746
-5	0.181720430107527	0.109090909090909	0.333333333333333	0.224242424242424
3	0.0789162561576356	0.0163492063492064	0.226666666666667	0.21031746031746
-8	-0.0765694076038902	-0.0391705808225455	0.234285714285714	0.27345629510826
1	0.131709401709402	0.08	0.235555555555556	0.155555555555556
4	0.249458689458689	0.161121794871795	0.293333333333333	0.132211538461538
-1	0.121220159151194	0.0644701940527713	0.231578947368421	0.16710875331565
3	0.134305923961096	0.0729017049503863	0.178378378378378	0.105476673427992
-4	-0.0614626752557792	-0.0459340659340663	0.234285714285714	0.28021978021978
-3	-0.0682702482702487	-0.0468868868868872	0.234594594594595	0.281481481481482
-5	0.119966914805625	0.068184414524684	0.341052631578947	0.272868217054263
6	0.261766381766382	0.154104251012146	0.286315789473684	0.132211538461538
-4	0.0465839536807278	0.0188888888888888	0.235555555555556	0.216666666666667
1	-0.0164387464387464	-0.0385185185185185	0.235555555555556	0.274074074074074
8	0.34967846967847	0.222118258609487	0.286315789473684	0.0641975308641975
-1	0.0721308576480993	0.0295909702806257	0.235555555555556	0.20596458527493
-2	0.135996691480562	0.0773296373296372	0.234594594594595	0.157264957264957
3	0.174037444037444	0.10648709315376	0.235555555555556	0.129068462401796
2	0.206613616268789	0.130078882127564	0.235555555555556	0.105476673427992
4	0.261729751729752	0.161742348409015	0.290810810810811	0.129068462401796
0	0.102740937223696	0.0520197044334975	0.234285714285714	0.182266009852217
-2	-0.00370370370370371	0.00143748143748143	0.234285714285714	0.232848232848233
5	0.118176638176638	0.0544141163496001	0.235555555555556	0.181141439205955
0	0.206949602122016	0.128648648648649	0.290810810810811	0.162162162162162
3	0.0697435897435897	0.0257653457653457	0.235555555555556	0.20979020979021
-5	-0.0651686244789694	-0.0409156094870381	0.234594594594595	0.275510204081633
2	0.178370594922319	0.109505135387488	0.235555555555556	0.126050420168067
2	0.0124668435013263	-0.0216216216216216	0.178378378378378	0.2
-1	0.149867374005305	0.0963546798029555	0.234285714285714	0.137931034482759
-6	0.0229114971050454	0.0131475029036004	0.234285714285714	0.221138211382114
3	0.116551724137932	0.0271264367816096	0.28	0.25287356321839
-15	-0.57196029776675	-0.313929313929314	0.178378378378378	0.492307692307692
4	0.229955791335102	0.119987189068005	0.286315789473684	0.16632860040568
-1	-0.118477818477818	-0.103162845385067	0.234285714285714	0.337448559670781
0	0.145433876468359	0.0934693877551019	0.234285714285714	0.140816326530612
3	0.0220512820512818	0.00511904761904741	0.234285714285714	0.229166666666667
6	0.205868945868946	0.109669371604855	0.290810810810811	0.181141439205955
-1	0.0296703296703295	0.0120634920634919	0.234285714285714	0.222222222222222
4	0.350678287230011	0.21500221141088	0.341052631578947	0.126050420168067
0	0.160636604774536	0.0976245210727969	0.235555555555556	0.137931034482759
-4	0.0291777188328911	0.0141265630920802	0.234285714285714	0.220159151193634
2	0.0307692307692309	0.0100432900432901	0.234285714285714	0.224242424242424
-3	0.134739454094293	0.0869172932330825	0.234285714285714	0.147368421052632
5	0.195099715099715	0.121411634960022	0.235555555555556	0.114143920595534
-3	0.022281167108753	0.0106015037593982	0.234285714285714	0.223684210526316
-3	-0.0979840848806364	-0.0907043913940464	0.235555555555556	0.326259946949602
-6	-0.0600530503978781	-0.0403065134099618	0.235555555555556	0.275862068965517
1	0.0847745358090188	0.0355555555555557	0.235555555555556	0.2
-2	0.037059492231906	0.0161389961389961	0.234285714285714	0.218146718146718
6	0.121794871794872	0.046781798245614	0.341052631578947	0.294270833333333
2	0.308806366047745	0.18827485380117	0.341052631578947	0.152777777777778
-1	0.113042819249716	0.0592095623674573	0.286315789473684	0.227106227106227
1	0.140136415308829	0.0681690713269663	0.286315789473684	0.218146718146718
3	0.14994301994302	0.0715009746588695	0.286315789473684	0.214814814814815
0	0.0988603988603987	0.0672527472527471	0.234285714285714	0.167032967032967
-5	-0.0660968660968658	-0.0224460973542979	0.231578947368421	0.254025044722719
4	0.243858363858364	0.142524939800482	0.286315789473684	0.143790849673203
-2	0.033050397877984	0.0118713450292397	0.235555555555556	0.223684210526316
-9	-0.2745282303903	-0.148945778076213	0.234594594594595	0.383540372670808
-4	-0.132891246684351	-0.0990476190476194	0.234285714285714	0.333333333333334
0	-0.0462599469496016	-0.074789272030651	0.235555555555556	0.310344827586207
-4	0.201373035566584	0.125888815644913	0.347027027027027	0.221138211382114
-1	0.125729442970822	0.0815079365079364	0.234285714285714	0.152777777777778
-5	0.0165340406719717	0.0101477832512315	0.234285714285714	0.224137931034483
-7	-0.155058734369079	-0.0905442176870748	0.234285714285714	0.324829931972789
-2	-0.0589540089540089	-0.048997568997569	0.234285714285714	0.283283283283283
1	0.15276241000379	0.0804933504933507	0.290810810810811	0.21031746031746
1	0.0576353276353276	0.0207407407407407	0.235555555555556	0.214814814814815
-3	-0.0556271314892007	-0.0471666972308823	0.231578947368421	0.278745644599303
1	0.168328912466843	0.0966635601118358	0.234594594594595	0.137931034482759
-4	-0.109885057471264	-0.0896872493985563	0.28	0.369687249398556
0	0.216498673740053	0.140555555555555	0.293333333333333	0.152777777777778
3	0.280215053763441	0.15962962962963	0.28	0.12037037037037
-5	-0.0524314765694077	-0.0415763546798031	0.234285714285714	0.275862068965517
2	0.163268213268213	0.105217251883918	0.234285714285714	0.129068462401796
1	0.0359544159544158	0.0164861021331609	0.174857142857143	0.158371040723982
-4	-0.061462675255779	-0.0459340659340662	0.234285714285714	0.28021978021978
2	0.157377794619174	0.0759983291562241	0.286315789473684	0.21031746031746
1	0.144190981432361	0.0818168168168167	0.234594594594595	0.152777777777778
-11	-0.194831375521031	-0.0774873353596762	0.293333333333333	0.370820668693009
4	0.0925356125356124	0.0384401709401708	0.235555555555556	0.197115384615385
-2	-0.0429405077680939	-0.0432895752895752	0.174857142857143	0.218146718146718
3	0.346062902614627	0.22097660685896	0.347027027027027	0.126050420168067
0	0.0367866616142477	0.00766917293233074	0.176842105263158	0.169172932330827
-1	0.0478287230011369	0.0174088374088375	0.235555555555556	0.218146718146718
1	0.0607814407814407	0.0310662931839402	0.174857142857143	0.143790849673203
2	0.172466843501327	0.0908108108108111	0.290810810810811	0.2
-2	-0.034369079196666	-0.0398455598455603	0.234285714285714	0.274131274131274
-1	-0.0444037444037442	-0.0455496766607876	0.234285714285714	0.279835390946502
-5	0.00011367942402396	0.00571428571428548	0.234285714285714	0.228571428571429
4	0.378921308576481	0.235575958150956	0.341052631578947	0.105476673427992
-7	-0.388319088319089	-0.234850088183422	0.234285714285714	0.469135802469136
-4	-0.0157981803143093	-0.028962148962149	0.234285714285714	0.263247863247863
-9	-0.069348799348799	-0.0105349794238681	0.235555555555556	0.246090534979424
-2	0.0923683213338384	0.0424066121059881	0.313170731707317	0.270764119601329
0	0.239823165340407	0.141062441752097	0.347027027027027	0.20596458527493
4	0.141538461538462	0.0855555555555557	0.235555555555556	0.15
-3	0.103961096374889	0.0621808014911461	0.234594594594595	0.172413793103448
4	0.216178266178266	0.144679979518689	0.234285714285714	0.0896057347670251
1	0.14078144078144	0.0904948646125114	0.234285714285714	0.143790849673203
-5	0.00011367942402396	0.00571428571428548	0.234285714285714	0.228571428571429
5	0.18022792022792	0.093695426195426	0.290810810810811	0.197115384615385
1	0.182475685234306	0.11240284619595	0.235555555555556	0.123152709359606
5	0.105889295889296	0.0242013442013441	0.251428571428571	0.227227227227227
-4	0.0273032714412026	0.0114176245210729	0.235555555555556	0.224137931034483
-3	0.113085764809903	0.0745760954109411	0.234285714285714	0.159709618874773
-7	0.0958808933002483	0.0640935672514621	0.286315789473684	0.222222222222222
2	0.163895414929898	0.0937782680639823	0.234594594594595	0.140816326530612
-4	0.0962687886825816	0.0631417624521071	0.235555555555556	0.172413793103448
3	0.188400488400488	0.123174603174603	0.234285714285714	0.111111111111111
0	0.03950752950753	0.00752752752752783	0.290810810810811	0.283283283283283
-2	0.149330024813896	0.0805544005544006	0.290810810810811	0.21025641025641
3	0.0507692307692309	0.0248571428571429	0.174857142857143	0.15
9	0.220512820512821	0.118191763191763	0.290810810810811	0.172619047619048
-6	-0.078704054566124	-0.0444599303135892	0.234285714285714	0.278745644599303
0	0.228788682581786	0.140764212488351	0.290810810810811	0.15004659832246
1	0.164774535809019	0.0933333333333333	0.293333333333333	0.2
-5	-0.190362511052166	-0.145024630541872	0.234285714285714	0.379310344827586
2	0.206613616268789	0.130078882127564	0.235555555555556	0.105476673427992
3	0.029306555513452	-0.0287912087912088	0.251428571428571	0.28021978021978
-5	0.0165340406719717	0.0101477832512315	0.234285714285714	0.224137931034483
1	-0.0661538461538463	-0.0574789915966388	0.234285714285714	0.291764705882353
-7	0.0074093722369582	0.0120240616792339	0.234594594594595	0.222570532915361
0	0.0539295187571053	0.00812030075187997	0.286315789473684	0.278195488721804
-4	0.0813944676013641	0.0602930402930403	0.234285714285714	0.173992673992674
-10	-0.207179487179487	-0.112270531400966	0.235555555555556	0.347826086956522
6	0.291477411477412	0.175204678362573	0.286315789473684	0.111111111111111
-2	0.103190602500947	0.0577443609022556	0.286315789473684	0.228571428571429
-5	0.0399669148056245	0.0134475724194206	0.286315789473684	0.272868217054264
-1	0.0981968569065342	0.0445645645645644	0.235555555555556	0.190990990990991
-1	0.112171276998863	0.0654216622637673	0.234594594594595	0.169172932330827
-3	0.0921636983705951	0.0615628815628817	0.235555555555556	0.173992673992674
-2	0.0396109637488946	0.00744101633393818	0.231578947368421	0.224137931034483
-4	0.181220159151194	0.114451646357272	0.341052631578947	0.226600985221675
6	0.153846153846154	0.0815789473684212	0.231578947368421	0.15
-2	0.037059492231906	0.0161389961389961	0.234285714285714	0.218146718146718
-6	0.0077614977614977	0.0263835928952208	0.290810810810811	0.26442721791559
-5	0.106633581472291	0.0615095879232967	0.286315789473684	0.224806201550388
-3	0.0459884201819688	0.0104407359863074	0.231578947368421	0.221138211382114
-4	-0.251211317418214	-0.19349623803787	0.234594594594595	0.428090832632464
-6	-0.0907000407000412	-0.0430403923086854	0.234285714285714	0.2773261065944
-3	-0.0682702482702481	-0.0468868868868868	0.234594594594595	0.281481481481481
1	0.128131868131868	0.0685885885885887	0.290810810810811	0.222222222222222
0	0.215521030693445	0.128880308880309	0.347027027027027	0.218146718146718
5	0.192271062271062	0.0943965975544925	0.286315789473684	0.191919191919192
0	0.0244973544973544	-0.00395061728395074	0.28	0.283950617283951
0	0.0469496021220158	0.0162162162162161	0.178378378378378	0.162162162162162
-8	-0.138213969938108	-0.0810588645071404	0.235555555555556	0.316614420062696
-1	0.220612076095947	0.129050832208727	0.286315789473684	0.157264957264957
0	0.120940170940171	0.0787301587301586	0.234285714285714	0.155555555555556
-6	-0.205906277630416	-0.139772314799538	0.176842105263158	0.316614420062696
0	0.102740937223696	0.0520197044334975	0.234285714285714	0.182266009852217
-2	-0.0344297082228117	-0.0425225225225225	0.290810810810811	0.333333333333333
0	0.228788682581786	0.140764212488351	0.290810810810811	0.15004659832246
-4	-0.033280282935455	-0.0363548746391469	0.290810810810811	0.327165685449958
3	0.174037444037444	0.10648709315376	0.235555555555556	0.129068462401796
-7	-0.203731211317418	-0.134131693843001	0.235555555555556	0.369687249398556
2	0.151550671550672	0.091764705882353	0.235555555555556	0.143790849673203
5	0.346345136345137	0.211984169177152	0.341052631578947	0.129068462401796
-1	0.0296703296703294	0.0120634920634918	0.234285714285714	0.222222222222222
1	0.131709401709402	0.08	0.235555555555556	0.155555555555556
-5	-0.086731786731787	-0.0471957671957674	0.234285714285714	0.281481481481482
-1	0.0318152218152218	0.0100500500500501	0.293333333333333	0.283283283283283
0	0.193581603581604	0.1197997997998	0.347027027027027	0.227227227227227
-5	-0.0520070733863835	-0.0411475563031491	0.235555555555556	0.276703111858705
-1	0.190620347394541	0.0893612078977932	0.313170731707317	0.223809523809524
7	0.272706552706553	0.124102564102564	0.35047619047619	0.226373626373626
-2	0.0476392572944296	0.0144354434009606	0.234594594594595	0.220159151193634
0	0.0916710875331565	0.0401532567049808	0.235555555555556	0.195402298850575
-4	0.0273032714412023	0.0114176245210727	0.235555555555556	0.224137931034483
2	0.201626878868258	0.0777702931479996	0.303111111111111	0.225340817963111
-3	0.057064544650752	0.0194408201304755	0.347027027027027	0.327586206896552
1	0.195844385499558	0.128809040857722	0.234285714285714	0.105476673427992
-2	0.103190602500947	0.0577443609022556	0.286315789473684	0.228571428571429
4	0.279169719169719	0.182222222222222	0.293333333333333	0.111111111111111
7	0.163846153846154	0.0824774774774776	0.290810810810811	0.208333333333333
-1	0.125729442970822	0.0815079365079363	0.234285714285714	0.152777777777778
3	0.382332506203474	0.238195488721805	0.341052631578947	0.102857142857143
0	0.0139031339031343	-0.00113360323886608	0.286315789473684	0.28744939271255
0	0.227197170645447	0.126896551724138	0.341052631578947	0.214156079854809
-7	-0.468469678469678	-0.252044129235618	0.324	0.576044129235618
1	0.220136415308829	0.122905913432229	0.341052631578947	0.218146718146718
3	0.188400488400488	0.123174603174603	0.234285714285714	0.111111111111111
-9	-0.203099658961728	-0.103914722175592	0.234594594594595	0.338509316770187
3	0.108400488400488	0.0637460317460317	0.174857142857143	0.111111111111111
5	0.177150997150997	0.102383056133056	0.234594594594595	0.132211538461538
5	0.292820512820513	0.203297491039427	0.235555555555556	0.032258064516129
-7	-0.070822281167109	-0.0415763546798032	0.234285714285714	0.275862068965517
2	0.178370594922319	0.109505135387488	0.235555555555556	0.126050420168067
-5	-0.121396993810787	-0.0933004926108374	0.234285714285714	0.327586206896552
-4	-0.0614626752557792	-0.0459340659340663	0.234285714285714	0.28021978021978
-3	-0.0384842743463437	-0.0387383091876034	0.341052631578947	0.379790940766551
-4	-0.111430934656741	-0.096173767752715	0.176842105263158	0.273015873015873
2	0.132747252747253	0.0640935672514621	0.286315789473684	0.222222222222222
-3	0.0937097385373244	0.0651127819548869	0.234285714285714	0.169172932330827
4	0.161394467601364	0.0650770934491866	0.23906976744186	0.173992673992674
-2	0.0788420181968569	0.0338011695906432	0.235555555555556	0.201754385964912
-2	0.108488063660477	0.072123552123552	0.234285714285714	0.162162162162162
-3	0.178575217885563	0.118455598455598	0.347027027027027	0.228571428571429
-4	0.107303271441202	0.0691954022988505	0.293333333333333	0.224137931034483
0	0.145433876468359	0.0934693877551019	0.234285714285714	0.140816326530612
-1	0.141096374889479	0.0855089572330953	0.235555555555556	0.15004659832246
-3	0.0923768823768821	0.063726524984548	0.341052631578947	0.2773261065944
-10	-0.234192104192104	-0.117323927101705	0.174857142857143	0.292181069958848
1	0.0667073667073664	0.0294926859632739	0.234285714285714	0.20479302832244
4	0.163858363858364	0.0877880976952184	0.231578947368421	0.143790849673203
-1	0.164863523573201	0.10042042042042	0.235555555555556	0.135135135135135
-5	0.0966047745358091	0.064209825589136	0.290810810810811	0.226600985221675
-11	-0.272696728558798	-0.146689492133366	0.235555555555556	0.382245047688922
-2	0.0891941391941392	0.0631145431145431	0.234285714285714	0.171171171171171
2	0.190167992926614	0.111441885234989	0.234594594594595	0.123152709359606
-1	-0.126471306471306	-0.104586691955113	0.234594594594595	0.339181286549707
9	0.392307692307692	0.245880217785844	0.341052631578947	0.0951724137931035
-3	0.0676095947063688	0.0224774774774774	0.290810810810811	0.268333333333334
4	0.20735632183908	0.0977339901477833	0.28	0.182266009852217
-2	-0.0616564916564918	-0.0493560226893562	0.234594594594595	0.283950617283951
1	-0.040968660968661	-0.0445998707175178	0.174857142857143	0.219457013574661
-4	-0.0759625559625557	-0.0459259259259257	0.235555555555556	0.281481481481481
-5	-0.0996526054590569	-0.0863956639566394	0.235555555555556	0.321951219512195
-5	-0.067934823796893	-0.0431900890437478	0.235555555555556	0.278745644599303
2	0.246491656491657	0.135582887452806	0.313170731707317	0.177587844254511
7	0.154052396878484	0.0931267699483592	0.235555555555556	0.142428785607196
5	0.257150997150997	0.158599272349273	0.290810810810811	0.132211538461538
5	0.22923076923077	0.140810810810811	0.290810810810811	0.15
-9	-0.124218362282879	-0.0741010575793187	0.234594594594595	0.308695652173913
-7	-0.00585673585673591	0.0193626184323858	0.235555555555556	0.21619293712317
0	-0.00635846911708965	-0.0323015873015872	0.235555555555556	0.267857142857143
3	0.0999633699633701	0.0436363636363638	0.235555555555556	0.191919191919192
2	0.0246153846153849	0.00496732026143815	0.235555555555556	0.230588235294117
5	0.14994301994302	0.0571851851851851	0.272	0.214814814814815
1	0.115954415954416	0.0759146735617322	0.234285714285714	0.158371040723982
1	0.0576353276353276	0.0207407407407407	0.235555555555556	0.214814814814815
-6	-0.0998180314309349	-0.0788357256778311	0.286315789473684	0.365151515151515
-5	-0.0424580017683463	-0.0352559827797237	0.286315789473684	0.321571772253408
-2	0.088058608058608	0.0601169590643274	0.235555555555556	0.175438596491228
-2	0.0284274346343312	0.00748836748836748	0.234594594594595	0.227106227106227
-4	-0.141462675255779	-0.105362637362638	0.174857142857143	0.28021978021978
0	0.114513634513635	0.0709465020576132	0.235555555555556	0.164609053497942
-1	0.0809018567639255	0.0388834154351394	0.234285714285714	0.195402298850575
-3	-0.0841025641025644	-0.0484681130834979	0.235555555555556	0.284023668639053
-2	0.104478969306555	0.0663826232247284	0.235555555555556	0.169172932330827
4	0.16978428978429	0.0815227611512441	0.286315789473684	0.20479302832244
-7	-0.246096866096866	-0.146130511463845	0.174857142857143	0.320987654320988
-6	-0.0437551695616211	-0.0372590011614401	0.234285714285714	0.271544715447154
0	-0.12049247049247	-0.104904904904905	0.178378378378378	0.283283283283283
-2	0.0697082228116714	0.0207670800774252	0.347027027027027	0.326259946949602
-2	0.103190602500947	0.0577443609022557	0.286315789473684	0.228571428571429
-9	-0.196426799007444	-0.124444444444445	0.235555555555556	0.36
1	0.099363395225464	0.0391922957440198	0.234594594594595	0.195402298850575
1	0.195844385499558	0.128809040857722	0.234285714285714	0.105476673427992
-2	0.111762031072376	0.0606954887218045	0.341052631578947	0.280357142857143
4	0.19924971580144	0.099340999557718	0.286315789473684	0.186974789915966
-1	0.0501856763925727	0.00771929824561385	0.341052631578947	0.333333333333334
5	0.097150997150997	0.0461668399168398	0.178378378378378	0.132211538461538
2	0.0891941391941391	0.0423665223665223	0.234285714285714	0.191919191919192
-3	0.0399469496021221	0.0153964043619217	0.235555555555556	0.220159151193634
-4	-0.0397877984084881	-0.0389238347859038	0.234285714285714	0.273209549071618
-2	0.225508684863523	0.145964912280702	0.293333333333333	0.147368421052632
-3	0.0399469496021221	0.0153964043619217	0.235555555555556	0.220159151193634
4	0.234358974358974	0.143957663957664	0.290810810810811	0.146853146853147
3	0.219325502084123	0.147232142857143	0.234285714285714	0.0870535714285714
-8	-0.183837312113174	-0.106487808727215	0.286315789473684	0.3928035982009
4	0.240742705570292	0.149955096161993	0.234594594594595	0.084639498432602
3	0.0697435897435896	0.0257653457653456	0.235555555555556	0.20979020979021
2	-0.153846153846154	-0.12036036036036	0.226666666666667	0.347027027027027
-1	0.103744403744404	0.0696766607877717	0.234285714285714	0.164609053497942
-1	0.141096374889479	0.0855089572330953	0.235555555555556	0.15004659832246
3	0.225340406719717	0.124482210405131	0.290810810810811	0.16632860040568
4	0.216178266178266	0.144679979518689	0.234285714285714	0.0896057347670251
-2	0.0548894783377545	0.0213994757007463	0.235555555555556	0.214156079854809
3	0.233050397877984	0.150916057122954	0.235555555555556	0.0846394984326019
-7	0.0908753315649868	0.0679249848759832	0.286315789473684	0.218390804597701
-10	-0.317452440033086	-0.19203216374269	0.231578947368421	0.423611111111111
1	0.206896551724138	0.109649122807017	0.333333333333333	0.223684210526316
-2	0.103190602500947	0.0577443609022557	0.286315789473684	0.228571428571429
-1	-0.144558404558404	-0.105950322792428	0.290810810810811	0.396761133603239
-7	0.0121588089330023	0.0104761904761903	0.234285714285714	0.223809523809524
4	0.341786030061892	0.232988505747126	0.293333333333333	0.0603448275862069
4	0.51632183908046	0.316847290640394	0.44	0.123152709359606
-5	0.0279929266136161	0.0166302214746284	0.293333333333333	0.276703111858705
-6	-0.138107869142352	-0.0950779167298814	0.178378378378378	0.27345629510826
3	0.0574928774928774	0.0151375810199339	0.234594594594595	0.219457013574661
-2	-0.0343690791966659	-0.0398455598455602	0.234285714285714	0.274131274131274
-1	0.0521839080459771	0.00413793103448279	0.28	0.275862068965517
-1	0.222581786030062	0.132870947172218	0.347027027027027	0.214156079854809
-6	0.0353515301902403	0.0179425937565476	0.290810810810811	0.272868217054263
3	0.188400488400488	0.123174603174603	0.234285714285714	0.111111111111111
-3	0.0367741935483873	0.00285714285714297	0.226666666666667	0.223809523809524
0	0.133793103448276	0.0598408488063661	0.28	0.220159151193634
-6	0.0344827586206897	0.0229885057471264	0.333333333333333	0.310344827586207
-5	-0.0524314765694077	-0.0415763546798031	0.234285714285714	0.275862068965517
-3	0.0937097385373244	0.0651127819548869	0.234285714285714	0.169172932330827
-1	0.0809018567639255	0.0388834154351394	0.234285714285714	0.195402298850575
0	0.0404395604395604	0.0133333333333333	0.235555555555556	0.222222222222222
1	0.14078144078144	0.0904948646125114	0.234285714285714	0.143790849673203
0	0.0409401709401709	0.0193015873015872	0.174857142857143	0.155555555555556
-4	-0.0477453580901857	-0.0442831215970962	0.231578947368421	0.275862068965517
2	0.0653276353276352	0.0197797797797797	0.234594594594595	0.214814814814815
1	0.140781440781441	0.0904948646125115	0.234285714285714	0.143790849673203
-5	-0.0867317867317873	-0.0471957671957677	0.234285714285714	0.281481481481482
-7	-0.226487305797651	-0.139863945578232	0.234285714285714	0.374149659863946
6	0.187343690791966	0.116166396811558	0.178378378378378	0.0622119815668203
-4	0.0823114816218265	0.0587698412698413	0.235555555555556	0.176785714285714
-7	-0.066752557787041	-0.0256035437430789	0.293333333333333	0.318936877076412
-1	0.149867374005305	0.0963546798029555	0.234285714285714	0.137931034482759
-8	-0.14553492484527	-0.0872860579676939	0.234285714285714	0.321571772253408
3	0.0999633699633701	0.0436363636363638	0.235555555555556	0.191919191919192
7	0.254928774928775	0.169242558208075	0.235555555555556	0.0663129973474801
1	0.140781440781441	0.0904948646125114	0.234285714285714	0.143790849673203
-6	0.00957816377171228	0.00412543554006978	0.174857142857143	0.170731707317073
1	0.0847745358090187	0.0355555555555557	0.235555555555556	0.2
-1	-0.150712250712251	-0.109071014334172	0.178378378378378	0.28744939271255
0	0.107655677655678	0.0634234234234234	0.234594594594595	0.171171171171171
-6	-0.0728609321712774	-0.0399546485260773	0.235555555555556	0.275510204081633
-3	0.0441202475685235	0.0201296344309049	0.234285714285714	0.214156079854809
-2	0.0548894783377545	0.0213994757007464	0.235555555555556	0.214156079854809
6	0.175384615384615	0.1135960591133	0.234285714285714	0.120689655172414
3	0.188400488400488	0.123174603174603	0.234285714285714	0.111111111111111
-8	-0.350882910193255	-0.206675246675247	0.234594594594595	0.441269841269841
-1	0.221096374889478	0.143286735010873	0.293333333333333	0.15004659832246
1	0.244438549955792	0.135088046304018	0.341052631578947	0.20596458527493
2	0.126723646723647	0.0771845148315737	0.235555555555556	0.158371040723982
0	0.145070102311481	0.0830158730158729	0.293333333333333	0.21031746031746
2	0.278676592224979	0.165945419103314	0.286315789473684	0.12037037037037
-10	-0.138213969938108	-0.0672930201565884	0.235555555555556	0.302848575712144
-8	-0.129776674937965	-0.0866445182724252	0.234285714285714	0.320930232558139
3	0.20300113679424	0.127330447330447	0.235555555555556	0.108225108225108
-4	0.0962687886825819	0.0631417624521074	0.235555555555556	0.172413793103448
2	0.132747252747253	0.0640935672514621	0.286315789473684	0.222222222222222
-6	0.103059239610964	0.0714601550899191	0.341052631578947	0.269592476489028
3	-0.0397476597476596	-0.0658835978835978	0.174857142857143	0.240740740740741
2	0.148806366047745	0.0788011695906434	0.231578947368421	0.152777777777778
0	-0.0336345136345132	-0.0442798353909462	0.235555555555556	0.279835390946502
1	0.103076923076923	0.0615176715176715	0.234594594594595	0.173076923076923
-3	0.11499557913351	0.0666728797763283	0.290810810810811	0.224137931034483
7	0.154358974358974	0.0730561330561329	0.234594594594595	0.161538461538462
-5	0.0169584438549958	0.00931501728810408	0.235555555555556	0.226240538267451
5	0.375308829101933	0.232827523353839	0.341052631578947	0.108225108225108
-1	0.125729442970822	0.0815079365079364	0.234285714285714	0.152777777777778
-1	0.0478287230011369	0.0174088374088375	0.235555555555556	0.218146718146718
1	0.140136415308829	0.0681690713269662	0.286315789473684	0.218146718146718
3	0.146666666666667	0.0887024087024086	0.235555555555556	0.146853146853147
2	0.0774765974765973	0.0307625272331153	0.235555555555556	0.20479302832244
0	0.228788682581786	0.140764212488351	0.290810810810811	0.15004659832246
-4	-0.0614626752557791	-0.0459340659340663	0.234285714285714	0.28021978021978
-4	-0.0416622458001767	-0.0403065134099616	0.235555555555556	0.275862068965517
-2	0.0284880636604775	0.0126949806949807	0.174857142857143	0.162162162162162
-3	-0.061697191697192	-0.0406614987080105	0.272	0.31266149870801
1	0.182475685234306	0.11240284619595	0.235555555555556	0.123152709359606
3	0.158689458689459	0.102074175824176	0.234285714285714	0.132211538461538
-5	0.00011367942402396	0.00571428571428548	0.234285714285714	0.228571428571429
4	0.210693444486548	0.126369486369486	0.234594594594595	0.108225108225108
-1	0.0403006189213086	-0.00470311185870481	0.272	0.276703111858705
5	0.325358090185676	0.201676291041082	0.286315789473684	0.0846394984326019
3	0.085168905168905	0.0298015662721543	0.234594594594595	0.20479302832244
4	0.181729751729752	0.105526132192799	0.234594594594595	0.129068462401796
5	0.18	0.116952380952381	0.234285714285714	0.117333333333333
3	0.0220512820512819	0.00511904761904747	0.234285714285714	0.229166666666667
-4	-0.194528230390299	-0.139502778039363	0.290810810810811	0.430313588850174
6	0.257370777370777	0.171358024691358	0.235555555555556	0.0641975308641975
0	0.104497354497354	0.0493827160493826	0.333333333333333	0.283950617283951
-5	0.014831375521031	0.0153006067291783	0.290810810810811	0.275510204081633
-7	-0.123410382720727	-0.0628905597326648	0.286315789473684	0.349206349206349
-3	0.0441202475685234	0.0201296344309048	0.234285714285714	0.214156079854809
-3	-0.117302008336491	-0.0912823920265781	0.324	0.415282392026578
-7	-0.1305216622458	-0.0820198254681016	0.234594594594595	0.316614420062696
0	0	0	0.234285714285714	0.234285714285714
0	0.12043956043956	0.0711111111111109	0.293333333333333	0.222222222222222
3	0.211564986737401	0.109837837837838	0.272	0.162162162162162
1	0.248328912466844	0.152879776328052	0.290810810810811	0.137931034482759
8	0.400793650793651	0.243727598566308	0.333333333333333	0.0896057347670251
-4	0.046583953680728	0.018888888888889	0.235555555555556	0.216666666666667
-3	-0.193550587343691	-0.150891330891331	0.235555555555556	0.386446886446887
2	0.135897435897436	0.0874325674325672	0.234285714285714	0.146853146853147
10	0.424615384615385	0.272481203007519	0.341052631578947	0.0685714285714286
-6	-0.150132625994696	-0.094982578397213	0.234285714285714	0.329268292682927
3	0.217492877492878	0.127570013452366	0.347027027027027	0.219457013574661
4	0.350678287230011	0.21500221141088	0.341052631578947	0.126050420168067
4	0.16945868945869	0.103344017094017	0.235555555555556	0.132211538461538
-1	-0.0444037444037441	-0.0455496766607875	0.234285714285714	0.279835390946502
6	0.371477411477412	0.229941520467836	0.341052631578947	0.111111111111111
-3	0.0441202475685235	0.0201296344309048	0.234285714285714	0.214156079854809
1	0.248328912466844	0.152879776328052	0.290810810810811	0.137931034482759
0	0.125358090185676	0.0626315789473684	0.286315789473684	0.223684210526316
2	0.231550671550671	0.14954248366013	0.293333333333333	0.143790849673203
2	-0.0210256410256412	-0.034933066933067	0.174857142857143	0.20979020979021
-2	0.037059492231906	0.0161389961389961	0.234285714285714	0.218146718146718
-1	0.141096374889479	0.0855089572330953	0.235555555555556	0.15004659832246
0	0.120940170940171	0.0787301587301586	0.234285714285714	0.155555555555556
-2	0.15409429280397	0.099150579150579	0.234285714285714	0.135135135135135
0	0.136498673740053	0.0827777777777779	0.235555555555556	0.152777777777778
-9	-0.217948717948718	-0.12935064935065	0.234285714285714	0.363636363636364
1	0.15276241000379	0.0804933504933507	0.290810810810811	0.21031746031746
-4	0.126583953680728	0.0766666666666666	0.293333333333333	0.216666666666667
4	0.16978428978429	0.0815227611512441	0.286315789473684	0.20479302832244
-8	-0.0459062776304155	-0.0165327862384597	0.286315789473684	0.302848575712144
7	0.118461538461538	0.0610450450450448	0.178378378378378	0.117333333333333
-5	0.180347394540943	0.12260162601626	0.293333333333333	0.170731707317073
-2	0.108488063660477	0.072123552123552	0.234285714285714	0.162162162162162
-3	-0.0290185676392571	-0.0376539935160624	0.235555555555556	0.273209549071618
-4	0.0291777188328912	0.0141265630920802	0.234285714285714	0.220159151193634
-2	0.0476392572944297	0.0144354434009606	0.234594594594595	0.220159151193634
2	0.145327635327635	0.075995995995996	0.290810810810811	0.214814814814815
1	0.0133459643804473	-0.0236281179138321	0.235555555555556	0.259183673469388
5	0.118176638176638	0.0544141163496001	0.235555555555556	0.181141439205955
-2	-0.0323607427055704	-0.0417807728152557	0.178378378378378	0.220159151193634
9	0.26	0.166023166023166	0.234594594594595	0.0685714285714286
-3	0.0441202475685233	0.0201296344309047	0.234285714285714	0.214156079854809
7	0.186153846153846	0.114865900383142	0.235555555555556	0.120689655172414
0	0.145433876468359	0.093469387755102	0.234285714285714	0.140816326530612
4	0.129629629629629	0.0476190476190475	0.333333333333333	0.285714285714286
-5	-0.0593633952254649	-0.035934959349594	0.293333333333333	0.329268292682927
0	0.160636604774536	0.0976245210727969	0.235555555555556	0.137931034482759
0	0.0219373219373218	0.00791208791208781	0.234285714285714	0.226373626373626
-3	0.0137097385373245	0.0056842105263156	0.174857142857143	0.169172932330827
0	0.228788682581786	0.140764212488351	0.290810810810811	0.15004659832246
1	0.048131868131868	0.0123723723723723	0.234594594594595	0.222222222222222
-12	-0.281176231176231	-0.121112236856918	0.234285714285714	0.355397951142632
1	0.0390313390313388	0.0148287007110535	0.234285714285714	0.219457013574661
-1	0.086031746031746	0.0488888888888889	0.226666666666667	0.177777777777778
3	0.20300113679424	0.127330447330447	0.235555555555556	0.108225108225108
-8	-0.300378931413414	-0.180996677740864	0.234285714285714	0.415282392026578
4	0.141538461538462	0.0855555555555557	0.235555555555556	0.15
-3	0.11499557913351	0.0666728797763283	0.290810810810811	0.224137931034483
1	0.0540577940577947	0.0109754198643092	0.290810810810811	0.279835390946502
