5
[ 1.188, 1.608, 1.608, 1.608, 1.608, 1.608, 1.608, 1.608, 1.608, 1.188, 1.188, 1.188, 1.608, 1.608, 1.188, 1.188, 1.608, 1.608, 1.608, 1.608, 1.188, 1.608, 1.188, 1.052, 1.188, 1.608, 1.188, 1.188, 1.608, 1.608, 1.608, 1.188, 1.608, 1.188, 1.608, 1.188, 1.188, 1.188, 1.188, 1.608, 1.608, 1.608, 1.188, 1.608, 1.608, 1.608, 1.188, 1.188, 1.188, 1.188, 1.608, 1.608, 1.188, 1.608, 1.188, 1.608, 1.608, 1.188, 1.608, 1.188, 1.608, 1.608, 1.608, 1.608, 1.608, 1.608, 1.188, 1.188, 1.188, 1.188, 5.968, 1.608, 1.608, 1.608, 1.608, 1.608, 1.188, 1.608, 1.608, 5.968, 1.188, 1.608, 1.188, 1.608, 1.188, 1.188, 1.188, 1.608, 1.608, 1.608, 1.608, 1.608, 1.188, 1.188, 1.608, 1.608, 1.188, 1.608, 1.608, 5.451, 1.608, 1.188, 1.608, 1.608, 1.608, 1.608, 1.608, 1.608, 1.188, 1.188, 1.608, 1.608, 1.608, 1.188, 1.188, 1.608, 1.188, 1.608, 1.188, 1.188, 1.608, 1.608, 1.052, 1.608, 1.188, 1.608, 1.608, 1.608, 1.608, 1.608, 1.188, 1.608, 1.188, 1.608, 1.188, 1.188, 1.608, 1.608, 1.608, 1.188, 1.608, 1.188, 1.188, 1.608, 1.188, 1.608, 1.608, 1.608, 1.608, 1.608, 1.608, 1.188, 1.608, 1.608, 1.188, 1.188, 1.608, 1.188, 1.188, 1.188, 1.608, 1.188, 1.188, 1.188, 1.188, 1.608, 1.608, 1.608, 1.608, 1.188, 1.608, 1.188, 5.451, 1.188, 1.608, 1.188, 1.608, 1.608, 1.608, 1.188, 1.188, 1.052, 1.188, 1.608, 1.052, 1.188, 1.188, 1.608, 1.188, 1.608, 1.052, 1.188, 1.608, 1.188, 1.608, 1.188, 1.608, 1.188, 1.608, 1.188 ]
5
[ 0.061, 0.061, 0.061, 0.061, 0.061, 0.136, 0.061, 0.136, 0.061, 0.061, 0.112, 0.061, 0.061, 0.061, 0.941, 0.941, 0.061, 0.136, 0.112, 0.136, 0.136, 0.112, 0.136, 0.136, 0.061, 0.957, 0.136, 0.136, 0.941, 0.112, 0.941, 0.061, 0.941, 0.061, 0.112, 0.136, 0.136, 0.061, 0.061, 0.061, 0.061, 0.112, 0.112, 0.061, 0.112, 0.136, 0.136, 0.941, 0.061, 0.136, 0.136, 0.061, 0.136, 0.941, 0.136, 0.941, 0.061, 0.941, 0.136, 0.061, 0.061, 0.061, 0.112, 0.061, 0.941, 0.061, 0.061, 0.941, 0.136, 0.136, 0.061, 0.136, 0.957, 0.941, 0.136, 0.061, 0.061, 0.136, 0.061, 0.136, 0.061, 0.061, 0.136, 0.061, 0.061, 0.061, 0.061, 0.061, 0.941, 0.112, 0.061, 0.941, 0.061, 0.136, 0.112, 0.061, 0.136, 0.136, 0.136, 0.941, 0.136, 0.136, 0.061, 0.061, 0.941, 0.112, 0.112, 0.941, 0.136, 0.136, 0.061, 0.136, 0.136, 0.061, 0.112, 0.941, 0.061, 0.112, 0.061, 0.061, 0.112, 0.061, 0.136, 0.061, 0.061, 0.061, 0.112, 0.061, 0.941, 0.112, 0.941, 0.061, 0.061, 0.061, 0.061, 0.136, 0.061, 0.112, 0.061, 0.061, 0.061, 0.941, 0.061, 0.941, 0.061, 0.061, 0.061, 0.941, 0.136, 0.061, 0.061, 0.061, 0.941, 0.061, 0.112, 0.941, 0.136, 0.061, 0.941, 0.941, 0.061, 0.061, 0.136, 0.941, 0.136, 0.941, 0.061, 0.061, 0.136, 0.957, 0.136, 0.136, 0.941, 0.061, 0.136, 0.061, 0.112, 0.136, 0.136, 0.061, 0.941, 0.136, 0.061, 0.136, 0.061, 0.061, 0.941, 0.061, 0.136, 0.061, 0.061, 0.941, 0.061, 0.061, 0.061, 0.112, 0.112, 0.061, 0.061, 0.136 ]