pars_sum	pars_var	pars_disp	obs_disp	sim_disp
-14	1.03759280521782	0.30943264701477	1.67320565598711	1.36377300897234
-27	0.274664716589564	0.134990641266548	1.52153526369218	1.38654462242563
-10	-0.0694031533840471	-0.00234946327505559	1.44212711278047	1.44447657605553
-32	-0.533267780215381	-0.0651665215401267	1.54036840010133	1.60553492164145
-25	0.244154324911098	0.117971208536574	1.38975457732762	1.27178336879105
-3	0.163709372444234	0.0441503120817799	1.45708730785589	1.41293699577411
50	1.27433837482942	0.226842584397573	1.48567495074652	1.25883236634894
26	1.27328587993813	0.295030634934485	1.46068187392691	1.16565123899242
-21	0.341152151577478	0.135151799485666	1.46187562123516	1.3267238217495
-25	0.24634474447384	0.123389028417445	1.55544852498495	1.4320594965675
45	2.2087248864923	0.509232215771388	1.59721759016628	1.08798537439489
16	0.114038789676443	-0.0227284380060688	1.50736438316506	1.53009282117113
-2	0.151836056834726	0.037481611391776	1.57009030704395	1.53260869565217
-43	0.58480471891324	0.241342612413808	1.39389057932104	1.15254796690723
-34	0.531172472474532	0.215531987873668	1.47545101621375	1.25991902834008
-42	0.384109662222038	0.197743536664338	1.50260905359759	1.30486551693325
19	0.0661536893135342	-0.0423735040416431	1.42622467409601	1.46859817813765
15	0.116949951817604	-0.0168278934901687	1.44302937680421	1.45985727029438
24	-0.084349662951035	-0.100545250449819	1.41128408015825	1.51182933060807
-49	-0.410984447223766	0.0125646995453665	1.54643119941133	1.53386649986597
-15	1.03324870089781	0.311797285432792	1.5883925346177	1.27659524918491
11	0.7797717088462	0.174977009064945	1.63342703320787	1.45845002414293
22	1.15309187460275	0.263282324376564	1.46027694160145	1.19699461722488
-72	-0.188047177741778	0.130169275214364	1.60270932098095	1.47254004576659
8	0.735767683394951	0.176044587094897	1.5246921801034	1.3486475930085
-20	0.417811710486443	0.159370848254406	1.57056090154037	1.41119005328597
-12	-0.588509523711895	-0.135449244494209	1.58614641131197	1.72159565580618
-30	-0.109842763641995	0.0397347813144797	1.50684004447238	1.4671052631579
36	1.10386894388287	0.216669347725805	1.52509303625144	1.30842368852563
20	1.39338391915381	0.332937818222373	1.56970530404468	1.23676748582231
-7	0.129459719289132	0.045151139638228	1.48227502921698	1.43712388957876
14	0.805042692108779	0.179608199455733	1.49464091110499	1.31503271164926
-35	-0.0199219399622326	0.0803300079574936	1.5917079820022	1.5113779740447
-27	-0.0010430976154856	0.058992901099213	1.45969191425711	1.4006990131579
-16	-0.345962987262993	-0.0625543562621929	1.45405246599993	1.51660682226212
-32	-0.655863786202297	-0.101041379257707	1.47010199642288	1.57114337568058
27	1.55265151256274	0.367441385848244	1.48223961468995	1.1147982288417
-50	-0.658405322161403	-0.0524269606274737	1.50011586354933	1.5525428241768
-41	0.196805723567457	0.141658372540617	1.42601633876348	1.28435796622286
-45	0.037113544151258	0.112890681851326	1.4622809804257	1.34939029857437
-25	0.256802203860509	0.125164139006161	1.52203283513673	1.39686869613057
20	0.424025587927736	0.0519568789523448	1.55458845789971	1.50263157894737
30	1.29467407969346	0.280845245291483	1.54812763395545	1.26728238866397
-69	0.255794701986749	0.233835911538018	1.58909906943275	1.35526315789474
-20	-0.719109445799933	-0.153071742689617	1.46893782668838	1.62200956937799
-29	1.17580195782275	0.373120053120184	1.48416094866952	1.11104089554934
8	0.35994926610123	0.0710811173034067	1.41030809098762	1.33922697368421
-33	0.963217353863821	0.333439981880431	1.55364723576644	1.22020725388601
24	1.80641982016461	0.444182404250851	1.4982814988683	1.05409909461745
-27	0.745716835589818	0.261492496814394	1.46893782668837	1.20744532987398
6	0.963902785466455	0.249079205364969	1.48754452754893	1.23846532218397
11	0.859470005034663	0.198225370063337	1.61516615953702	1.41694078947368
-31	0.320226126932718	0.151960375618615	1.4704845395207	1.31852416390209
-3	-0.359817989005752	-0.10214330235876	1.57529619053406	1.67743949289282
-71	0.126336406527297	0.193411829437943	1.4835892584237	1.29017742898575
-23	0.0177611360566123	0.055930215606167	1.46932307274902	1.41339285714286
-69	-0.777936961934761	-0.0418939534242664	1.42531811082727	1.46721206425154
1	1.27709747196194	0.341297083668542	1.50920326215824	1.1679061784897
-18	0.640461935907151	0.21343167025692	1.55364723576644	1.34021556550952
-59	-0.591974555594288	-0.0256314853484634	1.35265798833575	1.37828947368421
14	0.299124116940835	0.0343531334306029	1.555036852073	1.5206837186424
6	0.438716377686204	0.0995889660307345	1.47104645590928	1.37145748987854
-34	0.263716890264883	0.152636216076604	1.62206148282098	1.46942526674437
-19	1.00234533223073	0.309889159540553	1.4932209512342	1.18333179169364
33	0.771611456247421	0.122067852647489	1.5005418422637	1.37847398961621
-29	-0.29644105231264	-0.0135957089925638	1.47787006207847	1.49146577107103
-11	0.669917269800912	0.203979543721811	1.35729762152501	1.1533180778032
-39	0.269508744592297	0.162012266728846	1.48305126318371	1.32103899645487
-21	-0.0656977790535151	0.0259989772627278	1.44055275300643	1.4145537757437
1	0.239707420088977	0.0551359364325388	1.47117257499026	1.41603663855772
-17	0.537072253090849	0.181837955292168	1.43544576513937	1.2536078098472
-8	0.797879974576106	0.225742314832668	1.53336004336452	1.30761772853185
-25	1.0562965165153	0.336938590525938	1.47010199642288	1.13316340589694
-2	0.95174100196603	0.260027952861968	1.45235768827127	1.1923297354093
-8	1.05536134518871	0.299881824215736	1.47960456857664	1.1797227443609
22	0.768419799661478	0.149927565113491	1.52414914004318	1.37422157492969
-33	-0.520387817029921	-0.0634818538143838	1.46303952776456	1.52652138157895
-18	0.554678761245411	0.188257717715045	1.65886339134452	1.47060567362948
-72	-0.702185521588675	-0.0167019922103491	1.41874865517489	1.43545064738524
23	1.31333023507998	0.304018954768796	1.5298254063817	1.2258064516129
2	0.940395072865905	0.248604707870628	1.63770938839112	1.38910468052049
-37	0.945173160469006	0.342411851124554	1.61505250448209	1.27264065335753
45	1.30563529001701	0.241632386809024	1.5264665821239	1.28483419531488
9	1.19529190786341	0.303367481251979	1.53623048291198	1.23286300166
23	0.611454538827259	0.0966785422789813	1.54431449908412	1.44763595680514
-15	0.022153081053494	0.0363318962675929	1.4734244031182	1.43709250685061
-17	-0.109320218153494	0.00867138265516809	1.61302468612662	1.60435330347145
-79	-0.431575871896347	0.0820153054962722	1.57256385998108	1.4905485544848
27	0.173755060290639	-0.0373456895265931	1.50077911959486	1.53812480912145
-19	1.20910334041832	0.367929924667066	1.50997009576619	1.14204017109913
-52	-1.044929799502	-0.155402085380953	1.40103016924209	1.55643225462304
-24	-0.354725519811731	-0.0461805673893643	1.37684807311649	1.42302864050586
-15	0.165795567675198	0.0766728572039548	1.58506508335236	1.50839222614841
-12	-0.101172780021736	-0.00738646774694018	1.35084782766902	1.35823429541596
-4	0.60290529596293	0.166320135940331	1.58227938891147	1.41595925297114
-66	0.611773191907165	0.311041840496477	1.49382929999381	1.18278745949733
-5	0.972334704766069	0.272493646633546	1.58070664302344	1.30821299638989
-35	0.0662203245420248	0.0982884252106508	1.48528532923542	1.38699690402477
-11	0.822150859879211	0.247000229063904	1.55682605261559	1.30982582355169
10	0.851493141697258	0.206417038262646	1.42899863191157	1.22258159364893
-10	1.26735278170755	0.363266073970454	1.43402212330667	1.07075604933622
-14	0.716379394792657	0.222358274320478	1.56713696132066	1.34477868700019
-36	-0.508888114325549	-0.0445582500610833	1.42828032894258	1.47283857900366
-27	0.033814815574198	0.0714434562935164	1.52783640200859	1.45639294571507
-41	0.158726253368783	0.135498672170242	1.48479721564268	1.34929854347243
-43	-0.370877728342421	0.000361869341248822	1.44307965518517	1.44271778584392
-35	-0.0523932298607885	0.0622024104036951	1.42182915583871	1.35962674543502
17	1.89739228443788	0.481942075089577	1.40675757324456	0.924815498154982
-1	0.254468262267143	0.0646159791320431	1.47045479492152	1.40583881578947
-36	0.830898015067538	0.296462372978409	1.49583114964982	1.19936877667141
13	1.05234709777951	0.252520480605901	1.57621947528361	1.32369899467771
-30	0.205598156539251	0.122562781908921	1.49214482525258	1.36958204334365
-42	0.227644165601639	0.157501810856324	1.46090738361174	1.30340557275542
-14	-0.0579521456543644	0.0106174886554744	1.41936112193222	1.40874363327674
-29	0.105081477228978	0.0950823180008138	1.49423595781212	1.3991536398113
26	1.89893998728804	0.453064781158192	1.63727530747398	1.18421052631579
-22	0.111668967575419	0.073504177420056	1.35334563746245	1.2798414600424
-21	0.364178040218063	0.145170561315475	1.49199677427238	1.3468262129569
41	1.56015566445005	0.339912068401108	1.51928320997273	1.17937114157162
-3	0.732237724879659	0.197458588321678	1.56522408747882	1.36776549915715
-10	0.54734461462057	0.167351182931744	1.56276941601445	1.39541823308271
-27	1.05892604514793	0.338210766372765	1.53618647487479	1.19797570850202
-11	0.580159901767143	0.175462208509478	1.51093071281065	1.33546850430117
1	-0.496631219003226	-0.152232472477515	1.52046187807777	1.67269435055529
37	1.17013767863367	0.232890658702401	1.48420644817609	1.25131578947368
-11	0.386699608389876	0.127116354252266	1.53408648227503	1.40697012802276
25	1.06922118795234	0.230738023902472	1.45823503347185	1.22749700956938
-12	1.01129837318918	0.298024275606928	1.5225045153522	1.22448023974527
-33	0.0464114366555339	0.0831306887067853	1.40468521936332	1.32155453065654
-47	-0.536675574145066	-0.0323919602263718	1.44805916759318	1.48045112781955
42	0.414966898807857	-0.00162442437962773	1.40968257593058	1.41130700031021
-21	0.0215499468057203	0.0513683377870588	1.46970992888737	1.41834159110031
-41	0.796890697722102	0.300286915668229	1.4859000602047	1.18561314453647
-5	0.151161446337566	0.045851093849409	1.40000975693047	1.35415866308106
-11	0.536670163592337	0.167819103146805	1.60637643397387	1.43855733082707
-23	-1.4425758103869	-0.344766620518766	1.40284103498363	1.74760765550239
-37	0.454253491799891	0.206618074732218	1.44767715851874	1.24105908378652
-48	0.987612112348135	0.374629569527377	1.57371520735075	1.19908563782337
-31	0.560299186480684	0.220619366636857	1.51677461611236	1.29615524947551
24	1.02111169203362	0.218918061236083	1.4791048184517	1.26018675721562
-10	0.91438654583478	0.266186158164618	1.4791048184517	1.21291866028708
-86	-0.341964304020668	0.120614377726148	1.5614973909464	1.44088301322026
-6	0.893406130896644	0.251759506843725	1.49006622516556	1.23830671832184
-41	0.0941652599229519	0.1212114718663	1.53795949707266	1.41674802520636
-3	0.558295858136445	0.151970596952072	1.44731327018191	1.29534267322984
-25	0.473073672364266	0.181858405193111	1.52337076494865	1.34151235975554
-41	-0.541226418533015	-0.0441900183437225	1.51564284083124	1.55983285917496
-45	-0.181673831377562	0.0614635625789335	1.55544852498495	1.49398496240602
1	0.224666937763839	0.0513413164210279	1.40537092168419	1.35402960526316
-6	-0.42599645295554	-0.111581871971341	1.36067986344829	1.47226173541963
-41	0.661061049259946	0.262998484586947	1.44502346228543	1.18202497769848
-7	-0.00637135300268987	0.00731020339147292	1.4233468419492	1.41603663855772
1	-0.547121358128464	-0.16856497762691	1.5001354046136	1.66870038224051
26	0.584121280672147	0.0903533142027133	1.42899863191157	1.33864531770886
-24	-0.199762163492101	0.00338679398972408	1.59631442556867	1.59292763157895
15	0.851754556824464	0.189971158358616	1.55136973908008	1.36139858072147
-32	-0.137722772389997	0.0345076765870649	1.44231119752111	1.40780352093405
-10	-0.354612182970083	-0.0812013416821387	1.46599545465653	1.54719679633867
44	1.11019188667682	0.194133637892862	1.50420228777845	1.31006864988558
-36	0.282666069797278	0.159066231099096	1.53255667810703	1.37349044700793
-35	-0.104522196935002	0.0517351100818086	1.47010199642288	1.41836688634107
-12	0.222633424230609	0.0825114032239502	1.49054611766964	1.40803471444569
-17	0.467571140225577	0.157077497164087	1.32199132221968	1.1649138250556
-24	-0.878917524951178	-0.179403637962022	1.56194711654663	1.74135075450865
50	0.736956011636677	0.055844667912953	1.57226613496641	1.51642146705346
-1	-0.190601243401974	-0.0609601924812895	1.57479548110635	1.63575567358764
-10	0.77775385743934	0.230100650920705	1.39509497125391	1.16499432033321
82	2.50553072396613	0.543929008426219	1.50420228777845	0.960273279352228
-15	0.401417735677986	0.139337740062669	1.53391185202101	1.39457411195834
40	0.401397802062613	-0.00871567190743305	1.50997009576619	1.51868576767362
-24	-1.14294509484984	-0.255920532340677	1.37242624924744	1.62834678158812
-75	-0.910953692502911	-0.0474431762730128	1.5371462974112	1.58458947368421
-22	0.925526873930704	0.297266711061698	1.47990199645829	1.18263528539659
28	1.16344368582801	0.254532123921831	1.44438536278823	1.1898532388664
10	0.430481801178717	0.0850606410552788	1.47744960603278	1.3923889649775
6	1.22225098358154	0.319461419238342	1.47684540600748	1.15738398676914
-48	0.22402251245566	0.166411736863113	1.45409116270043	1.28767942583732
-22	-0.678413261435629	-0.131286836214771	1.53503717694312	1.6663240131579
24	1.6156901473265	0.391943686380402	1.4859000602047	1.09395637382429
-71	-0.254371157083722	0.103034598371213	1.52046187807777	1.41742727970656
-5	0.636986652451148	0.181012791611052	1.3490455784963	1.16803278688525
-16	0.519306560779301	0.1731995848882	1.61916969308552	1.44597010819732
-10	-0.213440325589977	-0.0431121109265822	1.39260833773606	1.43572044866264
15	0.207099157776267	0.00973144679877525	1.42531811082727	1.4155866640285
23	0.980806491296398	0.207030181352792	1.48171971417361	1.27468953282082
16	1.38793777067002	0.3385323823049	1.4676351207007	1.1291027383958
27	1.0590083425028	0.227721956981117	1.42531811082727	1.19759615384615
-11	1.09428115965801	0.313280185460262	1.52200594723311	1.20872576177285
56	1.40710023988683	0.254576750432652	1.51051384927733	1.25593709884467
22	0.818495319587113	0.168430805362558	1.40301372492562	1.23458291956306
-30	1.12944946771551	0.367750905121078	1.44896766653681	1.08121676141573
-20	0.645869640989883	0.225029217175947	1.4259631919798	1.20093397480385
-6	0.748977405531739	0.213039919680147	1.52569994812965	1.31266002844951
13	0.414212269083304	0.083025160883363	1.43267915299587	1.34965399211251
-11	0.786102055554418	0.233185541515825	1.49419330070064	1.26100775918482
-3	0.491375863695072	0.13622172827644	1.40371739050895	1.26749566223251
-13	0.136044646742169	0.0633582178730903	1.50542065244052	1.44206243456743
38	0.398249145132673	0.00300577444610495	1.42828032894258	1.42527455449648
4	1.32597469683819	0.350470558215368	1.46448960949989	1.11401905128452
33	1.73019766172997	0.401554900842771	1.54852706097282	1.14697216013005
-44	0.1075338814508	0.122883424525628	1.41979131926247	1.29690789473684
4	0.14368121478869	0.0186536878698651	1.54487325873487	1.52621957086501
38	-0.0182939331187404	-0.123187521784596	1.47549668874172	1.59868421052632
-7	0.830971484678453	0.237765966603375	1.5664298615292	1.32866389492582
9	0.859361224447948	0.205066181686954	1.5426167889744	1.33755060728745
-2	0.96484422164358	0.268812748564041	1.41875437712713	1.14994162856309
-48	0.856251010919067	0.33064266621598	1.57242711085311	1.24178444463713
-5	0.356918787033807	0.101292520278906	1.65153175472867	1.55023923444976
21	1.56820058684563	0.381784757563239	1.49464091110499	1.11285615354175
4	0.527845267304092	0.128176112596242	1.50510966644389	1.37693355384765
-37	0.432052570069519	0.20153298958117	1.55092570213178	1.34939271255061
-30	-0.105483566727488	0.0351353651352746	1.36747608535688	1.33234072022161
-20	0.500633034670827	0.17802432620449	1.48420644817608	1.3061821219716
-20	0.548236216759274	0.187923186408455	1.45459444570854	1.26667125930008
17	0.884649293666594	0.189963483321242	1.61498553565879	1.42502205233755
-22	-0.0227841223627756	0.0398537398485383	1.44055275300643	1.40069901315789
-6	1.01330853591582	0.284959848375665	1.55218086321078	1.26722101483511
-7	0.718606549160851	0.209435455415176	1.40195370359036	1.19251824817518
20	0.697425943771261	0.140952287210573	1.38034592339228	1.23939363618171
0	0.281176174431662	0.06903681980809	1.52668484612388	1.45764802631579
-22	-0.00868536098068518	0.0464625429004955	1.48142494891553	1.43496240601504
9	0.46333296883294	0.0980022091423967	1.48456782581071	1.38656561666831
-18	0.092759940039695	0.0595182663806721	1.37814210267895	1.31862383629827
14	0.60758257642548	0.123507586959925	1.55682605261559	1.43331846565567
-39	0.244848584257689	0.159832576595653	1.55388766249693	1.39405508590128
-29	-0.123915611324128	0.0342138800181935	1.52569994812965	1.49148606811146
-47	0.248162690195175	0.170037234460523	1.4233995584989	1.25336232403837
10	0.0687188608451343	-0.0167590719105344	1.43172442496725	1.44848349687779
-80	-0.556700314609427	0.040957134352499	1.46221408106712	1.42125694671462
-15	0.175256915825464	0.0784922978795206	1.447746128659	1.36925383077948
-24	-0.113687103748193	0.0223500527846778	1.46090738361174	1.43855733082707
-32	-0.188175891943845	0.0256771201700818	1.53466188711343	1.50898476694335
-8	1.40108114234424	0.392923162500509	1.57526400572758	1.18234084322707
-26	1.11802636704734	0.358989658860003	1.49707830151928	1.13808864265928
-25	1.02907545613807	0.33269509489675	1.43916710531148	1.10647201041473
-13	0.729044359698102	0.227009104145766	1.50615122840949	1.27914212426373
-16	1.30520216103172	0.389925045008171	1.53466188711343	1.14473684210526
-12	0.858074651959063	0.257753047960809	1.39630212335199	1.13854907539118
-30	0.20185861029668	0.123834519237153	1.531523663974	1.40768914473684
-31	-0.0974412072253061	0.0432198498949106	1.43461500444796	1.39139515455305
42	1.41194781037778	0.287514504604957	1.47518629530027	1.18767179069531
-39	-0.0913876530047304	0.0710278625754417	1.56839628362807	1.49736842105263
17	0.114161523793904	-0.0225846111148933	1.42969014356843	1.45227475468332
-37	-0.23580384866854	0.0203325595557151	1.43831426851294	1.41798170895723
-40	-0.276054374346465	0.0296789758586882	1.48157769565694	1.45189871979826
-3	0.242485596539058	0.0652009739292054	1.44677992129763	1.38157894736842
-12	1.09816166503781	0.324922436520265	1.50077911959486	1.17585668307459
-66	0.263245033112582	0.216346313440248	1.47621473449288	1.25986842105263
-37	0.350142496873284	0.172979901516515	1.42601633876348	1.25303643724696
-20	0.595975516964081	0.203351296891878	1.4963630441863	1.29301174729442
-9	-0.328379829914995	-0.0764851160796971	1.45339328027219	1.52987839635189
53	1.61139900947017	0.326452783848575	1.4591850128274	1.13273222897882
-48	-0.233651302975021	0.0531169368735847	1.51123876428475	1.45812182741117
-44	-1.63272256735854	-0.327876371025744	1.4420407162129	1.76991708723865
-34	0.739717956428535	0.278432210074594	1.61737777295263	1.33894556287804
-36	-0.590487792653952	-0.0767924258808674	1.42529358182132	1.50208600770218
-10	-0.21968097102905	-0.0435980972113825	1.45173297239813	1.49533106960951
-20	-0.296312907642422	-0.0370847013639064	1.47545101621375	1.51253571757765
-39	1.53380228587312	0.495735474828423	1.59133755498623	1.0956020801578
26	1.71320396986493	0.414386694997044	1.53303417411549	1.11864747911845
-3	0.66301226543831	0.183585797904746	1.42753508718634	1.2439492892816
-63	0.0822580571673388	0.160291263385924	1.43703775317833	1.2767464897924
-8	1.03183398373873	0.294364237598748	1.59631442556867	1.30195018796992
-21	-0.571194615873531	-0.106442757212919	1.53670128710841	1.64314404432133
-49	1.15741291288214	0.408857991745489	1.53140316063787	1.12254516889238
-13	0.650662536421563	0.203731038343319	1.45562426060761	1.25189322226429
-22	1.07454801950989	0.334697074389809	1.45235768827127	1.11766061388146
25	1.37358215041565	0.315397150936678	1.58031614057138	1.2649189896347
7	0.605142701904741	0.141026003132096	1.5504558276935	1.40942982456141
-17	0.67304172162649	0.220298768283813	1.51865403144171	1.29835526315789
-18	-0.220838259783987	-0.0239851981869961	1.40825866770549	1.43224386589249
-3	0.71639733504649	0.197701173791721	1.45844280058598	1.26074162679426
17	1.61145453882726	0.399106580028725	1.48206698473735	1.08296040470863
-2	-0.0229273596274746	-0.0104651273252081	1.3979828665168	1.40844799384201
32	0.565425827586759	0.0705460708729082	1.41854792482285	1.34800185394994
-37	1.13012692587201	0.378817176311099	1.51648443768487	1.13766726137377
11	-0.33694929116065	-0.133761661830679	1.40537025888019	1.53913192071087
30	1.45610390083768	0.335426853091141	1.45908058200803	1.12365372891689
-24	-0.939495782046993	-0.197914073692355	1.53408648227503	1.73200055596738
-67	-1.12662544395009	-0.121495386711988	1.52810691486188	1.64960230157387
-23	-1.07424930004533	-0.242153287349006	1.36928413749606	1.61143742484507
17	1.04845918848544	0.246477240077213	1.43336394837338	1.18688670829616
-56	0.309907063789853	0.208527278372952	1.52810691486188	1.31957963648893
0	0.939449080433849	0.256297684055614	1.50169242089772	1.2453947368421
-90	-1.06466749590508	-0.0613791554112957	1.43099337748344	1.49237253289474
-4	1.1152199987698	0.308492735112004	1.55948846768669	1.25099573257468
-66	-0.0308714748825141	0.132534872451847	1.40719016083254	1.2746552883807
9	0.800866884455661	0.195259954249909	1.42014703201896	1.22488707776905
-24	1.16637734447793	0.370268339271064	1.55999220880405	1.18972386953299
-5	1.4307252760521	0.397355597811628	1.47545101621375	1.07809541840212
-16	1.0255600206854	0.312172233393184	1.44156603038566	1.12939379699248
-65	-0.325549541299036	0.0630391960016476	1.44071155798327	1.37767236198163
19	1.03668297805936	0.237799035476427	1.45173297239813	1.2139339369217
-30	0.451308727278523	0.190139157850135	1.57044987440055	1.38031071655041
-42	-0.788655836448675	-0.102742025232876	1.5591089704997	1.66185099573258
-3	1.65159713821628	0.459516868210949	1.5014156388602	1.04189877064925
1	0.489446004961759	0.125597890464031	1.46007012076354	1.33447223029951
-4	-0.520341684948632	-0.143943889438764	1.41645300443527	1.56039689387403
62	1.65240017814957	0.327193664620498	1.39389057932104	1.06669691470054
-16	-0.444161102340317	-0.0884169668181971	1.46580384275458	1.55422080957278
-19	0.846541916406391	0.270369580874298	1.5810716435882	1.3107020627139
12	1.3433229222908	0.336888128747429	1.46599086714323	1.1291027383958
-52	-0.710410700820343	-0.0622461703492263	1.47857421114141	1.54082038149064
4	0.329642197299508	0.0721175426691127	1.49465104431992	1.42253350165081
-76	0.306876869488356	0.250620595816933	1.51884406983745	1.26822347402052
-31	0.32912620142748	0.15455784962992	1.40455784962992	1.25
-37	0.295475980563018	0.166379040442196	1.52914151658073	1.36276247613853
-100	0.664303109416183	0.36541485614552	1.41760245704962	1.0521876009041
41	0.521082361142441	0.0281463245221876	1.46235685083798	1.43421052631579
25	0.465716174932854	0.0553898109393334	1.48052592709178	1.42513611615245
-14	-0.052138364350033	0.0136082700101865	1.50316623966743	1.48955796965724
-3	0.966539148481504	0.264294212677798	1.46187562123516	1.19758140855737
42	1.19495531452967	0.234024359573483	1.40170981336544	1.16768545379196
41	0.546300662707278	0.0341466873415555	1.48967666536813	1.45552997802658
-40	0.483289935005037	0.21811152772304	1.49214482525258	1.27403329752954
4	0.724240358395015	0.182885859653632	1.51365061685049	1.33076475719686
-35	-0.427674009071489	-0.0346911319149468	1.44963922111298	1.48433035302793
14	0.353320769460347	0.0519304086858987	1.49892853251329	1.44699812382739
-33	-0.694052606519539	-0.109824282732195	1.4622809804257	1.57210526315789
-62	-0.767572621008434	-0.0518294631064911	1.47186341819066	1.52369288129715
-40	-0.11477547914716	0.0643451571202931	1.52616496086695	1.46181980374665
6	-0.197532446230498	-0.0825827463462532	1.49833830628533	1.58092105263158
0	-0.482175645906094	-0.146150384407482	1.48754452754893	1.63369491195642
-4	0.0220947040370705	0.00732172830325228	1.54204994228082	1.53472821397757
11	1.13266589893771	0.282320734022236	1.38542327820557	1.10310254418334
-35	-0.67706261661165	-0.100881990660087	1.4466097856557	1.54749177631579
-62	-0.757601541836669	-0.0415991094732044	1.5525905726529	1.59418968212611
-12	-0.729319728356068	-0.177828653424053	1.42969014356843	1.60751879699248
-11	-0.215319495987073	-0.0372152676155042	1.57643975382023	1.61365502143574
-52	-0.0933821536050177	0.0936263033779807	1.46027694160145	1.36665063822346
37	1.72355350296271	0.396278506355845	1.51733113793479	1.12105263157895
12	0.601710987636598	0.13188070752416	1.3877204473231	1.25583973979894
10	0.82789174110447	0.195185087064945	1.45641860962821	1.26123352256326
8	0.649836999979496	0.14997892735705	1.50596504650107	1.35598611914402
-10	0.0894859860988584	0.0419820432431746	1.5713773399957	1.52939529675252
-9	0.744362773574637	0.216991857437844	1.5459392258589	1.32894736842105
-90	-0.507728547443147	0.0749781467262449	1.45872283453272	1.38374468780647
-32	0.498731652530876	0.207833127888791	1.54258544987022	1.33475232198143
-9	-0.718122447073397	-0.181513566758296	1.53025804978306	1.71177161654135
-53	0.2171718983864	0.181914586206808	1.56017149084464	1.37825690463783
-42	-0.307997992969682	0.0148341482001075	1.45339328027219	1.43855913207209
-15	0.638333310552062	0.207553951863983	1.5121330892381	1.30457913737412
-3	-0.517928863191615	-0.145044422379004	1.56276941601445	1.70781383839345
-44	0.482398332866319	0.227377484273395	1.45237071348708	1.22499322921369
-38	-0.657187378262559	-0.0872887673824931	1.44526684846124	1.53255561584373
-45	-0.418535585490142	-0.00617313113521489	1.45844280058598	1.46461593172119
-13	-0.0656806930975025	0.00436169736194847	1.31900907530047	1.31464737793852
-3	0.0983137300464518	0.0255554133888669	1.4712582781457	1.44570286475683
27	1.57515428618293	0.379293447385289	1.44302937680421	1.06373592941892
-41	0.244346257150473	0.157473944137827	1.48956050571945	1.33208656158162
-26	0.0511040944785046	0.0707128188913846	1.44896766653681	1.37825484764543
-40	0.175385060495674	0.141265856774581	1.58669799900306	1.44543214222848
-17	0.473763944987778	0.163354058954414	1.53066513101065	1.36731107205624
-25	0.731356943846438	0.249586034163755	1.4785791691752	1.22899313501144
-27	-0.0441925404994157	0.0479497322029061	1.45033112582781	1.40238139362491
-4	0.653288647863007	0.179733115893111	1.48457729252431	1.3048441766312
-4	0.547143000339439	0.152117118209512	1.46759783263095	1.31548071442143
-58	1.14117983082625	0.429005002951622	1.5614973909464	1.13249238799478
-59	-0.359546322304919	0.0501533813589186	1.53719219933409	1.48703881797517
0	0.714118922810218	0.18941815734774	1.51418765408228	1.32476949673454
28	0.0981203739774035	-0.0599409475991097	1.46915679676179	1.5290977443609
24	1.54465955663083	0.377233438628235	1.49870854806527	1.12147510943704
4	1.80189346564698	0.483529229571405	1.53348585189645	1.04995662232504
-9	-0.182488261948217	-0.035887477225925	1.47990199645829	1.51578947368421
9	0.719468250876512	0.169072677849584	1.48902881820046	1.31995614035088
-21	-0.790557503354546	-0.168033788097978	1.49337748344371	1.66141127154169
-12	0.487836792669889	0.151876108011022	1.41304528755038	1.26116917953936
-15	0.152027704308171	0.0724371379489157	1.55948846768669	1.48705132973777
12	1.05690591561361	0.260960455157536	1.50314019696488	1.24217974180735
-11	0.295263260410476	0.100499350118428	1.47316488492318	1.37266553480475
-28	0.437342382055639	0.186597616952206	1.56607690026688	1.37947928331467
3	0.35479785035893	0.0818755843021131	1.46275438681298	1.38087880251086
-26	0.113926022366654	0.086108772121831	1.40742502408742	1.32131625196559
20	0.266558854284142	0.0130532601629867	1.43861716993742	1.42556390977444
-18	1.07687085523184	0.330167622580936	1.53623048291198	1.20606286033104
-12	-0.395799303804251	-0.0849068978731851	1.52295044530715	1.60785734318033
4	0.185963545404214	0.0317819285260272	1.48967666536813	1.45789473684211
-11	-0.197911754454307	-0.0340351828480943	1.49583114964982	1.52986633249791
-18	1.1874793544698	0.355596439422036	1.48735973557836	1.13176329615633
-40	1.03806864909319	0.369709994919151	1.5673938449552	1.19768385003605
-13	1.13989553646485	0.337571986510495	1.48294550094174	1.14537351443124
-8	0.646764090787931	0.190534330332863	1.5430947855249	1.35256045519204
-45	0.645380128349702	0.27969490140507	1.62837911193139	1.34868421052632
9	1.06301585348907	0.266507069176992	1.50684004447238	1.24033297529538
-12	1.07672533983966	0.316684189575012	1.54036840010133	1.22368421052632
-14	0.310537535567256	0.112689910453782	1.46303952776456	1.35034961731078
-6	0.08919125335738	0.0315555436785875	1.51494639786323	1.48339085418464
-20	0.555894427016759	0.188610352898845	1.4676351207007	1.27902476780186
21	0.663955410211029	0.123117351864196	1.47545101621375	1.35233366434955
-2	0.225380845959855	0.0585317011477469	1.34314268512944	1.28461098398169
-6	0.99618584508278	0.284743114486416	1.48828230004154	1.20353918555513
18	1.48071707479321	0.3617744358905	1.55948846768669	1.19771403179619
38	1.90046747175691	0.454492637840782	1.48456782581071	1.03007518796993
-23	0.363655209963618	0.147478873142873	1.40848663232769	1.26100775918482
-53	-0.226628690281729	0.0664513219106562	1.51051384927733	1.44406252736667
-80	-0.464544932647157	0.0682209512341974	1.4932209512342	1.425
-25	0.180032440535178	0.104927499493702	1.53348585189645	1.42855835240275
-21	0.833376332989344	0.274470876867496	1.50092764378479	1.22645676691729
-32	0.111373095770208	0.0990617442767177	1.43099337748344	1.33193163320673
-14	2.10102954275703	0.59360180981601	1.57526400572758	0.981662195911571
15	1.66312560227994	0.411713097248638	1.58703120019832	1.17531810294968
-20	0.255885542319636	0.108384982713449	1.39571935886361	1.28733437615016
2	0.0655741906382641	0.00362248423674005	1.43703775317833	1.43341526894159
-4	0.140032508879002	0.0397067672114451	1.5005418422637	1.46083507505225
-14	0.358552489195985	0.126233735210124	1.42995982258045	1.30372608737032
3	0.660150083037744	0.167371437716082	1.5352109259394	1.36783948822332
-16	1.12421319172493	0.346567224401279	1.5472966294356	1.20072940503432
15	0.873191736320415	0.197981456119482	1.47545101621375	1.27746956009427
-31	-0.379346667213413	-0.0370282802905437	1.33295272893355	1.36998100922409
-16	0.673536075287561	0.217570730343139	1.53096785952974	1.3133971291866
-8	0.437913907284764	0.13110868950243	1.50192208663162	1.37081339712919
3	0.57813521597788	0.141541110814281	1.57501135630096	1.43347024548668
-6	0.0228459165704233	0.0127772805678017	1.46816939060696	1.45539211003916
10	0.823690304517294	0.196949018055564	1.45969191425711	1.26274289620154
-34	0.710488157154344	0.263697508321495	1.40103016924209	1.13733266092059
-16	0.961085311317514	0.293669104687595	1.62206148282098	1.32839237813338
49	1.97747472987104	0.442359195920117	1.4607802485517	1.01842105263158
-20	0.87819963003209	0.274907080336657	1.55473315153876	1.2798260712021
-53	0.489530010912236	0.252893410495722	1.56603819105176	1.31314478055604
-37	-0.0557059119686016	0.0688927802913433	1.45266848461239	1.38377570432104
2	1.11785977897607	0.296417366515732	1.47545101621375	1.17903364969802
19	-0.116577193210258	-0.0944121369838702	1.40906494926788	1.50347708625175
7	1.04297972238739	0.265700771800316	1.5970003895598	1.33129961775948
-11	-0.502642912631532	-0.117210633379513	1.43742020165861	1.55463083503812
-12	1.24521963426942	0.363348078695381	1.49892853251329	1.13558045381791
-43	-0.906864168927698	-0.135053018895631	1.48007856005173	1.61513157894736
0	-0.443553696603538	-0.134501286572488	1.48227502921698	1.61677631578947
-24	-0.62003197351903	-0.114029316659847	1.45844280058598	1.57247211724583
-6	1.06258528739717	0.30339714251563	1.51428361965739	1.21088647714176
13	0.841920165300935	0.203270959026622	1.38735520996106	1.18408425093444
-51	0.520031859612673	0.246151314853532	1.39451102324613	1.1483597083926
-9	-0.280440908790603	-0.0640944455424386	1.45715132944549	1.52124577498793
14	0.570948862872676	0.11160893111968	1.54890104616566	1.43729211504598
13	0.200123531462075	0.0106496830348135	1.49464091110499	1.48399122807018
-3	0.298085290814357	0.0795800801337809	1.56846635832927	1.48888627819549
-52	-0.346258574302276	0.0367503516328376	1.55712666308693	1.52037631145409
-5	-0.37362771296505	-0.0997759901600999	1.42601633876348	1.52579232892358
43	0.966795153055997	0.147025722966966	1.55376625851637	1.4067405355494
-22	0.216672134172602	0.106933439532575	1.54957324216415	1.44263980263158
-19	0.58487391703516	0.19781709997523	1.52701794797965	1.32920084800442
30	1.12968610820649	0.230320382983731	1.52870747975792	1.29838709677419
-37	-0.115675909029815	0.0527556205147501	1.45040390073503	1.39764828022028
-36	0.294461074774975	0.161884397400889	1.54890104616566	1.38701664876477
0	0.755189859143377	0.199990984590633	1.5917079820022	1.39171699741156
-25	0.554189818137089	0.200111997938397	1.45508881822746	1.25497682028907
-53	-0.39821269509314	0.0197099288873686	1.46970992888737	1.45
-15	0.953787899498131	0.288433056428592	1.52295044530715	1.23451738887856
-26	0.842149971409513	0.28183746577013	1.43122911477004	1.14939164899991
-4	-0.0575101889251108	-0.0148542910230711	1.4932209512342	1.50807524225727
9	-0.0842480015126839	-0.0566625055927865	1.40029970512883	1.45696221072161
-58	-0.0708004998211651	0.107802043250813	1.41090739254877	1.30310534929796
-30	-0.499518176040023	-0.0702449916979153	1.36190961356524	1.43215460526316
18	1.07477953421405	0.245446482027812	1.5664298615292	1.32098337950139
-39	-0.418123244418019	-0.0186036155608194	1.50011586354933	1.51871947911015
-2	0.11053759252044	0.0267097146389959	1.47487339306583	1.44816367842684
-40	-0.428336089867557	-0.0205183260203461	1.46948436383888	1.49000268985923
-98	-0.384677200728083	0.13820054333104	1.56929472615653	1.43109418282549
-72	0.40846825543277	0.264593480498363	1.48479721564268	1.22020373514431
8	0.554481987985152	0.127438563055487	1.45113755773319	1.32369899467771
20	0.792323906441861	0.159862186727844	1.5237656132115	1.36390342648366
-58	0.912547527434346	0.364226640721266	1.44288844548359	1.07866180476232
-35	0.460521474768586	0.201654282086072	1.46674716134304	1.26509287925697
15	1.45688472902814	0.366504076385274	1.48112341083773	1.11461933445245
-16	0.218209300683212	0.0920513543705288	1.51152317880795	1.41947182443742
-35	0.723069400875246	0.269741094714758	1.44079372629371	1.17105263157895
-6	-0.184884567281088	-0.0443399925018042	1.54036840010133	1.58470839260313
-31	0.563165070838386	0.216633651127673	1.43336394837338	1.2167302972457
-44	0.397066512209629	0.20333714579731	1.43916710531148	1.23582995951417
-61	-1.23331043815226	-0.161817843618688	1.52308520347273	1.68490304709141
15	0.308360784769353	0.0353551346254277	1.51564284083124	1.48028770620581
-47	0.544862879507565	0.249820057467566	1.54624425750254	1.29642420003497
31	2.24882875771431	0.553679133060044	1.58929619295115	1.03561705989111
-19	-0.246326234688141	-0.0285264753835448	1.40371739050895	1.43224386589249
-17	0.657950550965133	0.215850325651186	1.48828230004154	1.27243197439036
-13	0.866314639019317	0.262286165065801	1.52469218010339	1.26240601503759
-28	-0.184128513726865	0.0123025744367586	1.43461500444796	1.4223124300112
-55	0.536704335504383	0.259949285977337	1.4259631919798	1.16601390600247
8	0.635910521987352	0.149634790744732	1.51731524892583	1.3676804581811
8	0.869793339666524	0.216937824926436	1.47045479492152	1.25351696999508
-24	-0.631270261096178	-0.116699054482569	1.46275438681298	1.57945344129555
-28	0.311830088140752	0.145263596038915	1.46146568663125	1.31620209059234
-14	0.827683861972819	0.252977186805389	1.46948436383888	1.21650717703349
38	1.640854058598	0.370200794708042	1.52357980436236	1.15337900965431
-19	-0.304544066958726	-0.0405438710240844	1.51755681547477	1.55810068649886
26	1.61101941648043	0.383817776351475	1.55827331174168	1.1744555353902
-75	-1.09306891107786	-0.101373858109444	1.46813833701251	1.56951219512195
-26	-0.733333504192898	-0.14416436677908	1.35729762152501	1.50146198830409
-108	-0.425346047562743	0.130905712135693	1.4607802485517	1.329874536416
-74	-0.844763553149853	-0.0516482561333094	1.38513804076718	1.43678629690049
16	0.249366965329182	0.0203835839979887	1.38542327820557	1.36503969420758
10	0.448079481589313	0.0897862084186316	1.43742020165861	1.34763399323998
-20	0.0152922154106117	0.046004125374923	1.48171971417361	1.43571558879869
-41	-0.0759220151404394	0.0816017387724908	1.57625705175374	1.49465531298125
-26	0.604694195559016	0.220909352348743	1.48967666536813	1.26876731301939
-27	-0.0275960971120135	0.0541945255283689	1.47968765444302	1.42549312891465
-14	0.275037190430957	0.103197084662753	1.50940009218155	1.4062030075188
-63	-1.23264123820784	-0.171677009634174	1.43651985524016	1.60819686487433
2	1.02697189018515	0.272647981678954	1.47377580122783	1.20112781954887
-7	-0.329188849932914	-0.0814914147580192	1.4712582781457	1.55274969290372
2	-0.101233150399696	-0.0437816514206979	1.44026194637977	1.48404359780047
11	0.467163640174309	0.0928053318985911	1.46759783263095	1.37479250073235
22	0.163603439516852	-0.0240864325731283	1.46731130742484	1.49139773999797
-67	-1.2093206168258	-0.144736820837738	1.53151827324013	1.67625509407787
-18	1.41643970821744	0.421397878078275	1.48420644817609	1.06280857009781
-56	0.815154160885919	0.334594094789942	1.45708730785589	1.12249321306594
-13	0.468194777620587	0.154776932177137	1.52977693217714	1.375
7	0.39898355647591	0.084238836288951	1.52103658909794	1.43679775280899
-4	0.519883211795237	0.145408425176892	1.44004019516447	1.29463176998758
-1	-0.324470563175896	-0.0974374033635568	1.51103149615798	1.60846889952153
-50	-0.393955159617	0.0160767892595814	1.50920326215824	1.49312647289866
3	0.36999210628831	0.0846706019047143	1.56970530404468	1.48503470213997
41	0.707848092182126	0.080690339674703	1.49256304469307	1.41187270501836
-17	-0.477411227067805	-0.0965936618701004	1.4308560215845	1.5274496834546
-53	-0.251316188145997	0.0502720684460192	1.3877204473231	1.33744837887708
-38	0.383636381240065	0.185823232150308	1.5106352622255	1.32481203007519
10	0.414594140200525	0.0829176456359384	1.45148821979862	1.36857057416268
10	0.8824964632071	0.209966133627901	1.49221020534566	1.28224407171776
-13	-0.27594046797295	-0.0496798153640123	1.51884406983745	1.56852388520146
5	0.722941256205056	0.180530977210849	1.48420644817609	1.30367547096524
-7	-0.0273415163672093	0.00122176166233379	1.43831426851294	1.43709250685061
32	0.978278908868068	0.185236832147536	1.48094982399618	1.29571299184865
-58	0.677516533510114	0.299833777627099	1.42899863191157	1.12916485428447
-67	0.932462633014163	0.390059187315761	1.49571124850321	1.10565206118745
-15	-0.491179090434831	-0.104825673567979	1.46599545465653	1.57082112822451
5	-0.195473303763236	-0.0785413111507312	1.42428174462303	1.50282305577376
-8	0.786269497923488	0.231317996319599	1.4532254108413	1.22190741452171
8	0.269726590531645	0.044960181298288	1.44987440054807	1.40491421924978
2	-0.0804671642097095	-0.0371307997756183	1.43525919159625	1.47238999137187
-60	0.432110092788136	0.241491927410665	1.46686359521654	1.22537166780588
2	0.725005239693194	0.188286602690814	1.48420644817609	1.29591984548527
-66	0.171256239221607	0.199249697898343	1.51731524892583	1.31806555102749
-15	0.536682693293424	0.174192608616396	1.51359704074936	1.33940443213296
-81	0.395860528480009	0.270435978922764	1.40085703155434	1.13042105263158
14	0.708496788979336	0.154006775129986	1.49524801142899	1.341241236299
7	0.338748157564409	0.0665425170156599	1.48536170520754	1.41881918819188
54	1.2617688065118	0.213046458950202	1.50878203282465	1.29573557387444
-13	-0.0916311278781423	-0.000149727128385457	1.48641242292761	1.48656215005599
-23	0.496858177452451	0.181460712552708	1.49183222958057	1.31037151702787
-66	-0.0331567215011876	0.145434163766535	1.50997009576619	1.36453593199966
10	0.811268529719307	0.191093665832249	1.5371462974112	1.34605263157895
-65	-0.634674637834676	-0.0295980990440257	1.28716203900602	1.31676013805004
-28	-0.648279330321653	-0.11127372054773	1.47186656855531	1.58314028910304
15	1.98475534050033	0.509220462424389	1.51031492686645	1.00109446444207
-31	-1.00375179117773	-0.195162566343332	1.48788696926039	1.68304953560372
15	0.806942365653128	0.18557248907368	1.46652776744301	1.28095527836933
-28	0.606790642363608	0.225152007172062	1.51051384927733	1.28536184210526
-23	0.458871825714156	0.174261660135473	1.51051384927733	1.33625218914185
-21	1.00166103969181	0.31451430676616	1.57109325413458	1.25657894736842
-26	-0.323844362887476	-0.0319745503640738	1.39295209551893	1.424926645883
-35	0.213117401021055	0.136532114599637	1.52012502544819	1.38359291084855
22	-0.407287331105318	-0.190575544609866	1.43172442496725	1.62229996957712
-20	-0.125010251573619	0.0104816658424696	1.54361501735597	1.5331333515135
38	1.88453908925021	0.452910071504061	1.47851675287815	1.02560668137409
-74	0.0763078729807214	0.19733247727198	1.58070664302344	1.38337416575146
15	1.197517353636	0.291679257154521	1.41090739254877	1.11922813539425
-30	-0.185468622211292	0.018962276780913	1.48597584729256	1.46701357051165
12	0.583831673717478	0.123630096521148	1.52914151658073	1.40551142005958
-29	-0.0225677002530889	0.0594186578024787	1.46970992888737	1.41029127108489
-14	0.980598327398818	0.292059202150099	1.53140316063787	1.23934395848777
-34	1.04759663247198	0.35488358430682	1.50997009576619	1.15508651145937
-87	-0.341012331503994	0.114281124877252	1.49581863005753	1.38153750518027
-10	-0.0370978820248951	0.00665615763018756	1.46078133543958	1.45412517780939
18	1.36499902040519	0.338614686635067	1.47265916686049	1.13404448022542
4	-0.48688111819608	-0.157865950988738	1.43861716993742	1.59648312092616
9	0.924247135824247	0.225538888500943	1.46235685083798	1.23681796233703
-15	0.457776331166823	0.156013336328327	1.4889929628139	1.33297962648557
12	0.641926487104662	0.140626763919739	1.47316488492318	1.33253812100344
-11	-0.520651795050541	-0.12384137646947	1.37974714027694	1.50358851674641
-34	-0.252396874864732	0.0131582729814341	1.51865403144171	1.50549575846027
-2	-0.0999143993603102	-0.032370693230209	1.46893782668837	1.50130851991858
-10	0.228576204502948	0.0792850229189852	1.46335902725003	1.38407400433104
-46	0.0290506815018299	0.109030420713498	1.41721854304636	1.30818812233286
-3	-0.060155094918179	-0.0183940695000271	1.45113755773319	1.46953162723322
-27	0.171750877648617	0.1040878086958	1.41566030385664	1.31157249516084
29	1.11683063489135	0.233923027492136	1.52469218010339	1.29076915261126
-7	0.182326230131874	0.0601148627636943	1.50753113070628	1.44741626794258
-38	0.0586444116394151	0.106417550839095	1.54204994228082	1.43563239144173
0	0.671117842977783	0.176349793924832	1.4181885680754	1.24183877415057
42	1.10299756012547	0.190667502244199	1.6765524522507	1.4858849500065
-41	-0.553717106686986	-0.0546986373274165	1.40397350993378	1.45867214726119
9	-0.609779545604701	-0.206612616415222	1.43336394837338	1.6399765647886
-37	-1.01376074421869	-0.179636563866797	1.49269593119338	1.67233249506018
-48	-0.196507288868841	0.0597474298676808	1.47621473449288	1.4164673046252
-20	0.291767758573168	0.121849290721286	1.4345842531273	1.31273496240601
16	0.508298648842596	0.0884911033409508	1.55544852498495	1.466957421644
-38	-0.0232556947491389	0.0852730385093505	1.54518893650175	1.4599158979924
-33	0.789430399788595	0.285564982509551	1.55544852498495	1.2698835424754
-41	0.0936071186927245	0.121193314712271	1.51188157382158	1.39068825910931
13	0.488595124351582	0.0942707777677756	1.48967666536813	1.39540588760036
14	0.734086994853695	0.157346577624277	1.52147859274495	1.36413201512068
-3	-0.111303612882346	-0.0325657189717898	1.51051384927733	1.54307956824912
-29	0.306813651451067	0.146219475404605	1.47377580122783	1.32755632582322
4	0.989956020749188	0.261324265360928	1.47265916686049	1.21133490149956
-21	0.362161043109004	0.144297114041606	1.47265916686049	1.32836205281888
4	0.93446966331554	0.243111219247201	1.47621473449288	1.23310351524568
-16	0.14794416081758	0.072492634004464	1.46580384275458	1.39331120875012
-30	-0.471980455944425	-0.0561063973818565	1.51249772161128	1.56860411899313
-5	0.864260052807004	0.242824943029901	1.47010199642288	1.22727705339298
-26	1.00710547958001	0.333857861088605	1.64582878490163	1.31197092381303
16	-0.183669471041572	-0.107089826779342	1.50233103019581	1.60942085697515
30	1.54435371801794	0.361375565297311	1.49402758369281	1.1326520183955
-50	0.423395116150328	0.222293025388488	1.44896766653681	1.22667464114833
1	0.0285355399275975	-0.00400561646929987	1.42967082555828	1.43367644202758
-44	1.6075928279991	0.519936336080711	1.43916710531148	0.919230769230769
11	1.04019243342742	0.254597072401152	1.57208354559348	1.31748647319233
5	1.3111176037744	0.343669240355145	1.46136865342163	1.11769941306649
-11	0.296047505792143	0.101153751252349	1.50628957468189	1.40513582342954
13	1.1591730511189	0.285757211447432	1.52727383194605	1.24151662049862
-54	-0.439613105611715	0.0161311404445736	1.53257850886563	1.51644736842105
-2	0.25559678966277	0.0670194653725504	1.49465104431992	1.42763157894737
-6	0.498475363190472	0.14356646429743	1.4932209512342	1.34965448693677
8	-0.145938554345866	-0.0733899229312631	1.47990199645829	1.55329191938955
-41	-0.812993926512156	-0.12112217884563	1.42753508718634	1.54865726603197
34	0.802021895083115	0.130861878682978	1.47069325323586	1.33983137455289
-40	-0.00502725779519242	0.0864807035795037	1.39730193769929	1.31082123411978
-48	-0.224565845857341	0.0470069752485223	1.40246949518473	1.3554625199362
-16	0.260231355235255	0.102050774064391	1.47643797228842	1.37438719822403
10	0.62828591411005	0.140848956803761	1.49581863005753	1.35496967325377
-18	1.11810866440221	0.337188131378289	1.44622059831012	1.10903246693183
3	-0.227062673564852	-0.0815011106064272	1.59413434247871	1.67563545308514
15	0.761869044120512	0.163534270323526	1.58031614057138	1.41678187024785
-32	-0.125694544112529	0.0406639880159081	1.50077911959486	1.46011513157895
12	1.1249746558319	0.27711007564636	1.47491872366045	1.19780864801409
-14	0.679266704939206	0.213003657885877	1.62570207058429	1.41269841269841
-29	0.419576689744101	0.179132980152952	1.51988577677866	1.34075279662571
14	2.11575308059786	0.54653822380596	1.52509303625144	0.978554812445478
-79	-0.584365040311453	0.0372614685912633	1.4963630441863	1.45910157559504
4	0.700503124451828	0.175360877700528	1.59789437935133	1.42253350165081
-21	0.516299432518458	0.184699845429572	1.56774332369044	1.38304347826087
-2	0.664214831976699	0.181732602685279	1.51928320997273	1.33755060728745
35	1.17847163845206	0.242211303875453	1.45844280058598	1.21623149671053
-10	0.771877142863649	0.225540171089944	1.47006741841179	1.24452724732184
-65	0.309114275430169	0.221234619276711	1.44987440054807	1.22863978127136
-31	1.09090582904477	0.35250578123559	1.43691873670118	1.08441295546559
-5	0.852044163779134	0.241444977787695	1.54148811842618	1.30004314063848
-5	0.536159863038984	0.15245210426468	1.51365061685049	1.36119851258581
-4	0.888596149508944	0.250173969341452	1.4734244031182	1.22325043377675
-41	-0.400565431238131	-0.00982401373649311	1.48416094866952	1.49398496240601
-15	1.10343439106793	0.325666572179389	1.51031492686645	1.18464835468707
-20	0.275197798417618	0.117078337321969	1.47252747252747	1.3554491352055
-7	0.488656918559222	0.142590090523064	1.51284384992156	1.3702537593985
-40	-0.231054807190668	0.0306742812016376	1.46580384275458	1.43512956155294
44	0.474077472280873	0.00019123381924957	1.51884643080592	1.51865519698667
-34	-1.09424499438443	-0.215144649703733	1.41566030385664	1.63080495356037
-18	0.169594345231987	0.0840143413939602	1.50736438316506	1.4233500417711
-5	0.58997151201598	0.166812449381864	1.54770262608717	1.3808901767053
4	0.298275799224066	0.0605052476801571	1.57948206698474	1.51897681930458
-6	0.880213209949958	0.24660667537032	1.45508881822746	1.20848214285714
-70	-1.52082834992949	-0.221123077691454	1.47186656855531	1.69298964624676
-66	0.418389785332042	0.25812709367005	1.49270059639237	1.23457350272232
50	0.547576983622541	0.0128408949134016	1.44526684846124	1.43242595354784
-5	1.43019959813832	0.400181848633751	1.48420644817609	1.08402459954233
-4	0.717574557416784	0.201860548794316	1.47045479492152	1.2685942461272
-23	-0.555943406757371	-0.0951928399749424	1.55684127477467	1.65203411474961
-27	1.6929297744426	0.512060796781511	1.49156749034469	0.979506693563176
-58	-0.30211102682039	0.0660800965952177	1.59721759016628	1.53113749357106
39	0.676483687468255	0.0807579386145276	1.46027694160145	1.37951900298692
18	0.822850245012603	0.177704929698288	1.51123876428475	1.33353383458647
-15	0.785277658176082	0.242371628380924	1.54196855202807	1.29959692364715
-10	0.196625181965429	0.070894530578733	1.40656386696317	1.33566933638444
-22	0.278019544055568	0.119730324162979	1.43275091912865	1.31302059496567
-10	-0.631186539911649	-0.158121312808071	1.35084782766902	1.50896914047709
-5	0.934979679102965	0.259357186818846	1.62242109659328	1.36306390977443
56	2.24495109999385	0.50978188625161	1.50233103019581	0.992549143944199
-9	0.427963331260243	0.130765671879148	1.52050111172209	1.38973543984295
-27	0.172142146041639	0.104921228185776	1.49221020534566	1.38728897715988
39	0.76133339939904	0.103533839524817	1.50510966644389	1.40157582691908
45	0.993336477149243	0.170706718632825	1.38984547461369	1.21913875598086
-58	0.333687297389036	0.216709073943199	1.4466097856557	1.2299007117125
-43	0.162010743649157	0.146701741985918	1.5477138877349	1.40101214574899
-18	0.233022824559137	0.100191619470593	1.46275438681298	1.36256276734238
-18	0.965450773082563	0.297843466451224	1.55653090308133	1.2586874366301
46	1.29085451422349	0.243609711078976	1.51103149615798	1.267421785079
-10	0.114171205835652	0.0479294730932787	1.36167803244787	1.31374855935459
-52	-0.0934692919807603	0.0933099739674439	1.45661649608669	1.36330652211925
-32	0.632063618987737	0.242017853318502	1.48456782581071	1.24254997249221
-24	-0.42550750984722	-0.0608989559765367	1.45392620624408	1.51482516222062
10	0.649265759516306	0.146617372507547	1.45772147039063	1.31110409788308
-6	0.955226536995657	0.271337957781739	1.39059481134942	1.11925685356768
-22	-0.0215801319947087	0.0425065918430201	1.49096378235451	1.44845719051149
6	1.4178424652073	0.371011309078083	1.53025804978306	1.15924674070497
-24	0.0207750986998798	0.0574657745451927	1.44600522510481	1.38853945055961
-6	-0.381796793307775	-0.0978806890797139	1.49183222958057	1.58971291866029
-18	-0.349550468496911	-0.0562505066734234	1.48094982399618	1.5372003306696
19	1.49056598937937	0.360622388429221	1.56745266637127	1.20683027794205
32	1.08392906366681	0.209267334003596	1.5264665821239	1.3171992481203
0	0.636352193950657	0.168954422785146	1.5229840280483	1.35402960526316
-51	-1.0967139150304	-0.162696134570943	1.49707830151928	1.65977443609023
3	0.303768934086936	0.0683332946135875	1.44526684846124	1.37693355384765
-18	1.26825548971766	0.385993024728389	1.55943800080495	1.17344497607656
-33	0.38374060557184	0.173293669597777	1.42163758974297	1.24834392014519
-19	1.05592945322662	0.327553979037036	1.5917079820022	1.26415400296516
18	0.655734502468361	0.12407898668335	1.55014531421221	1.42606632752886
-57	0.045868103253853	0.139684180845868	1.4205852972733	1.28090111642743
16	0.806878293318028	0.17177193537985	1.58929619295115	1.4175242575713
-31	-0.264633836571698	-0.0018695280439851	1.43708609271523	1.43895562075922
-15	1.06086102966804	0.319476996017526	1.39630212335199	1.07682512733447
22	0.204431755274431	-0.00963161853965389	1.41936112193222	1.42899274047187
-26	0.117677813544379	0.0898927577488409	1.48227502921698	1.39238227146814
-1	0.991656358139857	0.267010787090114	1.54525386313466	1.27824307604454
34	1.16268734750784	0.23195056691202	1.58589793533307	1.35394736842105
-60	-1.163615684452	-0.160744630477758	1.43999413504069	1.60073876551845
24	0.597397068505579	0.093917970183842	1.532053222272	1.43813525208815
-28	0.82677916060116	0.274439170227065	1.36423841059603	1.08979924036896
8	0.831187622022203	0.2076268628143	1.42800308479514	1.22037622198084
12	1.28177674578603	0.320860368565837	1.48275862068966	1.16189825212382
-55	-0.85904855145265	-0.0853351829586122	1.56052008019928	1.6458552631579
11	0.853105201648467	0.200881597456682	1.55092570213178	1.35004410467509
-46	-1.93354673692411	-0.393870757341524	1.48663952852543	1.88051028586695
8	0.235854821770688	0.0340606222891464	1.5283727011877	1.49431207889855
22	1.73851254223079	0.425815039706632	1.53867119324838	1.11285615354175
9	0.0598182168185035	-0.0180780197034074	1.50102763187942	1.51910565158283
-88	0.831812113715007	0.41457899812021	1.63643343890968	1.22185444078947
-18	0.357395485206977	0.133597732833606	1.49419330070064	1.36059556786704
7	0.891604416833553	0.22355183407535	1.45908058200803	1.23552874793268
-8	1.30478640276838	0.370310528568445	1.51103149615798	1.14072096758953
82	1.11201381912124	0.0789809136489181	1.55544852498495	1.47646761133603
19	0.292215980152957	0.0232709233045765	1.447746128659	1.42447520535443
-11	0.242370266335884	0.0858499770183265	1.46212332167028	1.37627334465195
-22	-0.485076271707706	-0.0842915610715018	1.43492314235373	1.51921470342523
11	1.49419504643963	0.391627404550338	1.50092764378479	1.10930023923445
-8	0.305850573062957	0.0959323755096677	1.5371462974112	1.44121392190153
-1	0.200004214535813	0.0484161546861734	1.45407428735963	1.40565813267346
-68	-0.284729768519468	0.0788060773544459	1.42899863191157	1.35019255455713
-37	-0.443675861189137	-0.0380853671127483	1.36642977347846	1.4045151405912
-72	-0.0554687019457578	0.15145991203388	1.48528532923542	1.33382541720154
-8	-1.26053149852946	-0.33332074088572	1.49372002740352	1.82704076828924
-29	-0.86528464063677	-0.166519835451913	1.42969014356843	1.59620997902034
-3	0.256714780718841	0.0699314584700483	1.49465104431992	1.42471958584987
-42	0.767788473586251	0.300199122614807	1.57775747887646	1.27755835626165
-38	-1.23935003884208	-0.241213572109483	1.43708609271523	1.67829966482471
-8	0.568025455796362	0.165663248367204	1.42238267148015	1.25671942311294
-44	0.956420560556045	0.347614732194725	1.48956050571945	1.14194577352472
-46	0.453066017855966	0.227596118433519	1.54258544987022	1.3149893314367
-45	-0.0523510845025861	0.0942663369838075	1.55653090308133	1.46226456609752
-5	1.57578675132188	0.443998338719065	1.55202273364799	1.10802439492893
46	0.420356663636767	-0.0148623085987991	1.44671663876962	1.46157894736842
-74	-1.5815321888021	-0.224756719916023	1.46674716134304	1.69150388125906
-51	0.0438792979722358	0.134296070329081	1.55870396506592	1.42440789473684
-85	-0.517156577979163	0.071348181675617	1.5229840280483	1.45163584637269
2	0.28668525618682	0.0723797316405721	1.59413434247871	1.52175461083814
-29	-0.441399157548455	-0.049078558364269	1.53503717694312	1.58411573530739
-3	0.348002765646761	0.0950295742708993	1.45908058200803	1.36405100773713
-9	1.06400313698153	0.311944202417021	1.40537025888019	1.09342605646317
-51	0.276568092091031	0.193938016073456	1.55827331174168	1.36433529566822
9	1.41309342372944	0.36083541127657	1.5459392258589	1.18510381458233
-32	-0.714970088186318	-0.117778634529954	1.43525919159625	1.55303782612621
-17	-0.537019856159028	-0.111948931068261	1.43492314235373	1.54687207342199
-26	0.279224673487382	0.129260336998322	1.43639150689197	1.30713116989365
43	1.5513475693519	0.341204909133495	1.40323498432147	1.06203007518797
5	-0.452127429338185	-0.149466059677684	1.45772147039063	1.60718753006832
43	1.29813370102309	0.26244290718251	1.49382929999381	1.2313863928113
-75	-0.0959672587519993	0.13876627760261	1.40825866770549	1.26949239010288
2	0.607126381399546	0.15592855340438	1.47186341819066	1.31593486478628
1	0.0434487318803338	-0.00015458068670271	1.4763805070326	1.4765350877193
-9	0.82074126850694	0.238680494267755	1.50468143411738	1.26600093984962
4	1.43258821479098	0.383763207655154	1.42163758974297	1.03787438208782
-89	-0.54263373177782	0.0648044840697029	1.45476227950168	1.38995779543198
-58	0.971782828386379	0.392453824823456	1.63142729154812	1.23897346672466
-30	0.325930842884382	0.153321369773916	1.47436036622878	1.32103899645487
-51	0.141241340267962	0.157797322693977	1.51359390875372	1.35579658605974
-13	-0.663887351152858	-0.157477146260805	1.47117257499026	1.62864972125106
-28	0.0198291062678226	0.0669062997810281	1.44600522510481	1.37909892532378
-37	0.00434695197935309	0.0863877590992881	1.51359704074936	1.42720928165007
-49	-0.258782750930049	0.048566109018884	1.51607639888665	1.46751028986776
-18	-0.934269188098147	-0.219288202345872	1.39542044427067	1.61470864661654
-3	1.29618077624915	0.3576129792483	1.49269593119338	1.13508295194508
-20	0.291318397929645	0.125070313887322	1.59789437935133	1.47282406546401
9	0.921869625042996	0.220119531631158	1.57602862254025	1.35590909090909
21	0.955405085236142	0.208618513620618	1.50818075574601	1.29956224212539
-8	-1.23673930476107	-0.331061693110272	1.53719219933409	1.86825389244436
17	0.443728542886893	0.0734340065740149	1.4345842531273	1.36115024655328
2	1.32276054374346	0.365851933665586	1.5668532679619	1.20100133429631
-21	-0.657130994607672	-0.133130733949834	1.4393421148388	1.57247284878864
-2	0.915258214358129	0.247147738470937	1.59318143782724	1.34603369935631
-28	-0.154191925404988	0.0229807801130988	1.51103149615798	1.48805071604488
-34	-0.0614556209378065	0.0593986481301558	1.45352820278602	1.39412955465587
-46	-0.151500033032843	0.0734615683530826	1.57208354559348	1.4986219772404
13	0.587423995972262	0.121926866497748	1.41304528755038	1.29111842105263
33	0.856075879869787	0.148359970907199	1.50818075574601	1.35982078483881
-59	-0.805022758493434	-0.0695490154168901	1.46893782668837	1.53848684210526
16	1.63175778037485	0.415802980764806	1.49465104431992	1.07884806355511
-22	-0.0542399369414284	0.0337126188555268	1.5005418422637	1.46682922340817
-12	0.307024663007986	0.105322061317478	1.55400858430332	1.44868652298585
-38	0.407270529915223	0.191803498103845	1.47960456857664	1.28780107047279
-16	-0.47701910437697	-0.0980549082560733	1.4763805070326	1.57443541528867
-24	1.31085875154059	0.405287708265582	1.47186341819066	1.06657570992508
-44	0.0888811432554979	0.125138290462447	1.37379081564706	1.24865252518461
-31	0.220101285547341	0.124067448668641	1.39295209551893	1.26888464685029
23	1.19056934961738	0.267100096351871	1.53431231404165	1.26721221768978
-20	0.278245078675138	0.11978603185878	1.48225190136259	1.36246586950381
-4	0.585516064215856	0.166206335049145	1.46731130742484	1.30110497237569
-32	-0.490588770654075	-0.0574703074451361	1.46448960949989	1.52195991694502
-43	1.23273321760446	0.41130787553656	1.50039687711026	1.0890890015737
19	0.575785042726274	0.0966044810707176	1.59376746287467	1.49716298180395
-35	0.0254515248646223	0.0926848610337243	1.60698789678009	1.51430303574636
-67	0.529058370182053	0.300294083936258	1.63142729154812	1.33113320761186
-6	-0.713575019876655	-0.190795053442649	1.45173297239813	1.64252802584078
-25	-0.192150370081804	0.00852197536896915	1.60771750304827	1.5991955276793
-35	0.301149657027916	0.162755165948122	1.52171256811906	1.35895740217094
44	0.98501732515942	0.156926725292192	1.52542704234989	1.3685003170577
-15	0.0984458614397257	0.0561578867987691	1.47595738554564	1.41979949874687
-16	-0.218199618641467	-0.0259159293443794	1.51418765408228	1.54010358342666
-45	0.380043774219339	0.204962850106813	1.53670128710841	1.3317384370016
-6	0.217312287991761	0.066423291202472	1.35644721464745	1.29002392344498
-12	-0.0602114785730725	0.00693391433570167	1.5477138877349	1.5407799733992
13	0.215578063454961	0.0149303214781025	1.51428361965739	1.49935329817929
-30	0.688786430105919	0.252754106486261	1.47265916686049	1.21990506037423
-21	0.601081654922934	0.207406349622641	1.5225045153522	1.31509816572956
-17	0.229369847160436	0.0995125330953461	1.47968765444302	1.38017512134767
-41	-0.0882640554769534	0.0709293423868134	1.47186341819066	1.40093407580384
7	1.5109691837697	0.395039420158226	1.57009030704395	1.17505088688572
-20	0.597282592600188	0.205287045527223	1.55136973908008	1.34608269355286
-61	-0.69023731253859	-0.0368067122884721	1.45040390073503	1.4872106130235
-15	0.654663213025432	0.206740752031104	1.53867119324838	1.33193044121728
-19	0.332948329790852	0.131773208448083	1.56276941601445	1.43099620756637
-62	-0.669057561446786	-0.0215922683515215	1.52783640200859	1.54942867036011
-39	-0.383845114669541	-0.0169480073388697	1.38038848814594	1.39733649548481
-5	0.614434329558481	0.173723518662451	1.47744960603278	1.30372608737033
-27	0.584862526397798	0.214707557538744	1.49054611766964	1.2758385601309
36	1.28187214237385	0.269249629331497	1.44313273826663	1.17388310893513
-12	0.144592750542766	0.0594815170401841	1.39806565343752	1.33858413639733
18	1.07403430176532	0.250057659127759	1.45969191425711	1.20963425512935
53	1.66019051980035	0.336090160292787	1.49945209395398	1.16336193366119
-32	1.07411489052459	0.36050753285417	1.47186656855531	1.11135903570114
-36	0.659865601869885	0.259235088203865	1.61516615953702	1.35593107133316
-33	0.426977471597452	0.182195452487227	1.35274639657187	1.17055094408465
-22	0.897452939581779	0.292887467280997	1.54518893650175	1.25230146922076
-10	0.42299274188588	0.133278480593659	1.44231119752112	1.30903271692746
27	0.999584241736668	0.206716898034985	1.4639373871162	1.25722048908121
33	1.83460623705739	0.446073575363995	1.41721854304636	0.971144967682363
-20	0.438175322411991	0.161787967014691	1.44288844548359	1.2811004784689
-48	1.32427208132005	0.454220594891375	1.5968154541325	1.14259485924112
-26	-1.46039190626872	-0.33771032470492	1.35084782766902	1.68855815237394
-37	0.661539456028732	0.256128263558727	1.54361501735597	1.28748675379724
38	0.872456185913428	0.144016623486788	1.45040390073503	1.30638727724824
25	0.356473128347424	0.0213779984638713	1.51469860915089	1.49332061068702
-112	-0.481657371906589	0.121666205935024	1.42429778488239	1.30263157894737
21	0.498794016270396	0.0806682548822515	1.37747133673136	1.29680308184911
-4	0.152133637235533	0.0437140793556945	1.48528532923542	1.44157124987973
-16	-0.114847240162479	-0.00125931342626839	1.35419385016864	1.35545316359491
16	1.56739925550795	0.398290110557067	1.48663952852543	1.08834941796836
1	-0.963258929690154	-0.275890506099152	1.46111636707663	1.73700687317578
-24	1.08239446004962	0.343041941487987	1.51836572214381	1.17532378065583
19	1.57661513542329	0.383797181310121	1.55014531421221	1.16634813290209
-5	-0.161897976339374	-0.0412152753152542	1.50818075574601	1.54939603106126
-66	0.797889656617839	0.351054034215254	1.44026194637977	1.08920791216452
-29	0.961489394177563	0.323351276150464	1.52783640200859	1.20448512585812
-54	-1.31079240107799	-0.198697073669475	1.60603277420603	1.8047298478755
-10	0.0324729984941508	0.0251523467696204	1.43948555523563	1.41433320846601
-40	0.325059743892911	0.175803364712023	1.49419330070064	1.31838993598862
2	0.171616468127864	0.0314615851339075	1.57501135630096	1.54354977116705
-14	0.233368815168693	0.0910200825475354	1.45708730785589	1.36606722530835
-35	-0.488226067701394	-0.0438016830998602	1.55738720282053	1.60118888592039
-45	-1.15666454800812	-0.190327805233687	1.55733449773185	1.74766230296554
-26	0.303637372225531	0.135581139262737	1.3877204473231	1.25213930806036
-22	-0.537720665122099	-0.0940199332563683	1.5042573320719	1.59827726532827
29	0.970652592395165	0.184564743670637	1.53336004336452	1.34879529969389
-14	0.146288531678501	0.0675681786217259	1.50736438316506	1.43979620454333
1	0.461779001132227	0.115836244319615	1.50102763187942	1.38519138755981
-26	0.498083240499629	0.186373724666456	1.45280416612172	1.26643044145527
-9	0.79031716090642	0.2345705767319	1.53285599081156	1.29828541407966
-2	1.06011465815559	0.290292217126398	1.58031614057138	1.29002392344498
0	-1.02313267586575	-0.296413952609493	1.47621473449288	1.77262868710237
50	1.94814526252002	0.42711036627984	1.55984259525866	1.13273222897882
-24	1.12183425711403	0.357385551634924	1.49942572273405	1.14204017109913
17	1.55840435395722	0.384536673819495	1.58537287647567	1.20083620265617
-1	0.582866032435974	0.15441721998011	1.50102763187942	1.34661041189931
-46	0.265912435614426	0.175501781450333	1.50369727017214	1.3281954887218
15	1.58223328253109	0.39654691242721	1.54196855202807	1.14542163960086
10	1.81389407162888	0.480711562514988	1.46146568663125	0.980754124116261
-49	-0.683987554589634	-0.0603489741709848	1.50833523635533	1.56868421052632
29	-0.0517166260020847	-0.101112405043642	1.531523663974	1.63263606901764
-41	-1.14810249067677	-0.208211329385207	1.44450135987218	1.65271268925739
-16	0.365930205008693	0.130867902132648	1.49464091110499	1.36377300897234
25	0.489805949102074	0.0655935160475598	1.43627966080985	1.37068614476229
-23	0.67576266012389	0.229896646309123	1.48689893463864	1.25700228832952
15	0.691551792088972	0.144913917353433	1.51884406983745	1.37393015248402
-19	-0.469340675738174	-0.082110049777365	1.63571333791722	1.71782338769459
-44	0.712594570766613	0.285088105038058	1.42800308479514	1.14291497975708
-8	0.387266007832204	0.11574602796526	1.47518629530026	1.359440267335
-14	0.141350690386542	0.0659032636949235	1.46078133543958	1.39487807174466
18	1.26751481352387	0.311039360891024	1.47595738554564	1.16491802465461
52	1.52384715359361	0.284012687181457	1.6118396804071	1.32782699322564
8	1.17115799497446	0.299982986201584	1.5352109259394	1.23522793973782
29	1.44166342033503	0.3203992762167	1.60408348674301	1.28368421052631
15	1.05220101285546	0.240604404174713	1.54431449908412	1.3037100949094
12	0.836418202694118	0.195872449393834	1.45969191425711	1.26381946486327
16	0.831191039213408	0.187469108420808	1.36949075131309	1.18202164289228
10	1.42185851917159	0.365907296168472	1.57577080755889	1.20986351139042
2	0.328696204867444	0.0794371010980928	1.32855990811564	1.24912280701754
24	1.3743006148666	0.314637796014621	1.58565560518784	1.27101780917322
-15	1.03087375300998	0.312058807674436	1.57664233576643	1.26458352809199
-15	-0.0596231521538595	0.013358090494495	1.46866301948363	1.45530492898914
-26	0.273650665099312	0.132126509514767	1.48528532923542	1.35315881972065
-43	0.0773891292313431	0.122926209005979	1.54357809252188	1.4206518835159
-2	1.16372788222992	0.314524015773158	1.53566153699557	1.22113752122241
-1	0.3464863870493	0.0905136087114622	1.46674716134304	1.37623355263158
-44	-1.05373760983423	-0.174188621979468	1.48719976277553	1.661388384755
-41	0.201906735739496	0.148577485456211	1.5014156388602	1.35283815340399
21	0.679067084019615	0.127934230787222	1.4712582781457	1.34332404735847
-3	0.216909059429509	0.0583593157441489	1.4785791691752	1.42021985343105
-38	1.19731744795049	0.390071552708563	1.33134295950494	0.941271406796376
-18	1.57258740605572	0.472473980609653	1.46090738361174	0.98843340300209
43	1.88439044143277	0.426313460246014	1.57621947528361	1.14990601503759
-57	-1.13882054506479	-0.154475915982317	1.52914151658073	1.68361743256305
-37	-0.513339575402591	-0.0549206712847858	1.38706803130644	1.44198870259123
-49	-0.691104424806984	-0.0683370936290069	1.43708609271523	1.50542318634424
-20	-0.53420437537161	-0.100477109707629	1.4932209512342	1.59369806094183
28	2.16299688807787	0.520266353612978	1.5585726090853	1.03830625547232
-33	0.224806757837331	0.134944914171487	1.4872765203891	1.35233160621762
0	0.927152317880797	0.257166336346498	1.58766375018128	1.33049741383478
-15	1.16299774237568	0.345384380484707	1.51152317880795	1.16613879832324
-46	-0.428493280663027	0.00582272095394254	1.62837911193139	1.62255639097744
4	-0.460113689951404	-0.150200173241229	1.35729762152501	1.50749779476624
-58	-0.867249810345895	-0.0825552405791843	1.51564284083124	1.59819808141042
-37	0.450515654152916	0.206137824132036	1.58591340521673	1.37977558108469
-59	0.0531082771205407	0.154471399792705	1.53408648227503	1.37961508248232
-10	-0.0112841348924846	0.0131857680177161	1.41353128108095	1.40034551306323
-38	0.630496836820015	0.247669614486942	1.41499492434863	1.16732530986169
-49	0.0747248591547622	0.134993945408888	1.49796418935492	1.36297024394603
4	-0.210516064215862	-0.0795151347398508	1.41566030385664	1.49517543859649
-22	0.592851349904427	0.204789706053211	1.46136865342163	1.25657894736842
-3	0.267721838357742	0.072947902981751	1.40323498432146	1.33028708133971
-8	0.360535029627044	0.110514867328205	1.56745266637127	1.45693779904306
-35	-0.0880200110717002	0.0593898093409149	1.5229840280483	1.46359421870739
-13	0.40364489004617	0.137010726164417	1.54518893650175	1.40817821033733
-27	0.33383081941968	0.150904660923098	1.50510966644389	1.35420500552079
-2	0.847000674325729	0.230879613530341	1.47436036622878	1.24348075269844
-67	-0.198419207348331	0.10904125028352	1.52542704234989	1.41638579206637
-17	0.926406515900189	0.285879300778272	1.45476227950168	1.16888297872341
-23	-0.377329670104365	-0.0505407460997656	1.49707830151928	1.54761904761905
16	0.303631392140916	0.0337342754455467	1.46078133543958	1.42704705999403
-45	0.347206560095857	0.193650459004199	1.47117257499026	1.27752211598606
-32	0.707166647302573	0.258657726167924	1.45409116270043	1.19543343653251
-31	0.380174481782963	0.17071213246842	1.48479721564268	1.31408508317426
-16	0.000709351941075909	0.0346985645490387	1.55202273364799	1.51732416909895
-58	-0.170729422244095	0.0846668960258781	1.41484029124437	1.3301733952185
38	1.2627606462592	0.25896950673459	1.44987440054807	1.19090489381348
-25	-0.2965267668587	-0.0204456327199782	1.57296853096148	1.59341416368145
-15	0.63289997653529	0.202412104666064	1.48420644817609	1.28179434351002
45	1.58016217989461	0.327241751015496	1.51814664482898	1.19090489381348
-25	-0.236230997569227	-0.00698447875820407	1.50202556825073	1.50901004700894
-32	-0.123961743405382	0.0411379995038201	1.52085197780562	1.4797139783018
-10	-0.469960895941974	-0.112245859598251	1.46580384275458	1.57804970235283
10	1.19241178520903	0.299545824223411	1.51884406983745	1.21929824561404
-18	-0.129618333914262	0.00132204365444255	1.4259631919798	1.42464114832536
-6	-0.292348111546227	-0.0744316733596346	1.45908058200803	1.53351225536766
-32	0.892296967584527	0.311820371435947	1.44256679607216	1.13074642463622
-43	-1.13793292964915	-0.195175750511119	1.51494639786323	1.71012214837435
9	0.770220659426783	0.183936690712037	1.45295605057195	1.26901935985991
6	-0.882391954109408	-0.276059131205048	1.43861716993742	1.71467630114247
-20	-0.255093893023688	-0.0256838772862757	1.48689893463864	1.51258281192492
11	-0.297610870768666	-0.123590511732632	1.44987440054807	1.5734649122807
3	0.763651109334182	0.19616479109186	1.50316623966743	1.30700144857557
27	0.144603571648254	-0.0515580088445884	1.59789437935133	1.64945238819592
32	1.09759241793615	0.216020288773485	1.56679607216259	1.35077578338911
-7	1.22212084554979	0.350202906802537	1.5365704650424	1.18636755823986
-28	0.387891638588738	0.167209307310488	1.5298254063817	1.36261609907121
-20	-0.744901265955427	-0.158751344069582	1.42429778488239	1.58304912895197
-10	0.422836405388228	0.134849981213453	1.51428361965739	1.37943363844394
27	0.616494041557607	0.0918527132536866	1.50833523635533	1.41648252310165
38	1.23670627191274	0.250309491472458	1.46083580726193	1.21052631578947
-69	-0.334775957553935	0.0702913315147524	1.46111636707663	1.39082503556188
-5	0.902729937100896	0.255860684201281	1.46674716134304	1.21088647714176
-85	0.745253521415537	0.380942115213478	1.53285599081156	1.15191387559809
12	0.832878846902995	0.193362834093583	1.47231020251464	1.27894736842105
-5	0.427185920260985	0.123145836361499	1.39542044427067	1.27227460790917
-12	0.575243987452073	0.178984417020746	1.4780274792217	1.29904306220096
49	0.799456438785575	0.0879476661561991	1.49465104431992	1.40670337816372
25	0.779137535111633	0.148061923913341	1.43275091912865	1.28468899521531
-40	-1.25933405777787	-0.229533615890074	1.54957324216415	1.77910685805423
-41	0.524201402415277	0.231742710816189	1.49892853251329	1.2671858216971
-4	1.78718445086876	0.491946670131534	1.58929619295115	1.09734952281962
56	1.47802432812325	0.276835309743619	1.51365061685049	1.23681530710687
-1	0.0177807849060363	-0.00184585173010832	1.45695364238411	1.45879949411421
22	1.41954337212985	0.347241299939343	1.43256518657902	1.08532388663968
-33	-1.5271974248047	-0.332327341466485	1.40246949518473	1.73479683665121
14	0.846439115904298	0.193457635305873	1.45352820278602	1.26007056748015
16	1.09791391867541	0.265100426547076	1.45856650619486	1.19346607964779
-34	-0.278562307925379	0.0118168855104708	1.62774677046382	1.61592988495335
47	2.19899443453459	0.505996446952467	1.55738720282053	1.05139075586806
-41	0.508006478994528	0.231781026761937	1.50761958689283	1.2758385601309
30	1.6069515351162	0.373852658828362	1.51929664306919	1.14544398424083
-56	-0.477695138703778	0.00777282680923741	1.48420644817609	1.47643362136685
-58	-0.402113418854233	0.028454468674564	1.44526684846124	1.41681237978667
-30	-0.263631745250684	-0.000339016324722774	1.51928320997273	1.51962222629745
-9	0.611638212854561	0.181016578173417	1.52012502544819	1.33910844727477
-1	0.227227268274568	0.0569864097992248	1.43786521231009	1.38087880251086
-50	-0.762709957922997	-0.0761455207751982	1.54089983291256	1.61704535368776
7	1.04384882801733	0.270131504288474	1.49050772626932	1.22037622198084
-34	-0.652465389548417	-0.0929819404863301	1.50940009218155	1.60238203266788
-39	-0.831907510302828	-0.129578714958851	1.48431931135694	1.61389802631579
20	0.933284752265036	0.207144982874982	1.48010184720471	1.27295686432973
-24	0.432076775173889	0.167095225743923	1.43635967408017	1.26926444833625
2	-0.0496586225985629	-0.0291799839399562	1.46599545465653	1.49517543859649
-55	0.79319272730586	0.326787402527444	1.4859000602047	1.15911265767725
15	0.373844135074739	0.0521413717881751	1.56713696132066	1.51499558953249
2	-0.128219563647466	-0.0517131081405262	1.50011586354933	1.55182897168985
-1	1.4659052595129	0.401993827874163	1.5357337433563	1.13373991548214
