3
[ 1.443, 2.465, 2.350, 2.465, 2.465, 1.443, 2.350, 1.443, 2.465, 2.350, 1.443, 2.465, 2.350, 2.465, 1.443, 1.443, 2.350, 2.350, 2.465, 1.443, 1.443, 1.443, 2.350, 1.443, 2.465, 1.443, 2.350, 2.350, 1.443, 2.350, 2.350, 2.350, 1.443, 1.443, 2.465, 2.350, 1.443, 2.350, 1.443, 2.350, 1.443, 1.443, 2.350, 2.350, 1.443, 2.465, 1.443, 1.443, 2.465, 1.443, 2.350, 1.443, 2.465, 1.443, 2.465, 1.443, 2.465, 2.350, 1.443, 2.350, 2.350, 2.350, 2.465, 2.350, 1.443, 1.443, 2.350, 1.443, 1.443, 1.443, 1.443, 1.443, 2.350, 1.443, 1.443, 1.443, 2.465, 2.465, 2.350, 2.350, 2.350, 2.350, 1.443, 1.443, 2.350, 2.465, 1.443, 1.443, 2.350, 2.350, 2.350, 1.443, 2.465, 1.443, 2.465, 1.443, 1.443, 1.443, 2.465, 2.465 ]
3
[ 0.321, 0.646, 0.646, 0.646, 0.204, 0.204, 0.646, 0.321, 0.646, 0.646, 0.321, 0.321, 0.321, 0.204, 0.646, 0.204, 0.646, 0.646, 0.204, 0.646, 0.321, 0.321, 0.321, 0.646, 0.321, 0.646, 0.646, 0.204, 0.204, 0.646, 0.646, 0.204, 0.646, 0.321, 0.204, 0.321, 0.321, 0.646, 0.321, 0.646, 0.204, 0.204, 0.321, 0.321, 0.646, 0.321, 0.321, 0.646, 0.321, 0.646, 0.204, 0.321, 0.646, 0.204, 0.646, 0.204, 0.646, 0.204, 0.321, 0.646, 0.204, 0.646, 0.321, 0.204, 0.646, 0.646, 0.204, 0.321, 0.204, 0.204, 0.204, 0.646, 0.204, 0.321, 0.204, 0.321, 0.321, 0.204, 0.204, 0.646, 0.646, 0.321, 0.204, 0.321, 0.646, 0.204, 0.646, 0.321, 0.646, 0.321, 0.321, 0.204, 0.646, 0.321, 0.321, 0.204, 0.204, 0.321, 0.204, 0.204 ]