9
[ 8.690, 1.667, 7.264, 1.667, 3.080, 3.080, 1.667, 1.667, 3.080, 7.264, 4.691, 25.459, 3.194, 1.667, 25.459, 3.080, 7.264, 3.080, 1.667, 3.080, 3.080, 8.690, 25.459, 7.264, 4.691, 7.264, 3.080, 1.667, 7.264, 1.667, 3.080, 9.745, 3.080, 3.080, 3.080, 3.080, 25.459, 3.080, 3.080, 3.194, 1.667, 3.080, 4.691, 1.667, 9.745, 3.194, 1.667, 2.268, 1.667, 25.459 ]
3
[ 0.523, 0.612, 0.523, 0.523, 0.523, 0.523, 0.523, 0.612, 0.773, 0.523, 0.523, 0.773, 0.523, 0.523, 0.523, 0.523, 0.523, 0.523, 0.612, 0.523, 0.523, 0.523, 0.523, 0.523, 0.523, 0.523, 0.523, 0.612, 0.612, 0.523, 0.612, 0.523, 0.523, 0.523, 0.523, 0.523, 0.523, 0.612, 0.523, 0.612, 0.523, 0.523, 0.612, 0.523, 0.612, 0.523, 0.612, 0.523, 0.523, 0.612 ]