6
[ 1.023, 4.976, 0.166, 0.696, 2.476, 1.023, 0.696, 0.166, 1.023, 0.166, 1.023, 0.166, 0.166, 1.023, 0.166, 1.023, 0.166, 0.166, 0.696, 2.476, 1.692, 0.166, 1.023, 0.696, 2.476, 2.476, 0.696, 1.692, 0.166, 0.166, 1.692, 0.166, 1.023, 1.692, 0.166, 0.166, 1.692, 0.166, 1.692, 0.166, 0.166, 0.696, 0.166, 1.023, 0.166, 0.696, 0.166, 0.166, 1.692, 0.166, 0.696, 1.692, 0.696, 0.166, 1.023, 1.023, 1.023, 1.692, 0.166, 0.166, 0.166, 0.166, 0.166, 1.692, 0.166, 1.692, 0.696, 0.166, 0.696, 0.166, 0.166, 0.166, 1.023, 1.692, 0.166, 1.692, 0.166, 0.166, 0.166, 2.476, 1.692, 0.166, 0.166, 0.166, 0.166, 1.692, 1.692, 0.166, 1.023, 0.166, 0.166, 0.166, 0.166, 0.166, 1.023, 0.166, 0.166, 1.692, 1.023, 1.023 ]
9
[ 0.058, 0.286, 0.058, 0.058, 0.286, 0.637, 0.178, 0.058, 0.037, 0.286, 0.058, 0.058, 0.058, 0.287, 0.058, 0.595, 0.058, 0.058, 0.058, 0.287, 0.058, 0.287, 0.286, 0.058, 0.058, 0.287, 0.058, 0.286, 0.286, 0.037, 0.286, 0.637, 0.058, 0.286, 0.286, 0.286, 0.058, 0.178, 0.058, 0.037, 0.286, 0.178, 0.058, 0.637, 0.830, 0.058, 0.286, 0.058, 0.830, 0.286, 0.058, 0.287, 0.058, 0.286, 0.863, 0.286, 0.178, 0.058, 0.058, 0.058, 0.058, 0.058, 0.058, 0.287, 0.058, 0.286, 0.037, 0.287, 0.058, 0.286, 0.286, 0.058, 0.287, 0.037, 0.287, 0.287, 0.058, 0.178, 0.058, 0.286, 0.286, 0.058, 0.286, 0.286, 0.058, 0.037, 0.286, 0.286, 0.287, 0.286, 0.286, 0.058, 0.595, 0.058, 0.037, 0.287, 0.178, 0.287, 0.037, 0.058 ]