pars_sum	pars_var	pars_disp	obs_disp	sim_disp
-8	0.12342115249092	0.0524490557322297	0.51948051948052	0.46703146374829
4	0.37618154998816	0.142510754650805	0.457756232686981	0.315245478036176
1	0.423285404925552	0.190075187969925	0.47578947368421	0.285714285714286
3	0.469955890702525	0.208065539513175	0.430747922437673	0.222682382924498
-16	-0.414071037082054	-0.170577880228217	0.403739612188366	0.574317492416583
-13	-0.0286275332174969	0.003211881108306	0.438122332859175	0.434910451750869
-9	0.173130419152451	0.0874022264964735	0.448421052631579	0.361018826135105
-9	-0.531426957375549	-0.266337271750805	0.366315789473684	0.632653061224489
3	0.232481920364418	0.0812322804126395	0.376731301939058	0.295499021526419
-7	-0.705519796401069	-0.388248995466501	0.430747922437673	0.818996917904175
-13	-0.184432458606265	-0.0654952727768564	0.403739612188366	0.469234884965222
-7	0.0897657014548082	0.0353086664796173	0.438122332859175	0.402813666379558
3	0.126133760160688	0.017749854087273	0.398702235039654	0.380952380952381
3	0.17947006074301	0.0374517050830324	0.426820475847152	0.38936877076412
-8	-0.125833366959438	-0.0644542185838347	0.370583994232156	0.43503821281599
11	0.132361314735856	-0.0220436609020688	0.376415722851433	0.398459383753501
0	0.317644717583518	0.132370461036312	0.421052631578947	0.288682170542636
3	0.0648408099448492	-0.0271150872285218	0.382645803698435	0.409760890926957
4	0.16320317789106	0.040011185398477	0.370583994232156	0.330572808833679
0	-0.0602009169940629	-0.0812961063879058	0.354907539118065	0.436203645505971
-2	0.100887280813842	0.0193255446790132	0.454363757495004	0.43503821281599
8	0.30963314531246	0.107030818977329	0.366315789473684	0.259284970496355
-10	0.0766316506830582	0.0525952913170958	0.465860597439545	0.413265306122449
-10	-0.557453562349522	-0.274383674759614	0.382645803698435	0.657029478458049
2	-0.0866401463320592	-0.0830084231628186	0.311578947368421	0.39458737053124
-4	0.26769150881758	0.102096811796934	0.511842105263158	0.409745293466224
-8	-0.124438291206956	-0.074694666057129	0.448421052631579	0.523115718688708
3	0.184925233884843	0.0152590779273769	0.557894736842105	0.542635658914728
4	0.0582090288332637	-0.0490737076609653	0.511772853185596	0.560846560846561
3	0.0527436659627609	-0.0419260682418574	0.492822966507177	0.534749034749035
-6	-0.062405566689532	-0.0413540022896746	0.393684210526316	0.43503821281599
-1	0.304186225850853	0.119398145713935	0.546138072453862	0.426739926739927
-4	0.147406652914609	0.0443309927204795	0.511772853185596	0.467441860465116
-6	-0.000807434099967752	-0.0250305211935712	0.538781163434903	0.563811684628474
-15	-0.0285419394966522	0.00796053781945671	0.376731301939058	0.368770764119601
0	0.0115449625853541	-0.0369760016479556	0.426820475847152	0.463796477495108
0	-0.151613380499549	-0.124500440289914	0.354907539118065	0.479407979407979
0	-0.226689378229814	-0.149206921413122	0.426820475847152	0.576027397260274
-1	-0.0352760254841044	-0.0562825983878619	0.410384068278805	0.466666666666667
-16	-0.214312411374835	-0.0810994593124336	0.327169274537696	0.408268733850129
-4	0.224621461769565	0.0951768588382939	0.421052631578947	0.325875772740653
-5	-0.0620735704176011	-0.0365698099884886	0.398702235039654	0.435272045028143
3	0.24751951434938	0.0781084831762174	0.45775623268698	0.379647749510763
3	0.391169010508056	0.137589989487174	0.546138072453862	0.408548082966688
-12	-0.289112764020965	-0.134896605037686	0.376731301939058	0.511627906976744
-1	0.231364057423107	0.0969468826978451	0.521337126600284	0.424390243902439
-14	-0.628436027456835	-0.271054759776564	0.386192754613807	0.657247514390372
2	0.325803939023034	0.113831089351285	0.473684210526316	0.35985312117503
-16	-0.164844131796396	-0.0404095825148457	0.410384068278805	0.450793650793651
-13	-0.41549759909613	-0.186291309669523	0.557894736842105	0.744186046511628
-5	-0.191323524571278	-0.0936923446656682	0.426820475847152	0.52051282051282
2	0.130312364094494	0.0194715392083815	0.438122332859175	0.418650793650793
-3	0.0497800852758016	0.00130463144161791	0.45493871665465	0.453634085213033
-7	-0.374908649082456	-0.198096302900562	0.403739612188366	0.601835915088927
0	0.215888558605817	0.0731315468157572	0.447368421052632	0.374236874236874
-6	-0.210899361756155	-0.134415221539681	0.398702235039654	0.533117456579335
-19	-0.553700073895913	-0.225978189792112	0.370583994232156	0.596562184024267
-8	-0.49499452195216	-0.243545762488121	0.354907539118065	0.598453301606187
-6	-0.456131791505109	-0.261952759320159	0.376731301939058	0.638684061259217
5	0.366053672969217	0.123966044699374	0.521337126600284	0.39737108190091
-3	0.037821012117218	-0.0138159990610485	0.426820475847152	0.4406364749082
-10	-0.19776643185456	-0.100715674274606	0.366315789473684	0.46703146374829
-4	-0.234374866259811	-0.162412035387261	0.448421052631579	0.61083308801884
-2	0.310634591846342	0.127742612344815	0.503157894736842	0.375415282392027
1	0.24819111936615	0.0877706199403037	0.403739612188366	0.315968992248062
-8	-0.462259588636577	-0.252715341168836	0.393684210526316	0.646399551695152
-4	-0.0508797607940814	-0.06084841847581	0.457756232686981	0.518604651162791
5	0.0842984025358564	-0.0146365914786968	0.366315789473684	0.380952380952381
-8	0.200698016793488	0.0867387817451769	0.46588693957115	0.379148157825973
-13	-0.422527696701504	-0.180530050732983	0.403739612188366	0.584269662921348
-4	-0.203964130524718	-0.140023886045918	0.354907539118065	0.494931425163983
-5	0.231160108761088	0.0933449313598982	0.454363757495004	0.361018826135105
-5	-0.224112892411546	-0.148703847250149	0.398702235039654	0.547406082289803
-1	0.0014158627989721	-0.042470475371332	0.382645803698435	0.425116279069767
-3	0.260431021446933	0.105975249466492	0.457756232686981	0.351780983220489
-7	0.219578463152515	0.110665688611773	0.530526315789474	0.4198606271777
-6	-0.0840387682492946	-0.0622930883048443	0.376731301939058	0.439024390243902
-13	-0.147052865535118	-0.0569576467053648	0.42838107928048	0.485338725985845
0	0.209524869255591	0.0574647710510623	0.473684210526316	0.416219439475253
-15	-0.085929676198954	-0.0151880075281978	0.473684210526316	0.488872218054514
-12	-0.318802372657942	-0.139431336963097	0.366315789473684	0.505747126436782
-9	-0.0878179348191586	-0.0379735051915502	0.448421052631579	0.486394557823129
-9	-0.142224698707369	-0.053210504680446	0.434868421052632	0.488078925733078
2	0.502058528986314	0.190942472460221	0.631578947368421	0.4406364749082
11	0.240317021446675	0.0506439273853638	0.403739612188366	0.353095684803002
-18	-0.422168203073956	-0.163933424137778	0.410384068278805	0.574317492416583
3	0.0231606220052946	-0.0365413868912396	0.410384068278805	0.446925455170045
-2	-0.299098698119506	-0.201346389228886	0.368421052631579	0.569767441860465
-3	0.177355895838148	0.0669673546721215	0.426820475847152	0.359853121175031
8	-0.0148761886827984	-0.0869721396037186	0.327169274537696	0.414141414141414
-15	-0.0628136653228454	-0.00549025798655378	0.430747922437673	0.436238180424227
-7	-0.206751632700225	-0.122623518524047	0.366315789473684	0.488939307997731
9	0.385018897870795	0.14288423762108	0.438122332859175	0.295238095238095
-15	-0.308216601541377	-0.105433122034642	0.382645803698435	0.488078925733078
-5	-0.0373388341564591	-0.0477313533408107	0.466165413533835	0.513896766874645
-1	-0.127406931964057	-0.082111925383078	0.421052631578947	0.503164556962025
-12	0.0200496158268495	0.0216967579887553	0.492822966507177	0.471126208518422
-9	0.0124326917472571	0.0137713330946413	0.475789473684211	0.462018140589569
-5	-0.231142276735912	-0.150471652880899	0.382645803698435	0.533117456579335
-4	0.246622818226245	0.113279401034231	0.448421052631579	0.335141651597348
-10	0.0295685546603544	0.0271325372254166	0.448421052631579	0.421288515406162
-5	0.00753581383936386	-0.0191125463811888	0.410384068278805	0.429496614659994
0	-0.175623336272051	-0.167539779681763	0.503157894736842	0.670697674418605
-11	-0.497886548376145	-0.246364127090613	0.376731301939058	0.623095429029671
-19	0.0183320351619006	0.0449406301656804	0.394736842105263	0.349796211939583
-21	-0.096280810173099	0.00850176982367928	0.438122332859175	0.429620563035496
9	0.306212759089136	0.0817789761127088	0.457756232686981	0.375977256574272
-4	-0.0764801294177062	-0.0803067722293667	0.530526315789474	0.61083308801884
6	0.140644748967882	0.0101742969840022	0.354907539118065	0.344733242134063
-7	0.178201133831489	0.0802295699579869	0.430747922437673	0.350518352479686
-9	-0.0780129703018322	-0.0434829371348325	0.370583994232156	0.414066931366988
0	-0.27966656792074	-0.177418207681365	0.438122332859175	0.61554054054054
-18	-0.282633319353026	-0.097199349314724	0.410384068278805	0.507583417593529
-24	-1.05044251953677	-0.401708146334829	0.448421052631579	0.850129198966408
-17	-0.0899704131038277	-0.00878506373441124	0.439507860560492	0.448292924294904
0	0.178477173581212	0.0570644083495979	0.382645803698435	0.325581395348837
-9	-0.339441871877612	-0.178123291413547	0.439507860560492	0.61763115197404
6	0.417143036482083	0.145735657966941	0.546138072453862	0.400402414486921
-1	-0.07255779716	-0.0990452876376987	0.503157894736842	0.602203182374541
-20	-0.330814024816473	-0.115156785473721	0.354907539118065	0.470064324591786
-24	-0.365008003012899	-0.105023799809602	0.393684210526316	0.498708010335917
-4	0.12161726482412	0.043637413894452	0.354907539118065	0.311270125223613
-10	-0.195730014579464	-0.100189190764466	0.382645803698435	0.482834994462902
3	0.453033298810533	0.187182989918922	0.538781163434903	0.351598173515982
-14	-0.160159404039453	-0.0597313388710653	0.398702235039654	0.458433573910719
-1	-0.364557209416451	-0.260313606139799	0.410384068278805	0.670697674418605
-1	0.0164992086656716	-0.02536468902727	0.398702235039654	0.424066924066924
-5	-0.319247460006333	-0.199877600979192	0.421052631578947	0.620930232558139
2	0.206675005940612	0.0534578871420976	0.492822966507177	0.43936507936508
6	0.214238637739249	0.0520389319162566	0.403739612188366	0.351700680272109
2	0.310117870705386	0.11603867421042	0.484764542936288	0.368725868725869
-7	-0.133804995494102	-0.0737208875848159	0.421052631578947	0.494773519163763
-7	0.0516586636537674	0.0237655113393238	0.393684210526316	0.369918699186992
3	0.0648436630688773	-0.0303794369645042	0.394736842105263	0.425116279069767
-4	-0.00793667776531948	-0.0343491935608821	0.421052631578947	0.455401825139829
-9	0.194583772001153	0.0999299722958127	0.549075391180654	0.449145418884842
-10	-0.277380004736186	-0.139675754962971	0.41285030758715	0.552526062550121
-9	0.0737618154998816	0.0377110033570783	0.426820475847152	0.389109472490074
10	0.374993835214154	0.14678270846034	0.382645803698435	0.235863095238095
-1	0.182346723044398	0.0445981748601709	0.5	0.455401825139829
0	0.00467056403408905	-0.0533924377253631	0.438122332859175	0.491514770584538
-2	0.318654010208478	0.122032196913157	0.486184210526316	0.364152013613159
-5	0.272595621432831	0.124590856298174	0.51948051948052	0.394889663182346
7	0.235337405427264	0.0750375037348385	0.382645803698435	0.307608299963597
7	0.238202332143581	0.0622709338615731	0.382645803698435	0.320374869836862
-6	0.0929694540465655	0.0420393797046805	0.45493871665465	0.41289933694997
-21	-0.450105993557646	-0.164794531250279	0.370583994232156	0.535378525482434
-21	-0.681484570101461	-0.254446928131139	0.382645803698435	0.637092731829574
-5	-0.0390645666043462	-0.0367683998333372	0.445442875481386	0.482211275314723
-7	0.0834073927783819	0.0469966490505647	0.41285030758715	0.365853658536585
5	-0.0427590565289461	-0.101782720403336	0.354907539118065	0.456690259521402
-12	-0.435000841671588	-0.212788873031481	0.398702235039654	0.611491108071135
-11	0.0984670164596719	0.0503787274049631	0.491228070175439	0.440849342770475
-7	0.157195313866061	0.0742591773551529	0.447368421052632	0.373109243697479
-3	-0.312821409516636	-0.191783435862383	0.386192754613807	0.577976190476191
-4	0.287598468443022	0.132679580442026	0.45493871665465	0.322259136212625
-13	-0.531350840102371	-0.243903587232841	0.394736842105263	0.638640429338104
-4	0.0263350480608744	-0.0113704042266395	0.366315789473684	0.377686193700324
-11	0.0631909909755686	0.0414384160464876	0.426820475847152	0.385382059800664
12	0.1375596589974	-0.00318649757112288	0.370583994232156	0.373770491803279
-1	0.152208460653993	0.0454652771515329	0.398702235039654	0.353236957888121
-2	-0.185081442425384	-0.141989858366847	0.366315789473684	0.508305647840532
8	0.411899809696627	0.140031300802225	0.484764542936288	0.344733242134063
-14	-0.297209930012868	-0.128982103278309	0.382645803698435	0.511627906976744
4	-0.0548813403113789	-0.0725742536164974	0.376731301939058	0.449305555555555
-9	-0.217547854022762	-0.118355313765575	0.370583994232156	0.488939307997731
-3	-0.309948415517571	-0.207093475830474	0.403739612188366	0.61083308801884
-8	0.0106535651211287	-0.00336060469411009	0.430747922437673	0.434108527131783
-8	0.129541103531312	0.0550300013184311	0.546138072453862	0.491108071135431
-10	-0.451186614283309	-0.227499381975387	0.466165413533835	0.693664795509222
-2	-0.0248528501282481	-0.05370086573554	0.398702235039654	0.452403100775194
6	0.284275088436655	0.0881726054266099	0.448421052631579	0.360248447204969
-4	0.0751056369171423	0.0174000853315418	0.354907539118065	0.337507453786524
-8	-0.237790769002519	-0.134031768879666	0.354907539118065	0.488939307997731
-5	-0.369767727172868	-0.229296745183467	0.370583994232156	0.599880739415623
-4	0.100663106783058	0.0381580173525791	0.398702235039654	0.360544217687075
-3	0.295704193807009	0.112010219580894	0.511842105263158	0.399831885682264
-8	-0.280444259942424	-0.158557550413265	0.370583994232156	0.52914154464542
6	0.0111154998189662	-0.0552690763916536	0.426820475847152	0.482089552238806
-6	0.120949633801532	0.0474246584405706	0.438122332859175	0.390697674418604
2	0.114684886716711	0.00212940762227332	0.421052631578947	0.418923223956674
-3	-0.116977371873333	-0.0990817710523954	0.382645803698435	0.481727574750831
-13	-0.178217589000644	-0.0528008846427055	0.398702235039654	0.451503119682359
-10	-0.159876944760665	-0.0800917873893009	0.51948051948052	0.599572306869821
-7	-0.0219780219780215	-0.0174804098854729	0.506329113924051	0.523809523809524
6	0.212661165843541	0.0275804151715683	0.466165413533835	0.438584998362266
-6	-0.303774968401652	-0.184964768930497	0.410384068278805	0.595348837209302
-6	-0.269648038619886	-0.162825755171736	0.366315789473684	0.52914154464542
3	0.0864468049290571	-0.0210200557143097	0.426820475847152	0.447840531561462
-13	-0.325913172914396	-0.132206652996126	0.448421052631579	0.580627705627705
-13	-0.0801242820826665	-0.024920440636475	0.393684210526316	0.418604651162791
-10	-0.467227998439748	-0.228992687639304	0.354907539118065	0.583900226757369
5	0.48419226632201	0.179074834250454	0.532311792138575	0.353236957888121
8	0.319560080881991	0.0832014246141672	0.511772853185596	0.428571428571429
-13	-0.519384328441856	-0.227766385661122	0.359535201640465	0.587301587301587
-1	-0.0624513185712695	-0.085749035526703	0.447368421052632	0.533117456579335
9	0.175689671405706	0.00608731130150952	0.393684210526316	0.387596899224806
1	0.143529257360347	0.026303679981519	0.426820475847152	0.400516795865633
-15	0.147712650466628	0.102542983010676	0.538781163434903	0.436238180424227
-12	-0.250056349199556	-0.110377973497951	0.486184210526316	0.596562184024267
-11	-0.321828823970807	-0.160277139404506	0.354907539118065	0.515184678522572
7	0.149329703244979	0.00535823122185297	0.465860597439545	0.460502366217692
1	0.33591581816796	0.117505569479254	0.541910331384016	0.424404761904762
0	0.2501281345954	0.100939125734748	0.484764542936288	0.38382541720154
-2	0.267058522872477	0.10658118253055	0.51948051948052	0.41289933694997
-12	-0.0624598779433544	-0.0215484179574841	0.366315789473684	0.387864207431168
-11	-0.336731811640012	-0.152551675619782	0.376731301939058	0.52928297755884
-16	-0.259302610893798	-0.100542214286266	0.370583994232156	0.471126208518422
0	0.347689110205157	0.154854401729613	0.484764542936288	0.329910141206675
-6	0.0207714562059723	-0.0142517480549813	0.491228070175439	0.50547981823042
1	-0.0219168935471882	-0.0521481086307784	0.439507860560492	0.491655969191271
-10	-0.284669736628121	-0.145577075383397	0.393684210526316	0.539261285909713
-20	-0.589214593707533	-0.195730048097513	0.45493871665465	0.650668764752163
-5	-0.138119020921958	-0.0986612319212291	0.382645803698435	0.481307035619664
4	0.116391823837266	0.011608598962194	0.503157894736842	0.491549295774648
-2	0.401023700901302	0.162668298653611	0.578947368421053	0.416279069767442
0	-0.115247869225837	-0.103845139163699	0.376731301939058	0.480576441102757
-16	-0.719820367311186	-0.326229411786327	0.354907539118065	0.681136950904392
8	0.617082104886983	0.265932945707166	0.565789473684211	0.299856527977044
-8	-0.0662523930577785	-0.0327626294652293	0.421052631578947	0.453815261044177
-17	-0.0341596388108012	0.0346780878695774	0.51948051948052	0.484802431610942
4	0.252250401577207	0.0794870583120276	0.410384068278805	0.330897009966778
3	0.0223097995435818	-0.0476977560002022	0.410384068278805	0.458081824279007
-11	0.0954084675014913	0.0543642404107523	0.51948051948052	0.465116279069767
13	0.310297319283198	0.082736345190277	0.421052631578947	0.33831628638867
-11	-0.640568326002842	-0.310925963557542	0.327169274537696	0.638095238095238
-6	0.277532646871693	0.121649420170309	0.546138072453862	0.424488652283553
-6	-0.0999995516519382	-0.0624549026888208	0.448421052631579	0.5108759553204
-12	0.0395936173169958	0.0444824705441766	0.503157894736842	0.458675424192665
1	0.0928470331551207	0.0157966977475657	0.410384068278805	0.394587370531239
-8	-0.126407660067391	-0.0757744340154706	0.438122332859175	0.513896766874646
7	0.353737653615255	0.136777185803862	0.426820475847152	0.29004329004329
-1	0.146161468070892	0.0436112495867144	0.430747922437673	0.387136672850959
-10	-0.30291047182112	-0.149474704202366	0.486184210526316	0.635658914728682
-16	-0.383768006779022	-0.143361837086996	0.403739612188366	0.547101449275362
-16	-0.236344235120244	-0.0838414914302305	0.438122332859175	0.521963824289405
-12	-0.103066252393058	-0.0418733492237326	0.376731301939058	0.418604651162791
-5	-0.137209587637984	-0.0981101023689177	0.370583994232156	0.468694096601073
13	0.367938843356045	0.112259163533835	0.466165413533835	0.35390625
0	0.178109833862588	0.0505099959200326	0.421052631578947	0.370542635658915
-4	-0.0140566288057105	-0.0358124041336781	0.393684210526316	0.429496614659994
3	0.0122847368869403	-0.0454948753688559	0.354907539118065	0.400402414486921
-15	-0.214588451124559	-0.0819960172533774	0.376731301939058	0.458727319192435
11	0.25766574033583	0.0659403080872911	0.393684210526316	0.327743902439025
-11	-0.321828823970807	-0.160277139404507	0.354907539118065	0.515184678522572
-14	-0.385328258033276	-0.154391973940846	0.41285030758715	0.567242281527996
5	-0.0202029712433627	-0.103127798354236	0.439507860560492	0.542635658914729
8	0.381786308346896	0.127180638162571	0.503157894736842	0.375977256574272
-2	0.0225608744580588	-0.0141779105297494	0.370583994232156	0.384761904761905
0	0.22819000664778	0.0697521419828647	0.434868421052632	0.365116279069767
-3	0.290801813445633	0.124478214563894	0.41285030758715	0.288372093023256
1	-0.0203236176308391	-0.0580532412111359	0.393684210526316	0.451737451737452
-4	-0.201997614788313	-0.139261821326173	0.342465753424657	0.481727574750831
-2	0.213189503275182	0.0835193584501063	0.457756232686981	0.374236874236874
-3	0.157386880765095	0.048810186141888	0.439507860560492	0.390697674418604
-3	0.0317010610768264	-0.0150064552908232	0.398702235039654	0.413708690330477
5	-0.0851099125272932	-0.127918209153907	0.410384068278805	0.538302277432712
-11	-0.812922287830488	-0.387910186840361	0.376731301939058	0.76464148877942
-7	0.0677585144850879	0.0396415624599675	0.610259826782146	0.570618264322178
-17	-0.530606888012028	-0.206954455997399	0.546138072453862	0.753092528451262
-9	-0.304225761998101	-0.162240484933264	0.393684210526316	0.55592469545958
-10	-0.136978484591704	-0.0690758952692859	0.438122332859175	0.507198228128461
5	-0.212644651027193	-0.187466159024276	0.403739612188366	0.591205771212642
-7	-0.393710430736134	-0.2247651568337	0.354907539118065	0.579672695951766
-13	-0.354208928566333	-0.161449974010646	0.438122332859175	0.599572306869821
15	0.450139890062868	0.180268751709221	0.426820475847152	0.246551724137931
0	0.334108975479844	0.145563909774436	0.448421052631579	0.302857142857143
-31	-0.97252441560887	-0.318745525507494	0.421052631578947	0.739798157086441
-9	-0.476889899166521	-0.231469478293435	0.368421052631579	0.599890530925014
8	0.420941359741849	0.142787200559538	0.473684210526316	0.330897009966777
-17	-0.0482370546630032	0.0128950173831547	0.457756232686981	0.444861215303826
-4	-0.176602387770552	-0.100734685055687	0.454363757495004	0.555098442550691
-3	0.175658287041396	0.075286496339128	0.382645803698435	0.307359307359307
-27	-0.0148105668301508	0.0638185141094214	0.398702235039654	0.334883720930233
0	-0.199735800714993	-0.164262794005756	0.354907539118065	0.519170333123821
-12	-0.137288761829766	-0.0543632807704821	0.584277148567622	0.638640429338104
4	0.0958030137956694	-0.0177728678421201	0.45775623268698	0.475529100529101
4	0.0784437920300834	-0.0404516949192591	0.465860597439545	0.506312292358804
0	0.0451371354064131	-0.020304823862779	0.370583994232156	0.390888818094935
-9	-0.110854567708913	-0.0609040644916221	0.421052631578947	0.481956696070569
-4	0.105103283537173	0.0494957285714667	0.327169274537696	0.277673545966229
-11	0.382162411232179	0.201448388412893	0.565789473684211	0.364341085271318
-6	0.032832528548563	0.00920449271326473	0.393684210526316	0.384479717813051
0	0.52788500768917	0.238778765094555	0.546138072453862	0.307359307359307
0	-0.0648131957801489	-0.0843133474712427	0.473684210526316	0.557997557997558
-5	-0.223286301621675	-0.13491051126235	0.370583994232156	0.505494505494506
-5	-0.213984302111598	-0.145140758873929	0.47578947368421	0.62093023255814
-6	-0.117873252818173	-0.0828233374133004	0.421052631578947	0.503875968992248
-3	0.267355553463265	0.11586319664655	0.438122332859175	0.322259136212625
-8	-0.804312068999951	-0.442184212906814	0.314347512617159	0.756531725523973
-2	-0.174588365530838	-0.138774024942935	0.382645803698435	0.521419828641371
-5	-0.0380663807836391	-0.0437545329985095	0.398702235039654	0.442456768038163
-1	-0.0968162804148115	-0.0922381711855396	0.439507860560492	0.531746031746032
-5	-0.184630648828935	-0.124566442401064	0.382645803698435	0.5072122460995
-15	-0.421671759493056	-0.176522925010244	0.402398401065956	0.5789213260762
-4	-0.212343042514401	-0.142359667198612	0.338947368421053	0.481307035619664
5	0.357599866473795	0.10739256551701	0.526315789473684	0.418923223956674
-3	-0.0596078747853537	-0.0581903476640321	0.421052631578947	0.47924297924298
4	0.580587914737242	0.251959458008547	0.538781163434903	0.286821705426357
-1	-0.068488529014845	-0.078848436881678	0.349722991689751	0.428571428571429
9	-0.182548581569389	-0.217604210703385	0.376415722851433	0.594019933554817
-1	0.0065536258926705	-0.0379640887345323	0.370583994232156	0.408548082966688
11	0.360534610228613	0.0905274319401743	0.511772853185596	0.421245421245421
-6	0.0863608036190651	0.0358582592553268	0.430747922437673	0.394889663182346
9	0.184517644737963	0.024404045456677	0.382645803698435	0.358241758241758
-12	-0.377105554584135	-0.159120022277917	0.473684210526316	0.632804232804233
-18	-0.323024996219611	-0.113950467949723	0.438122332859175	0.552072800808898
2	-0.0701888890383384	-0.0928832968306653	0.382645803698435	0.475529100529101
2	0.333812658170063	0.120820330734651	0.521337126600284	0.400516795865633
2	0.360687048569546	0.15292203110516	0.448421052631579	0.295499021526419
-10	-0.271183325038894	-0.127241633495503	0.366315789473684	0.493557422969187
-2	0.0638402804865471	0.0065475376753571	0.393684210526316	0.387136672850959
7	0.403378750991969	0.145359870026013	0.521337126600284	0.375977256574272
-4	-0.180872574997422	-0.119875225138383	0.438122332859175	0.557997557997558
-20	-0.307087037809192	-0.0809022556390979	0.448421052631579	0.529323308270677
-23	-0.0958136111134884	0.025701796018285	0.503157894736842	0.477456098718557
-14	-0.236266487490478	-0.0960626022856986	0.421052631578947	0.517115233864646
11	0.270827092124522	0.0593818849449203	0.393684210526316	0.334302325581395
-3	-0.119677548074121	-0.0880064919126597	0.376731301939058	0.464737793851718
8	0.262525450587068	0.0892863027609068	0.366315789473684	0.277029486712777
-1	0.0560659250989731	-0.0126715389873284	0.492822966507177	0.505494505494506
-18	-0.334221062495236	-0.103497580614285	0.465860597439545	0.56935817805383
-7	-0.16635995583364	-0.10007702182285	0.338947368421053	0.439024390243902
-9	-0.199188000901587	-0.108872967973824	0.45493871665465	0.563811684628474
-1	-0.326002842526711	-0.220528799476168	0.382645803698435	0.603174603174603
-1	-0.235163041772589	-0.167719298245614	0.393684210526316	0.56140350877193
-4	-0.00793667776531914	-0.0343491935608819	0.421052631578947	0.455401825139829
-8	-0.559725871843376	-0.301009561848318	0.376731301939058	0.677740863787376
-7	-0.420002681936586	-0.2359386839191	0.466165413533835	0.702104097452935
-3	-0.100030936016248	-0.0819766158112021	0.438122332859175	0.520098948670377
-12	-0.196040291817525	-0.0838394984313207	0.532311792138575	0.616151290569895
1	0.116493054069553	0.0127916900989113	0.393684210526316	0.380892520427404
7	0.103140433617789	-0.0495183238534094	0.47578947368421	0.52530779753762
-7	0.0443999085369957	0.0209863163079539	0.354907539118065	0.333921222810112
-16	-0.0863833229194307	-0.0103062665608565	0.448421052631579	0.458727319192435
2	0.280647952618577	0.112937176048359	0.426820475847152	0.313883299798793
-5	0.195219305378425	0.0770559410437611	0.466165413533835	0.389109472490074
5	0.178201133831488	0.0209870315107156	0.430747922437673	0.409760890926957
-12	-0.364112427759918	-0.149515771041495	0.572795625427205	0.7223113964687
-10	-0.692439353543333	-0.328019290150227	0.354907539118065	0.682926829268293
5	0.500338502786484	0.206194056569997	0.557894736842105	0.351700680272109
-7	-0.103605492834378	-0.0687396254254621	0.398702235039654	0.467441860465116
-9	-0.127241179872758	-0.057644110275689	0.466165413533835	0.523809523809524
11	0.66919086625329	0.294663220551379	0.530526315789474	0.235863095238095
2	0.120804837757102	0.0014634228131653	0.448421052631579	0.446957629818414
9	0.269295779699696	0.0689602794865952	0.421052631578947	0.352092352092352
0	-0.153591512526641	-0.140579355365157	0.393684210526316	0.534263565891473
1	0.0389210952246454	-0.0253628332215207	0.410384068278805	0.435746901500326
-4	0.0912065290890264	0.018924437971585	0.448421052631579	0.429496614659994
-2	0.00096506920252315	-0.0356775660080434	0.366315789473684	0.401993355481728
-20	-0.130113154898956	-0.020220318237454	0.366315789473684	0.386536107711138
-6	-0.269503242575458	-0.163697112044725	0.354907539118065	0.518604651162791
-15	0.00817776674569815	0.0350755667060505	0.538781163434903	0.503705596728853
-9	0.0305690841186556	0.0136336805756221	0.438122332859175	0.424488652283553
-10	-0.36362035482703	-0.143067973989027	0.465860597439545	0.608928571428571
-5	-0.230289498343353	-0.132748991224293	0.402398401065956	0.535147392290249
7	0.0893692191121817	-0.0403744655757037	0.448421052631579	0.488795518207283
-5	-0.556346142637452	-0.315365046211149	0.382645803698435	0.698010849909584
-20	-0.449574599207402	-0.165189718482252	0.393684210526316	0.558873929008568
-12	-0.164829968073542	-0.0703319104629957	0.440545808966862	0.510877719429857
-9	-0.220348908537403	-0.118894646368065	0.354907539118065	0.47380218548613
5	0.00511565138248105	-0.0666295586204054	0.382645803698435	0.449275362318841
-1	-0.139924946534493	-0.113834586466165	0.393684210526316	0.507518796992481
-8	0.0131300767775673	-0.00368620306851514	0.447368421052632	0.451054624121147
1	0.181364535097705	0.0395858281782393	0.475789473684211	0.436203645505971
6	0.259431411549512	0.0886333626327364	0.426820475847152	0.338187113214416
4	0.131383508372492	0.00322281632273252	0.403739612188366	0.400516795865633
-8	-0.15564861495094	-0.0920105885906157	0.51948051948052	0.611491108071135
-1	-0.274377312888224	-0.178846827113836	0.492822966507177	0.671669793621013
10	0.379322839543158	0.144273710675179	0.382645803698435	0.238372093023256
8	0.104186357074675	-0.0418557780560349	0.521337126600284	0.563192904656319
-8	-0.125833366959438	-0.0644542185838349	0.370583994232156	0.43503821281599
2	0.0977309104604082	-0.0110702808071231	0.521337126600284	0.532407407407407
-4	0.152217020026078	0.0511420939817513	0.493598862019915	0.442456768038163
1	0.17666900622837	0.0475296560456099	0.410384068278805	0.362854412233195
-4	0.036680475786963	-0.00483128815987083	0.370583994232156	0.375415282392027
-18	0.0799759196332025	0.0800144192351501	0.484764542936288	0.404750123701138
5	0.0614864531633205	-0.032458039036986	0.386192754613807	0.418650793650793
18	0.414860944848705	0.143700225467143	0.382645803698435	0.238945578231292
-12	-0.288898066437846	-0.135318729863954	0.393684210526316	0.52900294039027
-16	-0.747972142096989	-0.333970690396639	0.438122332859175	0.772093023255814
-16	-0.0799494263386551	0.0131537635297034	0.557894736842105	0.544740973312402
-1	0.0299406835514547	-0.0250703920294563	0.460526315789474	0.48559670781893
-4	-0.040409610789048	-0.0434342435034957	0.45775623268698	0.501190476190476
0	-0.0786312830376472	-0.080786381538261	0.359535201640465	0.440321583178726
10	0.11249297418208	-0.056063713652453	0.438122332859175	0.494186046511628
-12	0.0418353576248309	0.0490753911806542	0.549075391180654	0.5
-14	-0.105043467344569	-0.0314763968374739	0.410384068278805	0.441860465116279
-3	-0.120073724724888	-0.0981707214835432	0.342465753424657	0.4406364749082
4	0.284097685260476	0.0725228896621062	0.51948051948052	0.446957629818414
-7	-0.26917513331222	-0.16048362539929	0.503157894736842	0.663641520136132
-13	-0.12165078903145	-0.0438343632113945	0.438122332859175	0.481956696070569
-8	-0.324691220652054	-0.175301016196522	0.394736842105263	0.570037858301785
-5	-0.0854416900928534	-0.0580226470637432	0.342465753424657	0.400488400488401
-9	-0.382275109631291	-0.201888090158437	0.457756232686981	0.659644322845417
-16	-0.796346859994351	-0.346616117020271	0.398702235039654	0.745318352059925
-6	0.0683180548541628	0.0196863938602005	0.410384068278805	0.390697674418605
2	0.0569850386251857	-0.0203273118785584	0.403739612188366	0.424066924066924
-24	-0.526344320713965	-0.170182310120466	0.430747922437673	0.600930232558139
-13	-0.246968555720086	-0.105348026523889	0.457756232686981	0.56310425921087
2	0.136245867953185	0.0173385837699062	0.565789473684211	0.548450889914305
-9	-0.440649925350048	-0.222258266963403	0.354907539118065	0.577165806081469
-10	-0.100962786703301	-0.0504431838451877	0.398702235039654	0.449145418884842
-14	-0.123869602449773	-0.0306332477385105	0.410384068278805	0.441017316017316
-12	0.0893149078583598	0.0567115463076297	0.421052631578947	0.364341085271318
-12	-0.038194771364906	-0.00736004638278681	0.457756232686981	0.465116279069767
-13	-1.20864325393089	-0.591285189718482	0.338947368421053	0.930232558139535
-3	0.0690691397545744	0.00723052130640878	0.382645803698435	0.375415282392027
-24	-0.532565761451931	-0.174246979832372	0.354907539118065	0.529154518950438
-4	-0.00422832980972521	-0.0388542257515599	0.5	0.53885422575156
3	0.306100264484597	0.103696450428397	0.47578947368421	0.372093023255814
1	-0.447589423841027	-0.292596428175938	0.382645803698435	0.675242231874373
-5	-0.364999443640814	-0.222028874371415	0.473684210526316	0.69571308489773
-8	-0.258376058865654	-0.14015185439492	0.495507060333761	0.635658914728682
-17	-0.131038687954232	-0.0166134075908511	0.438122332859175	0.454735740450026
-10	0.234526387525164	0.135810085058205	0.549075391180654	0.413265306122449
-17	-0.449823534278858	-0.173183960756554	0.492822966507177	0.666006927263731
-2	0.0979012827238036	0.0279891699559286	0.349722991689751	0.321733821733822
-4	-0.12769494091702	-0.0780161685080178	0.398702235039654	0.476718403547672
-15	-0.376912764917661	-0.148114731272626	0.393684210526316	0.541798941798942
-14	-0.839442075672187	-0.358773262944596	0.409210526315789	0.767983789260385
-13	-0.493743812287265	-0.232019340490197	0.438122332859175	0.670141673349372
-11	0.160667973397471	0.0889812416384388	0.421052631578947	0.332071389940509
0	0.109566382210201	-0.00373725010199899	0.530526315789474	0.534263565891473
2	0.201588191490272	0.0588642041548598	0.393684210526316	0.334820006371456
0	0.476230827516017	0.219726948951326	0.484764542936288	0.265037593984963
11	0.355952493039396	0.11960081378878	0.426820475847152	0.307219662058372
-3	-0.635529810866408	-0.388429949189321	0.403739612188366	0.792169561377686
0	-0.209750673642963	-0.155020885547201	0.338947368421053	0.493968253968254
-16	-0.198304347631153	-0.0590865034439648	0.376731301939058	0.435817805383023
5	0.226379739216709	0.0722384098523984	0.403739612188366	0.331501202335967
-9	-0.68546518760717	-0.365462312380953	0.354907539118065	0.720369851499019
-9	-0.0247757138822007	-0.00720767684458534	0.480346435709527	0.487554112554113
-4	0.0947750739672408	0.017322682471172	0.484764542936288	0.467441860465116
-1	0.309198757179174	0.119804172435751	0.572795625427205	0.452991452991453
-1	0.148074997218203	0.0195141223680333	0.552631578947368	0.533117456579335
-15	-0.357079884619664	-0.151018631850945	0.393684210526316	0.544702842377261
-11	-0.151694185047918	-0.0697390312769386	0.493598862019915	0.563337893296853
6	0.364010401237616	0.150081075603	0.403739612188366	0.253658536585366
5	-0.178352858891414	-0.184725512411165	0.447368421052632	0.632093933463796
4	0.16320317789106	0.0400111853984771	0.370583994232156	0.330572808833679
5	-0.0129189455994847	-0.0984873216904679	0.426820475847152	0.52530779753762
-7	-0.154120053752856	-0.0952550974714153	0.393684210526316	0.488939307997731
-19	-0.420285141215375	-0.165117664168872	0.342465753424657	0.507583417593529
-14	-0.538917650599294	-0.202682251199243	0.538781163434903	0.741463414634146
10	0.242054151478876	0.0384569937042203	0.42838107928048	0.38992408557626
-1	-0.0311660953509474	-0.0436456996148907	0.421052631578947	0.464698331193838
-15	-0.192520657636936	-0.0498776585733104	0.51948051948052	0.56935817805383
3	0.0551822718285385	-0.0352563579491365	0.393684210526316	0.428940568475452
-3	-0.229505296824758	-0.160388064224909	0.42838107928048	0.588769143505389
-1	-0.430149613748145	-0.275998854946224	0.439507860560492	0.715506715506716
-19	-0.714866630717303	-0.278599497519809	0.538781163434903	0.817380660954712
8	0.0664272488017902	-0.0580475957696096	0.430747922437673	0.488795518207283
-11	-0.494948543908153	-0.250920387940224	0.426820475847152	0.677740863787376
-9	0.0366890351590476	0.0167151785547033	0.465860597439545	0.449145418884842
-12	-0.236714427962898	-0.108399176642203	0.45493871665465	0.563337893296854
9	0.301200227760815	0.0853321441860738	0.430747922437673	0.345415778251599
2	0.152302613746921	0.0221998394709851	0.430747922437673	0.408548082966688
4	0.274896904550307	0.103931293536941	0.45493871665465	0.351007423117709
-29	-0.612496540587117	-0.177668467374066	0.430747922437673	0.608416389811739
-5	-0.319198956897855	-0.182750537995696	0.407430340557276	0.590180878552971
6	0.20118722566703	0.0396629491056738	0.438122332859175	0.398459383753501
3	0.371510170775776	0.143525480367586	0.473684210526316	0.33015873015873
-4	-0.281123201563838	-0.173865015970279	0.410384068278805	0.584249084249084
-6	-0.539513182581219	-0.243829401088929	0.491228070175439	0.735057471264368
-4	0.00852870100116132	-0.0267888580961802	0.45493871665465	0.481727574750831
1	0.130157378321393	0.0194952501838703	0.410384068278805	0.390888818094935
-6	0.0303978966769667	-0.0088555645985211	0.506329113924051	0.515184678522572
-12	-0.0690277694561661	-0.0242176473547116	0.370583994232156	0.394801641586867
5	0.0416918862451299	-0.0457715717866093	0.393684210526316	0.439455782312925
-7	-0.0172288131209821	-0.00250477472682281	0.421052631578947	0.42355740630577
-8	-0.393234672304439	-0.21281773931855	0.5	0.71281773931855
-14	-0.398837494614729	-0.181942068317965	0.370583994232156	0.55252606255012
0	0.105506386718138	0.0107774722217809	0.386192754613807	0.375415282392027
3	0.163984016799194	0.0294472847871576	0.410384068278805	0.380936783491648
-3	0.185767618754155	0.0574741278152389	0.538781163434903	0.481307035619664
1	0.17666900622837	0.0475296560456097	0.410384068278805	0.362854412233195
-2	-0.155926488851825	-0.122485267222109	0.465860597439545	0.588345864661654
11	0.054645995852671	-0.0563157894736842	0.393684210526316	0.45
-3	0.175496881739232	0.063925245211795	0.473684210526316	0.409758965314521
5	-0.112405779928245	-0.119589216944801	0.338947368421053	0.458536585365854
-3	-0.0178341650189876	-0.0447654333823245	0.410384068278805	0.45514950166113
-2	0.253337441831934	0.0947824320239447	0.484764542936288	0.389982110912343
-2	-0.0289335307695155	-0.0571801912071186	0.410384068278805	0.467564259485924
-4	0.00459108415044762	-0.0163558584611217	0.410384068278805	0.426739926739927
-1	0.350494874362683	0.157012883845097	0.45493871665465	0.297925832809554
-7	0.131689505924512	0.0555728033566979	0.430747922437673	0.375175119080975
3	0.0570433238731894	-0.0340898208029084	0.457756232686981	0.491846053489889
-9	0.240735906280582	0.119902914460895	0.538781163434903	0.418878248974008
-2	-0.146462268861289	-0.127542391855987	0.486184210526316	0.613726602382303
-12	0.228635093996171	0.124669844746505	0.403739612188366	0.27906976744186
-11	-0.234238629587468	-0.116006007372685	0.342465753424657	0.458471760797342
1	-0.0695534575583537	-0.0978305600582223	0.393684210526316	0.491514770584538
-8	0.0306445900081148	0.0182617056814745	0.438122332859175	0.4198606271777
-2	-0.108858909348505	-0.0879508006965204	0.415204678362573	0.503155479059093
-7	-0.516003784057638	-0.26855558810446	0.41285030758715	0.68140589569161
-28	-0.589109482928333	-0.181389169469169	0.393684210526316	0.575073379995484
-4	-0.152866819023489	-0.114899259738101	0.439507860560492	0.554407120298593
-15	0.144256803987527	0.096463006952071	0.492822966507177	0.396359959555106
-3	0.41186557220829	0.170210217200634	0.584277148567622	0.414066931366988
5	0.121179514080371	-0.00175095272427628	0.426820475847152	0.428571428571428
2	0.0409195048117933	-0.0311695287376537	0.349722991689751	0.380892520427404
-2	-0.00370050186451665	-0.0394881375361953	0.376731301939058	0.416219439475253
-4	-0.472299416458595	-0.259912578606132	0.393684210526316	0.653596789132448
14	0.524112814870197	0.190290150531291	0.480346435709527	0.290056285178236
4	-0.217417425495761	-0.206095354215655	0.438122332859175	0.64421768707483
0	-0.0839442075672182	-0.0965589649800174	0.465860597439545	0.562419562419562
-2	0.18701158083043	0.0706347263507606	0.366315789473684	0.295681063122924
-13	-0.137346179708182	-0.0197105846656551	0.557894736842105	0.57760532150776
-16	-0.410150844667368	-0.164799070796623	0.493598862019915	0.658397932816537
-4	-0.219542595307588	-0.143014498270994	0.503157894736842	0.646172393007836
-16	0.0785186865358223	0.0706668306942909	0.426820475847152	0.356153645152861
-7	-0.082508780489196	-0.0606563987056901	0.511772853185596	0.572429251891286
-9	-0.478032371545225	-0.253683044821356	0.448421052631579	0.702104097452935
2	-0.114491199857054	-0.104459701745387	0.342465753424657	0.446925455170045
-1	0.0662873438271232	-0.0138293250410755	0.465860597439545	0.47968992248062
0	-0.0479610149132794	-0.0811307023057329	0.410384068278805	0.491514770584538
-6	-0.176479986761504	-0.112534321347051	0.354907539118065	0.467441860465116
0	0.00467056403408905	-0.0533924377253631	0.438122332859175	0.491514770584538
-5	-0.108330266225003	-0.0794891886034374	0.359535201640465	0.439024390243902
-14	-0.219134598571563	-0.0799121399003125	0.366315789473684	0.446227929373997
-3	-0.426116886964126	-0.247311148415127	0.503157894736842	0.75046904315197
-1	-0.276964161909082	-0.208078335373317	0.421052631578947	0.629130966952264
2	0.175523235856997	0.0615075923163215	0.382645803698435	0.321138211382114
-12	-0.155560881387075	-0.0684088204227114	0.382645803698435	0.451054624121147
-9	0.0519553885526948	0.0233280876610125	0.530526315789474	0.507198228128461
6	0.140644748967882	0.0101742969840021	0.354907539118065	0.344733242134063
4	0.0588572745183791	-0.0324293966623874	0.486184210526316	0.518613607188703
8	0.252325296082946	0.0718362303681126	0.370583994232156	0.298747763864043
-17	-0.356100549797	-0.138299805986465	0.410384068278805	0.54868387426527
-15	-0.394515011712075	-0.167433400845113	0.403739612188366	0.571173013033478
7	0.265534139463147	0.050852221315693	0.549075391180654	0.498223169864961
-10	-0.521311409928302	-0.270731826423381	0.382645803698435	0.653377630121817
-14	-0.786386604012062	-0.364084118905996	0.430747922437673	0.794832041343669
3	0.103982818487103	-0.0172358029931722	0.45775623268698	0.474992035680153
-8	-0.131081077225508	-0.0765209488080193	0.445442875481386	0.521963824289406
-10	-0.0925032739598225	-0.0459788321693427	0.421052631578947	0.46703146374829
-5	0.187020140202514	0.0721933019716564	0.447368421052632	0.375175119080975
-5	0.20924597638184	0.0836936111528652	0.511772853185596	0.42807924203273
5	0.190266282065548	0.0316838608148277	0.421052631578947	0.38936877076412
5	0.0937393899450206	-0.0371510130895346	0.454363757495004	0.491514770584538
-3	0.032801144184253	-0.00449086915252339	0.382645803698435	0.387136672850959
2	0.381794358232547	0.150196421285773	0.466165413533835	0.315968992248062
-9	0.0122092309974806	0.00438918663837923	0.354907539118065	0.350518352479686
-7	-0.0761608852184128	-0.0439550094749068	0.475789473684211	0.519744483159117
4	0.493239522615288	0.175107099143207	0.588815789473685	0.413708690330477
-17	-0.170810829317562	-0.0522888616891068	0.366315789473684	0.418604651162791
-4	-0.0178706616447306	-0.020769243268715	0.503157894736842	0.523927138005557
-4	-0.165106721104272	-0.117683214378441	0.386192754613807	0.503875968992248
-11	-0.0831507333955314	-0.0362324452755729	0.382645803698435	0.418878248974008
-18	-1.13934209405446	-0.480125043792276	0.421052631578947	0.901177675371224
-4	-0.362427174879036	-0.187328447701532	0.393684210526316	0.581012658227848
-1	0.036377331358972	-0.0204651162790694	0.366315789473684	0.386780905752754
2	0.160185795436714	0.0420860370103344	0.393684210526316	0.351598173515981
1	0.108125554575983	-0.00972372080334749	0.521337126600284	0.531060847403632
-2	-0.457252254069878	-0.283683893277497	0.466165413533835	0.749849306811332
-7	0.275812213082715	0.136370969092307	0.438122332859175	0.301751363766868
-12	-0.288975814067614	-0.135857143186852	0.410384068278805	0.546241211465657
-24	-0.166721589304209	-0.00894328845369236	0.448421052631579	0.457364341085271
-4	0.222209858684767	0.084574738036242	0.473684210526316	0.389109472490074
-2	-0.395966464002407	-0.241456475731187	0.465860597439545	0.707317073170732
4	0.361816783787408	0.148087749187226	0.426820475847152	0.278732726659926
8	0.490174452230756	0.191925796044789	0.492822966507177	0.300897170462388
1	-0.0137104837227232	-0.0531010978018907	0.382645803698435	0.435746901500326
-2	-0.357296722045805	-0.232297988305989	0.445442875481386	0.677740863787376
-10	0.0955796549431798	0.0527402730585104	0.438122332859175	0.385382059800665
-10	0.0531515608014997	0.0295428036575708	0.448421052631579	0.418878248974008
-5	0.000213984302111947	-0.0225948592411259	0.393684210526316	0.416279069767442
6	0.386467775390664	0.14720995383674	0.41285030758715	0.26564035375041
-3	-0.00697629583798542	-0.0308219266114006	0.448421052631579	0.47924297924298
-7	-0.235815693894029	-0.141550363092591	0.438122332859175	0.579672695951766
-1	-0.0361323702816969	-0.0534829298347683	0.370583994232156	0.424066924066924
-13	-0.31268242161755	-0.141199510403917	0.393684210526316	0.534883720930233
0	0.0317952141697556	-0.0368163370482507	0.430747922437673	0.467564259485924
-4	-0.104820923670373	-0.0860482929026379	0.382645803698435	0.468694096601073
-23	-0.200542521533954	-0.0183416075162347	0.521337126600284	0.539678734116519
-21	-0.4306517635771	-0.142116750208855	0.366315789473684	0.508432539682539
3	0.204912998058654	0.0490176414359623	0.484764542936288	0.435746901500326
-5	-0.264504569278131	-0.173060263568471	0.426820475847152	0.599880739415623
-3	-0.0704657439663559	-0.0725036979626942	0.382645803698435	0.45514950166113
-5	0.0540474417463405	0.00679266409864632	0.410384068278805	0.403591404180159
9	0.178201133831489	-0.000550364611167697	0.409210526315789	0.409760890926957
-3	-0.126413366315447	-0.102378307127389	0.366315789473684	0.468694096601073
-30	-0.673528429954379	-0.201301056258217	0.394736842105263	0.59603789836348
-20	-0.0150245511322624	0.0512728020084981	0.521337126600284	0.470064324591786
-5	-0.0401776925644732	-0.0463892288861688	0.421052631578947	0.467441860465116
-6	-0.0687453101773785	-0.0589148502001856	0.480346435709527	0.539261285909713
5	0.261077559731171	0.0661375661375662	0.46588693957115	0.399749373433584
-6	0.039584242766618	-0.00212391368904952	0.511772853185596	0.513896766874645
-3	-0.164871032680091	-0.112927189769295	0.366315789473684	0.47924297924298
-5	-0.284975734180141	-0.177870257037944	0.366315789473684	0.544186046511628
-10	-0.0925032739598225	-0.0459788321693427	0.421052631578947	0.46703146374829
-16	-0.428510697788543	-0.179796810274166	0.410384068278805	0.590180878552971
-2	-0.113319972561099	-0.0963388200230305	0.438122332859175	0.534461152882206
-13	-0.0152528010545147	0.010673194614443	0.47578947368421	0.465116279069767
1	-0.101268784255321	-0.115204119462935	0.370583994232156	0.48578811369509
-4	0.18450939105774	0.0585096066524443	0.532311792138575	0.47380218548613
-12	-0.143965072055647	-0.0619389412315022	0.386192754613807	0.44813169584531
-6	0.0278199972202421	0.00711531916210284	0.366315789473684	0.359200470311581
-3	-0.0370620811257285	-0.0682233311364279	0.557894736842105	0.626118067978533
-2	0.205371433951605	0.0730057702395523	0.448421052631579	0.375415282392027
-10	-0.219107697687869	-0.100386906777884	0.410384068278805	0.510770975056689
-5	0.296149281155401	0.132482027863075	0.484764542936288	0.352282515073213
0	0.386740554427213	0.172932330827068	0.475789473684211	0.302857142857143
-13	0.0700768020229466	0.0662406015037595	0.530526315789474	0.464285714285714
-7	-0.0105822370204253	-0.0175768347277878	0.398702235039654	0.416279069767442
-9	-0.344842835662909	-0.186906126535151	0.426820475847152	0.613726602382303
-5	0.500555645904484	0.238772534264171	0.565789473684211	0.32701693942004
-4	-0.0117976678564197	-0.0335736357768183	0.382645803698435	0.416219439475254
-1	-0.301129409146545	-0.215685666919728	0.421052631578947	0.636738298498675
2	0.0173286525795712	-0.04206269097401	0.393684210526316	0.435746901500326
-11	-0.113651750126658	-0.0426813118902933	0.370583994232156	0.413265306122449
-4	0.172563209148575	0.0746511826869072	0.506329113924051	0.431677931237144
-5	-0.0389758140676133	-0.0450177568610241	0.410384068278805	0.455401825139829
-12	-0.121659348403535	-0.0523358881622099	0.342465753424657	0.394801641586867
1	0.180177635501993	0.0520246562351827	0.448421052631579	0.396396396396396
3	0.587458950678045	0.260029968786926	0.538781163434903	0.278751194647977
5	0.172081182791097	0.0228028286967178	0.403739612188366	0.380936783491648
-8	-0.0907097798162655	-0.0455172020961487	0.511842105263158	0.557359307359307
10	0.0864325393089161	-0.054811383955139	0.41285030758715	0.467661691542289
0	-0.0540809659536714	-0.0812134043468195	0.382645803698435	0.463859208045255
-6	-0.0840652615438422	-0.0558762117102772	0.538781163434903	0.59465737514518
-11	-0.821216828866768	-0.417796506276599	0.410384068278805	0.828180574555404
-2	0.0715698010679662	0.00216594420458566	0.492822966507177	0.490657022302592
-5	-0.0248463560401947	-0.0158588663697077	0.314347512617159	0.330206378986867
3	0.178765339108056	0.0458680948947712	0.426820475847152	0.380952380952381
-3	-0.307728175537234	-0.191681768523874	0.366315789473684	0.557997557997558
-11	-0.177153324032149	-0.0847388346474624	0.366315789473684	0.451054624121147
2	0.295080276720423	0.11802532647408	0.403739612188366	0.285714285714286
13	0.59293872580137	0.239999021728435	0.549075391180654	0.309076369452219
8	0.0153269822792467	-0.0883849771307093	0.376731301939058	0.465116279069767
0	0.223961676838054	0.0709753269342265	0.45775623268698	0.386780905752754
-12	-0.224026585409695	-0.10025971102576	0.475789473684211	0.576049184709971
-6	0.0865331119309095	0.024547501397767	0.503157894736842	0.478610393339075
5	0.160887663947639	0.0258507520980926	0.370583994232156	0.344733242134063
0	-0.113859620591566	-0.117680216453005	0.403739612188366	0.52141982864137
-2	-0.0516665097448452	-0.063045987060675	0.338947368421053	0.401993355481728
-8	0.022036307226026	0.014222517226603	0.398702235039654	0.384479717813051
-11	0.129680193327685	0.0708165763245325	0.466165413533835	0.395348837209302
2	-0.117807936657386	-0.121322450269819	0.382645803698435	0.503968253968254
15	0.317928093937886	0.0275930210140738	0.511842105263158	0.484249084249084
-7	-0.160240004793248	-0.0976660596471326	0.366315789473684	0.463981849120817
9	0.248568648813447	0.0583238339367664	0.403739612188366	0.345415778251599
4	0.179481473239123	0.00714545634986252	0.526315789473684	0.519170333123822
-12	0.0731883375702227	0.0504090704116473	0.538781163434903	0.488372093023256
-10	-0.434265777012889	-0.19388696238312	0.376731301939058	0.570618264322178
-6	0.114684886716711	0.0435045408525622	0.421052631578947	0.377548090726385
-25	-0.224332582961713	-0.0297184822521417	0.448421052631579	0.478139534883721
0	-0.140115767843623	-0.114721978244713	0.484764542936288	0.599486521181001
5	0.0685479351330024	-0.0298691935317747	0.398702235039654	0.428571428571429
3	0.0258831335942722	-0.0396200874004972	0.370583994232156	0.410204081632653
11	0.302890499952923	0.0680126429433909	0.457756232686981	0.38974358974359
-5	-0.361133460582665	-0.222978765877475	0.457756232686981	0.680734998564456
-5	0.4338973959537	0.203543329524761	0.492822966507177	0.289279636982416
-13	-0.426895116307601	-0.193312279640143	0.484764542936288	0.678076822576431
-3	-0.0773902759826871	-0.0775674234312987	0.403739612188366	0.481307035619664
-10	-0.234377719383839	-0.120952009442845	0.426820475847152	0.547772485289997
-9	-0.592441931793216	-0.316148779178376	0.354907539118065	0.671056318296441
-4	0.152460758335911	0.0638854586223006	0.438122332859175	0.374236874236874
2	0.222429549234935	0.0660293096033611	0.438122332859175	0.372093023255814
-3	0.0682645587786347	0.00125130777767907	0.430747922437673	0.429496614659994
5	0.458717435155624	0.170215218278254	0.486184210526316	0.315968992248062
-4	0.294573643410852	0.130081300813008	0.5	0.369918699186992
4	0.171467047844037	0.0180200658780829	0.465860597439545	0.447840531561462
2	0.0599351688702979	-0.0133319600370787	0.366315789473684	0.379647749510763
-4	-0.010446509834515	-0.0208160734476525	0.327169274537696	0.347985347985348
-15	-0.112281843003997	-0.028064735482116	0.448421052631579	0.476485788113695
-1	-0.12294152196233	-0.10166542900461	0.409210526315789	0.5108759553204
-5	0.0627014764101668	0.0215849236502135	0.382645803698435	0.361060880048222
-7	0.0212222498024215	-0.00533172911793867	0.549075391180654	0.554407120298593
-10	-0.274758697035319	-0.139289935864112	0.430747922437673	0.570037858301785
-5	0.147070697560294	0.0586030850583165	0.410384068278805	0.351780983220489
-5	0.0601673927867317	0.00862571819918079	0.438122332859175	0.429496614659994
-16	-0.33730131557549	-0.137389807255169	0.366315789473684	0.503705596728853
-6	-0.25699759237091	-0.143013181220059	0.376731301939058	0.519744483159117
-11	-0.0521030377211531	-0.0204365106652182	0.473684210526316	0.494120721191534
-9	-0.435637394021727	-0.219190111390492	0.382645803698435	0.601835915088927
1	0.175165104173673	0.052326762853079	0.421052631578947	0.368725868725868
-9	-0.217322457224539	-0.116519204989218	0.366315789473684	0.482834994462902
2	0.17343641670447	0.0288318438657967	0.47578947368421	0.446957629818414
-20	-0.215199732947591	-0.050970449379262	0.447368421052632	0.498338870431894
6	-0.151254803947582	-0.179353236478456	0.366315789473684	0.54566902595214
-11	-0.309588921890024	-0.152953825018049	0.410384068278805	0.563337893296854
-12	-0.214312411374835	-0.100088702747323	0.327169274537696	0.427257977285019
5	-0.0686465224976137	-0.09702903091061	0.466165413533835	0.563194444444445
8	0.380549682875264	0.11063122923588	0.5	0.38936877076412
6	0.25202785790301	0.0632933314911856	0.438122332859175	0.374829001367989
8	-0.0764298940553533	-0.148383730223391	0.430747922437673	0.579131652661065
0	-0.162866916844885	-0.130787495053423	0.376731301939058	0.507518796992481
13	0.434269932433947	0.167604989434153	0.410384068278805	0.242779078844653
-4	0.220760471678464	0.0976130070377317	0.382645803698435	0.285032796660704
2	-0.0195987153625152	-0.0523135458950608	0.382645803698435	0.434959349593496
-14	-0.425094795045837	-0.179155900086133	0.46588693957115	0.645042839657283
-13	-0.305720085707846	-0.136370134349393	0.403739612188366	0.540109746537758
3	0.0147905949619533	-0.0647354821161432	0.421052631578947	0.485788113695091
6	0.295433706216761	0.0977749251176722	0.447368421052632	0.349593495934959
-6	0.167461261708508	0.0730060537894076	0.438122332859175	0.365116279069767
10	0.532399363182717	0.200293757649939	0.530526315789474	0.330232558139535
-6	-0.322134821522826	-0.191435376625095	0.327169274537696	0.518604651162791
-14	-0.724713475019473	-0.327151295833112	0.447368421052632	0.774519716885743
4	0.0738481225017329	-0.0507235333666629	0.503157894736842	0.553881428103505
-1	-0.0968162804148119	-0.0922381711855398	0.439507860560492	0.531746031746032
-7	-0.193529542672749	-0.115969472244222	0.447368421052632	0.563337893296853
3	-0.0643424303155025	-0.0992569486338154	0.398702235039654	0.497959183673469
-23	-0.311925630469082	-0.0804583432376843	0.438122332859175	0.518580676096859
-9	0.087431845999777	0.0387737587754468	0.473684210526316	0.434910451750869
-10	-0.069767441860465	-0.0348837209302325	0.5	0.534883720930233
-10	-0.323891632643162	-0.163198877122821	0.41285030758715	0.576049184709971
1	0.13415919046274	0.0307363187680421	0.410384068278805	0.379647749510763
-1	0.135800144368076	0.0303464357095272	0.480346435709527	0.45
3	0.0970931080045329	0.010209417542132	0.376731301939058	0.366521884396926
-5	0.29002933011501	0.13073929326694	0.457756232686981	0.32701693942004
5	0.260806801243258	0.0988457070626092	0.398702235039654	0.299856527977045
5	0.0967758271919843	-0.0128039539725983	0.354907539118065	0.367711493090664
-14	-0.200551080906038	-0.0786593423832675	0.426820475847152	0.50547981823042
-7	-0.101223541860017	-0.0559422947612936	0.338947368421053	0.394889663182346
-1	-0.126861306787867	-0.120468098084168	0.398702235039654	0.519170333123821
-18	-0.53722328263332	-0.20869320707009	0.521337126600284	0.730030333670374
3	0.0719411098101724	-0.00768532368272029	0.410384068278805	0.418069391961525
13	0.384335604489648	0.135446929261536	0.403739612188366	0.268292682926829
13	0.283611533305536	0.0383380325814534	0.466165413533835	0.427827380952381
5	0.119449603843728	-0.00420548155258949	0.376731301939058	0.380936783491648
10	0.410936111385405	0.169514170040486	0.421052631578947	0.251538461538461
-12	0.0672830841129499	0.0485696197189046	0.530526315789474	0.481956696070569
-10	-0.311651730562379	-0.156930015495837	0.466165413533835	0.623095429029672
-16	-0.434630648828935	-0.184796056766681	0.382645803698435	0.567441860465116
-3	0.100401096550006	0.035677608655786	0.466165413533835	0.430487804878049
1	0.299057124026525	0.120870357712463	0.41285030758715	0.291979949874687
-3	0.0347424912908387	-0.00222302331170399	0.370583994232156	0.37280701754386
-8	-0.513215059114692	-0.267488100607485	0.327169274537696	0.59465737514518
2	0.449782775364171	0.189321789321789	0.51948051948052	0.33015873015873
-4	-0.0742804478362887	-0.0495608404837511	0.457756232686981	0.507317073170732
3	0.0215753239009049	-0.0469030173394623	0.342465753424657	0.38936877076412
-16	-0.598428091696146	-0.250158429105797	0.382645803698435	0.632804232804233
14	0.336535522671594	0.0917808694445406	0.438122332859175	0.346341463414634
-17	-0.263077293983048	-0.0933215284500478	0.410384068278805	0.503705596728853
-9	0.0302095904911079	0.0118696734636648	0.430747922437673	0.418878248974008
-14	-0.19236832119329	-0.076702978783762	0.359535201640465	0.436238180424227
-1	-0.132981257828259	-0.120930776352382	0.370583994232156	0.491514770584538
1	-0.195984802531657	-0.152923440612258	0.438122332859175	0.591045773471433
-2	0.229851238113172	0.0761671620912746	0.557894736842105	0.481727574750831
0	0.338386215987195	0.138965835641736	0.511772853185596	0.37280701754386
2	0.0385720970176295	-0.0398827633226126	0.398702235039654	0.438584998362266
-10	-0.330011583683554	-0.163694023686325	0.376415722851433	0.540109746537758
6	0.317196777111098	0.104018897147535	0.45493871665465	0.350919819507116
8	0.0455073282490662	-0.0636971120447253	0.354907539118065	0.418604651162791
-21	-0.22995038417315	-0.0472814473513893	0.492822966507177	0.540104413858567
-8	0.196905501679064	0.0933482269969556	0.516569200779727	0.423220973782771
-4	0.202303612340333	0.078496531094398	0.532311792138575	0.453815261044177
-14	-0.337601606879453	-0.147755466604916	0.410384068278805	0.558139534883721
2	0.137790809761434	0.0264180613602304	0.426820475847152	0.400402414486922
3	-0.20810900645662	-0.201145574695319	0.410384068278805	0.611529642974124
-8	0.0206195273514732	0.0127271045114433	0.382645803698435	0.369918699186992
-6	0.132607498580571	0.047791004064779	0.511772853185596	0.463981849120817
-5	-0.246196072389463	-0.153526294393623	0.402398401065956	0.55592469545958
5	-0.18763814724647	-0.205866315157798	0.511772853185596	0.717639168343394
2	0.133262330309827	0.0390827918961885	0.370583994232156	0.331501202335967
-5	-0.0355520652338274	-0.0461197363052672	0.457756232686981	0.503875968992248
0	0.0213189503275183	-0.041082435819278	0.521337126600284	0.562419562419562
-4	-0.295677802409749	-0.191609225020937	0.403739612188366	0.595348837209302
-5	0.116222720567887	0.0331624598465206	0.511772853185596	0.478610393339075
2	0.163678019247175	0.0389765530524406	0.382645803698435	0.343669250645995
7	-0.0293936989163429	-0.104887026873056	0.403739612188366	0.508626639061422
13	0.283947794351711	0.0783700060510506	0.349722991689751	0.2713529856387
-7	-0.159515311290097	-0.0962495167274457	0.402398401065956	0.498647917793402
-10	-0.276513368312634	-0.142165596265964	0.438122332859175	0.580287929125139
-7	-0.0154974564399285	-0.0201678626811224	0.382645803698435	0.402813666379558
-14	-0.154039452999061	-0.0551362202234172	0.426820475847152	0.481956696070569
-5	0.0817569823077778	0.0195617230242881	0.394736842105263	0.375175119080975
-11	-0.112281843003997	-0.0502268651618229	0.448421052631579	0.498647917793402
-2	-0.322124631794154	-0.20696806952446	0.366315789473684	0.573283858998144
7	-0.245744056025574	-0.235000065714912	0.354907539118065	0.589907604832978
5	0.318782400789745	0.110205474520587	0.45493871665465	0.344733242134063
-6	-0.34547836904018	-0.204890904762606	0.466165413533835	0.671056318296441
-5	0.00637851664809252	-0.00232091425254077	0.538781163434903	0.541102077687444
-18	-0.734102698606983	-0.265768588137009	0.605263157894737	0.871031746031746
1	-0.0451278627533206	-0.0813715048721163	0.386192754613808	0.467564259485924
-6	-0.257408136539103	-0.158620064372818	0.421052631578947	0.579672695951765
-13	-0.258723732407943	-0.105606481958321	0.370583994232156	0.476190476190476
-4	-0.286135732892159	-0.175351754299123	0.382645803698435	0.557997557997558
-12	-0.183849606126228	-0.0808799845390711	0.430747922437673	0.511627906976744
10	0.17295026474953	-0.000192789666473903	0.421052631578947	0.421245421245421
9	-0.0271592442645074	-0.0808650444277975	0.382645803698435	0.463510848126233
-10	0.261349014102992	0.135319832986012	0.538781163434903	0.403461330448891
0	0.268520137553185	0.0994473362894414	0.473684210526316	0.374236874236874
10	0.425834467450135	0.176250454861226	0.382645803698435	0.206395348837209
-4	0.233000373759248	0.100614879072651	0.438122332859175	0.337507453786523
-25	-0.693279894320286	-0.225852421752054	0.460526315789474	0.686378737541528
-3	-0.245071533933224	-0.162079557869032	0.448421052631579	0.610500610500611
-1	0.101646109908044	0.00303696818545751	0.484764542936288	0.481727574750831
2	-0.364913221139152	-0.250783517792504	0.354907539118065	0.605691056910569
-3	0.210018459712463	0.0754677391152304	0.466165413533835	0.390697674418604
-9	-0.152450976196387	-0.0831404091624414	0.448421052631579	0.53156146179402
-5	-0.370851099125273	-0.211660401002506	0.366315789473684	0.57797619047619
-3	0.409914035373032	0.201606277560738	0.426820475847152	0.225214198286414
-4	0.139977117945294	0.0481402219468317	0.438122332859175	0.389982110912343
-5	0.26758309010451	0.122904267320185	0.492822966507177	0.369918699186992
-19	-0.481058822858087	-0.182782893447401	0.438122332859175	0.620905226306576
0	0.469021390686017	0.204581967739862	0.526315789473684	0.321733821733822
3	0.412882581688744	0.172259279037977	0.538781163434903	0.366521884396926
-8	-0.233932632035447	-0.133291974760092	0.370583994232156	0.503875968992248
-5	0.0467256122090888	0.00298653610771138	0.393684210526316	0.390697674418604
-13	-0.492698651817379	-0.22144714068489	0.354907539118065	0.576354679802956
4	0.387914309272939	0.137090621756039	0.480346435709527	0.343255813953488
0	0.3017328448785	0.105491636066911	0.557894736842105	0.452403100775194
-6	-0.250917992656058	-0.138471177944862	0.421052631578947	0.559523809523809
-10	-0.208526683434884	-0.093315642046292	0.448421052631579	0.541736694677871
4	0.329640235673611	0.131932534037797	0.549075391180654	0.417142857142857
0	0.394034260313331	0.154548130703562	0.506329113924051	0.351780983220489
-10	0.118023041829651	0.0634948520411837	0.530526315789474	0.46703146374829
-3	-0.213316671089009	-0.153721871763488	0.393684210526316	0.547406082289803
-3	0.0521237228703577	-0.004504919804797	0.386192754613807	0.390697674418604
-12	-0.00443018833471664	0.00704459678783415	0.386192754613807	0.379148157825973
0	0.395123440411077	0.168100168712163	0.521337126600284	0.353236957888121
-5	-0.41850153110863	-0.239426396988022	0.354907539118065	0.594333936106088
-6	-0.536632278370343	-0.284729681346222	0.421052631578947	0.705782312925169
-19	-0.686714855931502	-0.273455517619017	0.457756232686981	0.731211750305997
13	0.494474110141185	0.186403247048281	0.45775623268698	0.2713529856387
8	0.233244112069082	0.0615779826306143	0.382645803698435	0.321067821067821
-6	0.290977891957084	0.143957424425261	0.503157894736842	0.359200470311581
-12	-0.0257401717010042	0.00152337539920366	0.530526315789474	0.52900294039027
5	0.229406252662067	0.0439514189514194	0.51948051948052	0.4755291005291
-5	0.0875847938271441	0.0279052081145034	0.538781163434903	0.5108759553204
-13	-0.0891943633681698	-0.0194813615944058	0.403739612188366	0.423220973782771
4	-0.0781197835113108	-0.099193312236561	0.370583994232156	0.469777306468717
-2	0.057969774004046	-0.00413510205431855	0.382645803698435	0.386780905752754
-4	0.428855910884152	0.215505110414195	0.557894736842105	0.34238962642791
-9	-0.37933832793074	-0.186176354198189	0.403739612188366	0.589915966386555
1	-0.112391892073656	-0.118116783186036	0.457756232686981	0.575873015873016
-6	0.0499582017329878	0.0132157861656028	0.327169274537696	0.313953488372093
-16	-0.236344235120245	-0.0838414914302307	0.438122332859175	0.521963824289406
-7	-0.194511730619441	-0.117801594172612	0.421052631578947	0.53885422575156
-1	0.0418075396655571	-0.0156350965408492	0.354907539118065	0.370542635658915
-2	-0.0100205791760262	-0.0390295373136038	0.45493871665465	0.493968253968254
7	0.103438381284158	-0.0105254555152184	0.349722991689751	0.360248447204969
1	0.2926934346763	0.106582523963185	0.439507860560492	0.332925336597307
-11	-0.640603378669474	-0.32776509607884	0.398702235039654	0.726467331118494
2	-0.0566402182069254	-0.104513326055554	0.438122332859175	0.542635658914729
-20	-0.783690401805457	-0.320937059875574	0.410384068278805	0.731321128154379
-2	0.0903163543922418	-0.00356705717782835	0.557894736842105	0.561461794019934
-2	0.184377434071437	0.0566707466340272	0.447368421052632	0.390697674418604
-9	-0.0807027529793753	-0.0480909066155509	0.545571245186136	0.593662151801687
-2	0.251883061858582	0.0995838433292534	0.448421052631579	0.348837209302326
3	-0.214955994637758	-0.181136173767753	0.394736842105263	0.575873015873016
-12	-0.136196728607989	-0.0531347749218004	0.605263157894737	0.658397932816537
-5	0.272595621432831	0.124590856298174	0.51948051948052	0.394889663182346
-4	-0.0179176188968112	-0.0350745717942781	0.354907539118065	0.389982110912344
-13	-0.19194677211813	-0.0676247935776064	0.438122332859175	0.505747126436781
-6	0.131877812110371	0.0456783339943894	0.51948051948052	0.47380218548613
-14	-0.335409694344823	-0.146425536011442	0.393684210526316	0.540109746537758
-3	-0.206977029498449	-0.150835834409215	0.370583994232156	0.521419828641371
-16	-0.438345416313593	-0.168690958164643	0.421052631578947	0.58974358974359
-8	-0.301303449712262	-0.16682135633824	0.492822966507177	0.659644322845417
-10	0.152294767655845	0.0809878320973432	0.47578947368421	0.394801641586867
-1	0.264619509417551	0.113883375599309	0.45493871665465	0.341055341055341
-15	-0.229043090732197	-0.075243664717349	0.421052631578947	0.496296296296296
-3	-0.310153738550311	-0.191683405716156	0.376731301939058	0.568414707655214
-15	-0.168162416938427	-0.055998388332359	0.438122332859175	0.494120721191534
-18	-0.401522590017083	-0.140421805680844	0.426820475847152	0.567242281527996
-1	0.00872770640212606	-0.0541628913721931	0.51948051948052	0.573643410852713
1	0.298813385716691	0.106312292358804	0.466165413533835	0.35985312117503
6	0.379403010340109	0.159122620974494	0.421052631578947	0.261930010604454
-3	0.0328011441842532	-0.00449086915252322	0.382645803698435	0.387136672850959
-3	0.0743845098190263	0.00235440754715138	0.45775623268698	0.455401825139829
-4	0.452136602687398	0.221303892643	0.530526315789474	0.309222423146474
0	-0.162866916844885	-0.130787495053423	0.376731301939058	0.507518796992481
-11	-0.158793470910974	-0.0740235119979505	0.448421052631579	0.52244456462953
-4	-0.191767881241565	-0.086532499487965	0.438122332859175	0.52465483234714
8	0.141946486805728	-0.0246785655565501	0.448421052631579	0.473099618188129
-9	-0.356857340945469	-0.189608905985895	0.366315789473684	0.55592469545958
-9	-0.187517093269847	-0.0897032552073768	0.438122332859175	0.527825588066552
0	0.283372991757325	0.105246838025296	0.47578947368421	0.370542635658915
-4	0.208709589064547	0.076587701222441	0.557894736842105	0.481307035619664
2	0.0357013547000709	-0.0186293345208502	0.370583994232156	0.389213328753006
15	0.484776341569487	0.157126148705096	0.503157894736842	0.346031746031746
0	0.144280342260759	0.0358478228064588	0.398702235039654	0.362854412233195
3	0.0470182612165481	-0.0320072893119603	0.403739612188366	0.435746901500326
11	0.171683885270176	3.67197062421942e-05	0.366315789473684	0.366279069767442
1	0.0908976784129784	-0.00181456082597908	0.398702235039654	0.400516795865633
12	0.557554644457949	0.209447271790247	0.511772853185596	0.302325581395349
-31	-0.204802948988995	0.0181885298164369	0.51948051948052	0.501291989664083
-6	0.0976060862841781	0.0250231401372079	0.572795625427205	0.547772485289997
10	0.619781160217617	0.252775050970324	0.552631578947368	0.299856527977045
5	0.397991543340381	0.137145587766805	0.5	0.362854412233195
5	-0.0446827754049293	-0.0960629198083296	0.332877648667123	0.428940568475452
-12	-0.329367490934199	-0.155712172278737	0.438122332859175	0.593834505137912
-14	-0.226640047019483	-0.0908552891417025	0.41285030758715	0.503705596728853
-2	0.342982221031002	0.156783845166387	0.565789473684211	0.409005628517824
-7	0.0775257993740248	0.0303632886252226	0.382645803698435	0.352282515073213
9	0.469873150105708	0.161948095719582	0.5	0.338051904280418
-3	-0.151249097699526	-0.123339461160759	0.438122332859175	0.561461794019934
0	0.12547825491522	0.0231415748674011	0.393684210526316	0.370542635658915
-1	0.0418075396655573	-0.015635096540849	0.354907539118065	0.370542635658914
2	0.0378531097625351	-0.0389235244559599	0.386192754613807	0.425116279069767
-4	-0.0598435632095354	-0.0643681084317555	0.439507860560492	0.503875968992248
-13	-0.120515958949251	-0.0440636474908201	0.421052631578947	0.465116279069767
-2	-0.164387733849178	-0.135561330851819	0.398702235039654	0.534263565891473
-16	-0.163216628332907	-0.0258254331480876	0.56578947368421	0.591614906832298
4	-0.160105092785631	-0.170833078328141	0.426820475847152	0.597653554175293
3	0.324301055941203	0.124988417540389	0.403739612188366	0.278751194647977
-10	-0.361662001808881	-0.183671566123187	0.457756232686981	0.641427798810168
-5	0.105034500383337	0.0469834579423618	0.342465753424657	0.295482295482296
-1	0.0981702915607444	0.0208771929824562	0.393684210526316	0.37280701754386
8	0.19944763518815	0.0168900512149942	0.466165413533835	0.449275362318841
-5	-0.185072883053299	-0.125060830838654	0.447368421052632	0.572429251891286
6	-0.0146919832414053	-0.0760930959424009	0.393684210526316	0.469777306468717
-3	0.0476773328670514	-0.00880287137597069	0.552631578947368	0.561434450323339
-6	-0.29182477770411	-0.153343143773402	0.370583994232156	0.523927138005557
1	0.140918648874586	0.0263396334387771	0.386192754613807	0.35985312117503
1	0.0504361278430596	0.00319374890391461	0.382645803698435	0.379452054794521
-22	-0.408903316186057	-0.124729035505227	0.454363757495004	0.57909279300023
2	0.338043841103817	0.112607099143207	0.526315789473684	0.413708690330477
-2	0.172554088098764	0.0438497382709199	0.538781163434903	0.494931425163983
-28	-1.36528709968122	-0.49344412966704	0.410384068278805	0.903828197945845
-20	-0.249166174502772	-0.0710665893620221	0.403739612188366	0.474806201550388
-13	-0.45947208646107	-0.216926503171386	0.382645803698435	0.599572306869821
-4	0.0893120547343315	0.0232869526476274	0.398702235039654	0.375415282392027
-8	-0.0333844042534371	-0.0258595162616417	0.438122332859175	0.463981849120817
-26	-0.866142833095097	-0.313336861953753	0.410384068278805	0.723720930232558
-7	-0.281240281546279	-0.160434340663205	0.486184210526316	0.646618551189521
-4	0.265737832139302	0.112490921140452	0.439507860560492	0.32701693942004
-10	-0.193975343302149	-0.0981199690182162	0.376731301939058	0.474851270957274
-12	0.415533466941056	0.228936709590067	0.475789473684211	0.246852764094143
-5	-0.441026639619051	-0.252015083879329	0.383552631578947	0.635567715458277
-15	-0.243824413041059	-0.0941353759492504	0.394736842105263	0.488872218054514
-8	-0.0921359342411971	-0.0563785865454671	0.382645803698435	0.439024390243902
8	0.262525450587068	0.0892863027609067	0.366315789473684	0.277029486712777
3	0.244767370532364	0.089267185367656	0.354907539118065	0.265640353750409
4	-0.146289739357776	-0.147934824223589	0.45775623268698	0.605691056910569
-12	-0.236481185073597	-0.107888294788379	0.403739612188366	0.511627906976744
-10	0.152294767655845	0.0809878320973433	0.475789473684211	0.394801641586867
3	0.375693258190198	0.149774417009406	0.521337126600284	0.371562709590879
-3	-0.0972018597477596	-0.0822080843133477	0.475789473684211	0.557997557997558
1	0.418272873597231	0.190377294587821	0.448421052631579	0.258043758043758
-4	-0.311206643213986	-0.194687617426618	0.402398401065956	0.597086018492575
-1	0.334204249442928	0.135927333633963	0.484764542936288	0.348837209302326
-7	0.0542872189855502	0.0437174016121385	0.410384068278805	0.366666666666667
2	0.0706547634332213	-0.0178709921671977	0.382645803698435	0.400516795865633
-5	-0.106543497302371	-0.0783562503429797	0.349722991689751	0.42807924203273
-11	-0.44006707287001	-0.207270162688119	0.382645803698435	0.589915966386554
-6	-0.0218121331952423	-0.0376003821237724	0.520539152759949	0.558139534883721
-2	0.24109753975115	0.0932404686511495	0.430747922437673	0.337507453786524
2	0.0300617375280777	-0.036705878811142	0.410384068278805	0.447089947089947
6	-0.16103887952113	-0.196921830030764	0.460526315789474	0.657448145820238
-8	-0.0395043552938289	-0.0286403219650973	0.410384068278805	0.439024390243902
-7	-0.148000102712465	-0.0928441352956981	0.421052631578947	0.513896766874645
-14	-0.259302610893798	-0.111372701838414	0.370583994232156	0.481956696070569
2	-0.441116207334078	-0.32179830206146	0.438122332859175	0.759920634920635
0	0.302100184597124	0.112789043633596	0.521337126600284	0.408548082966688
-2	-0.167915316018132	-0.123384259736099	0.370583994232156	0.493968253968254
-12	-0.713700416270796	-0.353968582456243	0.382645803698435	0.736614386154678
8	0.152771469010237	0.0141694858854197	0.45493871665465	0.440769230769231
-4	0.279931410898363	0.1046861339395	0.563157894736842	0.458471760797342
-17	-0.553745010599355	-0.224162688871664	0.484764542936288	0.708927231807952
-11	0.0266767096632461	0.0330340369981216	0.538781163434903	0.505747126436782
5	0.0893109338641775	-0.0165198711063372	0.393684210526316	0.410204081632653
-2	-0.167468389547979	-0.109790792075773	0.354907539118065	0.464698331193838
10	-0.0290247193969915	-0.0950924608819345	0.354907539118065	0.45
-5	0.167691141987347	0.078835127861804	0.426820475847152	0.347985347985348
0	0.0100767867135007	-0.0337983920005405	0.511772853185596	0.545571245186136
1	0.28544079339673	0.106761498340446	0.503157894736842	0.396396396396396
6	0.198954044731279	0.0163198694410445	0.473684210526316	0.457364341085271
-13	-0.531350840102371	-0.243903587232841	0.394736842105263	0.638640429338104
6	-0.149308871463094	-0.176600922596346	0.421052631578947	0.597653554175293
4	0.348029775202358	0.109840594959451	0.538781163434903	0.428940568475452
-15	-0.282755188507942	-0.100133418879723	0.438122332859175	0.538255751738898
-17	-0.0716105599826524	0.00587339429496803	0.51948051948052	0.513607125185552
-5	0.0201263444837495	-0.00335213032581461	0.421052631578947	0.424404761904762
-17	-0.0892706844359231	-0.0138632250015359	0.354907539118065	0.368770764119601
-12	-0.0150216980082341	0.00435196518427849	0.526315789473684	0.521963824289406
1	-0.0216174074803207	-0.0640156848386088	0.354907539118065	0.418923223956674
13	0.0153335037055956	-0.105946944988042	0.342465753424657	0.448412698412699
-3	0.127877834120184	0.0386459977103251	0.473684210526316	0.435038212815991
1	-0.0154974564399289	-0.0643118261199782	0.382645803698435	0.446957629818413
3	-0.0142147112622073	-0.0652248094766087	0.480346435709527	0.545571245186136
-8	-0.115256938084356	-0.0705149267896767	0.492822966507177	0.563337893296854
2	-0.162961069937815	-0.144455775750393	0.342465753424657	0.48692152917505
-5	-0.0325052344636192	-0.0307205513784463	0.393684210526316	0.424404761904762
-13	-0.214674044845404	-0.0908806075310952	0.438122332859175	0.52900294039027
-4	-0.427297135897906	-0.233024795621917	0.376731301939058	0.609756097560975
-18	-0.146470114952367	-0.0189994867137835	0.557894736842105	0.576894223555889
-13	-0.339441871877611	-0.150673017992479	0.439507860560492	0.590180878552971
-13	0.0278063827486164	0.04789458131497	0.410384068278805	0.362489486963835
-4	-0.339511569621729	-0.198575707561587	0.421052631578947	0.619628339140534
-9	0.0889611204788682	0.041809686575139	0.484764542936288	0.442954856361149
-14	-0.0257401717010044	0.0134110819248277	0.530526315789474	0.517115233864646
3	0.126133760160688	0.017749854087273	0.398702235039654	0.380952380952381
-10	-0.0770486143803161	-0.0269947851970248	0.426820475847152	0.453815261044177
0	-0.0882777972741255	-0.104324206502239	0.398702235039654	0.503026441541892
9	0.335650783325202	0.0621449058258282	0.565789473684211	0.503644567858383
-19	-0.719734060309336	-0.287410566694848	0.421052631578947	0.708463198273795
-7	-0.135317966407318	-0.0803419307585301	0.350665821179455	0.431007751937985
6	0.248806273286078	0.0697749939236009	0.438122332859175	0.368347338935574
1	-0.161580157908187	-0.136938514371823	0.354907539118065	0.491846053489889
-14	-1.0112177703977	-0.469002233996114	0.439507860560492	0.908510094556606
-14	-0.239048283417928	-0.0929869894374178	0.46588693957115	0.558873929008568
-6	-0.156746965804494	-0.0910339069753976	0.403739612188366	0.494773519163763
-2	0.119762734205819	0.0375770507349455	0.410384068278805	0.37280701754386
-11	0.123560242287293	0.0674148373046784	0.439507860560492	0.372093023255814
-19	-0.400752654118627	-0.141887488276717	0.439507860560492	0.58139534883721
