9
[ 5.710, 1.678, 2.619, 5.710, 1.724, 2.706, 1.724, 5.710, 2.619, 2.619, 1.724, 2.619, 2.619, 5.710, 2.619, 1.680, 2.706, 1.724, 5.710, 1.678, 1.678, 2.619, 5.710, 2.706, 2.619, 1.680, 2.619, 2.619, 1.678, 1.678, 2.619, 1.678, 2.619, 1.678, 11.704, 5.710, 11.704, 1.724, 11.704, 11.704, 2.619, 2.619, 2.619, 2.619, 2.619, 2.706, 2.619, 11.704, 2.619, 5.710, 2.619, 2.619, 11.704, 11.704, 1.678, 2.706, 1.678, 1.678, 5.710, 2.619, 11.704, 1.680, 1.678, 2.619, 11.704, 1.678, 5.710, 1.724, 1.724, 1.724, 2.619, 5.710, 1.724, 1.724, 1.678, 1.680, 1.724, 11.704, 11.704, 1.724, 5.710, 1.680, 1.678, 2.619, 1.678, 2.706, 1.724, 2.706, 1.724, 2.619, 1.680, 1.678, 1.724, 11.704, 1.724, 2.706, 2.619, 1.678, 1.678, 1.724, 1.678, 1.678, 5.710, 2.619, 1.678, 5.710, 1.678, 1.724, 1.678, 1.724, 5.710, 1.724, 1.724, 2.619, 2.619, 5.710, 5.710, 2.619, 2.706, 2.619, 1.678, 1.678, 1.724, 11.704, 2.619, 1.678, 11.704, 1.724, 1.678, 5.710, 1.724, 1.724, 2.233, 1.724, 2.619, 1.724, 1.724, 1.724, 1.724, 1.724, 2.619, 1.678, 11.704, 5.710, 2.619, 11.704, 2.619, 2.619, 1.678, 1.724, 11.704, 2.619, 2.619, 1.724, 2.619, 1.724, 2.619, 1.678, 1.678, 2.619, 2.619, 11.704, 2.706, 5.710, 1.724, 2.619, 2.706, 1.724, 5.710, 2.619, 1.724, 1.724, 5.710, 5.710, 2.619, 2.619, 5.710, 1.724, 5.710, 1.680, 1.061, 1.678, 2.619, 1.724, 1.678, 1.678, 2.619, 1.678, 1.724, 1.724, 1.724, 1.680, 1.678, 2.619, 2.619, 1.724, 5.710, 1.724, 1.724, 1.724 ]
5
[ 0.835, 0.835, 0.835, 0.835, 0.835, 0.835, 0.835, 0.835, 0.304, 0.835, 0.835, 0.304, 0.835, 0.835, 0.835, 0.835, 0.835, 0.835, 0.835, 0.693, 0.835, 0.835, 0.835, 0.835, 0.835, 0.835, 0.835, 0.835, 0.835, 0.835, 0.835, 0.835, 0.835, 0.835, 0.835, 0.835, 0.835, 0.835, 0.835, 0.835, 0.835, 0.835, 0.835, 0.835, 0.835, 0.835, 0.835, 0.835, 0.835, 0.835, 0.835, 0.835, 0.693, 0.835, 0.835, 0.614, 0.835, 0.835, 0.835, 0.835, 0.835, 0.835, 0.835, 0.835, 0.835, 0.835, 0.835, 0.835, 0.835, 0.835, 0.693, 0.835, 0.835, 0.835, 0.835, 0.835, 0.835, 0.835, 0.835, 0.835, 0.835, 0.835, 0.835, 0.614, 0.835, 0.835, 0.835, 0.835, 0.835, 0.693, 0.835, 0.835, 0.835, 0.835, 0.835, 0.835, 0.835, 0.835, 0.835, 0.835, 0.835, 0.835, 0.835, 0.835, 0.835, 0.693, 0.835, 0.835, 0.693, 0.835, 0.835, 0.835, 0.693, 0.835, 0.835, 0.835, 0.835, 0.835, 0.835, 0.835, 0.835, 0.835, 0.835, 0.835, 0.835, 0.835, 0.835, 0.693, 0.835, 0.693, 0.835, 0.835, 0.835, 0.835, 0.835, 0.835, 0.835, 0.835, 0.835, 0.835, 0.835, 0.835, 0.835, 0.835, 0.835, 0.835, 0.835, 0.835, 0.835, 0.835, 0.835, 0.835, 0.614, 0.835, 0.835, 0.835, 0.835, 0.835, 0.835, 0.835, 0.835, 0.835, 0.835, 0.835, 0.835, 0.835, 0.835, 0.835, 0.835, 0.835, 0.835, 0.835, 0.835, 0.835, 0.835, 0.835, 0.835, 0.835, 0.835, 0.243, 0.835, 0.693, 0.835, 0.835, 0.835, 0.835, 0.835, 0.835, 0.835, 0.835, 0.835, 0.835, 0.835, 0.835, 0.835, 0.835, 0.835, 0.835, 0.835, 0.835 ]