4
[ 0.857, 0.857, 0.857, 0.879, 8.321, 0.857, 0.879, 0.857, 0.879, 0.879, 0.879, 0.857, 0.879, 0.857, 0.879, 0.857, 0.879, 0.857, 0.857, 0.857, 0.857, 0.857, 0.857, 0.857, 0.879, 8.321, 0.879, 0.879, 0.879, 0.857, 0.879, 0.857, 2.716, 0.857, 0.879, 0.857, 0.879, 8.321, 0.879, 0.879, 0.857, 8.321, 0.857, 0.857, 0.879, 0.857, 0.879, 0.879, 0.857, 0.857, 0.879, 0.857, 0.857, 0.879, 0.879, 0.857, 0.879, 0.857, 0.879, 0.857, 0.879, 0.879, 0.879, 0.857, 0.879, 0.879, 0.879, 0.857, 0.857, 0.879, 0.857, 0.857, 0.879, 0.857, 2.716, 0.857, 0.857, 0.857, 2.716, 0.857, 0.857, 0.857, 0.857, 8.321, 0.857, 0.857, 0.857, 0.857, 0.857, 0.857, 0.879, 0.879, 0.879, 0.857, 0.879, 0.879, 2.716, 0.879, 0.879, 0.857 ]
6
[ 0.203, 0.433, 0.433, 0.433, 0.433, 0.203, 0.433, 0.844, 0.433, 0.203, 0.203, 0.433, 0.433, 0.433, 0.203, 0.433, 0.433, 0.433, 0.433, 0.433, 0.433, 0.203, 0.433, 0.433, 0.433, 0.433, 0.889, 0.889, 0.433, 0.066, 0.203, 0.889, 0.433, 0.433, 0.433, 0.433, 0.433, 0.203, 0.049, 0.433, 0.433, 0.433, 0.203, 0.889, 0.433, 0.433, 0.433, 0.889, 0.203, 0.203, 0.433, 0.433, 0.433, 0.433, 0.433, 0.433, 0.433, 0.889, 0.433, 0.889, 0.433, 0.433, 0.433, 0.889, 0.433, 0.433, 0.433, 0.433, 0.433, 0.889, 0.433, 0.433, 0.433, 0.203, 0.433, 0.433, 0.433, 0.433, 0.203, 0.433, 0.433, 0.066, 0.433, 0.433, 0.203, 0.889, 0.433, 0.433, 0.433, 0.203, 0.433, 0.433, 0.433, 0.433, 0.433, 0.889, 0.433, 0.203, 0.433, 0.433 ]