7
[ 12.390, 9.975, 12.390, 2.085, 2.085, 2.085, 12.390, 12.390, 12.390, 3.744, 12.390, 2.085, 0.707, 12.390, 2.085, 12.390, 2.085, 12.390, 12.390, 5.550, 2.085, 12.390, 12.390, 3.744, 9.975, 3.744, 9.975, 2.085, 2.085, 12.390, 3.744, 12.390, 9.975, 3.744, 12.390, 0.707, 0.707, 2.085, 12.390, 0.707, 12.390, 12.390, 2.085, 12.390, 12.390, 3.744, 0.707, 0.707, 12.390, 0.584 ]
4
[ 0.859, 0.859, 0.859, 0.085, 0.006, 0.085, 0.085, 0.717, 0.859, 0.859, 0.859, 0.085, 0.859, 0.859, 0.085, 0.085, 0.859, 0.085, 0.085, 0.859, 0.859, 0.717, 0.085, 0.859, 0.859, 0.085, 0.859, 0.859, 0.859, 0.717, 0.859, 0.006, 0.859, 0.859, 0.859, 0.859, 0.859, 0.859, 0.006, 0.859, 0.859, 0.859, 0.859, 0.859, 0.085, 0.859, 0.006, 0.085, 0.859, 0.859 ]