3
[ 1.677, 1.677, 1.677, 1.677, 3.163, 1.677, 3.163, 3.163, 1.677, 3.163, 3.163, 3.163, 4.353, 4.353, 1.677, 4.353, 1.677, 4.353, 1.677, 1.677, 4.353, 1.677, 1.677, 1.677, 3.163, 4.353, 1.677, 4.353, 4.353, 4.353, 1.677, 3.163, 3.163, 3.163, 4.353, 3.163, 3.163, 1.677, 3.163, 4.353, 1.677, 3.163, 3.163, 3.163, 4.353, 1.677, 1.677, 3.163, 1.677, 3.163 ]
3
[ 0.026, 0.130, 0.026, 0.130, 0.026, 0.026, 0.381, 0.026, 0.381, 0.026, 0.381, 0.130, 0.026, 0.130, 0.026, 0.130, 0.381, 0.381, 0.381, 0.381, 0.130, 0.130, 0.130, 0.130, 0.130, 0.130, 0.381, 0.026, 0.026, 0.026, 0.026, 0.130, 0.026, 0.130, 0.130, 0.130, 0.130, 0.381, 0.381, 0.026, 0.381, 0.130, 0.026, 0.130, 0.381, 0.026, 0.026, 0.026, 0.130, 0.130 ]