4
[ 1.742, 1.742, 1.742, 0.607, 1.742, 1.742, 1.742, 1.742, 1.742, 1.742, 1.742, 1.742, 1.742, 1.742, 1.742, 1.742, 1.742, 1.742, 1.742, 1.742, 1.742, 1.742, 1.742, 1.742, 0.607, 1.742, 1.742, 1.742, 1.742, 1.742, 1.742, 1.742, 1.742, 1.742, 1.742, 1.742, 1.742, 0.607, 1.742, 1.742, 1.742, 1.742, 1.742, 1.742, 0.607, 1.742, 1.742, 1.742, 1.742, 15.308, 1.742, 1.742, 1.742, 1.742, 1.742, 1.742, 1.742, 1.742, 1.742, 1.742, 1.742, 1.742, 1.742, 1.742, 1.742, 1.742, 1.742, 0.607, 1.742, 1.742, 1.742, 1.742, 1.742, 1.742, 1.742, 1.742, 1.742, 1.742, 1.742, 1.742, 1.742, 1.742, 1.742, 1.742, 1.742, 1.742, 1.742, 3.602, 1.742, 1.742, 1.742, 1.742, 1.742, 1.742, 1.742, 1.742, 1.742, 1.742, 1.742, 1.742 ]
5
[ 0.925, 0.924, 0.811, 0.925, 0.924, 0.925, 0.925, 0.238, 0.925, 0.924, 0.238, 0.925, 0.238, 0.811, 0.811, 0.924, 0.925, 0.925, 0.925, 0.924, 0.924, 0.924, 0.924, 0.811, 0.925, 0.811, 0.925, 0.924, 0.924, 0.924, 0.924, 0.924, 0.924, 0.924, 0.811, 0.924, 0.925, 0.925, 0.753, 0.925, 0.924, 0.925, 0.925, 0.924, 0.925, 0.924, 0.811, 0.924, 0.924, 0.925, 0.924, 0.238, 0.925, 0.925, 0.924, 0.924, 0.811, 0.925, 0.238, 0.924, 0.924, 0.924, 0.924, 0.238, 0.924, 0.925, 0.924, 0.924, 0.925, 0.925, 0.924, 0.924, 0.925, 0.811, 0.924, 0.811, 0.238, 0.925, 0.925, 0.924, 0.925, 0.924, 0.924, 0.925, 0.925, 0.925, 0.925, 0.925, 0.811, 0.924, 0.924, 0.238, 0.925, 0.925, 0.924, 0.924, 0.925, 0.924, 0.924, 0.924 ]