7
[ 0.427, 0.427, 0.427, 0.427, 0.427, 2.343, 0.427, 0.427, 0.427, 0.427, 0.427, 0.427, 34.810, 2.106, 0.427, 0.427, 0.427, 0.427, 0.427, 0.427, 0.427, 0.427, 0.427, 0.427, 0.427, 0.427, 0.427, 0.427, 0.427, 0.427, 0.427, 0.427, 0.427, 0.427, 0.427, 0.427, 1.484, 0.427, 0.427, 0.427, 0.427, 0.427, 0.427, 0.427, 0.427, 0.427, 0.427, 0.427, 0.427, 0.427, 0.427, 0.427, 0.427, 0.427, 0.427, 0.427, 0.427, 0.427, 2.106, 0.427, 2.106, 0.427, 0.427, 0.427, 0.427, 0.427, 0.427, 0.427, 0.427, 0.427, 8.301, 0.427, 0.427, 0.427, 0.427, 0.427, 0.427, 0.427, 0.427, 0.427, 0.427, 0.427, 0.427, 0.427, 0.427, 0.427, 0.427, 0.427, 0.427, 0.427, 0.427, 0.427, 0.427, 0.427, 0.427, 34.810, 0.427, 0.427, 0.427, 0.427, 0.427, 34.810, 34.810, 0.427, 0.427, 0.427, 0.427, 0.427, 0.427, 0.427, 0.427, 0.427, 0.427, 0.427, 0.427, 0.427, 0.427, 0.427, 0.427, 0.427, 0.427, 0.427, 0.427, 0.427, 0.427, 0.427, 0.427, 0.427, 0.427, 0.427, 0.427, 8.544, 0.427, 0.427, 0.427, 0.427, 0.427, 0.427, 0.427, 0.427, 0.427, 0.427, 0.427, 0.427, 0.427, 1.484, 0.427, 0.427, 0.427, 0.427, 0.427, 0.427, 0.427, 0.427, 0.427, 0.427, 0.427, 34.810, 0.427, 0.427, 0.427, 0.427, 0.427, 0.427, 8.544, 0.427, 8.544, 0.427, 0.427, 0.427, 0.427, 0.427, 0.427, 0.427, 0.427, 34.810, 0.427, 0.427, 0.427, 0.427, 0.427, 0.427, 0.427, 0.427, 0.427, 0.427, 0.427, 0.427, 0.427, 0.427, 0.427, 0.427, 0.427, 0.427, 0.427, 0.427, 0.427, 0.427, 34.810, 0.427 ]
5
[ 0.472, 0.472, 0.472, 0.150, 0.472, 0.472, 0.472, 0.472, 0.472, 0.472, 0.472, 0.472, 0.232, 0.472, 0.472, 0.472, 0.472, 0.472, 0.472, 0.150, 0.472, 0.472, 0.472, 0.472, 0.472, 0.472, 0.472, 0.472, 0.472, 0.472, 0.472, 0.472, 0.472, 0.472, 0.472, 0.472, 0.472, 0.472, 0.472, 0.472, 0.472, 0.472, 0.472, 0.472, 0.472, 0.472, 0.472, 0.472, 0.472, 0.472, 0.472, 0.472, 0.472, 0.472, 0.472, 0.472, 0.472, 0.472, 0.472, 0.472, 0.472, 0.472, 0.472, 0.472, 0.472, 0.472, 0.472, 0.472, 0.472, 0.472, 0.472, 0.472, 0.472, 0.472, 0.315, 0.710, 0.472, 0.472, 0.472, 0.472, 0.472, 0.472, 0.472, 0.472, 0.472, 0.472, 0.472, 0.472, 0.472, 0.472, 0.472, 0.472, 0.472, 0.472, 0.472, 0.472, 0.472, 0.472, 0.472, 0.472, 0.472, 0.472, 0.472, 0.472, 0.472, 0.472, 0.472, 0.472, 0.472, 0.472, 0.472, 0.472, 0.472, 0.472, 0.472, 0.472, 0.472, 0.472, 0.472, 0.472, 0.472, 0.472, 0.472, 0.472, 0.710, 0.472, 0.472, 0.472, 0.472, 0.472, 0.472, 0.472, 0.472, 0.472, 0.472, 0.472, 0.472, 0.472, 0.472, 0.472, 0.472, 0.472, 0.472, 0.472, 0.472, 0.472, 0.472, 0.472, 0.472, 0.472, 0.472, 0.472, 0.472, 0.472, 0.472, 0.472, 0.472, 0.472, 0.472, 0.472, 0.472, 0.472, 0.472, 0.472, 0.472, 0.472, 0.472, 0.472, 0.472, 0.472, 0.472, 0.472, 0.472, 0.232, 0.472, 0.472, 0.472, 0.472, 0.472, 0.472, 0.472, 0.472, 0.472, 0.472, 0.472, 0.472, 0.472, 0.472, 0.472, 0.472, 0.472, 0.472, 0.472, 0.472, 0.472, 0.472, 0.472, 0.472, 0.472, 0.472 ]