5
[ 15.657, 15.657, 10.619, 10.619, 10.619, 1.842, 1.842, 10.619, 1.842, 10.619, 15.657, 15.657, 1.842, 1.842, 10.619, 15.657, 10.619, 1.842, 10.619, 15.657, 10.619, 1.842, 1.842, 10.619, 10.619, 1.842, 15.657, 1.842, 1.842, 1.842, 1.842, 1.842, 10.619, 10.619, 15.657, 10.619, 15.657, 10.619, 10.619, 10.619, 1.842, 15.657, 15.657, 10.619, 1.842, 1.842, 1.842, 1.842, 10.619, 10.619, 10.619, 10.619, 15.657, 10.619, 1.842, 1.842, 10.619, 15.657, 10.619, 1.842, 15.657, 1.842, 1.842, 1.842, 1.842, 15.657, 1.842, 1.842, 15.657, 1.842, 1.842, 1.842, 10.619, 1.842, 10.619, 15.657, 15.657, 15.657, 10.619, 15.657, 1.842, 10.619, 10.619, 10.619, 2.687, 10.619, 10.619, 1.842, 15.657, 15.657, 15.657, 15.657, 1.842, 1.842, 15.657, 1.842, 10.619, 10.619, 1.842, 10.619, 1.842, 10.619, 10.619, 10.619, 10.619, 1.842, 15.657, 15.657, 10.619, 10.619, 10.619, 1.842, 1.842, 10.619, 10.619, 10.619, 10.619, 10.619, 15.657, 10.619, 2.687, 10.619, 10.619, 15.657, 15.657, 15.657, 10.619, 10.619, 10.619, 1.842, 15.657, 15.657, 1.842, 1.842, 1.842, 10.619, 1.842, 10.619, 10.619, 15.657, 1.842, 1.842, 10.619, 1.842, 1.842, 10.619, 10.619, 10.619, 1.842, 2.687, 1.842, 1.842, 15.657, 1.842, 10.619, 1.842, 1.842, 10.619, 1.842, 15.657, 10.619, 1.842, 15.657, 10.619, 1.663, 1.842, 10.619, 1.842, 1.842, 10.619, 10.619, 10.619, 15.657, 10.619, 1.842, 1.842, 10.619, 1.842, 1.842, 10.619, 1.842, 10.619, 15.657, 1.842, 10.619, 15.657, 1.842, 10.619, 10.619, 15.657, 15.657, 1.842, 1.842, 15.657, 10.619, 1.842, 1.842, 1.842, 15.657, 15.657 ]
6
[ 0.981, 0.142, 0.981, 0.981, 0.981, 0.981, 0.981, 0.981, 0.504, 0.981, 0.981, 0.981, 0.981, 0.504, 0.981, 0.504, 0.981, 0.981, 0.981, 0.142, 0.902, 0.981, 0.981, 0.504, 0.981, 0.981, 0.504, 0.142, 0.981, 0.981, 0.504, 0.981, 0.142, 0.981, 0.981, 0.504, 0.504, 0.504, 0.142, 0.142, 0.504, 0.981, 0.981, 0.981, 0.981, 0.902, 0.981, 0.142, 0.504, 0.504, 0.142, 0.504, 0.142, 0.981, 0.981, 0.981, 0.504, 0.981, 0.142, 0.142, 0.902, 0.981, 0.981, 0.981, 0.981, 0.981, 0.142, 0.981, 0.142, 0.981, 0.142, 0.142, 0.902, 0.981, 0.981, 0.037, 0.504, 0.981, 0.981, 0.981, 0.504, 0.981, 0.981, 0.981, 0.142, 0.981, 0.037, 0.981, 0.504, 0.981, 0.142, 0.981, 0.981, 0.142, 0.981, 0.504, 0.504, 0.981, 0.504, 0.504, 0.037, 0.142, 0.504, 0.981, 0.504, 0.981, 0.142, 0.981, 0.504, 0.504, 0.504, 0.981, 0.981, 0.981, 0.037, 0.981, 0.981, 0.981, 0.981, 0.504, 0.037, 0.981, 0.981, 0.981, 0.504, 0.504, 0.504, 0.142, 0.981, 0.142, 0.981, 0.142, 0.504, 0.504, 0.037, 0.504, 0.981, 0.981, 0.037, 0.504, 0.981, 0.981, 0.981, 0.142, 0.504, 0.981, 0.981, 0.981, 0.504, 0.504, 0.902, 0.142, 0.504, 0.504, 0.981, 0.981, 0.981, 0.981, 0.981, 0.142, 0.504, 0.981, 0.123, 0.981, 0.981, 0.142, 0.981, 0.981, 0.504, 0.504, 0.504, 0.981, 0.142, 0.981, 0.981, 0.981, 0.981, 0.981, 0.981, 0.142, 0.981, 0.981, 0.981, 0.981, 0.142, 0.981, 0.504, 0.037, 0.504, 0.981, 0.142, 0.504, 0.981, 0.981, 0.981, 0.981, 0.981, 0.981, 0.981, 0.504 ]