5
[ 2.111, 1.015, 2.034, 1.015, 2.111, 1.015, 2.111, 1.015, 1.015, 2.111, 2.111, 1.015, 0.797, 2.111, 1.015, 2.111, 2.111, 1.015, 2.111, 0.797, 2.988, 0.797, 1.015, 2.988, 1.015, 2.111, 2.111, 2.111, 2.111, 2.111, 1.015, 2.111, 1.015, 1.015, 1.015, 2.111, 1.015, 1.015, 1.015, 2.111, 2.111, 2.111, 2.111, 2.111, 1.015, 2.111, 2.111, 1.015, 1.015, 2.111 ]
7
[ 0.426, 0.871, 0.426, 0.867, 0.883, 0.688, 0.871, 0.426, 0.871, 0.688, 0.871, 0.871, 0.426, 0.426, 0.871, 0.084, 0.426, 0.871, 0.871, 0.867, 0.426, 0.604, 0.867, 0.426, 0.688, 0.426, 0.867, 0.871, 0.871, 0.426, 0.604, 0.426, 0.426, 0.604, 0.871, 0.426, 0.871, 0.426, 0.871, 0.426, 0.688, 0.426, 0.871, 0.426, 0.426, 0.426, 0.426, 0.426, 0.688, 0.426 ]