5
[ 9.672, 19.868, 19.868, 19.868, 19.868, 1.390, 19.868, 19.868, 0.212, 19.868, 9.672, 19.868, 0.212, 1.390, 19.868, 19.868, 19.868, 19.868, 19.868, 19.868, 19.868, 1.390, 19.868, 0.223, 19.868, 9.672, 19.868, 19.868, 19.868, 19.868, 19.868, 19.868, 19.868, 19.868, 19.868, 19.868, 19.868, 19.868, 0.223, 1.390, 19.868, 19.868, 1.390, 9.672, 9.672, 0.223, 19.868, 19.868, 19.868, 19.868, 19.868, 1.390, 19.868, 19.868, 19.868, 9.672, 19.868, 9.672, 9.672, 19.868, 19.868, 19.868, 19.868, 19.868, 9.672, 19.868, 19.868, 19.868, 19.868, 19.868, 19.868, 9.672, 19.868, 19.868, 19.868, 0.212, 19.868, 19.868, 19.868, 19.868, 9.672, 19.868, 19.868, 19.868, 19.868, 19.868, 19.868, 19.868, 19.868, 0.223, 19.868, 9.672, 19.868, 19.868, 19.868, 19.868, 19.868, 0.212, 19.868, 0.212, 19.868, 19.868, 19.868, 0.212, 1.390, 19.868, 19.868, 19.868, 19.868, 19.868, 9.672, 19.868, 19.868, 19.868, 0.212, 19.868, 19.868, 1.390, 1.390, 9.672, 19.868, 19.868, 19.868, 19.868, 19.868, 19.868, 19.868, 19.868, 1.390, 1.390, 19.868, 19.868, 19.868, 19.868, 19.868, 19.868, 19.868, 9.672, 19.868, 19.868, 19.868, 19.868, 19.868, 19.868, 1.390, 1.390, 1.390, 9.672, 19.868, 19.868, 19.868, 19.868, 19.868, 9.672, 19.868, 19.868, 9.672, 19.868, 9.672, 19.868, 19.868, 19.868, 9.672, 0.223, 19.868, 19.868, 19.868, 19.868, 1.390, 9.672, 1.390, 0.223, 0.223, 9.672, 19.868, 19.868, 19.868, 19.868, 19.868, 19.868, 19.868, 9.672, 19.868, 1.390, 19.868, 19.868, 19.868, 19.868, 19.868, 9.672, 9.672, 0.212, 19.868, 19.868, 19.868, 1.390, 19.868, 9.672, 0.223, 19.868 ]
4
[ 0.780, 0.780, 0.780, 0.780, 0.780, 0.780, 0.780, 0.780, 0.780, 0.780, 0.516, 0.780, 0.780, 0.780, 0.780, 0.516, 0.780, 0.780, 0.516, 0.780, 0.516, 0.780, 0.516, 0.780, 0.780, 0.780, 0.780, 0.780, 0.780, 0.780, 0.516, 0.780, 0.516, 0.780, 0.780, 0.516, 0.780, 0.780, 0.780, 0.516, 0.780, 0.516, 0.780, 0.780, 0.780, 0.780, 0.516, 0.780, 0.780, 0.780, 0.780, 0.780, 0.780, 0.516, 0.780, 0.780, 0.780, 0.360, 0.780, 0.780, 0.780, 0.780, 0.780, 0.780, 0.780, 0.780, 0.780, 0.780, 0.780, 0.516, 0.780, 0.780, 0.780, 0.780, 0.780, 0.780, 0.780, 0.780, 0.780, 0.780, 0.780, 0.780, 0.780, 0.780, 0.516, 0.780, 0.780, 0.780, 0.780, 0.780, 0.780, 0.780, 0.780, 0.780, 0.780, 0.780, 0.780, 0.780, 0.780, 0.780, 0.780, 0.516, 0.780, 0.780, 0.780, 0.780, 0.780, 0.516, 0.780, 0.780, 0.516, 0.516, 0.780, 0.780, 0.780, 0.895, 0.516, 0.516, 0.780, 0.780, 0.780, 0.780, 0.780, 0.780, 0.780, 0.780, 0.516, 0.780, 0.516, 0.780, 0.780, 0.780, 0.780, 0.780, 0.780, 0.780, 0.780, 0.516, 0.780, 0.780, 0.780, 0.780, 0.780, 0.780, 0.516, 0.516, 0.516, 0.516, 0.780, 0.780, 0.780, 0.780, 0.780, 0.780, 0.516, 0.780, 0.780, 0.780, 0.516, 0.780, 0.780, 0.516, 0.780, 0.780, 0.780, 0.780, 0.780, 0.516, 0.780, 0.780, 0.780, 0.780, 0.516, 0.516, 0.780, 0.780, 0.780, 0.780, 0.780, 0.780, 0.360, 0.780, 0.780, 0.780, 0.516, 0.780, 0.780, 0.780, 0.516, 0.780, 0.516, 0.780, 0.780, 0.780, 0.780, 0.780, 0.516, 0.780, 0.780, 0.780 ]