9
[ 2.774, 1.307, 1.307, 1.307, 1.307, 1.307, 1.307, 1.307, 1.307, 1.307, 1.759, 2.774, 1.307, 1.307, 1.307, 4.876, 1.307, 1.759, 2.774, 4.103, 4.103, 1.307, 1.307, 2.774, 1.307, 1.307, 1.307, 1.307, 1.307, 1.307, 4.103, 1.307, 1.759, 1.307, 1.307, 1.307, 4.103, 1.307, 1.307, 2.774, 1.307, 4.103, 4.103, 1.759, 2.774, 1.728, 1.307, 2.774, 1.307, 1.307, 1.307, 0.866, 1.759, 4.103, 0.866, 1.307, 1.307, 1.307, 1.307, 2.774, 1.307, 1.307, 1.307, 2.774, 1.307, 1.307, 1.307, 2.774, 1.307, 2.774, 1.747, 2.774, 1.307, 1.307, 4.103, 1.307, 2.774, 1.307, 2.774, 1.307, 2.774, 1.307, 1.307, 1.307, 4.103, 1.307, 1.307, 4.103, 4.103, 1.307, 1.307, 1.307, 1.307, 2.774, 1.759, 2.774, 1.307, 1.307, 1.307, 1.307, 1.307, 1.307, 1.307, 1.307, 1.307, 1.307, 1.307, 1.307, 1.307, 1.307, 1.307, 4.103, 4.103, 2.774, 2.774, 1.307, 1.307, 1.307, 1.307, 2.774, 2.774, 1.307, 1.307, 0.866, 1.307, 1.307, 4.103, 4.103, 1.307, 1.307, 4.103, 2.774, 1.307, 1.307, 1.307, 1.759, 1.759, 1.307, 4.936, 1.307, 2.774, 2.774, 1.307, 2.774, 1.307, 1.307, 1.307, 1.307, 1.307, 4.103, 1.307, 1.307, 1.307, 1.307, 1.307, 1.307, 1.759, 4.103, 1.307, 1.307, 1.307, 1.307, 2.774, 1.307, 1.307, 1.307, 2.774, 1.307, 1.307, 2.774, 1.307, 1.307, 4.103, 1.307, 1.307, 1.307, 1.307, 1.307, 1.307, 2.774, 2.774, 1.307, 1.307, 1.759, 4.103, 0.866, 1.307, 1.307, 1.307, 1.307, 1.307, 1.307, 1.307, 1.307, 2.774, 4.936, 1.307, 1.307, 1.307, 0.866 ]
5
[ 0.066, 0.066, 0.066, 0.066, 0.066, 0.926, 0.926, 0.451, 0.066, 0.066, 0.066, 0.066, 0.066, 0.066, 0.066, 0.926, 0.066, 0.066, 0.066, 0.926, 0.066, 0.066, 0.066, 0.926, 0.066, 0.066, 0.066, 0.066, 0.066, 0.066, 0.066, 0.066, 0.926, 0.066, 0.066, 0.066, 0.799, 0.066, 0.066, 0.066, 0.066, 0.066, 0.066, 0.066, 0.066, 0.066, 0.926, 0.926, 0.066, 0.926, 0.066, 0.926, 0.066, 0.066, 0.066, 0.066, 0.066, 0.066, 0.066, 0.066, 0.066, 0.926, 0.451, 0.066, 0.066, 0.926, 0.066, 0.066, 0.066, 0.926, 0.066, 0.066, 0.066, 0.451, 0.066, 0.066, 0.005, 0.066, 0.066, 0.926, 0.066, 0.066, 0.926, 0.066, 0.066, 0.066, 0.066, 0.066, 0.066, 0.926, 0.451, 0.926, 0.066, 0.451, 0.066, 0.066, 0.066, 0.066, 0.066, 0.066, 0.066, 0.066, 0.066, 0.066, 0.926, 0.926, 0.066, 0.066, 0.926, 0.066, 0.066, 0.066, 0.926, 0.066, 0.066, 0.066, 0.066, 0.926, 0.066, 0.066, 0.451, 0.066, 0.066, 0.066, 0.066, 0.926, 0.066, 0.066, 0.066, 0.066, 0.066, 0.066, 0.066, 0.066, 0.066, 0.066, 0.066, 0.926, 0.066, 0.066, 0.066, 0.451, 0.066, 0.066, 0.066, 0.451, 0.066, 0.066, 0.066, 0.066, 0.066, 0.451, 0.066, 0.066, 0.926, 0.066, 0.066, 0.926, 0.926, 0.066, 0.066, 0.066, 0.066, 0.066, 0.066, 0.066, 0.066, 0.066, 0.066, 0.066, 0.066, 0.066, 0.926, 0.926, 0.066, 0.066, 0.066, 0.066, 0.066, 0.066, 0.451, 0.926, 0.066, 0.066, 0.066, 0.066, 0.066, 0.066, 0.066, 0.066, 0.066, 0.066, 0.066, 0.926, 0.066, 0.926, 0.926, 0.066, 0.066, 0.066 ]