3
[ 13.034, 13.034, 0.682, 13.034, 7.095, 13.034, 13.034, 13.034, 13.034, 13.034, 13.034, 13.034, 13.034, 13.034, 13.034, 13.034, 0.682, 13.034, 13.034, 13.034, 0.682, 13.034, 13.034, 13.034, 13.034, 13.034, 13.034, 13.034, 13.034, 13.034, 13.034, 13.034, 13.034, 13.034, 13.034, 13.034, 13.034, 13.034, 13.034, 0.682, 13.034, 13.034, 13.034, 13.034, 13.034, 13.034, 0.682, 13.034, 13.034, 13.034 ]
3
[ 0.369, 0.369, 0.369, 0.369, 0.369, 0.369, 0.369, 0.369, 0.369, 0.369, 0.369, 0.369, 0.369, 0.369, 0.369, 0.369, 0.369, 0.369, 0.369, 0.369, 0.369, 0.369, 0.369, 0.849, 0.369, 0.369, 0.369, 0.369, 0.369, 0.369, 0.369, 0.369, 0.369, 0.369, 0.369, 0.369, 0.369, 0.369, 0.369, 0.369, 0.369, 0.750, 0.369, 0.369, 0.369, 0.369, 0.369, 0.369, 0.369, 0.369 ]