5
[ 1.075, 1.075, 10.742, 10.742, 4.628, 10.742, 10.742, 10.742, 1.075, 10.742, 1.075, 10.742, 4.628, 1.075, 10.742, 4.628, 10.742, 10.742, 10.742, 1.075, 10.742, 1.075, 10.742, 10.742, 10.742, 1.075, 10.742, 4.628, 1.075, 10.742, 4.628, 10.742, 1.075, 10.742, 10.742, 10.742, 10.742, 10.742, 4.628, 4.628, 10.742, 10.742, 1.075, 4.628, 4.628, 10.742, 1.075, 10.742, 1.075, 4.628, 10.742, 1.075, 1.075, 1.075, 1.075, 4.628, 10.742, 10.742, 4.628, 10.742, 4.628, 4.628, 4.628, 4.628, 1.075, 10.742, 4.628, 10.742, 1.075, 10.742, 4.628, 10.742, 4.628, 4.628, 1.075, 1.075, 1.075, 10.742, 4.628, 1.075, 4.628, 1.075, 1.075, 10.742, 1.075, 4.628, 4.628, 10.742, 10.742, 1.075, 10.742, 4.628, 10.742, 10.742, 4.628, 10.742, 10.742, 0.475, 4.628, 1.075, 4.628, 10.742, 1.075, 1.075, 10.742, 1.075, 1.075, 4.628, 1.075, 10.742, 1.643, 10.742, 1.075, 10.742, 1.075, 4.628, 10.742, 4.628, 4.628, 10.742, 4.628, 10.742, 4.628, 1.075, 10.742, 4.628, 1.075, 10.742, 10.742, 1.075, 4.628, 1.075, 4.628, 10.742, 4.628, 10.742, 1.075, 10.742, 10.742, 10.742, 1.075, 10.742, 10.742, 1.075, 10.742, 10.742, 4.628, 1.075, 10.742, 4.628, 10.742, 10.742, 10.742, 1.075, 10.742, 10.742, 4.628, 10.742, 10.742, 4.628, 10.742, 1.075, 10.742, 10.742, 1.075, 1.075, 1.075, 10.742, 4.628, 1.075, 1.075, 10.742, 1.075, 10.742, 1.075, 10.742, 1.075, 10.742, 1.075, 10.742, 10.742, 1.075, 10.742, 4.628, 10.742, 10.742, 4.628, 1.075, 10.742, 10.742, 10.742, 4.628, 1.075, 1.075, 1.075, 1.075, 1.075, 4.628, 1.075, 1.075 ]
5
[ 0.938, 0.776, 0.776, 0.776, 0.682, 0.938, 0.776, 0.776, 0.776, 0.776, 0.826, 0.776, 0.938, 0.776, 0.776, 0.776, 0.938, 0.776, 0.776, 0.826, 0.807, 0.776, 0.776, 0.776, 0.682, 0.776, 0.776, 0.776, 0.807, 0.776, 0.826, 0.776, 0.776, 0.826, 0.776, 0.776, 0.776, 0.807, 0.776, 0.826, 0.938, 0.826, 0.826, 0.826, 0.776, 0.776, 0.776, 0.826, 0.776, 0.938, 0.826, 0.826, 0.826, 0.807, 0.938, 0.938, 0.776, 0.826, 0.776, 0.682, 0.776, 0.826, 0.776, 0.776, 0.826, 0.807, 0.776, 0.826, 0.807, 0.776, 0.826, 0.682, 0.938, 0.682, 0.776, 0.826, 0.826, 0.826, 0.776, 0.826, 0.826, 0.938, 0.826, 0.826, 0.776, 0.938, 0.682, 0.826, 0.826, 0.938, 0.826, 0.826, 0.776, 0.938, 0.682, 0.776, 0.776, 0.682, 0.776, 0.776, 0.938, 0.776, 0.826, 0.776, 0.776, 0.682, 0.938, 0.776, 0.682, 0.938, 0.776, 0.826, 0.938, 0.938, 0.807, 0.776, 0.776, 0.776, 0.826, 0.776, 0.826, 0.938, 0.826, 0.826, 0.938, 0.826, 0.826, 0.776, 0.826, 0.776, 0.776, 0.807, 0.826, 0.826, 0.776, 0.938, 0.776, 0.776, 0.826, 0.826, 0.826, 0.776, 0.776, 0.776, 0.776, 0.776, 0.826, 0.776, 0.938, 0.938, 0.826, 0.776, 0.826, 0.938, 0.776, 0.826, 0.826, 0.776, 0.826, 0.826, 0.776, 0.826, 0.776, 0.807, 0.807, 0.826, 0.826, 0.682, 0.826, 0.776, 0.938, 0.776, 0.776, 0.807, 0.826, 0.826, 0.826, 0.776, 0.776, 0.776, 0.826, 0.776, 0.938, 0.807, 0.682, 0.776, 0.776, 0.682, 0.776, 0.807, 0.826, 0.776, 0.682, 0.807, 0.938, 0.826, 0.776, 0.776, 0.826, 0.826 ]