3
[ 1.908, 2.994, 1.908, 1.908, 7.549, 1.908, 1.908, 7.549, 2.994, 2.994, 1.908, 7.549, 7.549, 1.908, 1.908, 2.994, 2.994, 2.994, 1.908, 1.908, 2.994, 7.549, 1.908, 1.908, 2.994, 1.908, 2.994, 2.994, 1.908, 7.549, 1.908, 7.549, 7.549, 1.908, 1.908, 2.994, 2.994, 1.908, 1.908, 2.994, 7.549, 7.549, 7.549, 7.549, 2.994, 7.549, 7.549, 7.549, 2.994, 2.994, 1.908, 7.549, 7.549, 7.549, 7.549, 7.549, 2.994, 2.994, 1.908, 1.908, 1.908, 1.908, 2.994, 1.908, 2.994, 1.908, 2.994, 1.908, 2.994, 2.994, 2.994, 1.908, 7.549, 2.994, 2.994, 2.994, 1.908, 7.549, 1.908, 2.994, 1.908, 7.549, 7.549, 7.549, 1.908, 1.908, 1.908, 2.994, 1.908, 1.908, 7.549, 1.908, 7.549, 1.908, 1.908, 7.549, 1.908, 1.908, 7.549, 1.908 ]
3
[ 0.767, 0.767, 0.767, 0.043, 0.004, 0.767, 0.004, 0.043, 0.043, 0.043, 0.043, 0.043, 0.767, 0.767, 0.767, 0.043, 0.043, 0.767, 0.767, 0.043, 0.767, 0.767, 0.043, 0.004, 0.767, 0.767, 0.043, 0.767, 0.004, 0.767, 0.767, 0.004, 0.043, 0.043, 0.767, 0.767, 0.043, 0.767, 0.767, 0.004, 0.043, 0.043, 0.767, 0.043, 0.767, 0.767, 0.004, 0.043, 0.004, 0.767, 0.043, 0.767, 0.004, 0.767, 0.004, 0.043, 0.043, 0.004, 0.767, 0.767, 0.043, 0.767, 0.043, 0.004, 0.004, 0.043, 0.043, 0.004, 0.043, 0.043, 0.767, 0.043, 0.043, 0.767, 0.004, 0.767, 0.767, 0.043, 0.004, 0.043, 0.004, 0.043, 0.043, 0.767, 0.004, 0.043, 0.767, 0.043, 0.004, 0.767, 0.043, 0.043, 0.004, 0.767, 0.767, 0.004, 0.043, 0.767, 0.004, 0.004 ]