9
[ 0.413, 0.413, 0.413, 0.413, 4.995, 4.995, 4.995, 2.044, 4.995, 4.995, 4.995, 0.413, 4.497, 0.413, 4.995, 4.995, 4.995, 1.523, 4.995, 6.143, 4.995, 4.995, 0.413, 4.995, 1.523, 4.497, 4.995, 0.413, 4.497, 9.111, 4.497, 0.413, 4.497, 9.111, 6.143, 4.995, 0.413, 4.995, 4.497, 1.523, 4.995, 0.413, 6.143, 4.995, 6.143, 4.995, 9.111, 4.497, 4.995, 4.995, 4.497, 4.995, 4.995, 4.995, 4.995, 4.750, 0.413, 4.995, 0.413, 0.413, 4.995, 0.413, 2.782, 4.497, 2.782, 0.413, 0.413, 4.995, 0.413, 2.782, 4.497, 4.995, 0.413, 4.995, 4.995, 4.497, 0.413, 0.413, 4.497, 0.413, 0.413, 4.995, 4.497, 0.413, 4.497, 4.750, 0.413, 0.413, 4.995, 6.143, 9.111, 4.995, 4.995, 4.995, 4.497, 4.995, 0.413, 0.413, 4.497, 4.995, 4.995, 4.995, 6.143, 4.497, 4.497, 6.143, 4.995, 4.995, 4.995, 0.413, 2.782, 0.413, 0.413, 4.995, 4.995, 4.995, 4.995, 0.413, 4.995, 4.995, 4.995, 9.111, 0.413, 9.111, 4.995, 4.995, 0.413, 2.044, 0.413, 4.995, 0.413, 4.995, 0.413, 4.995, 4.995, 4.995, 4.995, 0.413, 9.111, 4.995, 4.995, 9.111, 4.995, 0.413, 4.995, 4.995, 4.995, 4.497, 9.111, 2.782, 4.995, 4.995, 4.995, 4.497, 4.497, 4.995, 6.143, 4.497, 4.750, 4.995, 0.413, 0.413, 4.995, 4.995, 0.413, 0.413, 4.995, 2.782, 0.413, 4.497, 2.782, 4.995, 9.111, 4.995, 4.995, 4.995, 4.497, 0.413, 0.413, 4.995, 4.497, 0.413, 0.413, 4.497, 0.413, 4.497, 0.413, 6.143, 0.413, 0.413, 4.995, 4.995, 4.995, 0.413, 4.497, 4.995, 2.782, 4.497, 0.413, 4.995 ]
5
[ 0.102, 0.102, 0.102, 0.102, 0.102, 0.102, 0.102, 0.102, 0.590, 0.102, 0.102, 0.102, 0.263, 0.102, 0.102, 0.263, 0.102, 0.263, 0.102, 0.102, 0.102, 0.102, 0.102, 0.102, 0.102, 0.102, 0.102, 0.102, 0.335, 0.335, 0.102, 0.102, 0.102, 0.102, 0.102, 0.102, 0.102, 0.102, 0.102, 0.102, 0.102, 0.102, 0.102, 0.102, 0.102, 0.102, 0.102, 0.102, 0.102, 0.335, 0.102, 0.102, 0.102, 0.102, 0.102, 0.263, 0.102, 0.102, 0.102, 0.102, 0.263, 0.102, 0.102, 0.102, 0.102, 0.102, 0.263, 0.102, 0.102, 0.102, 0.102, 0.335, 0.102, 0.102, 0.335, 0.102, 0.102, 0.102, 0.102, 0.335, 0.102, 0.102, 0.102, 0.102, 0.102, 0.263, 0.102, 0.102, 0.102, 0.102, 0.102, 0.102, 0.102, 0.102, 0.102, 0.102, 0.102, 0.102, 0.102, 0.102, 0.102, 0.263, 0.335, 0.590, 0.335, 0.102, 0.102, 0.102, 0.102, 0.102, 0.102, 0.102, 0.102, 0.102, 0.102, 0.102, 0.102, 0.102, 0.102, 0.102, 0.590, 0.102, 0.102, 0.102, 0.263, 0.102, 0.263, 0.102, 0.102, 0.102, 0.102, 0.102, 0.102, 0.263, 0.102, 0.590, 0.102, 0.102, 0.102, 0.102, 0.102, 0.102, 0.102, 0.263, 0.102, 0.102, 0.102, 0.102, 0.590, 0.102, 0.263, 0.335, 0.102, 0.102, 0.335, 0.263, 0.102, 0.263, 0.102, 0.102, 0.102, 0.102, 0.102, 0.102, 0.102, 0.102, 0.102, 0.263, 0.263, 0.102, 0.590, 0.102, 0.102, 0.102, 0.102, 0.335, 0.102, 0.102, 0.102, 0.102, 0.102, 0.102, 0.102, 0.102, 0.335, 0.102, 0.102, 0.102, 0.102, 0.102, 0.102, 0.102, 0.102, 0.102, 0.102, 0.102, 0.102, 0.722, 0.263, 0.102 ]