3
[ 8.766, 8.766, 1.403, 1.768, 1.768, 1.403, 1.768, 1.768, 8.766, 1.768, 1.768, 1.403, 1.768, 8.766, 8.766, 1.403, 1.403, 1.768, 1.768, 8.766, 1.403, 8.766, 1.768, 8.766, 1.768, 1.768, 8.766, 8.766, 1.403, 1.403, 1.403, 1.768, 1.768, 1.403, 8.766, 1.403, 1.403, 8.766, 1.768, 8.766, 8.766, 1.403, 1.403, 1.768, 1.403, 8.766, 1.403, 1.768, 8.766, 1.403, 8.766, 8.766, 8.766, 8.766, 1.768, 8.766, 1.768, 1.403, 1.768, 8.766, 1.768, 1.403, 1.403, 1.768, 8.766, 1.403, 1.768, 1.403, 1.768, 1.768, 8.766, 8.766, 1.768, 1.768, 8.766, 8.766, 1.403, 1.768, 1.768, 1.403, 8.766, 1.403, 8.766, 8.766, 1.768, 1.768, 1.768, 1.768, 1.768, 8.766, 1.768, 1.403, 8.766, 1.768, 8.766, 1.403, 1.768, 1.403, 1.768, 1.768 ]
3
[ 0.202, 0.542, 0.542, 0.442, 0.542, 0.442, 0.442, 0.202, 0.202, 0.202, 0.442, 0.542, 0.442, 0.542, 0.442, 0.542, 0.442, 0.542, 0.442, 0.542, 0.542, 0.442, 0.202, 0.542, 0.542, 0.202, 0.442, 0.442, 0.202, 0.442, 0.442, 0.202, 0.542, 0.542, 0.442, 0.202, 0.202, 0.542, 0.202, 0.542, 0.442, 0.202, 0.202, 0.442, 0.202, 0.202, 0.542, 0.442, 0.442, 0.202, 0.542, 0.542, 0.202, 0.442, 0.542, 0.542, 0.202, 0.542, 0.542, 0.202, 0.442, 0.442, 0.202, 0.202, 0.542, 0.202, 0.442, 0.202, 0.202, 0.542, 0.442, 0.442, 0.202, 0.442, 0.542, 0.202, 0.202, 0.542, 0.442, 0.442, 0.442, 0.442, 0.542, 0.442, 0.542, 0.202, 0.442, 0.542, 0.542, 0.542, 0.542, 0.542, 0.442, 0.442, 0.202, 0.542, 0.442, 0.202, 0.202, 0.542 ]