rate_constant_pi_constant_tree_unrooted_run_1	rate_constant_pi_constant_tree_unrooted_run_2	rate_constant_pi_constant_tree_unrooted_run_3	rate_constant_pi_constant_tree_unrooted_run_4	rate_DPP_pi_DPP_tree_unrooted_run_1	rate_DPP_pi_DPP_tree_unrooted_run_2	rate_DPP_pi_DPP_tree_unrooted_run_3	rate_DPP_pi_DPP_tree_unrooted_run_4	rate_discrete_gamma_pi_discrete_beta_tree_unrooted_run_1	rate_discrete_gamma_pi_discrete_beta_tree_unrooted_run_2	rate_discrete_gamma_pi_discrete_beta_tree_unrooted_run_3	rate_discrete_gamma_pi_discrete_beta_tree_unrooted_run_4
NA	NA	NA	NA	NA	NA	NA	NA	NA	NA	NA	NA
7.49799859257502	7.5326573879884	7.32465153180428	7.59933762152594	7.42601984308725	7.529991087569	7.53799014399716	7.48466947674705	8.78514053977575	8.91989989822651	8.8476545093232	8.88366687009963
16.4225387994805	16.6453295148106	16.2516824040098	16.419840791403	16.3142818418933	16.3657934262365	16.2571371569175	16.2407661365918	17.3355323338633	17.3680075363458	17.2250183659744	17.0909766361787
13.3491883283877	13.5953680879881	13.5364200361911	13.6527454809992	14.0167602623421	13.6715370738588	13.745111011506	13.5164059641451	14.4632785909659	14.4370251002064	14.4501903011055	14.2726720785483
16.9020082544401	17.0031495727047	17.0172289342493	16.9459213618044	17.0451228965789	17.0172289342493	17.2940716556129	17.1925992100557	18.3430717659159	17.9940604363773	18.1449476857287	18.3111499709671
32.4937887383243	32.3539292931843	32.3393308124987	32.3981611778778	32.5143285196943	32.5246535960189	32.7172223339608	32.3932136816825	34.3646961745026	34.3646961745026	34.3754351614234	34.4632000256408
30.2159380336902	30.3033451271122	30.2951250500624	30.4273609234375	31.3271160126014	31.2891934172102	31.2234955233009	31.226605349957	36.8820551572384	37.193599959019	37.3194405410797	37.3521218431427
31.7497236459816	31.4995522416862	31.544076070911	31.4648440412371	31.2159890649788	31.099884090682	31.249142876705	31.246121140223	29.6846809866085	29.6713360568774	29.7220321161538	29.6259373105481
33.1274345771193	33.6327435010839	32.6338345185118	33.0186295561987	32.3104610459137	32.4657276660517	32.237053149528	32.8171208074342	24.4645639708971	24.3817377313712	24.4893485817173	24.351369185542
30.9164352106488	31.5920561647189	30.9164352106488	31.226075258439	30.777779787441	31.0653206110295	30.007101232157	30.9164352106488	23.1130740288138	23.0058489160099	23.1614069868379	22.9348844235639
Inf	Inf	Inf	Inf	Inf	Inf	Inf	Inf	Inf	Inf	Inf	Inf
15.0734662020497	15.1215058402029	15.2694659024205	15.2617302053127	14.3970727392986	14.2513142385457	14.409666494126	14.3563543580273	18.276457354651	18.1039887512098	18.3865930785093	18.160043290048
16.4736113222083	17.5871602688832	17.5871602688832	16.3545821589837	14.4980869727679	14.2736060314493	14.1294194338227	14.4054369438641	17.9328718437406	19.088284760083	18.5109142615586	18.8768951678386
34.5197540473984	35.0237193557307	35.0237193557307	34.7559884562279	35.6979993882882	36.1449539362757	34.308364455154	35.6979993882882	Inf	Inf	Inf	Inf
12.5341122254999	12.5928864963024	12.4082053171392	12.5260909333608	11.9201956054488	11.7545846957446	12.011584162411	11.7800508199023	12.9476774992992	13.0306179992307	13.0145483225099	13.0815677512693
12.6494346422044	12.6189144489087	12.3247996080279	12.3972674544284	10.5178929124842	10.5773419789925	10.6950149014776	10.5543416354516	11.4047445333761	11.5705368207812	11.4358258739998	11.4736130929739
21.8094027426563	22.1525661207597	21.3076585599558	21.2110506538825	19.7481174836906	19.843901940777	20.0767205348157	20.0495464374874	22.2287191586447	21.8094027426563	21.6281565211451	21.9398265863291
6.82864335692141	6.83958285349813	6.95391181661039	6.88869650076227	7.0700930408204	7.02425309144373	7.0566222438798	6.87779803338584	7.24181871832163	7.24449348842695	7.17219437953661	7.22844169018261
14.8086632648276	14.9304292362966	15.0261496808531	14.7845802278694	14.3084673008826	14.2928089581797	14.3511758889137	14.1567988794792	14.6083290032887	14.7464533007037	14.6584608765542	14.5575477187119
19.6120778353059	19.7017981455589	19.6790113060256	19.918693079908	19.1584327259423	19.1762935743998	18.8597092586276	18.8909557457237	19.3635161905182	19.6790113060256	19.1057155833331	19.2307769613289
5.90210686582945	5.99431684295152	6.02168490230088	6.04590299701044	5.78613563705072	5.78296450436038	5.77661620263618	5.87413468607017	5.45463585201064	5.67066520236616	5.73515295481614	5.74475241794224
7.51254820001269	7.92607091340694	7.76170888521707	7.56455517489328	7.68482658839432	7.780543821409	7.85442003465273	7.75223476540551	6.66892639422336	6.91477662899937	6.5430105471153	6.46047000283516
0.918627834467713	0.918627834467713	0.781042605291968	0.956376076978448	1.23679327620598	1.11853725196177	1.11853725196177	1.45570520969528	-1.71557375103417	-2.43497304698532	-2.25168675806287	-2.08357990560283
16.6942511667847	16.5921692997902	16.4691055660439	16.6836778092598	17.1114978345622	17.1114978345622	17.074614345142	17.1388743826351	16.1603165131999	15.9601538273902	16.1345053752405	15.8754931126138
20.6005725033336	20.3629482594576	20.6042253545551	20.5155753017717	21.0891316470448	21.0301662202958	20.9436224839878	21.169824155641	20.8278061453504	20.6042253545551	20.6980155049484	20.9436224839878
16.6346340639235	16.5837840296999	16.7388007889554	16.7307955979747	17.3517618741569	17.5150376797963	17.2546070526362	17.5397035600227	16.4656547234417	16.368499901921	16.4225387994805	16.3522542397321
14.4838178582736	14.5465787330758	14.5097865097106	14.4614151775105	14.3395785843466	14.3550333541772	14.4726332939223	14.5611971073332	14.1567988794792	14.1527160084611	14.1567988794792	14.2454118032794
6.9620436880542	7.07278609159143	6.94848819107148	6.86961840846504	6.96475337115997	6.89141976070961	6.88869650076227	6.9349206516413	7.30061973985268	7.0593171507482	6.9674625882599	7.02155306253536
21.7485476571197	21.5846274703648	21.7386337187656	21.6782495719146	21.9109830584322	21.9476334905178	21.9293789670884	21.7974975508849	21.4759501444403	21.396693270194	21.21695335847	21.2784638759513
26.3331670867206	26.4108150936527	26.2905664589043	26.3266385375817	26.0712450947142	25.9943760922946	26.0084600295927	26.0084600295927	26.0469421574322	26.2007935796876	25.9589497332828	25.7954580517054
23.1962877674456	23.3586457145973	23.2379986547996	23.3058271998304	22.1783151941861	22.4907352116194	22.4712647652884	22.3505861608118	17.2366874247327	16.6599872744354	16.2946764926724	15.8477219446849
22.4649617992153	22.7271891175028	22.1360741635765	22.4649617992153	20.4438282927942	21.0759963191675	21.5975606008809	21.709716469694	19.0474617264012	18.0217957568788	17.5178304485466	17.2088611977521
7.39930936904108	5.56472623706898	6.95235482105356	7.76462015080411	7.39930936904108	7.76462015080411	9.31567985586476	8.7889443021753	5.56472623706898	4.17776509814661	4.17776509814661	-Inf
10.280187949895	10.3738992347372	10.6315810912775	10.0786792011306	10.0786792011306	9.96987418020994	10.280187949895	9.96987418020994	7.39930936904108	6.95235482105356	6.37632345345824	5.56472623706898
1.68189726541709	1.69529907931867	2.15325091911418	1.92377993948196	1.57168028538928	1.44077109568512	1.11853725196177	1.70862102369311	2.35189098414256	2.17498219562623	2.29098081273183	2.2599168029675
0.323033516085191	1.13596807521188	1.53864681155546	0.323033516085191	0.632002766879662	-1.06526318126069	0.899733666382456	-0.489231813665363	-3.26382153657231	-3.26382153657231	-3.26382153657231	-3.26382153657231
4.53527441103763	4.668418501105	4.45085115501364	4.76792435698889	4.03137651623393	4.28907499126914	4.12316250301711	4.1281776651805	4.27002819539517	4.39633683768185	4.33617409947685	4.30328165747912
-0.68041350246285	-1.18477746082946	-0.986797818587631	-1.58514990736133	-1.58514990736133	-2.00446632334976	-1.3468875093847	-2.16589582476893	-7.15043475981139	-5.76280617582681	-5.76280617582681	-8.53739589873376
-2.74528681667043	-4.13760628694956	-3.11194031742712	-2.98219337060711	-2.00446632334976	-2.53322440368142	-3.56023578842514	-2.63648179574975	-3.56023578842514	-3.25059574063497	-3.11194031742712	-2.53322440368142
22.9938502472476	23.1743456004695	23.1676689122082	23.2438597822712	23.5059580342472	23.558641422684	23.4338285645224	23.4653131509309	25.0867195863444	25.1000485837689	25.0573940205766	25.169364619974
8.89865912692591	8.86849367349624	8.81332115607342	8.66029102195535	9.56264935343058	9.58157680021808	9.47107933534729	9.44156727412416	3.55800061112728	3.10767853739252	2.41330036419331	3.7506415130866
6.78753330597423	6.78204126309791	6.75729470085801	6.76004697236308	6.64105596102674	6.58522388005892	6.54875048961573	6.75454175650025	6.6494026973441	6.75729470085801	6.746278857734	6.83137912407943
18.4886000186461	18.6880995936296	18.3923142258251	18.3923142258251	17.3793682152899	17.5438214902712	17.4953192789858	17.3326845266519	17.8585963692763	17.9602612995066	17.8438511308421	17.821625100251
5.22713939819022	4.95478693287443	5.10646410337066	5.20185514090197	5.30203521015646	5.43072734654753	5.42387161335535	5.21632331064475	5.25226183658304	5.34071619918176	5.36166164923145	5.28077954969807
28.4510770729003	28.336776828537	28.3927069632416	28.2684071647886	27.4152397964262	27.3973278089394	27.4401815935264	27.4259482614613	21.4379055051756	21.0759963191675	21.1248672121614	21.4789885413655
9.2579364974927	9.14510576212853	9.26319871477035	9.26845122907518	8.92848919641941	9.11755862184578	9.21013235283824	9.0332335772933	9.1669492658692	9.22082545996516	9.32045243611231	9.30495087839538
10.8255627471573	10.8700654315791	10.9423027331402	10.7493352281396	10.3782675254382	10.4147416660978	10.6215849276782	10.503328903434	10.7022971012489	10.503328903434	10.4683267416935	10.4147416660978
19.3506484898914	19.4283258942605	19.5438043538018	19.3978805904047	19.0039293140707	18.9747945595287	19.2329309346354	19.08199534952	20.7363492795927	20.5661424581671	20.6713097691971	20.7962210615488
25.5696792888161	25.3579049299055	25.4938150540302	25.4079647423585	26.0954072443812	26.1399163602114	26.0747053799929	26.1501221383562	25.667069891466	25.6938720546485	25.7805822347836	25.876249111647
9.01030300532217	8.84411367880681	8.69291874052153	8.73154048832921	8.62058821806636	8.51856719267126	8.51856719267126	8.55302738321863	7.97843526949874	8.01272179082707	8.30132754869799	7.96978679742054
-1.23740353912762	-1.29141491097677	-1.58514990736133	-1.18477746082946	-2.25168675806287	-1.58514990736133	-1.92831328546481	-1.58514990736133	-4.64157159528178	-5.31585162783928	-6.33883754342213	-6.33883754342213
18.4499670549559	18.2408830156341	18.4697964455157	18.0812995160107	18.0574916471497	17.9844210096396	17.8828957725246	17.8828957725246	15.7003947301803	16.1057751665703	15.9793871975887	15.9793871975887
14.58158345718	14.3480635626546	14.3969344556485	14.2980027759069	14.2980027759069	13.9689163325329	14.1940657481878	13.4270029639657	10.7898976920337	11.6965417367095	12.0319881462998	11.6965417367095
21.5866119281583	21.3654366588058	21.6497034697938	21.7063412374658	21.8016401303084	21.7165206884126	21.7867976056399	21.6807347688341	22.0341972522048	21.9508288955154	21.9927960559635	21.9461300348353
8.66329511281946	8.5785951652764	8.9711844640105	8.74466125481985	8.53490582133673	8.09337674049543	8.25132514006362	8.09337674049543	-Inf	3.04595410805007	0.847395752738443	-Inf
12.6778997707401	12.6088826031546	12.4049688084053	12.6018769659254	13.1099824036738	13.3267012560637	13.1841236272349	13.3320427492759	6.85156724779077	7.60074173633658	7.30121174586937	7.13310489340933
9.63897940835169	9.8373831518378	9.71557664085921	9.74050464546667	10.3223761355911	10.4506117608248	9.93003318074156	10.5547978238891	7.60074173633658	7.98088796562201	8.35025681980525	8.4446491161705
4.19016863750059	4.19016863750059	3.81102140737886	3.98215945118467	4.82388878802711	5.03153303598053	3.92668685277675	4.71173291921397	1.34735766745638	0.632002766879662	2.02297862152648	1.53864681155546
1.45570520969528	1.25317564644739	1.01178977402986	1.23679327620598	2.2599168029675	2.06420954524692	1.89950711960861	2.32163501065578	0.71926806994765	0.71926806994765	0.956376076978448	1.08353509022126
9.14275032529128	8.14738811234458	8.82295020852472	8.74466125481985	9.58632609000696	9.33158416043625	9.2392986483614	9.2392986483614	6.63950483480177	7.043529889329	6.63950483480177	6.63950483480177
13.6337888313481	13.7809811062329	14.0167602623421	13.7631202577754	15.7655047595341	15.6738814909168	15.4200219042177	15.6504352535345	15.1264132231132	14.7565584997259	14.7679929918076	14.9646299850165
12.0319881462998	10.7898976920337	11.5052525926104	11.2938630003659	12.7949874915657	12.3195289698883	12.4492759167083	12.686182470645	9.09263174389331	8.28103452750405	6.89407338858169	9.09263174389331
15.9793871975887	15.2874462535019	15.5451281100423	15.9793871975887	15.3770212575822	15.2874462535019	15.1937349686598	15.3770212575822	11.289870472223	12.9871364203633	13.2548673198661	12.9871364203633
15.6318602674205	15.229181531077	14.7252162227447	15.229181531077	14.7252162227447	14.0509361901872	15.6318602674205	15.9673066770109	10.8293919192928	13.0279502746044	12.2163530582151	14.0509361901872
16.5476742212512	15.7347396621245	14.922474332374	16.7590638134957	16.5476742212512	13.5348457483894	15.3694288803615	15.7347396621245	-Inf	12.147884609467	12.147884609467	12.147884609467
4.17786305972937	4.1729321146633	3.97380841084881	4.05202675318903	3.84398425968434	4.03655299762626	4.08781267276746	4.07763322182068	3.66084138477206	3.4258211329556	3.58275717878207	3.25883275872997
8.84411367880681	9.01030300532217	9.31012735978771	9.13961808788737	8.94622993957731	8.83183947359943	8.96385497637362	8.88663369752223	10.1182515074369	9.94199286326645	10.0045294086113	10.2244871774338
1.76112992274028	1.95970858342273	2.17498219562623	1.85016554044346	1.77406722259743	1.85016554044346	2.14230783236942	1.82508419571222	2.10916232641381	1.88727237152937	1.92377993948196	2.09800656800441
15.9767108165848	16.6351245608049	15.9539239770515	16.272557717186	16.0436442873044	15.9539239770515	15.9076046389197	15.6594946470389	15.3171925434106	15.4666528739426	15.4081414070636	15.9992563609899
10.503328903434	10.4858983211431	10.5547978238891	10.4683267416935	10.3782675254382	10.6215849276782	10.2649987425799	10.3782675254382	9.76514254599012	9.30127220941501	9.76514254599012	9.90724634120822
19.4306265989699	19.1896053589154	18.8049463750791	19.59481317775	19.5143201185057	20.0438602597107	19.5683222565613	19.7471387125445	20.2275244628032	20.5367939904435	20.5870749620333	20.2078762478971
7.38032532812244	7.66921790043803	7.73547083341574	7.13310489340933	6.74830985572245	7.79964174411087	7.52988626239315	7.52988626239315	4.43425080539594	4.74322005619041	4.06894002363292	4.06894002363292
10.280187949895	10.1819365931989	9.73296762627326	9.31567985586476	9.4645652562454	10.3738992347372	10.3738992347372	10.0786792011306	5.56472623706898	6.95235482105356	5.56472623706898	7.39930936904108
18.2624721130478	18.3031040763254	18.057348152421	18.4056976807858	18.3901897813519	18.5701859042061	18.3031040763254	18.3509877211021	17.9756645277211	18.2377636183697	18.162090704954	18.0927730059269
0.428783631504566	0.38035089451792	0.330784989387013	0.35571299399447	0.404705563290271	0.0638387809433798	-0.308981516097053	0.147532300479218	-7.15043475981139	-8.53739589873376	-4.95054084607625	-6.33883754342213
0.899733666382456	-0.0422772656778374	-0.489231813665363	1.13596807521188	1.87409322114584	2.52828754549101	2.83860131517613	2.83860131517613	-Inf	-Inf	-Inf	-Inf
3.48952444702583	3.02188760409857	3.18999445655862	2.83860131517613	3.92668685277675	3.7506415130866	3.34526107669664	3.34526107669664	2.74034995848002	2.74034995848002	2.83860131517613	3.34526107669664
8.30138592681134	8.20001419064274	8.70437814900935	8.49027130344339	8.78417550757124	8.49027130344339	8.20001419064274	8.53490582133673	5.45857495676713	4.06894002363292	6.13419591083723	5.45857495676713
4.08879690133199	3.68842445480012	3.98215945118467	3.18999445655862	4.03617082303382	3.81102140737886	3.62425354410498	3.48952444702583	1.13596807521188	-1.87686039764995	-0.0422772656778374	0.632002766879662
14.4370251002064	14.3970582622975	14.552820753666	14.0167602623421	13.8509901783806	13.8681457416893	13.8162676665512	13.5164059641451	12.8072693655815	12.9431863566038	12.5379785377692	12.5696679937696
6.90104489644932	6.21115884628032	7.18525042008626	6.84525464755073	7.33778390740837	7.28032051949377	7.25692333339551	7.25692333339551	4.37905401413264	4.85996717469975	4.28677654357381	4.37905401413264
9.33158416043625	9.00664741266483	9.69035140685916	9.41997523809934	10.2455282962489	9.88421280887006	9.88421280887006	10.206050690783	6.27285133404508	4.43425080539594	5.64986410086621	5.24718536452264
9.66482155261122	9.07581013537515	9.20760919236104	9.20760919236104	10.3411677284506	10.4683267416935	10.5884469249617	10.4683267416935	9.61281701119563	9.66482155261122	10.1040597214198	9.41997523809934
4.74322005619041	4.06894002363292	0.847395752738443	3.62198547564539	6.13419591083723	7.043529889329	6.74830985572245	6.52451765350406	-Inf	-Inf	-Inf	-Inf
13.1797825292526	12.4492759167083	13.5765638982364	13.8463193799541	13.2655734625465	13.3478893817126	13.5031560018506	13.7158955362813	9.09263174389331	9.66866311148864	9.66866311148864	10.1156176594762
8.57755470993081	4.17776509814661	9.60322067945325	8.57755470993081	8.57755470993081	9.15492520845523	9.60322067945325	9.31567985586476	4.17776509814661	5.56472623706898	4.17776509814661	7.39930936904108
6.66892639422336	6.80247259796463	6.5430105471153	6.66892639422336	7.09865855787367	6.94198892010639	6.92842427526708	7.24513387850461	4.2390395304945	4.2390395304945	4.19016863750059	4.82388878802711
16.9318147710412	17.0255260558833	17.5827379028909	17.5827379028909	17.9042348632439	18.1820103571971	17.8438549689517	18.3322529863596	18.3799899994389	18.4722674699977	18.3799899994389	17.9042348632439
19.9218680030954	19.879084022005	19.879084022005	19.6984826896131	20.4100377524487	20.1988789211873	20.8599869060083	20.3762989921037	21.4459287465009	21.0656314027187	21.5065395475116	21.3835547740594
3.02188760409857	2.29138099155434	2.52828754549101	3.62425354410498	3.18999445655862	3.34526107669664	2.16163404473433	3.02188760409857	2.52828754549101	2.16163404473433	2.6370925664117	2.74034995848002
21.8905580216507	22.6584873814068	22.3505861608118	22.3297961904593	22.2876005621958	22.3088023863703	21.5270086784545	22.2876005621958	23.036263303107	23.0512992161968	22.8473213967177	22.694063210733
13.434429066828	13.3491883283877	13.6527454809992	13.8162676665512	15.314122183006	15.3050816562708	15.3410398619859	15.38523962827	14.2726720785483	14.3970582622975	14.6509805013685	14.3426315311682
19.2692663583685	18.7502541225436	19.2692663583685	18.7502541225436	20.889031581859	20.889031581859	21.0486866775642	21.1241265334982	19.6822148350469	19.3588413624488	20.0253782131504	20.1479751657291
13.6039816421997	12.2163530582151	13.0279502746044	12.2163530582151	14.7252162227447	13.6039816421997	14.9929471222475	13.6039816421997	-Inf	10.8293919192928	-Inf	-Inf
9.4645652562454	9.31567985586476	9.4645652562454	10.0786792011306	11.951748491775	11.7750184615787	11.4237460859036	11.4237460859036	9.85488699891223	10.7106946735306	10.4634742388175	10.0786792011306
12.4061794807833	11.2526080420978	12.0347474944175	11.5303835360509	12.3718853189358	12.5696679937696	12.075030600228	12.5058009727625	9.4645652562454	8.57755470993081	9.4645652562454	8.57755470993081
16.0435581082838	15.8446581005095	15.1937349686598	16.0435581082838	16.8652955105398	16.6419101970575	15.9793871975887	16.7788221855096	16.6419101970575	16.9482945131823	16.1661550608625	16.3372931046683
12.2163530582151	14.0509361901872	10.8293919192928	12.2163530582151	12.2163530582151	15.229181531077	14.0509361901872	13.6039816421997	-Inf	-Inf	10.8293919192928	-Inf
14.2292268746295	14.9922262198954	15.0954836119637	15.2874462535019	15.9131342646109	15.4628121908762	15.9131342646109	16.2818205062604	11.289870472223	12.3128563878058	12.9871364203633	13.4911017286956
10.4809284412392	9.66866311148864	9.09263174389331	9.66866311148864	9.66866311148864	10.4809284412392	11.2938630003659	10.4809284412392	-Inf	-Inf	9.09263174389331	8.28103452750405
11.3682734874957	11.951748491775	11.6317552722195	11.9936644582276	12.9431863566038	12.6008842529756	13.0207207522673	12.6316415548232	11.5816944854718	12.4061794807833	12.3718853189358	12.0347474944175
13.2655734625465	12.898244883634	12.898244883634	13.2655734625465	12.0319881462998	12.1808735466805	12.3195289698883	12.3195289698883	9.66866311148864	10.1156176594762	6.89407338858169	9.66866311148864
-6.33883754342213	-4.95054084607625	-5.76280617582681	-6.33883754342213	-5.76280617582681	-8.53739589873376	-8.53739589873376	-6.33883754342213	-5.31585162783928	-6.33883754342213	-3.92621669470507	-4.37384069577899
19.1247464918456	19.2832683759693	19.2832683759693	18.8049463750791	19.2832683759693	19.1247464918456	19.1896053589154	19.2525110741217	16.2548475005994	17.3623214946768	17.2832079124237	16.6215010013561
-1.85490538907905	-2.3412617621432	-1.29141491097677	-2.43497304698532	-1.03453483166695	-1.08340572466086	-1.40390368585019	-0.986797818587631	-1.52293284907485	-1.78404991513562	-2.86027399796813	-2.16589582476893
14.06847222722	14.768434017677	14.9922262198954	13.8937804650391	13.4911017286956	14.06847222722	14.2292268746295	13.4911017286956	10.4782732558337	11.8659018398183	11.8659018398183	10.4782732558337
14.4162469719503	10.8293919192928	12.2163530582151	14.4162469719503	13.0279502746044	12.2163530582151	13.6039816421997	12.2163530582151	-Inf	-Inf	-Inf	10.8293919192928
-2.00446632334976	-2.86027399796813	-2.3412617621432	-2.74528681667043	-1.18477746082946	-2.16589582476893	-1.64932081805646	-1.71557375103417	-4.13760628694956	-4.13760628694956	-5.31585162783928	-5.31585162783928
10.7868477114156	10.7106946735306	10.6315810912775	10.5492651721114	10.9995872458462	11.5816944854718	11.1922281478055	10.7868477114156	10.5492651721114	10.4634742388175	10.6315810912775	10.7106946735306
0.632002766879662	-1.06526318126069	-1.87686039764995	-3.26382153657231	-1.06526318126069	0.323033516085191	-1.06526318126069	-0.489231813665363	2.02297862152648	0.899733666382456	0.323033516085191	0.899733666382456
20.5759932888447	20.263640611127	21.0486866775642	20.5759932888447	21.0867494847316	20.9703977238593	21.0867494847316	21.6457117071388	16.6599872744354	15.2716905770896	13.0731322217779	15.2716905770896
9.31567985586476	6.95235482105356	8.34132030110138	8.57755470993081	9.85488699891223	10.1819365931989	9.73296762627326	9.96987418020994	6.37632345345824	4.17776509814661	6.37632345345824	5.56472623706898
-1.3468875093847	-2.16589582476893	-2.16589582476893	-2.43497304698532	-1.23740353912762	-1.29141491097677	-0.84988583013547	-1.08340572466086	-2.08357990560283	-2.53322440368142	-1.13346651140857	-1.58514990736133
5.24718536452264	3.04595410805007	4.74322005619041	5.64986410086621	7.60074173633658	7.30121174586937	7.30121174586937	6.27285133404508	-Inf	-Inf	-Inf	-Inf
16.4439305548157	17.104929379865	17.1790224415108	17.1423064286316	17.1790224415108	17.7487108652364	17.4832150125343	17.3866666894642	16.9482945131823	17.0668665726976	17.0668665726976	16.7788221855096
7.76462015080411	6.37632345345824	6.95235482105356	5.56472623706898	5.56472623706898	6.37632345345824	5.56472623706898	6.37632345345824	-Inf	-Inf	-Inf	4.17776509814661
2.02297862152648	2.29138099155434	2.16163404473433	2.52828754549101	3.18999445655862	3.34526107669664	2.83860131517613	3.34526107669664	1.13596807521188	0.899733666382456	1.34735766745638	0.323033516085191
-5.76280617582681	-5.31585162783928	-5.31585162783928	-4.37384069577899	-4.37384069577899	-4.37384069577899	-4.95054084607625	-4.64157159528178	-7.15043475981139	-8.53739589873376	-8.53739589873376	-Inf
9.4645652562454	10.8602556078013	9.31567985586476	9.31567985586476	9.73296762627326	8.57755470993081	10.1819365931989	9.15492520845523	-Inf	-Inf	4.17776509814661	-Inf
16.7303060222768	17.5827379028909	16.2548475005994	16.7303060222768	16.3845944474194	17.0255260558833	17.0255260558833	17.2008919932576	-Inf	-Inf	-Inf	-Inf
11.8659018398183	12.6781671695689	12.6781671695689	11.8659018398183	12.3128563878058	13.4911017286956	13.8937804650391	13.8937804650391	9.09131211691136	-Inf	-Inf	-Inf
13.0279502746044	13.0279502746044	12.2163530582151	10.8293919192928	13.0279502746044	13.0279502746044	14.9929471222475	14.0509361901872	13.6039816421997	10.8293919192928	14.4162469719503	14.0509361901872
6.94981860448688	6.13419591083723	6.52451765350406	6.85156724779077	7.043529889329	6.52451765350406	6.40259828086509	6.63950483480177	2.23435689166081	2.23435689166081	3.62198547564539	0.847395752738443
4.06894002363292	2.23435689166081	4.06894002363292	4.06894002363292	5.45857495676713	5.45857495676713	5.24718536452264	5.64986410086621	3.04595410805007	4.43425080539594	3.62198547564539	3.04595410805007
4.06894002363292	3.04595410805007	4.43425080539594	6.27285133404508	6.74830985572245	6.74830985572245	6.63950483480177	6.74830985572245	3.04595410805007	3.04595410805007	4.06894002363292	4.43425080539594
10.8293919192928	-Inf	10.8293919192928	10.8293919192928	-Inf	-Inf	10.8293919192928	10.8293919192928	-Inf	-Inf	-Inf	-Inf
9.09131211691136	9.09131211691136	9.09131211691136	9.09131211691136	9.09131211691136	12.3128563878058	12.6781671695689	11.289870472223	-Inf	-Inf	-Inf	-Inf
12.147884609467	13.5348457483894	14.3464429647786	14.922474332374	15.3694288803615	14.922474332374	16.3114398124218	15.7347396621245	16.5476742212512	14.922474332374	15.3694288803615	14.922474332374
4.06894002363292	3.62198547564539	2.23435689166081	4.43425080539594	5.98531051045659	5.98531051045659	5.45857495676713	5.24718536452264	3.04595410805007	0.847395752738443	3.04595410805007	-Inf
3.02188760409857	2.16163404473433	2.52828754549101	2.29138099155434	3.62425354410498	3.18999445655862	3.55800061112728	3.10767853739252	0.632002766879662	1.34735766745638	-0.0422772656778374	1.34735766745638
4.06894002363292	3.04595410805007	3.62198547564539	4.74322005619041	5.98531051045659	4.74322005619041	4.06894002363292	3.04595410805007	2.23435689166081	3.04595410805007	-Inf	3.04595410805007
12.5711952893473	12.1808735466805	13.0902075251722	12.7949874915657	13.4270029639657	13.3478893817126	13.5765638982364	12.898244883634	21.3397722794857	21.4074669199131	21.299367764583	21.450119767153
16.8435504159891	15.8205645004062	18.4244744932224	17.5178304485466	18.2331853491233	18.4244744932224	18.7599209028127	18.4244744932224	15.8205645004062	15.8205645004062	13.6220061450946	-Inf
4.06894002363292	2.23435689166081	3.04595410805007	4.06894002363292	5.01095095569321	4.43425080539594	0.847395752738443	4.43425080539594	-Inf	-Inf	0.847395752738443	-Inf
-5.76280617582681	-8.53739589873376	-8.53739589873376	-7.15043475981139	-4.13760628694956	-3.92621669470507	-4.37384069577899	-4.37384069577899	-Inf	-Inf	-Inf	-Inf
15.8477219446849	15.2716905770896	15.2716905770896	13.0731322217779	14.4600933607003	14.4600933607003	16.6599872744354	-Inf	-Inf	-Inf	-Inf	-Inf
16.043708912919	15.7347396621245	14.3464429647786	14.922474332374	13.5348457483894	12.147884609467	14.3464429647786	14.922474332374	-Inf	-Inf	-Inf	-Inf
10.4782732558337	-Inf	10.4782732558337	9.09131211691136	9.09131211691136	-Inf	-Inf	9.09131211691136	-Inf	-Inf	-Inf	-Inf
9.09131211691136	9.09131211691136	-Inf	-Inf	10.4782732558337	9.09131211691136	10.4782732558337	10.4782732558337	-Inf	-Inf	-Inf	-Inf
10.1156176594762	9.66866311148864	10.1156176594762	9.09263174389331	11.0576285915365	9.09263174389331	10.4809284412392	10.7898976920337	-Inf	8.28103452750405	-Inf	8.28103452750405
6.37632345345824	-Inf	6.37632345345824	-Inf	-Inf	6.37632345345824	5.56472623706898	5.56472623706898	-Inf	4.17776509814661	-Inf	4.17776509814661
15.9131342646109	15.4628121908762	15.7003947301803	15.7738026265661	15.4628121908762	16.2818205062604	15.8446581005095	15.7003947301803	9.09131211691136	-Inf	-Inf	-Inf
4.43425080539594	4.06894002363292	4.74322005619041	3.62198547564539	4.06894002363292	5.24718536452264	5.01095095569321	4.43425080539594	13.2836008908824	13.3052335944975	13.2998410144242	13.2836008908824
9.15492520845523	8.57755470993081	9.15492520845523	8.34132030110138	10.3738992347372	10.4634742388175	9.85488699891223	9.60322067945325	7.39930936904108	5.56472623706898	7.39930936904108	7.39930936904108
4.43425080539594	5.01095095569321	6.63950483480177	5.45857495676713	6.94981860448688	6.94981860448688	7.043529889329	6.40259828086509	3.04595410805007	3.04595410805007	4.74322005619041	4.43425080539594
14.2292268746295	15.5451281100423	14.8834211989747	14.9922262198954	14.06847222722	14.8834211989747	14.3781122750101	13.70249132094	12.3128563878058	12.3128563878058	11.289870472223	11.289870472223
-3.26382153657231	-3.26382153657231	-3.26382153657231	-3.26382153657231	-1.87686039764995	-Inf	-3.26382153657231	-Inf	-Inf	-Inf	-Inf	-Inf
10.4809284412392	8.28103452750405	9.09263174389331	8.28103452750405	9.09263174389331	9.66866311148864	10.1156176594762	10.7898976920337	-Inf	-Inf	-Inf	-Inf
11.2938630003659	11.6965417367095	12.1808735466805	11.0576285915365	11.5052525926104	10.1156176594762	11.5052525926104	10.7898976920337	-Inf	-Inf	-Inf	-Inf
12.147884609467	13.5348457483894	12.147884609467	12.147884609467	12.147884609467	-Inf	12.147884609467	12.147884609467	-Inf	-Inf	-Inf	-Inf
10.8293919192928	-Inf	-Inf	-Inf	-Inf	-Inf	-Inf	-Inf	-Inf	-Inf	-Inf	-Inf
10.4782732558337	9.09131211691136	10.4782732558337	10.4782732558337	11.289870472223	9.09131211691136	11.8659018398183	9.09131211691136	9.09131211691136	-Inf	-Inf	-Inf
8.57755470993081	8.57755470993081	8.34132030110138	7.39930936904108	7.76462015080411	7.39930936904108	7.39930936904108	5.56472623706898	-Inf	-Inf	-Inf	-Inf
10.7898976920337	6.89407338858169	10.1156176594762	9.66866311148864	10.7898976920337	11.0576285915365	11.2938630003659	9.66866311148864	6.89407338858169	6.89407338858169	-Inf	6.89407338858169
7.39930936904108	5.56472623706898	7.39930936904108	5.56472623706898	9.31567985586476	8.57755470993081	6.95235482105356	8.07358940159858	-Inf	-Inf	5.56472623706898	4.17776509814661
16.9503529575948	16.7590638134957	17.7030871375937	16.9503529575948	16.9503529575948	17.8250065102326	15.7347396621245	16.5476742212512	-Inf	-Inf	-Inf	-Inf
-4.13760628694956	-5.31585162783928	-4.64157159528178	-3.92621669470507	-2.98219337060711	-2.98219337060711	-4.37384069577899	-2.3412617621432	-5.31585162783928	-3.92621669470507	-3.39948114101561	-4.13760628694956
13.6220061450946	15.008967284017	-Inf	-Inf	-Inf	-Inf	-Inf	13.6220061450946	-Inf	-Inf	-Inf	-Inf
12.2163530582151	-Inf	12.2163530582151	10.8293919192928	-Inf	-Inf	10.8293919192928	10.8293919192928	-Inf	-Inf	-Inf	-Inf
10.4782732558337	-Inf	-Inf	-Inf	10.4782732558337	-Inf	-Inf	-Inf	-Inf	-Inf	-Inf	-Inf
10.4782732558337	11.289870472223	11.289870472223	11.289870472223	13.4911017286956	12.6781671695689	13.2548673198661	12.6781671695689	9.09131211691136	-Inf	10.4782732558337	9.09131211691136
3.04595410805007	4.06894002363292	4.06894002363292	3.62198547564539	3.62198547564539	3.62198547564539	3.04595410805007	2.23435689166081	-Inf	2.23435689166081	0.847395752738443	-Inf
6.37632345345824	6.95235482105356	7.76462015080411	7.76462015080411	8.34132030110138	6.37632345345824	6.95235482105356	8.7889443021753	-Inf	-Inf	-Inf	4.17776509814661
0.632002766879662	1.13596807521188	1.34735766745638	2.02297862152648	2.16163404473433	1.53864681155546	2.41330036419331	2.16163404473433	-0.0422772656778374	-1.06526318126069	0.323033516085191	-0.489231813665363
9.09131211691136	10.4782732558337	9.09131211691136	11.289870472223	10.4782732558337	10.4782732558337	-Inf	9.09131211691136	-Inf	11.8659018398183	10.4782732558337	9.09131211691136
12.3128563878058	9.09131211691136	10.4782732558337	9.09131211691136	12.6781671695689	12.3128563878058	11.289870472223	9.09131211691136	-Inf	9.09131211691136	-Inf	10.4782732558337
6.89407338858169	-Inf	-Inf	-Inf	-Inf	-Inf	-Inf	-Inf	-Inf	-Inf	-Inf	-Inf
-3.92621669470507	-3.73492755060599	-3.92621669470507	-4.37384069577899	-3.56023578842514	-4.95054084607625	-4.37384069577899	-3.56023578842514	-7.15043475981139	-5.31585162783928	-6.33883754342213	-4.95054084607625
14.0509361901872	14.9929471222475	15.6318602674205	14.4162469719503	14.0509361901872	14.4162469719503	14.4162469719503	16.3845944474194	-Inf	-Inf	10.8293919192928	10.8293919192928
-0.489231813665363	-1.06526318126069	-Inf	-1.87686039764995	-1.87686039764995	-Inf	-0.0422772656778374	-3.26382153657231	-Inf	-Inf	-Inf	-Inf
-1.87686039764995	-3.26382153657231	-3.26382153657231	-1.06526318126069	-0.489231813665363	-Inf	-1.06526318126069	-1.87686039764995	-Inf	-Inf	-Inf	-Inf
-8.53739589873376	-7.15043475981139	-6.33883754342213	-5.76280617582681	-8.53739589873376	-6.33883754342213	-8.53739589873376	-Inf	-Inf	-Inf	-Inf	-Inf
8.28103452750405	-Inf	-Inf	6.89407338858169	6.89407338858169	8.28103452750405	6.89407338858169	-Inf	-Inf	-Inf	-Inf	-Inf
15.229181531077	16.1161920773916	14.9929471222475	15.9673066770109	13.6039816421997	13.6039816421997	15.229181531077	16.1161920773916	10.8293919192928	12.2163530582151	10.8293919192928	-Inf
15.229181531077	14.0509361901872	14.9929471222475	14.4162469719503	14.9929471222475	14.0509361901872	14.0509361901872	14.7252162227447	10.8293919192928	13.0279502746044	12.2163530582151	-Inf
6.95235482105356	4.17776509814661	6.95235482105356	5.56472623706898	7.39930936904108	5.56472623706898	4.17776509814661	6.37632345345824	4.17776509814661	-Inf	4.17776509814661	-Inf
-5.76280617582681	-8.53739589873376	-7.15043475981139	-7.15043475981139	-7.15043475981139	-7.15043475981139	-7.15043475981139	-7.15043475981139	-5.31585162783928	-7.15043475981139	-5.76280617582681	-7.15043475981139
-1.06526318126069	-3.26382153657231	0.323033516085191	-3.26382153657231	0.899733666382456	-0.489231813665363	0.323033516085191	0.899733666382456	-1.06526318126069	-0.0422772656778374	0.899733666382456	-Inf
-7.15043475981139	-7.15043475981139	-5.31585162783928	-8.53739589873376	-4.95054084607625	-6.33883754342213	-6.33883754342213	-4.95054084607625	-7.15043475981139	-4.95054084607625	-7.15043475981139	-7.15043475981139
9.66866311148864	9.09263174389331	9.66866311148864	9.09263174389331	9.66866311148864	10.7898976920337	11.2938630003659	10.7898976920337	-Inf	-Inf	8.28103452750405	6.89407338858169
5.56472623706898	-Inf	4.17776509814661	4.17776509814661	4.17776509814661	4.17776509814661	5.56472623706898	-Inf	-Inf	-Inf	4.17776509814661	-Inf
3.04595410805007	5.01095095569321	5.45857495676713	4.06894002363292	3.62198547564539	4.06894002363292	3.62198547564539	4.43425080539594	2.23435689166081	3.04595410805007	-Inf	-Inf
12.6781671695689	10.4782732558337	13.2548673198661	9.09131211691136	12.9871364203633	13.2548673198661	10.4782732558337	12.9871364203633	-Inf	-Inf	-Inf	9.09131211691136
12.3128563878058	13.70249132094	10.4782732558337	9.09131211691136	9.09131211691136	10.4782732558337	12.3128563878058	9.09131211691136	10.4782732558337	-Inf	-Inf	9.09131211691136
-0.489231813665363	-0.0422772656778374	-0.0422772656778374	-0.489231813665363	1.34735766745638	-0.489231813665363	1.53864681155546	1.87409322114584	0.632002766879662	0.632002766879662	0.632002766879662	0.899733666382456
10.8293919192928	-Inf	-Inf	10.8293919192928	-Inf	-Inf	12.2163530582151	10.8293919192928	12.2163530582151	-Inf	-Inf	12.2163530582151
12.147884609467	12.147884609467	-Inf	-Inf	-Inf	12.147884609467	12.147884609467	-Inf	12.147884609467	-Inf	13.5348457483894	-Inf
-3.26382153657231	-Inf	-3.26382153657231	-1.87686039764995	-1.87686039764995	-3.26382153657231	-0.489231813665363	-1.06526318126069	-Inf	-1.87686039764995	-Inf	-Inf
-4.64157159528178	-4.95054084607625	-4.64157159528178	-7.15043475981139	-4.13760628694956	-3.39948114101561	-2.53322440368142	-2.98219337060711	-5.31585162783928	-4.64157159528178	-3.73492755060599	-3.25059574063497
12.147884609467	16.043708912919	12.147884609467	14.922474332374	-Inf	14.3464429647786	15.3694288803615	14.922474332374	-Inf	-Inf	-Inf	-Inf
13.0279502746044	13.0279502746044	10.8293919192928	13.6039816421997	14.7252162227447	12.2163530582151	12.2163530582151	13.0279502746044	14.4162469719503	13.0279502746044	13.0279502746044	10.8293919192928
5.56472623706898	5.56472623706898	7.39930936904108	7.39930936904108	5.56472623706898	8.07358940159858	6.37632345345824	6.37632345345824	-Inf	5.56472623706898	-Inf	4.17776509814661
9.09131211691136	9.09131211691136	13.2548673198661	10.4782732558337	10.4782732558337	10.4782732558337	11.289870472223	12.3128563878058	10.4782732558337	11.8659018398183	10.4782732558337	10.4782732558337
4.17776509814661	5.56472623706898	5.56472623706898	4.17776509814661	6.37632345345824	5.56472623706898	6.37632345345824	6.95235482105356	-Inf	-Inf	-Inf	4.17776509814661
9.09131211691136	10.4782732558337	9.09131211691136	10.4782732558337	9.09131211691136	11.8659018398183	9.09131211691136	9.09131211691136	-Inf	-Inf	-Inf	-Inf
13.0279502746044	13.0279502746044	12.2163530582151	10.8293919192928	10.8293919192928	-Inf	12.2163530582151	12.2163530582151	-Inf	-Inf	-Inf	-Inf
-3.26382153657231	-1.06526318126069	-3.26382153657231	-3.26382153657231	-3.26382153657231	-Inf	-3.26382153657231	-1.87686039764995	-0.489231813665363	-1.06526318126069	-1.06526318126069	0.323033516085191
10.4782732558337	12.3128563878058	11.289870472223	10.4782732558337	11.8659018398183	11.8659018398183	11.8659018398183	-Inf	-Inf	-Inf	-Inf	-Inf
12.147884609467	-Inf	12.147884609467	-Inf	13.5348457483894	14.3464429647786	13.5348457483894	-Inf	-Inf	-Inf	-Inf	-Inf
-3.26382153657231	-1.87686039764995	-3.26382153657231	0.632002766879662	0.323033516085191	-1.06526318126069	-3.26382153657231	-0.489231813665363	-Inf	-Inf	-Inf	-Inf
8.28103452750405	-Inf	-Inf	-Inf	8.28103452750405	-Inf	6.89407338858169	-Inf	-Inf	-Inf	-Inf	-Inf
0.847395752738443	0.847395752738443	2.23435689166081	3.04595410805007	2.23435689166081	0.847395752738443	0.847395752738443	2.23435689166081	0.847395752738443	4.06894002363292	3.62198547564539	3.62198547564539
-1.06526318126069	-3.26382153657231	-1.87686039764995	-3.26382153657231	-0.489231813665363	-3.26382153657231	0.323033516085191	-0.0422772656778374	6.60687145173267	6.81682517621209	6.26705023612743	7.08601238306044
-0.489231813665363	-1.87686039764995	-0.0422772656778374	0.323033516085191	1.13596807521188	2.16163404473433	2.41330036419331	2.02297862152648	-Inf	-Inf	-Inf	-Inf
-1.06526318126069	-3.26382153657231	-1.06526318126069	-3.26382153657231	-1.87686039764995	-3.26382153657231	-1.87686039764995	-3.26382153657231	-Inf	-Inf	-Inf	-Inf
6.89407338858169	-Inf	-Inf	-Inf	6.89407338858169	6.89407338858169	8.28103452750405	6.89407338858169	-Inf	6.89407338858169	-Inf	-Inf
-1.87686039764995	-1.87686039764995	-1.87686039764995	-1.87686039764995	-1.06526318126069	-0.0422772656778374	0.323033516085191	-1.87686039764995	6.11466279203201	6.22995043913989	6.13431100693812	5.88574936215044
-1.87686039764995	-Inf	-Inf	-3.26382153657231	-3.26382153657231	-3.26382153657231	-1.87686039764995	-1.87686039764995	-Inf	-3.26382153657231	-3.26382153657231	-Inf
-6.33883754342213	-6.33883754342213	-5.76280617582681	-7.15043475981139	-7.15043475981139	-7.15043475981139	-8.53739589873376	-7.15043475981139	-Inf	-Inf	-Inf	-Inf
5.56472623706898	7.39930936904108	7.39930936904108	8.07358940159858	7.76462015080411	7.39930936904108	8.07358940159858	6.95235482105356	5.56472623706898	4.17776509814661	4.17776509814661	4.17776509814661
5.56472623706898	4.17776509814661	-Inf	4.17776509814661	6.95235482105356	5.56472623706898	5.56472623706898	-Inf	-Inf	-Inf	-Inf	-Inf
-3.26382153657231	-3.26382153657231	-Inf	-Inf	-3.26382153657231	-3.26382153657231	-Inf	-Inf	-Inf	-Inf	-Inf	-Inf
11.8659018398183	9.09131211691136	9.09131211691136	10.4782732558337	10.4782732558337	12.6781671695689	12.6781671695689	12.3128563878058	-Inf	-Inf	-Inf	9.09131211691136
2.23435689166081	3.04595410805007	3.04595410805007	-Inf	-Inf	2.23435689166081	5.01095095569321	3.62198547564539	2.23435689166081	2.23435689166081	0.847395752738443	-Inf
6.89407338858169	8.28103452750405	8.28103452750405	6.89407338858169	8.28103452750405	8.28103452750405	8.28103452750405	8.28103452750405	-Inf	-Inf	-Inf	-Inf
9.09131211691136	-Inf	11.289870472223	-Inf	11.8659018398183	9.09131211691136	-Inf	11.289870472223	-Inf	-Inf	-Inf	-Inf
0.847395752738443	2.23435689166081	-Inf	2.23435689166081	3.62198547564539	3.62198547564539	2.23435689166081	0.847395752738443	-Inf	-Inf	0.847395752738443	-Inf
13.0731322217779	-Inf	13.0731322217779	-Inf	14.4600933607003	-Inf	-Inf	-Inf	-Inf	-Inf	-Inf	-Inf
10.4782732558337	-Inf	9.09131211691136	9.09131211691136	-Inf	-Inf	10.4782732558337	-Inf	-Inf	-Inf	-Inf	-Inf
-3.26382153657231	-3.26382153657231	-3.26382153657231	-3.26382153657231	-Inf	-1.87686039764995	-1.87686039764995	-3.26382153657231	-Inf	-Inf	-Inf	-Inf
-8.53739589873376	-Inf	-8.53739589873376	-Inf	-8.53739589873376	-Inf	-Inf	-Inf	-Inf	-8.53739589873376	-5.76280617582681	-Inf
6.89407338858169	-Inf	-Inf	-Inf	-Inf	6.89407338858169	-Inf	-Inf	-Inf	-Inf	-Inf	-Inf
10.8293919192928	10.8293919192928	10.8293919192928	12.2163530582151	12.2163530582151	12.2163530582151	13.6039816421997	12.2163530582151	10.8293919192928	-Inf	-Inf	-Inf
-8.53739589873376	-Inf	-Inf	-6.33883754342213	-7.15043475981139	-8.53739589873376	-6.33883754342213	-7.15043475981139	-Inf	-Inf	-Inf	-Inf
10.8293919192928	10.8293919192928	10.8293919192928	10.8293919192928	10.8293919192928	13.0279502746044	13.6039816421997	13.0279502746044	10.8293919192928	10.8293919192928	-Inf	12.2163530582151
10.8293919192928	-Inf	-Inf	-Inf	10.8293919192928	-Inf	10.8293919192928	10.8293919192928	-Inf	10.8293919192928	-Inf	-Inf
10.8293919192928	10.8293919192928	10.8293919192928	10.8293919192928	10.8293919192928	-Inf	13.0279502746044	10.8293919192928	-Inf	-Inf	-Inf	-Inf
-8.53739589873376	-7.15043475981139	-Inf	-8.53739589873376	-8.53739589873376	-8.53739589873376	-8.53739589873376	-6.33883754342213	-5.31585162783928	-4.64157159528178	-5.76280617582681	-6.33883754342213
6.89407338858169	-Inf	-Inf	-Inf	-Inf	-Inf	-Inf	-Inf	-Inf	-Inf	-Inf	-Inf
6.89407338858169	9.09263174389331	6.89407338858169	6.89407338858169	8.28103452750405	8.28103452750405	10.1156176594762	9.66866311148864	-Inf	-Inf	-Inf	6.89407338858169
-8.53739589873376	-7.15043475981139	-Inf	-6.33883754342213	-3.11194031742712	-3.39948114101561	-3.11194031742712	-3.11194031742712	-Inf	-Inf	-Inf	-8.53739589873376
9.09131211691136	-Inf	9.09131211691136	10.4782732558337	10.4782732558337	10.4782732558337	-Inf	-Inf	-Inf	-Inf	-Inf	-Inf
0.847395752738443	3.04595410805007	0.847395752738443	0.847395752738443	0.847395752738443	0.847395752738443	2.23435689166081	0.847395752738443	-Inf	-Inf	-Inf	-Inf
10.8293919192928	-Inf	10.8293919192928	-Inf	10.8293919192928	10.8293919192928	-Inf	-Inf	-Inf	-Inf	-Inf	-Inf
12.147884609467	13.5348457483894	-Inf	12.147884609467	12.147884609467	-Inf	13.5348457483894	13.5348457483894	-Inf	-Inf	-Inf	-Inf
-Inf	9.09131211691136	9.09131211691136	-Inf	10.4782732558337	11.289870472223	11.289870472223	9.09131211691136	-Inf	-Inf	-Inf	-Inf
-Inf	0.847395752738443	0.847395752738443	-Inf	0.847395752738443	-Inf	-Inf	0.847395752738443	-Inf	-Inf	-Inf	-Inf
-Inf	-8.53739589873376	-8.53739589873376	-Inf	-8.53739589873376	-8.53739589873376	-8.53739589873376	-Inf	-3.92621669470507	-4.64157159528178	-6.33883754342213	-4.95054084607625
-Inf	8.28103452750405	9.09263174389331	6.89407338858169	10.4809284412392	9.09263174389331	9.66866311148864	9.09263174389331	-Inf	-Inf	8.28103452750405	6.89407338858169
-Inf	10.8293919192928	-Inf	-Inf	-Inf	-Inf	-Inf	-Inf	-Inf	-Inf	-Inf	-Inf
-Inf	-0.489231813665363	-Inf	-3.26382153657231	-1.87686039764995	-Inf	-1.06526318126069	-Inf	-Inf	-Inf	-Inf	-Inf
-Inf	10.8293919192928	10.8293919192928	-Inf	10.8293919192928	-Inf	-Inf	-Inf	-Inf	-Inf	-Inf	-Inf
-Inf	0.847395752738443	-Inf	-Inf	-Inf	-Inf	-Inf	-Inf	-Inf	-Inf	-Inf	-Inf
-Inf	-1.87686039764995	-Inf	-3.26382153657231	-Inf	-1.87686039764995	-Inf	-Inf	-Inf	-Inf	-Inf	-1.87686039764995
-Inf	8.28103452750405	-Inf	-Inf	8.28103452750405	6.89407338858169	6.89407338858169	8.28103452750405	-Inf	-Inf	-Inf	-Inf
-Inf	6.89407338858169	8.28103452750405	8.28103452750405	8.28103452750405	8.28103452750405	8.28103452750405	6.89407338858169	-Inf	6.89407338858169	-Inf	-Inf
-Inf	-1.06526318126069	-3.26382153657231	-3.26382153657231	-1.06526318126069	-1.06526318126069	-3.26382153657231	-3.26382153657231	-Inf	-Inf	-Inf	-Inf
-Inf	10.8293919192928	-Inf	10.8293919192928	12.2163530582151	-Inf	-Inf	-Inf	-Inf	-Inf	-Inf	-Inf
-Inf	8.28103452750405	6.89407338858169	9.09263174389331	8.28103452750405	-Inf	-Inf	6.89407338858169	-Inf	-Inf	-Inf	-Inf
-Inf	6.89407338858169	-Inf	8.28103452750405	8.28103452750405	9.09263174389331	9.09263174389331	8.28103452750405	-Inf	-Inf	-Inf	-Inf
-Inf	0.323033516085191	-1.06526318126069	-1.87686039764995	-3.26382153657231	-3.26382153657231	-3.26382153657231	-3.26382153657231	-1.06526318126069	-0.489231813665363	-0.489231813665363	0.323033516085191
-Inf	-3.26382153657231	-Inf	-Inf	-Inf	-Inf	-Inf	-Inf	-3.26382153657231	-Inf	-3.26382153657231	-3.26382153657231
-Inf	-8.53739589873376	-Inf	-Inf	-Inf	-Inf	-Inf	-Inf	-8.53739589873376	-8.53739589873376	-8.53739589873376	-6.33883754342213
-Inf	-6.33883754342213	-7.15043475981139	-8.53739589873376	-5.76280617582681	-6.33883754342213	-7.15043475981139	-6.33883754342213	-Inf	-Inf	-Inf	-Inf
-Inf	13.5348457483894	12.147884609467	12.147884609467	12.147884609467	-Inf	12.147884609467	12.147884609467	-Inf	-Inf	-Inf	-Inf
-Inf	9.09131211691136	10.4782732558337	-Inf	-Inf	9.09131211691136	-Inf	9.09131211691136	9.09131211691136	10.4782732558337	-Inf	10.4782732558337
-Inf	13.6220061450946	13.6220061450946	-Inf	13.6220061450946	-Inf	13.6220061450946	-Inf	-Inf	-Inf	-Inf	-Inf
-Inf	15.2716905770896	13.0731322217779	14.4600933607003	14.4600933607003	-Inf	16.6599872744354	15.2716905770896	-Inf	-Inf	-Inf	-Inf
-Inf	6.37632345345824	4.17776509814661	-Inf	4.17776509814661	4.17776509814661	4.17776509814661	5.56472623706898	4.17776509814661	5.56472623706898	4.17776509814661	-Inf
-Inf	6.89407338858169	-Inf	-Inf	-Inf	-Inf	-Inf	6.89407338858169	-Inf	-Inf	-Inf	-Inf
-Inf	-3.26382153657231	-Inf	-Inf	-Inf	-Inf	-3.26382153657231	-1.06526318126069	-1.06526318126069	-1.06526318126069	-0.489231813665363	0.323033516085191
-Inf	12.147884609467	14.3464429647786	13.5348457483894	12.147884609467	12.147884609467	14.3464429647786	-Inf	-Inf	-Inf	-Inf	-Inf
-Inf	4.17776509814661	6.37632345345824	7.76462015080411	6.37632345345824	6.37632345345824	6.37632345345824	6.95235482105356	-Inf	-Inf	4.17776509814661	4.17776509814661
-Inf	6.89407338858169	-Inf	8.28103452750405	9.09263174389331	8.28103452750405	6.89407338858169	8.28103452750405	-Inf	-Inf	-Inf	-Inf
-Inf	-Inf	9.09131211691136	-Inf	-Inf	-Inf	9.09131211691136	9.09131211691136	-Inf	-Inf	-Inf	-Inf
-Inf	-Inf	2.23435689166081	-Inf	-Inf	-Inf	2.23435689166081	-Inf	3.04595410805007	2.23435689166081	3.04595410805007	3.62198547564539
-Inf	-Inf	-3.26382153657231	-Inf	-1.87686039764995	-Inf	-3.26382153657231	-3.26382153657231	-Inf	-Inf	-Inf	-Inf
-Inf	-Inf	12.147884609467	-Inf	12.147884609467	12.147884609467	12.147884609467	13.5348457483894	12.147884609467	13.5348457483894	13.5348457483894	-Inf
-Inf	-Inf	-8.53739589873376	-8.53739589873376	-8.53739589873376	-8.53739589873376	-Inf	-Inf	-8.53739589873376	-8.53739589873376	-6.33883754342213	-8.53739589873376
-Inf	-Inf	10.8293919192928	-Inf	-Inf	10.8293919192928	-Inf	10.8293919192928	-Inf	-Inf	-Inf	-Inf
-Inf	-Inf	4.17776509814661	4.17776509814661	5.56472623706898	4.17776509814661	-Inf	-Inf	5.56472623706898	6.37632345345824	6.37632345345824	5.56472623706898
-Inf	-Inf	9.09131211691136	9.09131211691136	-Inf	-Inf	-Inf	-Inf	-Inf	-Inf	-Inf	-Inf
-Inf	-Inf	4.17776509814661	-Inf	5.56472623706898	5.56472623706898	-Inf	4.17776509814661	-Inf	5.56472623706898	-Inf	-Inf
-Inf	-Inf	2.23435689166081	2.23435689166081	0.847395752738443	2.23435689166081	0.847395752738443	-Inf	-Inf	-Inf	-Inf	-Inf
-Inf	-Inf	4.17776509814661	-Inf	-Inf	-Inf	-Inf	-Inf	-Inf	-Inf	-Inf	-Inf
-Inf	-Inf	0.847395752738443	-Inf	-Inf	-Inf	-Inf	-Inf	-Inf	-Inf	-Inf	-Inf
-Inf	-Inf	-3.26382153657231	-Inf	-Inf	-Inf	-Inf	-Inf	-Inf	-Inf	-Inf	-Inf
-Inf	-Inf	-3.26382153657231	-3.26382153657231	-Inf	-Inf	-Inf	-Inf	-Inf	-Inf	-Inf	-Inf
-Inf	-Inf	10.8293919192928	-Inf	10.8293919192928	-Inf	-Inf	10.8293919192928	-Inf	-Inf	-Inf	-Inf
-Inf	-Inf	9.09131211691136	-Inf	-Inf	9.09131211691136	9.09131211691136	-Inf	-Inf	-Inf	-Inf	-Inf
-Inf	-Inf	10.8293919192928	-Inf	-Inf	-Inf	10.8293919192928	-Inf	-Inf	-Inf	-Inf	-Inf
-Inf	-Inf	9.09131211691136	9.09131211691136	9.09131211691136	10.4782732558337	9.09131211691136	-Inf	-Inf	-Inf	-Inf	-Inf
-Inf	-Inf	9.09131211691136	-Inf	-Inf	-Inf	-Inf	11.289870472223	-Inf	-Inf	-Inf	-Inf
-Inf	-Inf	10.8293919192928	-Inf	-Inf	-Inf	-Inf	-Inf	-Inf	-Inf	-Inf	-Inf
-Inf	-Inf	13.6220061450946	-Inf	-Inf	-Inf	13.6220061450946	-Inf	-Inf	-Inf	-Inf	-Inf
-Inf	-Inf	-Inf	4.17776509814661	-Inf	-Inf	-Inf	-Inf	-Inf	-Inf	-Inf	-Inf
-Inf	-Inf	-Inf	0.847395752738443	-Inf	-Inf	-Inf	-Inf	-Inf	-Inf	-Inf	-Inf
-Inf	-Inf	-Inf	12.147884609467	-Inf	12.147884609467	-Inf	13.5348457483894	-Inf	-Inf	12.147884609467	-Inf
-Inf	-Inf	-Inf	4.17776509814661	-Inf	-Inf	-Inf	-Inf	-Inf	-Inf	4.17776509814661	4.17776509814661
-Inf	-Inf	-Inf	6.89407338858169	6.89407338858169	-Inf	-Inf	6.89407338858169	-Inf	-Inf	-Inf	-Inf
-Inf	-Inf	-Inf	4.17776509814661	-Inf	-Inf	-Inf	-Inf	-Inf	-Inf	-Inf	-Inf
-Inf	-Inf	-Inf	0.847395752738443	-Inf	-Inf	-Inf	-Inf	-Inf	-Inf	-Inf	-Inf
-Inf	-Inf	-Inf	0.847395752738443	-Inf	-Inf	0.847395752738443	-Inf	-Inf	0.847395752738443	-Inf	-Inf
-Inf	-Inf	-Inf	14.3464429647786	-Inf	-Inf	-Inf	-Inf	-Inf	-Inf	-Inf	-Inf
-Inf	-Inf	-Inf	9.09131211691136	-Inf	-Inf	11.8659018398183	-Inf	-Inf	-Inf	-Inf	-Inf
-Inf	-Inf	-Inf	13.6220061450946	-Inf	-Inf	-Inf	-Inf	-Inf	-Inf	-Inf	-Inf
-Inf	-Inf	-Inf	13.0731322217779	-Inf	-Inf	-Inf	-Inf	-Inf	-Inf	-Inf	-Inf
-Inf	-Inf	-Inf	10.8293919192928	-Inf	-Inf	-Inf	-Inf	-Inf	-Inf	-Inf	-Inf
-Inf	-Inf	-Inf	9.09131211691136	-Inf	-Inf	9.09131211691136	-Inf	-Inf	-Inf	-Inf	-Inf
-Inf	-Inf	-Inf	-Inf	9.09131211691136	-Inf	-Inf	-Inf	-Inf	-Inf	-Inf	-Inf
-Inf	-Inf	-Inf	-Inf	6.89407338858169	-Inf	-Inf	-Inf	-Inf	-Inf	-Inf	-Inf
-Inf	-Inf	-Inf	-Inf	9.09131211691136	-Inf	9.09131211691136	-Inf	-Inf	-Inf	-Inf	-Inf
-Inf	-Inf	-Inf	-Inf	10.8293919192928	-Inf	-Inf	-Inf	-Inf	-Inf	-Inf	-Inf
-Inf	-Inf	-Inf	-Inf	10.8293919192928	-Inf	-Inf	-Inf	-Inf	-Inf	-Inf	-Inf
-Inf	-Inf	-Inf	-Inf	0.847395752738443	-Inf	-Inf	-Inf	-Inf	-Inf	-Inf	-Inf
-Inf	-Inf	-Inf	-Inf	4.17776509814661	-Inf	-Inf	-Inf	-Inf	-Inf	-Inf	-Inf
-Inf	-Inf	-Inf	-Inf	10.8293919192928	-Inf	-Inf	-Inf	-Inf	-Inf	-Inf	-Inf
-Inf	-Inf	-Inf	-Inf	-8.53739589873376	-Inf	-Inf	-8.53739589873376	-2.63648179574975	-1.85490538907905	-2.86027399796813	-1.3468875093847
-Inf	-Inf	-Inf	-Inf	6.89407338858169	-Inf	-Inf	-Inf	-Inf	-Inf	-Inf	-Inf
-Inf	-Inf	-Inf	-Inf	4.17776509814661	-Inf	-Inf	-Inf	-Inf	-Inf	-Inf	-Inf
-Inf	-Inf	-Inf	-Inf	0.847395752738443	-Inf	-Inf	-Inf	-Inf	-Inf	-Inf	-Inf
-Inf	-Inf	-Inf	-Inf	-8.53739589873376	-Inf	-Inf	-Inf	-Inf	-Inf	-Inf	-Inf
-Inf	-Inf	-Inf	-Inf	13.5348457483894	-Inf	-Inf	-Inf	-Inf	-Inf	-Inf	-Inf
-Inf	-Inf	-Inf	-Inf	0.847395752738443	-Inf	-Inf	-Inf	-Inf	-Inf	-Inf	-Inf
-Inf	-Inf	-Inf	-Inf	12.147884609467	-Inf	-Inf	-Inf	-Inf	-Inf	-Inf	-Inf
-Inf	-Inf	-Inf	-Inf	-3.26382153657231	-Inf	-Inf	-Inf	-Inf	-Inf	-Inf	-Inf
-Inf	-Inf	-Inf	-Inf	-3.26382153657231	-3.26382153657231	-Inf	-3.26382153657231	-Inf	-Inf	-Inf	-Inf
-Inf	-Inf	-Inf	-Inf	6.89407338858169	-Inf	6.89407338858169	-Inf	-Inf	-Inf	-Inf	-Inf
-Inf	-Inf	-Inf	-Inf	4.17776509814661	-Inf	4.17776509814661	-Inf	-Inf	-Inf	-Inf	-Inf
-Inf	-Inf	-Inf	-Inf	0.847395752738443	-Inf	-Inf	-Inf	-Inf	-Inf	-Inf	-Inf
-Inf	-Inf	-Inf	-Inf	10.8293919192928	-Inf	10.8293919192928	-Inf	-Inf	-Inf	-Inf	-Inf
-Inf	-Inf	-Inf	-Inf	-Inf	4.17776509814661	-Inf	4.17776509814661	-Inf	-Inf	-Inf	-Inf
-Inf	-Inf	-Inf	-Inf	-Inf	13.6220061450946	-Inf	-Inf	-Inf	-Inf	-Inf	-Inf
-Inf	-Inf	-Inf	-Inf	-Inf	13.0731322217779	-Inf	-Inf	-Inf	-Inf	-Inf	-Inf
-Inf	-Inf	-Inf	-Inf	-Inf	0.847395752738443	-Inf	-Inf	-Inf	-Inf	-Inf	-Inf
-Inf	-Inf	-Inf	-Inf	-Inf	-8.53739589873376	-Inf	-8.53739589873376	-4.95054084607625	-7.15043475981139	-4.13760628694956	-6.33883754342213
-Inf	-Inf	-Inf	-Inf	-Inf	-8.53739589873376	-Inf	-Inf	-Inf	-Inf	-Inf	-Inf
-Inf	-Inf	-Inf	-Inf	-Inf	0.847395752738443	-Inf	-Inf	-Inf	-Inf	-Inf	-Inf
-Inf	-Inf	-Inf	-Inf	-Inf	9.09131211691136	-Inf	9.09131211691136	-Inf	-Inf	-Inf	-Inf
-Inf	-Inf	-Inf	-Inf	-Inf	9.09131211691136	-Inf	-Inf	-Inf	-Inf	-Inf	9.09131211691136
-Inf	-Inf	-Inf	-Inf	-Inf	9.09131211691136	9.09131211691136	9.09131211691136	-Inf	-Inf	9.09131211691136	-Inf
-Inf	-Inf	-Inf	-Inf	-Inf	9.09131211691136	-Inf	-Inf	-Inf	-Inf	-Inf	-Inf
-Inf	-Inf	-Inf	-Inf	-Inf	9.09131211691136	10.4782732558337	-Inf	-Inf	-Inf	-Inf	-Inf
-Inf	-Inf	-Inf	-Inf	-Inf	10.8293919192928	-Inf	10.8293919192928	-Inf	-Inf	-Inf	-Inf
-Inf	-Inf	-Inf	-Inf	-Inf	0.847395752738443	-Inf	-Inf	-Inf	-Inf	-Inf	-Inf
-Inf	-Inf	-Inf	-Inf	-Inf	-Inf	10.8293919192928	10.8293919192928	-Inf	-Inf	-Inf	-Inf
-Inf	-Inf	-Inf	-Inf	-Inf	-Inf	6.89407338858169	-Inf	-Inf	-Inf	-Inf	-Inf
-Inf	-Inf	-Inf	-Inf	-Inf	-Inf	4.17776509814661	-Inf	-Inf	-Inf	-Inf	-Inf
-Inf	-Inf	-Inf	-Inf	-Inf	-Inf	-8.53739589873376	-Inf	-Inf	-Inf	-Inf	-Inf
-Inf	-Inf	-Inf	-Inf	-Inf	-Inf	13.6220061450946	-Inf	-Inf	-Inf	-Inf	-Inf
-Inf	-Inf	-Inf	-Inf	-Inf	-Inf	10.8293919192928	-Inf	-Inf	-Inf	-Inf	-Inf
-Inf	-Inf	-Inf	-Inf	-Inf	-Inf	0.847395752738443	-Inf	-Inf	-Inf	-Inf	-Inf
-Inf	-Inf	-Inf	-Inf	-Inf	-Inf	-3.26382153657231	-Inf	-1.87686039764995	-1.06526318126069	-3.26382153657231	-3.26382153657231
-Inf	-Inf	-Inf	-Inf	-Inf	-Inf	-8.53739589873376	-8.53739589873376	-7.15043475981139	-7.15043475981139	-7.15043475981139	-5.76280617582681
-Inf	-Inf	-Inf	-Inf	-Inf	-Inf	-Inf	0.847395752738443	-Inf	-Inf	-Inf	-Inf
-Inf	-Inf	-Inf	-Inf	-Inf	-Inf	-Inf	-3.26382153657231	-Inf	-Inf	-Inf	-Inf
-Inf	-Inf	-Inf	-Inf	-Inf	-Inf	-Inf	4.17776509814661	-Inf	-Inf	-Inf	-Inf
-Inf	-Inf	-Inf	-Inf	-Inf	-Inf	-Inf	13.0731322217779	-Inf	-Inf	-Inf	-Inf
-Inf	-Inf	-Inf	-Inf	-Inf	-Inf	-Inf	10.8293919192928	-Inf	-Inf	-Inf	-Inf
-Inf	-Inf	-Inf	-Inf	-Inf	-Inf	-Inf	9.09131211691136	-Inf	-Inf	-Inf	-Inf
-Inf	-Inf	-Inf	-Inf	-Inf	-Inf	-Inf	-3.26382153657231	-Inf	-Inf	-Inf	-Inf
-Inf	-Inf	-Inf	-Inf	-Inf	-Inf	-Inf	9.09131211691136	-Inf	-Inf	-Inf	-Inf
-Inf	-Inf	-Inf	-Inf	-Inf	-Inf	-Inf	9.09131211691136	-Inf	-Inf	9.09131211691136	-Inf
-Inf	-Inf	-Inf	-Inf	-Inf	-Inf	-Inf	-3.26382153657231	-Inf	-Inf	-Inf	-Inf
-Inf	-Inf	-Inf	-Inf	-Inf	-Inf	-Inf	-8.53739589873376	-Inf	-Inf	-Inf	-Inf
-Inf	-Inf	-Inf	-Inf	-Inf	-Inf	-Inf	9.09131211691136	11.289870472223	12.6781671695689	11.289870472223	11.289870472223
-Inf	-Inf	-Inf	-Inf	-Inf	-Inf	-Inf	10.8293919192928	-Inf	-Inf	10.8293919192928	-Inf
-Inf	-Inf	-Inf	-Inf	-Inf	-Inf	-Inf	-Inf	-Inf	13.6220061450946	13.6220061450946	-Inf
-Inf	-Inf	-Inf	-Inf	-Inf	-Inf	-Inf	-Inf	-Inf	-Inf	0.847395752738443	-Inf
-Inf	-Inf	-Inf	-Inf	-Inf	-Inf	-Inf	-Inf	-Inf	-Inf	-3.26382153657231	-Inf
-Inf	-Inf	-Inf	-Inf	-Inf	-Inf	-Inf	-Inf	-Inf	-Inf	14.4600933607003	13.0731322217779
-Inf	-Inf	-Inf	-Inf	-Inf	-Inf	-Inf	-Inf	-Inf	-Inf	-Inf	12.147884609467
-Inf	-Inf	-Inf	-Inf	-Inf	-Inf	-Inf	-Inf	-Inf	-Inf	-Inf	4.17776509814661
-Inf	-Inf	-Inf	-Inf	-Inf	-Inf	-Inf	-Inf	-Inf	-Inf	-Inf	10.8293919192928
