5
[ 2.407, 2.407, 2.407, 2.407, 1.487, 1.865, 2.407, 2.407, 2.407, 2.407, 2.407, 2.407, 2.407, 2.407, 2.407, 2.407, 2.407, 2.407, 6.031, 2.407, 2.407, 2.407, 2.407, 2.407, 1.487, 1.487, 2.407, 2.407, 2.407, 2.407, 1.487, 2.407, 2.407, 2.407, 2.407, 2.407, 2.407, 2.407, 2.407, 2.407, 2.407, 1.487, 2.407, 6.031, 2.407, 1.487, 2.407, 3.685, 2.407, 2.407, 2.407, 2.407, 2.407, 2.407, 2.407, 2.407, 2.407, 2.407, 1.487, 2.407, 2.407, 2.407, 6.031, 2.407, 2.407, 1.487, 2.407, 2.407, 2.407, 2.407, 2.407, 2.407, 2.407, 2.407, 1.487, 2.407, 1.487, 2.407, 2.407, 2.407, 2.407, 2.407, 2.407, 2.407, 1.487, 2.407, 1.487, 2.407, 2.407, 2.407, 2.407, 2.407, 6.031, 2.407, 2.407, 2.407, 1.487, 2.407, 2.407, 2.407 ]
5
[ 0.999, 0.999, 0.999, 0.875, 0.999, 0.999, 0.965, 0.999, 0.875, 0.999, 0.875, 0.999, 0.875, 0.999, 0.999, 0.875, 0.875, 0.875, 0.875, 0.999, 0.110, 0.999, 0.875, 0.999, 0.875, 0.999, 0.352, 0.352, 0.110, 0.999, 0.110, 0.875, 0.999, 0.875, 0.110, 0.999, 0.875, 0.999, 0.999, 0.875, 0.999, 0.875, 0.110, 0.999, 0.999, 0.999, 0.965, 0.110, 0.999, 0.875, 0.999, 0.999, 0.999, 0.875, 0.999, 0.999, 0.875, 0.999, 0.875, 0.999, 0.875, 0.875, 0.110, 0.875, 0.999, 0.875, 0.965, 0.999, 0.999, 0.999, 0.875, 0.999, 0.999, 0.999, 0.110, 0.352, 0.999, 0.875, 0.999, 0.999, 0.999, 0.999, 0.999, 0.875, 0.999, 0.999, 0.875, 0.999, 0.875, 0.999, 0.965, 0.999, 0.875, 0.999, 0.999, 0.110, 0.999, 0.999, 0.999, 0.875 ]