3
[ 3.355, 2.245, 1.838, 3.355, 3.355, 2.245, 3.355, 3.355, 1.838, 3.355, 3.355, 3.355, 1.838, 1.838, 1.838, 1.838, 1.838, 1.838, 3.355, 3.355, 2.245, 1.838, 3.355, 2.245, 3.355, 3.355, 2.245, 2.245, 1.838, 1.838, 2.245, 1.838, 2.245, 3.355, 3.355, 3.355, 1.838, 3.355, 2.245, 3.355, 3.355, 3.355, 3.355, 3.355, 2.245, 3.355, 3.355, 3.355, 1.838, 3.355 ]
3
[ 0.930, 0.747, 0.827, 0.930, 0.747, 0.930, 0.930, 0.747, 0.827, 0.827, 0.747, 0.747, 0.747, 0.930, 0.747, 0.747, 0.747, 0.930, 0.930, 0.930, 0.827, 0.827, 0.827, 0.930, 0.827, 0.930, 0.747, 0.827, 0.930, 0.930, 0.930, 0.827, 0.827, 0.827, 0.747, 0.827, 0.930, 0.930, 0.827, 0.930, 0.747, 0.747, 0.930, 0.747, 0.930, 0.747, 0.930, 0.747, 0.827, 0.747 ]