4
[ 2.915, 2.392, 2.915, 2.915, 2.915, 2.915, 2.915, 2.759, 2.915, 2.915, 4.262, 2.759, 2.915, 2.915, 2.915, 2.915, 2.915, 2.759, 2.915, 2.915, 2.915, 2.915, 2.915, 2.392, 2.759, 2.915, 2.915, 2.915, 2.915, 2.759, 2.759, 4.262, 2.759, 2.759, 2.915, 2.915, 2.915, 2.915, 2.915, 2.392, 2.915, 2.759, 2.915, 2.915, 2.759, 2.915, 2.915, 2.915, 2.759, 2.915, 2.915, 2.915, 2.915, 2.915, 2.915, 2.759, 2.392, 2.915, 2.915, 2.915, 2.759, 2.915, 2.915, 2.759, 2.915, 2.915, 2.915, 2.915, 2.915, 2.759, 2.915, 2.915, 2.759, 2.915, 2.915, 2.915, 2.759, 2.915, 2.915, 2.759, 2.915, 2.915, 2.915, 2.915, 2.915, 2.915, 2.915, 2.759, 2.915, 2.915, 2.915, 2.915, 2.915, 2.915, 2.915, 2.759, 2.759, 2.915, 2.915, 2.759, 2.915, 2.915, 2.915, 2.915, 2.915, 4.262, 2.759, 2.915, 2.915, 2.759, 2.759, 2.915, 2.915, 2.915, 2.915, 2.759, 2.759, 2.759, 2.759, 2.915, 2.915, 2.915, 2.915, 2.915, 4.262, 2.915, 2.915, 2.915, 2.915, 2.759, 2.915, 2.915, 2.915, 2.915, 2.759, 2.915, 2.915, 2.915, 2.915, 2.759, 2.759, 2.915, 2.915, 2.392, 2.915, 2.915, 2.759, 2.915, 2.915, 2.392, 2.759, 2.915, 2.759, 2.915, 2.915, 2.915, 2.915, 2.759, 2.915, 2.759, 2.915, 2.915, 2.915, 4.262, 4.262, 2.915, 2.759, 2.759, 2.915, 2.915, 2.915, 4.262, 2.915, 2.915, 2.915, 2.759, 2.915, 2.915, 2.915, 2.915, 2.915, 2.915, 2.915, 2.915, 2.915, 2.915, 2.759, 2.759, 2.915, 4.262, 2.915, 2.915, 2.915, 2.915, 2.915, 2.915, 2.915, 2.759, 2.759, 2.915 ]
2
[ 0.403, 0.464, 0.464, 0.403, 0.464, 0.464, 0.464, 0.464, 0.403, 0.464, 0.464, 0.464, 0.464, 0.464, 0.464, 0.464, 0.403, 0.464, 0.464, 0.464, 0.464, 0.464, 0.464, 0.464, 0.464, 0.464, 0.464, 0.464, 0.464, 0.464, 0.464, 0.464, 0.464, 0.464, 0.464, 0.464, 0.464, 0.464, 0.403, 0.464, 0.464, 0.464, 0.464, 0.464, 0.464, 0.464, 0.464, 0.464, 0.403, 0.464, 0.464, 0.464, 0.464, 0.464, 0.464, 0.464, 0.464, 0.464, 0.403, 0.464, 0.464, 0.464, 0.464, 0.403, 0.464, 0.464, 0.464, 0.464, 0.464, 0.464, 0.403, 0.464, 0.464, 0.464, 0.464, 0.464, 0.464, 0.464, 0.464, 0.464, 0.464, 0.464, 0.464, 0.464, 0.403, 0.464, 0.464, 0.464, 0.464, 0.464, 0.464, 0.403, 0.464, 0.464, 0.464, 0.464, 0.464, 0.464, 0.403, 0.464, 0.464, 0.464, 0.464, 0.464, 0.464, 0.464, 0.464, 0.464, 0.464, 0.464, 0.464, 0.464, 0.464, 0.464, 0.464, 0.464, 0.464, 0.464, 0.464, 0.464, 0.464, 0.464, 0.464, 0.464, 0.464, 0.464, 0.464, 0.464, 0.464, 0.464, 0.403, 0.464, 0.464, 0.464, 0.464, 0.464, 0.464, 0.464, 0.464, 0.464, 0.464, 0.464, 0.464, 0.464, 0.464, 0.464, 0.464, 0.464, 0.464, 0.464, 0.464, 0.464, 0.464, 0.464, 0.464, 0.403, 0.464, 0.464, 0.464, 0.464, 0.464, 0.464, 0.464, 0.403, 0.403, 0.464, 0.464, 0.464, 0.464, 0.464, 0.464, 0.464, 0.464, 0.464, 0.464, 0.464, 0.464, 0.403, 0.464, 0.464, 0.403, 0.464, 0.464, 0.464, 0.464, 0.464, 0.464, 0.464, 0.403, 0.464, 0.464, 0.464, 0.403, 0.464, 0.464, 0.464, 0.464, 0.464, 0.464, 0.464 ]