3
[ 3.041, 3.041, 3.041, 3.041, 2.225, 2.225, 2.225, 3.041, 3.041, 2.225, 2.225, 3.041, 3.041, 1.160, 3.041, 1.160, 1.160, 1.160, 3.041, 3.041, 1.160, 3.041, 1.160, 1.160, 3.041, 3.041, 3.041, 3.041, 2.225, 3.041, 2.225, 3.041, 3.041, 3.041, 1.160, 2.225, 2.225, 1.160, 1.160, 2.225, 2.225, 3.041, 3.041, 2.225, 2.225, 3.041, 2.225, 2.225, 1.160, 1.160, 3.041, 2.225, 1.160, 3.041, 2.225, 3.041, 1.160, 1.160, 2.225, 2.225, 1.160, 2.225, 3.041, 1.160, 3.041, 3.041, 2.225, 1.160, 3.041, 2.225, 1.160, 3.041, 2.225, 2.225, 1.160, 3.041, 3.041, 2.225, 1.160, 2.225, 2.225, 2.225, 3.041, 1.160, 2.225, 1.160, 3.041, 3.041, 2.225, 2.225, 2.225, 3.041, 1.160, 2.225, 1.160, 2.225, 3.041, 2.225, 2.225, 2.225, 2.225, 1.160, 1.160, 1.160, 1.160, 2.225, 3.041, 3.041, 2.225, 1.160, 1.160, 1.160, 2.225, 3.041, 2.225, 1.160, 3.041, 2.225, 1.160, 1.160, 3.041, 2.225, 2.225, 2.225, 2.225, 2.225, 2.225, 1.160, 2.225, 2.225, 2.225, 2.225, 3.041, 3.041, 3.041, 1.160, 3.041, 3.041, 3.041, 3.041, 1.160, 3.041, 2.225, 1.160, 2.225, 3.041, 2.225, 2.225, 3.041, 3.041, 2.225, 3.041, 2.225, 1.160, 1.160, 2.225, 1.160, 1.160, 1.160, 3.041, 2.225, 2.225, 1.160, 1.160, 2.225, 1.160, 2.225, 2.225, 2.225, 3.041, 2.225, 1.160, 3.041, 3.041, 2.225, 2.225, 3.041, 1.160, 1.160, 2.225, 3.041, 2.225, 1.160, 1.160, 2.225, 3.041, 2.225, 1.160, 2.225, 2.225, 3.041, 1.160, 1.160, 1.160, 3.041, 1.160, 2.225, 2.225, 2.225, 3.041 ]
3
[ 0.928, 0.928, 0.928, 0.475, 0.928, 0.475, 0.928, 0.928, 0.928, 0.460, 0.460, 0.475, 0.460, 0.460, 0.460, 0.475, 0.460, 0.460, 0.460, 0.475, 0.460, 0.460, 0.460, 0.475, 0.460, 0.475, 0.928, 0.928, 0.460, 0.928, 0.928, 0.460, 0.928, 0.475, 0.475, 0.475, 0.475, 0.928, 0.928, 0.460, 0.460, 0.475, 0.475, 0.928, 0.475, 0.460, 0.475, 0.928, 0.475, 0.928, 0.928, 0.460, 0.475, 0.475, 0.460, 0.928, 0.928, 0.475, 0.928, 0.928, 0.460, 0.475, 0.928, 0.928, 0.460, 0.460, 0.460, 0.460, 0.475, 0.460, 0.460, 0.475, 0.928, 0.475, 0.460, 0.475, 0.928, 0.928, 0.460, 0.475, 0.460, 0.928, 0.475, 0.460, 0.475, 0.475, 0.460, 0.475, 0.475, 0.475, 0.460, 0.928, 0.928, 0.460, 0.475, 0.475, 0.475, 0.928, 0.475, 0.460, 0.475, 0.475, 0.460, 0.928, 0.460, 0.475, 0.475, 0.475, 0.475, 0.460, 0.460, 0.460, 0.475, 0.928, 0.475, 0.475, 0.475, 0.475, 0.475, 0.460, 0.928, 0.460, 0.928, 0.460, 0.475, 0.475, 0.460, 0.475, 0.475, 0.475, 0.460, 0.460, 0.475, 0.460, 0.460, 0.460, 0.475, 0.475, 0.460, 0.475, 0.928, 0.460, 0.460, 0.460, 0.475, 0.928, 0.928, 0.928, 0.928, 0.928, 0.460, 0.928, 0.460, 0.460, 0.475, 0.460, 0.475, 0.460, 0.475, 0.928, 0.475, 0.928, 0.475, 0.460, 0.460, 0.928, 0.928, 0.475, 0.460, 0.928, 0.928, 0.928, 0.460, 0.460, 0.475, 0.460, 0.928, 0.460, 0.928, 0.460, 0.460, 0.475, 0.928, 0.475, 0.928, 0.475, 0.460, 0.928, 0.460, 0.475, 0.475, 0.928, 0.475, 0.475, 0.460, 0.475, 0.928, 0.460, 0.475, 0.928 ]