7
[ 6.852, 6.852, 9.492, 6.852, 6.852, 9.492, 6.852, 9.492, 6.852, 1.702, 20.971, 1.702, 9.492, 6.852, 3.291, 6.852, 1.702, 1.702, 6.852, 9.492, 6.852, 1.702, 1.702, 1.702, 3.291, 6.852, 1.702, 20.971, 9.492, 3.291, 1.669, 9.492, 3.291, 9.492, 20.971, 6.077, 6.852, 6.852, 20.971, 6.852, 6.852, 6.852, 6.852, 1.669, 6.852, 9.492, 6.852, 1.702, 6.852, 1.702, 6.852, 9.492, 1.702, 6.852, 6.852, 9.492, 3.291, 6.852, 9.492, 3.291, 6.852, 6.852, 6.852, 1.669, 6.852, 6.852, 6.852, 9.492, 1.702, 1.702, 9.492, 6.852, 6.077, 6.852, 9.492, 3.291, 9.492, 6.852, 9.492, 6.852, 9.492, 9.492, 9.492, 9.492, 9.492, 20.971, 1.669, 9.492, 6.852, 6.852, 6.852, 6.852, 9.492, 9.492, 6.852, 1.669, 3.291, 9.492, 9.492, 3.291 ]
2
[ 0.680, 0.680, 0.680, 0.680, 0.680, 0.680, 0.680, 0.680, 0.680, 0.680, 0.680, 0.680, 0.680, 0.680, 0.680, 0.680, 0.680, 0.680, 0.680, 0.680, 0.680, 0.392, 0.680, 0.680, 0.680, 0.680, 0.680, 0.680, 0.680, 0.680, 0.680, 0.680, 0.680, 0.680, 0.680, 0.680, 0.680, 0.680, 0.680, 0.680, 0.680, 0.680, 0.680, 0.680, 0.680, 0.680, 0.680, 0.392, 0.680, 0.680, 0.680, 0.680, 0.680, 0.680, 0.680, 0.680, 0.680, 0.680, 0.680, 0.680, 0.680, 0.680, 0.680, 0.680, 0.680, 0.680, 0.680, 0.680, 0.680, 0.680, 0.680, 0.680, 0.680, 0.680, 0.680, 0.680, 0.680, 0.680, 0.680, 0.680, 0.680, 0.680, 0.680, 0.680, 0.680, 0.680, 0.680, 0.680, 0.680, 0.680, 0.680, 0.680, 0.680, 0.680, 0.680, 0.680, 0.680, 0.680, 0.680, 0.680 ]