3
[ 1.753, 2.093, 2.093, 1.753, 0.394, 0.394, 1.753, 0.394, 1.753, 1.753, 2.093, 2.093, 1.753, 2.093, 1.753, 1.753, 2.093, 2.093, 0.394, 0.394, 2.093, 2.093, 2.093, 2.093, 2.093, 2.093, 1.753, 2.093, 2.093, 2.093, 2.093, 0.394, 1.753, 1.753, 1.753, 2.093, 2.093, 2.093, 0.394, 2.093, 2.093, 2.093, 2.093, 1.753, 2.093, 1.753, 1.753, 2.093, 0.394, 1.753, 1.753, 1.753, 0.394, 2.093, 2.093, 0.394, 0.394, 0.394, 0.394, 1.753, 1.753, 2.093, 0.394, 0.394, 1.753, 1.753, 0.394, 0.394, 1.753, 0.394, 1.753, 2.093, 0.394, 2.093, 1.753, 2.093, 2.093, 2.093, 2.093, 2.093, 1.753, 1.753, 1.753, 2.093, 2.093, 0.394, 1.753, 1.753, 2.093, 2.093, 2.093, 2.093, 0.394, 0.394, 0.394, 1.753, 0.394, 1.753, 2.093, 2.093 ]
3
[ 0.476, 0.464, 0.765, 0.476, 0.765, 0.765, 0.464, 0.765, 0.476, 0.476, 0.765, 0.464, 0.765, 0.476, 0.464, 0.476, 0.476, 0.464, 0.476, 0.765, 0.765, 0.476, 0.765, 0.464, 0.464, 0.464, 0.765, 0.765, 0.765, 0.765, 0.476, 0.476, 0.476, 0.464, 0.464, 0.765, 0.476, 0.476, 0.765, 0.765, 0.765, 0.765, 0.464, 0.765, 0.765, 0.464, 0.464, 0.464, 0.765, 0.464, 0.464, 0.765, 0.464, 0.476, 0.765, 0.464, 0.765, 0.464, 0.765, 0.765, 0.476, 0.464, 0.464, 0.464, 0.476, 0.464, 0.464, 0.464, 0.765, 0.765, 0.765, 0.476, 0.765, 0.476, 0.464, 0.464, 0.464, 0.476, 0.476, 0.476, 0.476, 0.765, 0.476, 0.476, 0.464, 0.476, 0.765, 0.765, 0.476, 0.464, 0.464, 0.464, 0.464, 0.476, 0.476, 0.476, 0.765, 0.464, 0.765, 0.476 ]