5
[ 7.341, 0.439, 6.890, 0.439, 0.439, 10.755, 7.341, 0.439, 10.755, 0.439, 4.060, 6.890, 6.890, 0.439, 0.439, 0.439, 10.755, 10.755, 10.755, 7.341, 7.341, 7.341, 0.439, 0.439, 4.060, 0.439, 10.755, 0.439, 7.341, 0.439, 6.890, 0.439, 0.439, 0.439, 6.890, 10.755, 10.755, 0.439, 10.755, 7.341, 6.890, 0.439, 6.890, 0.439, 6.890, 0.439, 6.890, 6.890, 10.755, 7.341 ]
5
[ 0.206, 0.206, 0.303, 0.206, 0.206, 0.206, 0.303, 0.303, 0.303, 0.206, 0.303, 0.206, 0.704, 0.537, 0.206, 0.206, 0.206, 0.206, 0.303, 0.303, 0.206, 0.206, 0.206, 0.206, 0.483, 0.206, 0.303, 0.303, 0.206, 0.206, 0.206, 0.206, 0.206, 0.303, 0.206, 0.303, 0.303, 0.206, 0.206, 0.206, 0.206, 0.206, 0.206, 0.206, 0.303, 0.206, 0.206, 0.206, 0.303, 0.206 ]