pars_sum	pars_var	pars_disp	obs_disp	sim_disp
-2	0.0260112647209417	-0.00618753674309253	0.304526748971193	0.310714285714286
-3	0.0397727272727273	-0.00108745421245418	0.238095238095238	0.239182692307692
5	0.0053822295201606	-0.0466411238825032	0.263703703703704	0.310344827586207
-4	0.0651348352961257	0.0208363201911589	0.305185185185185	0.284348864994026
-8	-0.00893923877794839	-0.00103489473901042	0.263703703703704	0.264738598442714
-2	0.109489674005803	0.0371951107434979	0.305185185185185	0.267990074441687
-5	-0.121581114524663	-0.0822757226693117	0.253086419753086	0.335362142422398
-6	-0.0316257816257819	-0.0354938271604939	0.339506172839506	0.375
-5	0.166606541606541	0.0568197300299733	0.381416504223522	0.324596774193549
-17	-0.172799422799423	-0.0552832244008715	0.246187363834423	0.301470588235294
-11	0.0528076463560334	0.0465450525152017	0.296296296296296	0.249751243781095
-11	-0.0878727753727754	-0.0387413512413513	0.267806267806268	0.306547619047619
-16	0.0117243867243868	0.0404369212962963	0.296296296296296	0.255859375
-1	0.135389998293224	0.0532041993950025	0.311268715524035	0.258064516129032
-4	-0.0565796210957503	-0.0510982446466319	0.296296296296296	0.347394540942928
-3	0.0653961853558626	0.018623937030009	0.296296296296296	0.277672359266287
6	-0.0273766854412016	-0.0858169205995294	0.267806267806268	0.353623188405797
-10	0.083870967741935	0.0595959595959594	0.333333333333333	0.273737373737374
-3	0.0106588154975252	-0.00606461780929862	0.311268715524035	0.317333333333333
-11	0.110479797979798	0.074454365079365	0.365079365079365	0.290625
-5	0.015915685270524	-0.00427363298963551	0.327523602033406	0.331797235023041
5	-0.0477011494252875	-0.0785191819674579	0.238095238095238	0.316614420062696
-7	0.083092833092833	0.0368554829339143	0.286855482933914	0.25
-2	0.138558201058201	0.038845213137666	0.326345213137666	0.2875
-7	0.221350408850409	0.127240937746257	0.311268715524035	0.184027777777778
2	0.0277176527176528	-0.0409837962962963	0.263703703703704	0.3046875
-8	-0.191491722136883	-0.0911555269002075	0.311268715524035	0.402424242424242
-6	-0.0232377538829149	-0.00927368927368916	0.28042328042328	0.28969696969697
-5	-0.102465224441031	-0.0737622386029771	0.339506172839506	0.413268411442483
7	0.187921912059843	0.0607605282402031	0.339506172839506	0.278745644599303
-2	0.0762634555738002	0.0360578969774372	0.339506172839506	0.303448275862069
6	0.259660645867542	0.118956394818464	0.296296296296296	0.177339901477833
-8	-0.0638974227683904	-0.0307436246034689	0.305185185185185	0.335928809788654
-7	0.0109318996415768	0.0174603174603173	0.365079365079365	0.347619047619048
-9	-0.0581583888035501	-0.0205285194990067	0.311268715524035	0.331797235023041
-8	-0.060761222051545	-0.0207231040564376	0.253086419753086	0.273809523809524
-15	0.12131763099505	0.103133903133903	0.305185185185185	0.202051282051282
3	0.0666849115124977	0.00501274991070905	0.347578347578348	0.342565597667638
-10	-0.0505120327700976	-0.00736454873388351	0.246187363834423	0.253551912568306
-2	0.129441884280594	0.0616296296296295	0.296296296296296	0.234666666666667
-9	0.135389998293224	0.0900705588420071	0.311268715524035	0.221198156682028
-8	-0.0263047138047138	-0.0189188248398775	0.28042328042328	0.299342105263158
-5	-0.0430790237241848	-0.0259932659932659	0.263703703703704	0.28969696969697
2	0.23720771462707	0.0937037037037038	0.388148148148148	0.294444444444444
3	0.0263729246487867	-0.0224252952888635	0.28042328042328	0.302848575712144
-4	0.107263107263107	0.0414814814814816	0.263703703703704	0.222222222222222
-1	0.166949351425158	0.0679935343312953	0.305185185185185	0.23719165085389
-6	0.0607356204130396	0.0336898459060275	0.326345213137666	0.292655367231638
-9	-0.0206830206830209	-0.0100714749837558	0.253086419753086	0.263157894736842
-2	0.256072631072631	0.104096242406427	0.342935528120713	0.238839285714286
-1	0.250581370541048	0.110475788881861	0.388148148148148	0.277672359266287
0	0.0932676518883415	0.0318302387267904	0.307692307692308	0.275862068965517
-12	-0.234745690390852	-0.100500250510656	0.263703703703704	0.36420395421436
-15	-0.151635401635402	-0.0533923212891026	0.248078266946191	0.301470588235294
-3	-0.0243375576036867	-0.0389352582900971	0.307692307692308	0.346627565982405
-4	0.0563371813371815	0.00657407407407412	0.305185185185185	0.298611111111111
-4	0.191094896740058	0.0810106031545489	0.381344307270233	0.300333704115684
-15	0.0590127465127464	0.0552055072553129	0.326345213137666	0.271139705882353
-8	-0.0194805194805191	-0.0173076923076921	0.307692307692308	0.325
-1	0.324434824434824	0.166036785084404	0.339506172839506	0.173469387755102
-10	-0.244558682058682	-0.132810231844386	0.311268715524035	0.444078947368421
-3	0.00088005632360455	-0.0218567713823882	0.296296296296296	0.318153067678684
-9	-0.0891097030209934	-0.0390472397640857	0.304526748971193	0.343573988735279
0	0.171466973886329	0.0602150537634409	0.346666666666667	0.286451612903226
-10	0.0987411056376571	0.0846435020037873	0.296296296296296	0.211652794292509
0	0.0474386724386723	-0.0217505241090147	0.287211740041929	0.308962264150943
-7	-0.183832371332371	-0.111296733053808	0.248078266946191	0.359375
-2	0.162848725348725	0.0574764322220851	0.327523602033406	0.270047169811321
-7	0.0555395545314902	0.0303112620260329	0.346666666666667	0.316355404640634
-9	0.242183742183742	0.146090144095463	0.311268715524035	0.165178571428571
3	0.00617106161461012	-0.0520350978570108	0.266117969821674	0.318153067678684
-12	-0.121095750128008	-0.0391875746714457	0.296296296296296	0.335483870967742
2	0.163875205254516	0.0621839080459772	0.346666666666667	0.28448275862069
-4	0.267616642616643	0.139986942070275	0.339506172839506	0.199519230769231
-7	-0.163978494623656	-0.0937019969278034	0.238095238095238	0.331797235023041
-7	-0.0113073903396486	-0.00913865783007606	0.326345213137666	0.335483870967742
-5	0.105717699266087	0.0540110961163593	0.347578347578348	0.293567251461988
1	-0.0349462365591398	-0.0629800307219662	0.238095238095238	0.301075268817204
-6	-0.42130997993067	-0.222009365687527	0.253086419753086	0.475095785440613
-3	0.0513468013468014	0.00157712657712661	0.28042328042328	0.278846153846154
-6	0.0300232548216419	0.00759179596981469	0.326345213137666	0.318753417167851
-9	-0.374866658132787	-0.195016908652775	0.263703703703704	0.458720612356479
6	0.175221880867042	0.0132218239745122	0.335802469135802	0.32258064516129
4	0.131088923024407	0.0286994545651199	0.286855482933914	0.258156028368794
-11	-0.01524897593446	0.0125346779256019	0.296296296296296	0.283761618370694
-4	0.130411255411256	0.0480555555555557	0.346666666666667	0.298611111111111
-8	-0.0727086533538148	-0.0355009387267453	0.296296296296296	0.331797235023041
-8	-0.269179894179894	-0.163731284475965	0.311268715524035	0.475
-7	0.132094757094757	0.0527826003086422	0.308641975308642	0.255859375
9	0.273946360153257	0.122303622303622	0.296296296296296	0.173992673992674
-7	0.246757125789384	0.128495750772075	0.326345213137666	0.197849462365591
-8	0.0555768902543096	0.0345602109339596	0.263703703703704	0.229143492769744
-3	-0.0243375576036867	-0.0389352582900971	0.307692307692308	0.346627565982405
-3	0.155904280904281	0.0458179914807594	0.381344307270233	0.335526315789474
-6	-0.0024083196496989	0.0127713920817369	0.296296296296296	0.283524904214559
-2	0.134327677431126	0.0614034511236852	0.365478686233403	0.304075235109718
7	0.148796722990271	0.0247515808491418	0.296296296296296	0.271544715447154
-1	0.176507296466974	0.0689943074003795	0.346666666666667	0.277672359266287
-8	0.0557529015190306	0.0397144633246213	0.311268715524035	0.271554252199413
-13	-0.176827801827802	-0.0755820105820106	0.263703703703704	0.339285714285714
-9	-0.0985151049667181	-0.0335282651072126	0.296296296296296	0.329824561403509
-6	0.221646185355863	0.126642771804062	0.296296296296296	0.169653524492234
-4	0.0821300563236046	0.0424501424501424	0.296296296296296	0.253846153846154
-1	0.238365800865801	0.100343137254902	0.346666666666667	0.246323529411765
-8	-0.0638974227683904	-0.0307436246034689	0.305185185185185	0.335928809788654
-3	0.0713773681515615	0.0309368191721132	0.296296296296296	0.265359477124183
5	0.145958766648422	0.0480423280423281	0.305185185185185	0.257142857142857
-10	0.169071669071669	0.0916691624238795	0.365478686233403	0.273809523809524
1	0.134869431643625	0.0423328305681248	0.307692307692308	0.265359477124183
0	0.0467656596688854	-0.00497809637594587	0.253086419753086	0.258064516129032
-5	0.0733486943164363	0.0220918866080156	0.357575757575758	0.335483870967742
-6	0.0615672322568879	0.0503708625637226	0.311268715524035	0.260897852960312
-13	-0.0098003848003847	0.0148860398860399	0.347578347578348	0.332692307692308
-3	0.250418160095579	0.112743251726303	0.37037037037037	0.257627118644068
-3	0.0774110149110149	0.0175187155240347	0.311268715524035	0.29375
0	0.0317204301075268	-0.00544217687074833	0.238095238095238	0.243537414965986
-8	-0.0850468975468979	-0.0533361542546132	0.304526748971193	0.357862903225807
-6	0.102171872333162	0.0551573078454798	0.339506172839506	0.284348864994026
-2	-0.0625706987775954	-0.0469297362704763	0.311268715524035	0.358198451794511
0	0.131088923024407	0.0531126871552404	0.311268715524035	0.258156028368794
-10	-0.170935545935546	-0.0885648148148148	0.305185185185185	0.39375
-9	0.0627666837344258	0.0322961819440127	0.328311362209667	0.296015180265655
-3	0.107924482924483	0.0289124909222947	0.327523602033406	0.298611111111111
-4	0.148796722990271	0.0821937321937322	0.296296296296296	0.214102564102564
2	0.199906127325482	0.0890464933018126	0.311268715524035	0.222222222222222
-9	-0.107244196961939	-0.048560030779823	0.305185185185185	0.353745215965008
5	0.0985492404847244	0.0137358307571073	0.227920227920228	0.214184397163121
-7	-0.265301245946408	-0.138069584736252	0.339506172839506	0.477575757575758
1	0.13942225635774	0.0447890521299253	0.311268715524035	0.266479663394109
2	0.262438129373613	0.102417057255767	0.347578347578348	0.245161290322581
2	0.178115307425652	0.0841494990431159	0.322751322751323	0.238601823708207
-3	0.279749103942652	0.150976800976801	0.365079365079365	0.214102564102564
3	-0.0288018433179721	-0.074723846653671	0.345029239766082	0.419753086419753
0	0.0615672322568876	0.017064753675172	0.311268715524035	0.294203961848863
0	0.0137608806963646	-0.0229390681003584	0.222222222222222	0.245161290322581
-10	0.0022881464413721	0.017583577293659	0.368191721132897	0.350608143839238
-4	0.144462578938385	0.0740770646701448	0.311268715524035	0.23719165085389
8	0.255208903484765	0.0708499674016915	0.387464387464387	0.316614420062696
0	0.120839733742959	0.038231780167264	0.296296296296296	0.258064516129032
-5	0.155599291688001	0.0820502994371933	0.339506172839506	0.257455873402313
-1	0.0340909090909091	-0.0144047619047619	0.238095238095238	0.2525
-12	-0.0501443001443	-0.0167495854063017	0.244444444444444	0.261194029850746
-6	0.0960754821641919	0.0538128421217219	0.311268715524035	0.257455873402313
-3	0.210658815497525	0.117935382190701	0.311268715524035	0.193333333333333
-11	-0.109084314729476	-0.0366803521809541	0.327523602033406	0.36420395421436
-7	0.184571812596006	0.102750424448217	0.346666666666667	0.243916242218449
-13	0.0159156852705237	0.0372010213882445	0.327523602033406	0.290322580645161
-9	-0.106476147806793	-0.0489573493275238	0.267806267806268	0.316763617133792
-2	-0.0477994227994229	-0.0627749003165208	0.246187363834423	0.308962264150943
-7	0.0775985663082434	0.0543650793650792	0.365079365079365	0.310714285714286
-9	-0.0716089466089468	-0.0392300194931775	0.296296296296296	0.335526315789474
-11	-0.013287638287639	0.0029268278398572	0.327523602033406	0.324596774193549
-5	-0.0476190476190472	-0.0533333333333331	0.346666666666667	0.4
-2	0.204123335157818	0.102367619608999	0.347578347578348	0.245210727969349
0	0.185355862775217	0.081242532855436	0.296296296296296	0.21505376344086
-10	-0.175008533879502	-0.0828423900355677	0.253086419753086	0.335928809788654
-4	0.193889742276839	0.0895138314493153	0.347578347578348	0.258064516129032
-8	0.0751749445297835	0.0591475034028227	0.311268715524035	0.252121212121212
-8	-0.0727086533538148	-0.0355009387267453	0.296296296296296	0.331797235023041
-12	-0.0764490139490145	-0.0276269414575869	0.263703703703704	0.291330645161291
-2	-0.00290151903055114	-0.0288129057543633	0.266117969821674	0.294930875576037
-10	-0.019542584058713	0.00410991636798091	0.305185185185185	0.301075268817204
-2	-0.14463218979348	-0.10558024691358	0.253086419753086	0.358666666666667
-2	-0.0264208909370198	-0.0355175688509021	0.307692307692308	0.34320987654321
-7	-0.0622546509643283	-0.0379383344861556	0.381416504223522	0.419354838709677
-8	-0.0132876382876386	-0.0135780928818485	0.327523602033406	0.341101694915254
-10	0.106571669071669	0.0589310671857842	0.365478686233403	0.306547619047619
-5	0.0209592080559822	0.0115769857908222	0.253086419753086	0.241509433962264
-1	0.277500426693975	0.115093588211868	0.308641975308642	0.193548387096774
2	0.0298212005108557	-0.0137806814255824	0.28042328042328	0.294203961848863
-3	0.0154260171501551	0.00368511461549853	0.326345213137666	0.322660098522167
-4	-0.130602491892815	-0.07981277981278	0.267806267806268	0.347619047619048
1	0.143992148830858	0.0521888162672476	0.286855482933914	0.234666666666667
-5	0.212722462722463	0.0812351760627621	0.355044699872286	0.273809523809524
1	-0.0575168764823937	-0.0458777770098525	0.248078266946191	0.293956043956044
-4	0.0310473203618364	-0.0016067362158122	0.282154882154882	0.283761618370694
-1	0.0489161973032938	0.00954900478709983	0.253086419753086	0.243537414965986
-2	0.100348725348725	0.0185613378824624	0.327523602033406	0.308962264150943
5	0.213496330431814	0.0610439386392966	0.327523602033406	0.266479663394109
-5	0.0870029015190306	0.0432786410823474	0.311268715524035	0.267990074441687
-5	0.212264251578767	0.0975826888995386	0.381344307270233	0.283761618370694
-2	0.0219587386926096	-0.0202823528447388	0.326345213137666	0.346627565982405
-3	0.0653961853558626	0.018623937030009	0.296296296296296	0.277672359266287
-1	0.181750298685783	0.0775900324287421	0.322751322751323	0.245161290322581
4	-0.047592379245605	-0.111048807026306	0.327523602033406	0.438572409059712
-2	0.150990996757126	0.0547909609382524	0.326345213137666	0.271554252199413
-11	-0.0989357864357869	-0.0451432813268679	0.246187363834423	0.291330645161291
-6	0.222392899812255	0.120853387950162	0.305185185185185	0.184331797235023
-9	0.0601250601250603	0.0339987445072191	0.305185185185185	0.271186440677966
-9	0.0109020310633214	0.0156846819805663	0.28042328042328	0.264738598442714
-2	0.066602809706258	0.0309303798147611	0.28042328042328	0.249492900608519
-18	-0.167989417989418	-0.0354938271604939	0.339506172839506	0.375
-5	-0.115308713090971	-0.0789790376887151	0.305185185185185	0.3841642228739
-13	-0.00550144300144284	0.012549137030895	0.304526748971193	0.291977611940298
4	0.235057176992661	0.0794524959742351	0.388148148148148	0.308695652173913
1	-0.247380098993002	-0.190718065003779	0.263703703703704	0.454421768707483
-5	0.215879028379029	0.0998044104996397	0.266117969821674	0.166313559322034
-3	0.206830206830207	0.0797776333838711	0.342935528120713	0.263157894736842
-7	-0.0928330928330929	-0.064717777276939	0.327523602033406	0.392241379310345
-14	-0.269467250501733	-0.0782168695522796	0.311268715524035	0.389485585076314
-2	-0.283123517606276	-0.171309558895766	0.263703703703704	0.43501326259947
-12	0.0251778872468526	0.0549169859514686	0.296296296296296	0.241379310344828
2	0.0450647692027	0.000996856069319707	0.339506172839506	0.338509316770186
-2	0.0162143710530807	-0.0257280663493328	0.342935528120713	0.368663594470046
-3	-0.00269670592251248	-0.0122730573710966	0.253086419753086	0.265359477124183
11	0.356969531107462	0.173337681041276	0.311268715524035	0.137931034482759
-10	-0.013328853046595	0.0113341491143569	0.365079365079365	0.353745215965008
3	0.330357142857143	0.103304597701149	0.390804597701149	0.2875
-14	-0.113486050986052	-0.0382442254082042	0.253086419753086	0.29133064516129
-3	0.0552568697729988	0.0124332059815931	0.28042328042328	0.267990074441687
-11	-0.160458269329237	-0.0687893298832167	0.267139479905437	0.335928809788654
-3	0.0522060078511692	0.00494295687211566	0.327523602033406	0.32258064516129
0	-0.0763088837685613	-0.0871035368905119	0.287211740041929	0.374315276932441
-5	0.102440689537463	0.059003028185418	0.339506172839506	0.280503144654088
-1	0.199906127325482	0.102935382190701	0.311268715524035	0.208333333333333
-11	-0.161676286676287	-0.0785094110503948	0.263703703703704	0.342213114754098
0	0.0718819337770951	0.00447393172170119	0.311268715524035	0.306794783802334
-10	-0.0936166581327871	-0.0373715651135006	0.263703703703704	0.301075268817204
-6	0.364481993514251	0.183494844904642	0.381344307270233	0.197849462365591
-2	-0.1957927974057	-0.143153053183448	0.311268715524035	0.454421768707483
-8	-0.151304713804714	-0.0912872458925091	0.28042328042328	0.37171052631579
-6	0.2397380098993	0.122725789021673	0.387464387464387	0.264738598442714
-15	-0.172829485329485	-0.0592378917378917	0.305185185185185	0.364423076923077
-3	0.193847072879331	0.0944634815602557	0.322751322751323	0.228287841191067
-10	0.0774110149110146	0.046076794409324	0.286855482933914	0.24077868852459
-1	0.203849662470352	0.107979079243447	0.339506172839506	0.231527093596059
-7	-0.104407166907167	-0.0698255515488443	0.286855482933914	0.356681034482759
-7	-0.215416453319679	-0.126007270139048	0.311268715524035	0.437275985663082
-2	-0.070558115719406	-0.0623703703703703	0.296296296296296	0.358666666666667
-5	0.136952764976959	0.0637760654738583	0.307692307692308	0.243916242218449
-9	0.117183742183742	0.072429429809749	0.311268715524035	0.238839285714286
-8	-0.0506219064686808	-0.0242629307015726	0.326345213137666	0.350608143839238
-3	0.239838864838865	0.103275571810055	0.282154882154882	0.178879310344827
2	-0.164887794198139	-0.128098615332658	0.267139479905437	0.395238095238095
5	0.110873928115307	0.0277456017899748	0.253086419753086	0.225340817963111
-9	-0.0703162578162574	-0.0380616416188222	0.311268715524035	0.349330357142857
-4	0.064857484212323	0.0157811125553061	0.347578347578348	0.331797235023041
10	0.31074621419449	0.125350092984697	0.339506172839506	0.214156079854809
3	0.204207202594299	0.0870262912816104	0.311268715524035	0.224242424242424
-10	0.0320713859020311	0.0316534608497429	0.28042328042328	0.248769819573537
-7	0.0412026369687659	0.0247420440968827	0.296296296296296	0.271554252199413
1	-0.0167946748591911	-0.0498029944838456	0.296296296296296	0.346099290780142
-2	0.168079605579606	0.0660024928774929	0.305185185185185	0.239182692307692
-2	0.00639481846378409	-0.00470595020432557	0.311268715524035	0.31597466572836
-17	-0.0987253487253487	-0.00904378447596527	0.311268715524035	0.3203125
-8	0.162638287638288	0.0855842964932363	0.286855482933914	0.201271186440678
-13	0.0565776815776817	0.0550187155240348	0.311268715524035	0.25625
-4	0.0724526369687659	0.0283062218546089	0.296296296296296	0.267990074441687
-11	-0.0833333333333333	-0.0285714285714286	0.238095238095238	0.266666666666667
-4	0.0471173143586938	0.040960592274735	0.311268715524035	0.2703081232493
-4	0.14796146953405	0.0686703571670096	0.365079365079365	0.296409007912355
-1	0.137886158047448	0.0419963481436397	0.326345213137666	0.284348864994026
3	0.0348476555373107	-0.00405643738977068	0.253086419753086	0.257142857142857
-5	-0.118089764641489	-0.0471799831043529	0.246187363834423	0.293367346938776
-11	0.0205928330928332	0.0257083706964485	0.311268715524035	0.285560344827586
-3	-0.0731940177504694	-0.065066647925598	0.253086419753086	0.318153067678684
-6	-0.0899129544290834	-0.0469135802469136	0.296296296296296	0.34320987654321
-4	0.0724526369687659	0.0283062218546089	0.296296296296296	0.267990074441687
0	-0.0243802270011947	-0.0559822495306366	0.28042328042328	0.336405529953917
-2	0.105940355940356	0.0124643874643876	0.387464387464387	0.375
-6	-0.0163167776071002	-0.00552910052910055	0.305185185185185	0.310714285714286
-7	-0.0337301587301589	-0.0287037037037038	0.296296296296296	0.325
-10	0.0764635603345277	0.0538720538720537	0.296296296296296	0.242424242424243
-4	0.126683501683502	0.0400462962962963	0.296296296296296	0.25625
-11	-0.111742424242424	-0.052529761904762	0.238095238095238	0.290625
0	0.161909028844513	0.0600238948626046	0.305185185185185	0.245161290322581
-20	-0.121095750128008	0.000281116030641571	0.296296296296296	0.296015180265655
-7	-0.129808841099164	-0.0617724867724869	0.322751322751323	0.38452380952381
2	0.120826491516147	0.0487486753077362	0.267139479905437	0.218390804597701
-4	0.00937126642771802	-0.0126108196710753	0.322751322751323	0.335362142422398
-3	-0.23862860556409	-0.158443912615214	0.31986531986532	0.478309232480534
-2	0.134429936849292	0.0530545599362803	0.339506172839506	0.286451612903226
-9	-0.316979316979318	-0.167063867845118	0.282154882154882	0.44921875
-2	0.174422799422799	0.059229456981954	0.368191721132897	0.308962264150943
-1	0.205245393176428	0.112992853455069	0.311268715524035	0.198275862068966
2	0.267008021846731	0.112911680911681	0.347578347578348	0.234666666666667
-1	0.0283591483188258	-0.0139686555625835	0.263703703703704	0.277672359266287
-11	-0.0762987012987011	-0.0315934065934065	0.307692307692308	0.339285714285714
0	0.235983102918587	0.101505376344086	0.346666666666667	0.245161290322581
3	0.2329589093702	0.0837977579501259	0.346666666666667	0.262868908716541
-8	-0.186687147977471	-0.0882275132275135	0.296296296296296	0.38452380952381
-2	-0.0425147209421403	-0.0502216440779328	0.246187363834423	0.296409007912355
-4	0.129373613244581	0.0526474720023107	0.347578347578348	0.294930875576037
-11	0.0142496392496392	0.0152550091074681	0.222222222222222	0.206967213114754
-4	0.0799464499061274	0.0335963562577475	0.311268715524035	0.277672359266287
-1	-0.0890804597701149	-0.0653530377668308	0.238095238095238	0.303448275862069
-7	-0.204855777436423	-0.112364464281689	0.326345213137666	0.438709677419355
-4	-0.000741380781703271	-0.0233158808294151	0.365478686233403	0.388794567062818
-7	0.0338504088504089	0.0126576044129236	0.311268715524035	0.298611111111111
-6	0.0740740740740741	0.0304232804232804	0.28042328042328	0.25
-1	0.164291726791727	0.0588616557734205	0.305185185185185	0.246323529411765
-12	-0.0248617123617123	0.00512464772742455	0.311268715524035	0.30614406779661
1	0.0422341696535247	-0.0147486772486771	0.322751322751323	0.3375
-6	0.0887445887445888	0.0341666666666667	0.346666666666667	0.3125
-6	0.151274651274651	0.0801366400523366	0.311268715524035	0.231132075471698
-7	-0.0461459836459834	-0.0356384015594541	0.263703703703704	0.299342105263158
-1	0.0563236047107014	0.0105820105820105	0.296296296296296	0.285714285714286
-2	0.00639481846378409	-0.00470595020432557	0.311268715524035	0.31597466572836
-6	-0.0903908516811743	-0.0470105820105821	0.263703703703704	0.310714285714286
-1	-0.0652201740911419	-0.0736006852866256	0.287211740041929	0.360812425328554
-7	-0.135552142003755	-0.066120857699805	0.263703703703704	0.329824561403509
-7	-0.195406445406445	-0.116055206149546	0.208944793850454	0.325
-12	0.203447687318655	0.129399871335355	0.387464387464387	0.258064516129032
-6	-0.12005034988906	-0.0744723217841498	0.209876543209877	0.284348864994026
-5	0.0849761051373954	0.0384024577572964	0.322751322751323	0.284348864994026
-4	0.211042840075098	0.111218331648439	0.339506172839506	0.228287841191067
-8	-0.146841397849462	-0.0782601665453957	0.238095238095238	0.316355404640634
-10	-0.0566077441077441	-0.0257207873733298	0.28042328042328	0.30614406779661
4	0.0489161973032938	-0.018125701459035	0.253086419753086	0.271212121212121
-7	0.026815776815777	0.00134521313766606	0.326345213137666	0.325
-5	0.0910831626557431	0.0430971649271507	0.339506172839506	0.296409007912355
6	0.0527640941434043	-0.0288268564130634	0.296296296296296	0.32512315270936
0	-0.0987046159459951	-0.0810217113665389	0.305185185185185	0.386206896551724
-10	-0.0745007680491551	-0.0232258064516129	0.346666666666667	0.36989247311828
-1	0.133239460658816	0.0598798266351459	0.311268715524035	0.251388888888889
-10	0.0926139272913465	0.0671528035265521	0.296296296296296	0.229143492769744
-3	-0.0878126503126503	-0.0841736547868624	0.263703703703704	0.347877358490566
-3	0.0733486943164363	0.00954536879833995	0.345029239766082	0.335483870967742
-6	-0.023237753882915	-0.00927368927368921	0.28042328042328	0.28969696969697
-9	-0.0736531986531985	-0.0406974092318919	0.28042328042328	0.321120689655172
-3	-0.111068441713603	-0.0837189680768501	0.248078266946191	0.331797235023041
-3	0.143992148830858	0.076602048857368	0.311268715524035	0.234666666666667
1	-0.0812585338795018	-0.0976342391350399	0.253086419753086	0.350720658888126
-1	0.0708738692609661	0.0101934467068304	0.311268715524035	0.301075268817204
7	0.198741105637657	0.0700557580288447	0.296296296296296	0.226240538267452
-20	-0.0819805194805192	0.00821314102564114	0.307692307692308	0.299479166666667
1	-0.0219485495347566	-0.0419282084725959	0.296296296296296	0.338224504768892
-3	0.08154533844189	0.0443490098662511	0.28042328042328	0.236074270557029
-6	0.121392496392496	0.0482767489711934	0.304526748971193	0.25625
2	0.156144393241167	0.0380789022298455	0.357575757575758	0.319496855345912
9	0.277837514934289	0.11542328042328	0.28042328042328	0.165
1	0.316308243727599	0.156746031746032	0.365079365079365	0.208333333333333
-9	-0.38073903396484	-0.20486031673403	0.311268715524035	0.516129032258065
-4	0.183249061273255	0.0824289709192166	0.326345213137666	0.243916242218449
-8	-0.00876322751322745	0.00217780643312565	0.311268715524035	0.309090909090909
0	0.202928297755884	0.107061872367995	0.365079365079365	0.25801749271137
-5	-0.108572281959379	-0.0762928827444956	0.322751322751323	0.399044205495818
-12	-0.0793350168350169	-0.0279783589209819	0.28042328042328	0.308401639344262
2	0.133239460658815	0.0431205673758864	0.311268715524035	0.268148148148148
4	0.0563236047107014	-0.021885521885522	0.296296296296296	0.318181818181818
-2	0.105633427206008	0.0311145941210506	0.327523602033406	0.296409007912355
-10	-0.161477001194743	-0.0733219355417278	0.28042328042328	0.353745215965008
-3	-0.0253126503126501	-0.0452585604472396	0.263703703703704	0.308962264150943
-1	0.0431600955794504	-0.00602833247994539	0.28042328042328	0.286451612903226
-9	-0.116802142003755	-0.0550497134641476	0.263703703703704	0.318753417167851
-6	0.16059161119645	0.0927659766317645	0.311268715524035	0.21850273889227
-3	-0.0573344280240833	-0.0363087959566316	0.267139479905437	0.303448275862069
3	0.0840540047436601	0.0109812233363225	0.305185185185185	0.294203961848863
-10	0.0348841452289725	0.0565097400214323	0.339506172839506	0.282996432818074
2	-0.0167946748591912	-0.0573268921095009	0.296296296296296	0.353623188405797
-4	-0.0564574314574317	-0.0618767806267808	0.296296296296296	0.358173076923077
2	0.249871991807475	0.122383252818035	0.296296296296296	0.173913043478261
-6	0.057960557960558	0.0178062678062678	0.267806267806268	0.25
-2	0.183563748079877	0.0786765922249794	0.346666666666667	0.267990074441687
-4	0.172815179711731	0.103431902282477	0.339506172839506	0.236074270557029
1	-0.16498814085021	-0.129158627935835	0.253086419753086	0.382245047688922
-12	-0.213688342720601	-0.071604938271605	0.339506172839506	0.411111111111111
-14	0.217037890424987	0.147780534877309	0.427350427350427	0.279569892473118
5	0.0803294077487625	-0.00331062194269746	0.248078266946191	0.251388888888889
-6	-0.165450588837686	-0.102747909199522	0.296296296296296	0.399044205495818
-7	-0.0314260112647211	-0.017209385088589	0.267139479905437	0.284348864994026
-8	0.200460829493088	0.109842845326716	0.307692307692308	0.197849462365591
4	0.10381317277869	0.0355539522206189	0.253086419753086	0.217532467532468
4	0.210472136883427	0.0646546933168651	0.327523602033406	0.262868908716541
-3	0.107164191841611	0.040738398107152	0.286855482933914	0.246117084826762
-2	-0.278781244298485	-0.174499787143465	0.253086419753086	0.427586206896552
-5	0.0782396740058032	0.0336309329857717	0.305185185185185	0.271554252199413
-10	-0.00726979860044408	0.0107599848996142	0.327523602033406	0.316763617133792
-16	-0.324314574314574	-0.137622424856467	0.267139479905437	0.404761904761905
-9	0.189965127465127	0.11253248862898	0.339506172839506	0.226973684210526
-7	-0.0328714371053083	-0.0184678324463272	0.253086419753086	0.271554252199413
1	0.197755589691074	0.0924281358138898	0.311268715524035	0.218840579710145
-6	-0.17977392977393	-0.121913580246914	0.253086419753086	0.375
-4	-0.137795485577744	-0.0973087399399861	0.286855482933914	0.3841642228739
-15	-0.0989357864357868	-0.0241911652558531	0.267139479905437	0.29133064516129
-7	-0.137216248506571	-0.0671957671957673	0.28042328042328	0.347619047619048
-12	0.284481721981722	0.167788411660961	0.408859840232389	0.241071428571428
0	0.218536653012459	0.0903319511795159	0.327523602033406	0.23719165085389
4	0.274988265915685	0.108580568402658	0.327523602033406	0.218943033630748
-3	-0.0311646612049838	-0.0458590389421051	0.342935528120713	0.388794567062818
-9	-0.148777595329319	-0.0483371958060144	0.311268715524035	0.359605911330049
-4	-0.00553150553150555	-0.0257597340930674	0.253086419753086	0.278846153846154
-4	0.208978707970643	0.114557773082542	0.311268715524035	0.196710942441493
-1	-0.0075012800819253	-0.0273049645390072	0.267139479905437	0.294444444444444
12	0.231171319102354	0.0790786105187728	0.246187363834423	0.16710875331565
0	0.208092833092833	0.0905240346729709	0.311268715524035	0.220744680851064
3	0.185355862775218	0.0740740740740742	0.296296296296296	0.222222222222222
14	0.206398046398046	0.0657080610021787	0.296296296296296	0.230588235294118
-2	-0.0819203944203943	-0.0926513532763533	0.305185185185185	0.397836538461538
-10	-0.165450588837686	-0.0752276191653278	0.296296296296296	0.371523915461624
3	0.0739802013995563	-0.009976397966594	0.327523602033406	0.3375
1	-0.0166575442437508	-0.033816968369608	0.266117969821674	0.299934938191282
-11	0.00901875901875931	0.0171394799054375	0.267139479905437	0.25
-9	-0.0716089466089466	-0.0392300194931773	0.296296296296296	0.335526315789474
1	0.0644222563577403	0.0025730633501217	0.311268715524035	0.308695652173913
-9	-0.0139490139490138	-0.00748273697426238	0.263703703703704	0.271186440677966
-6	0.15518278018278	0.0663436978092152	0.387464387464387	0.321120689655172
6	-0.0798759350483488	-0.10457168535074	0.266117969821674	0.370689655172414
13	0.303457398284985	0.10383939150709	0.327523602033406	0.223684210526316
-3	0.00088005632360455	-0.0218567713823882	0.296296296296296	0.318153067678684
-1	0.108414405188599	0.0398257080610023	0.305185185185185	0.265359477124183
-7	0.0279280904280906	0.00584307992202737	0.305185185185185	0.299342105263158
0	0.0561187916026628	-0.000411522633744776	0.304526748971193	0.304938271604938
3	0.141388432767743	0.0430408434127164	0.327523602033406	0.28448275862069
-4	-0.0474057006315071	-0.0351365132341352	0.311268715524035	0.34640522875817
-2	-0.0374423963133639	-0.0531201176362466	0.307692307692308	0.360812425328554
-8	-0.00876322751322745	0.00217780643312565	0.311268715524035	0.309090909090909
-4	0.0397372742200329	0.0248275862068966	0.346666666666667	0.32183908045977
-2	-0.0311571940604199	-0.0343157808196654	0.246187363834423	0.280503144654088
8	5.55111512312578e-17	-0.0371457411289696	0.208944793850454	0.246090534979424
2	0.266572793992149	0.134972419227739	0.311268715524035	0.176296296296296
2	0.199906127325482	0.0890464933018126	0.311268715524035	0.222222222222222
-6	0.162818662818663	0.0756481481481481	0.388148148148148	0.3125
-11	-0.0253727753727752	-0.00600325600325591	0.267806267806268	0.273809523809524
-11	-0.294691926949992	-0.125367334547663	0.263703703703704	0.389071038251366
0	0.236261423761424	0.0816682910981157	0.308641975308642	0.226973684210526
-1	0.182488479262673	0.0813071895424837	0.346666666666667	0.265359477124183
-1	0.172192353643967	0.0765523126813449	0.28042328042328	0.203870967741935
2	0.214985492404847	0.098425925925926	0.263703703703704	0.165277777777778
-1	-0.0747781191329579	-0.0745023782150989	0.248078266946191	0.32258064516129
-9	0.0613159242191499	0.0459413232234097	0.267139479905437	0.221198156682028
-20	0.0525046936337255	0.0796399745025788	0.342935528120713	0.263295553618134
-5	0.152313748079877	0.0751124144672533	0.346666666666667	0.271554252199413
-6	0.0315593531319339	0.0148597076116793	0.311268715524035	0.296409007912355
1	0.196049990877577	0.0983751623006464	0.311268715524035	0.212893553223388
-8	0.364207551707551	0.211157958553792	0.339506172839506	0.128348214285714
3	0.106276226965882	0.0346956151553851	0.253086419753086	0.218390804597701
0	-0.0942054958183988	-0.0896447467876038	0.28042328042328	0.370068027210884
4	0.0563236047107012	-0.021885521885522	0.296296296296296	0.318181818181818
-2	-0.0137385762385765	-0.0518452064504697	0.31986531986532	0.37171052631579
-1	0.17063492063492	0.0604994134405897	0.368191721132897	0.307692307692308
1	0.13942225635774	0.0447890521299253	0.311268715524035	0.266479663394109
0	0.0405529953917052	-0.012	0.346666666666667	0.358666666666667
-1	0.0415435139573074	0.00775736950102612	0.307692307692308	0.299934938191282
-12	-0.0204725829725833	0.00567129629629615	0.296296296296296	0.290625
-7	-0.0123101211810891	-0.00840520775524822	0.327523602033406	0.335928809788654
-14	-0.145860001706776	-0.0393394283152038	0.311268715524035	0.350608143839238
-3	0.15467068053275	0.090579060351621	0.311268715524035	0.220689655172414
2	0.199906127325482	0.0890464933018126	0.311268715524035	0.222222222222222
-10	-0.0680315055315056	-0.0324739250744998	0.253086419753086	0.285560344827586
-1	-0.0264123570575185	-0.0496423528681594	0.282154882154882	0.331797235023041
2	0.231950844854071	0.0886021505376345	0.346666666666667	0.258064516129032
-5	0.0283666154633894	0.0157931516422081	0.296296296296296	0.280503144654088
-8	-0.0704064454064453	-0.0461716524216524	0.347578347578348	0.39375
-9	0.00635774022870805	0.0163378399479979	0.311268715524035	0.294930875576037
-7	-0.221640851681174	-0.125090863359115	0.263703703703704	0.388794567062818
-6	0.0615672322568878	0.0503708625637226	0.311268715524035	0.260897852960312
4	0.121008939974457	0.0405045959227058	0.311268715524035	0.270764119601329
-5	-0.195316257816257	-0.136135588494657	0.286855482933914	0.422991071428571
-2	-0.019542584058713	-0.0422093557577429	0.305185185185185	0.347394540942928
-10	0.0809278460488138	0.0503864116767342	0.31986531986532	0.269478908188586
-1	0.18606524150879	0.0699950804694638	0.388148148148148	0.318153067678684
-11	0.047979797979798	0.0400793650793651	0.365079365079365	0.325
7	0.207215836526181	0.0826972869526061	0.311268715524035	0.228571428571429
-10	0.0234948370029016	0.0311328920944932	0.311268715524035	0.280135823429542
-3	0.077325482164192	0.0352687155240348	0.311268715524035	0.276
-19	-0.107323232323232	0.00294701213818854	0.365079365079365	0.362132352941177
-3	0.201328763828764	0.0931826434277414	0.339506172839506	0.246323529411765
-3	-0.162927760710019	-0.116357955067632	0.267806267806268	0.3841642228739
4	0.163154533844189	0.0620324758255793	0.28042328042328	0.218390804597701
-4	0.0154303208738693	-0.00688435215464966	0.311268715524035	0.318153067678684
-8	-0.0989357864357865	-0.0599567039621876	0.246187363834423	0.30614406779661
0	-0.107595152756443	-0.094962962962963	0.263703703703704	0.358666666666667
-16	-0.257816257816258	-0.0974728752750408	0.286855482933914	0.384328358208955
-6	-0.135816692268305	-0.0704047700951727	0.368191721132897	0.43859649122807
-7	-0.221640851681174	-0.125090863359115	0.263703703703704	0.388794567062818
-4	0.376773689273689	0.185455458892959	0.387464387464387	0.202008928571429
-10	-0.0564574314574314	-0.0248243933588761	0.296296296296296	0.321120689655172
-9	-0.086089776412357	-0.0289516635279347	0.263703703703704	0.292655367231638
-2	0.137540535927633	0.0677313005580483	0.311268715524035	0.243537414965986
1	0.101493428912784	0.0290343915343916	0.28042328042328	0.251388888888889
-1	0.0965608465608464	0.0198312943410981	0.327523602033406	0.307692307692308
-7	0.032166907166907	0.00640291237823343	0.327523602033406	0.321120689655172
-6	-0.110492404847244	-0.0694942254082039	0.253086419753086	0.32258064516129
-3	0.00471070148489483	-0.00958605664488027	0.296296296296296	0.305882352941176
-10	-0.0459762758149856	-0.0116521786896278	0.253086419753086	0.264738598442714
-12	0.0989959114959117	0.0645171477718648	0.365478686233403	0.300961538461538
-2	0.0708738692609662	0.025554429809749	0.311268715524035	0.285714285714286
-7	-0.151845839345839	-0.0983962286928389	0.347578347578348	0.445974576271186
-3	0.0377212187557017	0.0287952787952789	0.322751322751323	0.293956043956044
-10	0.0517376142376139	0.028805244770233	0.381344307270233	0.3525390625
-5	-0.112374125277351	-0.0664104355928256	0.253086419753086	0.319496855345912
2	0.109140667761357	0.028664680005676	0.304526748971193	0.275862068965517
-2	0.00736580474483706	-0.0251368144298823	0.311268715524035	0.336405529953917
-10	0.0152329749103942	0.037395749260156	0.365079365079365	0.327683615819209
-6	-0.0959794760197985	-0.0612709650294124	0.327523602033406	0.388794567062818
-4	0.0799464499061274	0.0335963562577475	0.311268715524035	0.277672359266287
-5	0.0079205069124425	-0.00866309694832612	0.307692307692308	0.316355404640634
-3	-0.00869602321215213	-0.0180827886710239	0.286855482933914	0.304938271604938
-19	-0.290013227513227	-0.0949812844759653	0.311268715524035	0.40625
3	0.269300144300144	0.121296296296296	0.296296296296296	0.175
-4	0.0799464499061274	0.0335963562577475	0.311268715524035	0.277672359266287
-8	0.00061870626386773	0.00485148106950117	0.305185185185185	0.300333704115684
0	0.107462877624168	0.0201778839771671	0.304526748971193	0.284348864994026
-9	-0.136153198653198	-0.0762577540594781	0.28042328042328	0.356681034482759
2	0.0993428912783751	0.022267252054486	0.28042328042328	0.258156028368794
-16	0.0117243867243867	0.0404369212962963	0.296296296296296	0.255859375
-1	0.0744239631336403	0.00995670995670983	0.357575757575758	0.347619047619048
-13	-0.181607744107744	-0.0774396228025262	0.28042328042328	0.357862903225807
-2	0.00639481846378398	-0.00470595020432563	0.311268715524035	0.31597466572836
-5	-0.0885696040868454	-0.0414158000364896	0.28042328042328	0.32183908045977
-3	0.203938385389998	0.107397747782099	0.311268715524035	0.203870967741935
-10	-0.0442984856777964	0.0057618061977949	0.253086419753086	0.247324613555291
-17	0.206950456950457	0.136907257661975	0.365478686233403	0.228571428571429
-11	0.033090117767537	0.0379959871356931	0.267139479905437	0.229143492769744
-16	0.0819519115890083	0.0850342011632334	0.322751322751323	0.237717121588089
-6	0.172155017921147	0.0935251128799516	0.365079365079365	0.271554252199413
-8	-0.146841397849462	-0.0782601665453957	0.238095238095238	0.316355404640634
-15	0.23313492063492	0.149441721132897	0.368191721132897	0.21875
-2	0.0591329966329964	-0.00445455960161856	0.322751322751323	0.327205882352941
-9	0.179683742183742	0.109259786952606	0.311268715524035	0.202008928571429
-10	-0.175008533879502	-0.0828423900355678	0.253086419753086	0.335928809788654
-8	0.0430796055796059	0.0196248403575991	0.305185185185185	0.285560344827586
-18	-0.0395622895622894	0.0192292505725342	0.28042328042328	0.261194029850746
-6	-0.228153268475849	-0.118738821968755	0.208944793850454	0.327683615819209
-4	-0.255531505531506	-0.184413580246914	0.253086419753086	0.4375
-2	0.16059161119645	0.068352744041644	0.286855482933914	0.21850273889227
-16	-0.225187745349036	-0.0682263495166721	0.305185185185185	0.373411534701857
-9	0.0917989417989418	0.0654786862334032	0.365478686233403	0.3
0	0.0520225294418842	0.00185185185185183	0.296296296296296	0.294444444444444
-4	-0.0554958183990442	-0.0390735749226315	0.28042328042328	0.319496855345912
-5	0.0815252176139272	0.0388404228939834	0.296296296296296	0.257455873402313
-8	-0.019179894179894	-0.0137312844759652	0.311268715524035	0.325
-14	-0.101911976911978	-0.0283004778972524	0.296296296296296	0.324596774193549
-7	0.288389850889851	0.143603686233403	0.365478686233403	0.221875
-5	-0.00811688311688319	-0.0278340080971661	0.307692307692308	0.335526315789474
-8	0.0433201058201058	0.0237687155240346	0.311268715524035	0.2875
-14	0.0420875420875422	0.048941798941799	0.322751322751323	0.273809523809524
-6	0.132034632034632	0.0576923076923077	0.307692307692308	0.25
-9	-0.00910894660894657	-0.00304580896686157	0.296296296296296	0.299342105263158
-2	-0.053457398284985	-0.0290652557319226	0.339506172839506	0.368571428571429
4	0.125081071855265	0.0139829669241434	0.31986531986532	0.305882352941176
2	0.156144393241167	0.0380789022298455	0.357575757575758	0.319496855345912
-12	-0.0470216760539343	0.00402230187176417	0.339506172839506	0.335483870967742
-3	-0.224974398361495	-0.152856841661396	0.246187363834423	0.399044205495818
-4	0.14652671104284	0.0715160983978188	0.339506172839506	0.267990074441687
-5	0.0966803208738694	0.057422561677881	0.311268715524035	0.253846153846154
2	0.0326762246117085	-0.0217043791511877	0.28042328042328	0.302127659574468
-15	-0.0541261307390339	0.0136620557945862	0.311268715524035	0.297606659729448
4	0.222313446451378	0.101769036116862	0.305185185185185	0.203416149068323
4	0.116402116402116	0.0468414976084446	0.311268715524035	0.26442721791559
-11	0.111153780508619	0.0751561055882419	0.365478686233403	0.290322580645161
-6	-0.0478294853294849	-0.0441451719576718	0.305185185185185	0.349330357142857
-12	0.0424347158218126	0.0490600069372182	0.346666666666667	0.297606659729448
2	0.104652031063321	0.0175543717067396	0.28042328042328	0.262868908716541
3	0.259429936849292	0.117283950617284	0.339506172839506	0.222222222222222
10	0.34757343550447	0.155642569435673	0.322751322751323	0.16710875331565
3	0.158149854924048	0.0370531751795367	0.342935528120713	0.305882352941176
0	-0.00219214029697912	-0.0396553038968963	0.267139479905437	0.306794783802334
-9	0.0185025174944529	0.0231507681988723	0.339506172839506	0.316355404640634
-6	-0.191197691197691	-0.123805209110614	0.287211740041929	0.411016949152542
-5	0.0109020310633214	-0.00392558457074588	0.28042328042328	0.284348864994026
-13	-0.181607744107745	-0.0774396228025263	0.28042328042328	0.357862903225807
2	-0.0137182112988565	-0.0582740290547677	0.253086419753086	0.311360448807854
4	0.201484895033282	0.0734223960030411	0.296296296296296	0.222873900293255
-14	-0.250186678614098	-0.095920805598225	0.28042328042328	0.376344086021505
1	0.0682027649769584	0.00180995475113116	0.307692307692308	0.305882352941176
-4	0.144462578938385	0.0740770646701448	0.311268715524035	0.23719165085389
3	0.24985599078341	0.097685724413835	0.307692307692308	0.210006583278473
3	0.194428443420379	0.0733572281959378	0.296296296296296	0.222939068100358
-7	0.0172258297258296	-0.00387489037306893	0.304526748971193	0.308401639344262
-10	-0.12000962000962	-0.0612962962962962	0.263703703703704	0.325
-13	-0.239327801827802	-0.108320105820106	0.263703703703704	0.372023809523809
2	0.266572793992149	0.134972419227739	0.311268715524035	0.176296296296296
-10	0.000418160095579434	0.0227961617792126	0.28042328042328	0.257627118644068
-9	-0.147727272727273	-0.0830254515599342	0.238095238095238	0.321120689655172
-9	0.141262374125277	0.0849174817244801	0.263703703703704	0.178786221979224
-11	0.0492671530977981	0.0475264767227588	0.296296296296296	0.248769819573537
-14	0.0285894660894662	0.0333870430888405	0.304526748971193	0.271139705882353
-9	0.200426887926888	0.106799659053757	0.347578347578348	0.24077868852459
1	0.115982484948002	0.0461128773674629	0.296296296296296	0.250183418928833
-21	-0.00916907166907144	0.0467844023268553	0.326345213137666	0.279560810810811
-12	-0.149861712361713	-0.0647906065098638	0.311268715524035	0.376059322033899
-3	-0.195289298515105	-0.131154684095861	0.296296296296296	0.427450980392157
-6	0.151274651274651	0.0801366400523366	0.311268715524035	0.231132075471698
-4	-0.188829151732378	-0.117060996306279	0.28042328042328	0.39748427672956
1	-0.0899044205495819	-0.106673493770268	0.28042328042328	0.387096774193548
-8	-0.0732793565454856	-0.03535885045837	0.311268715524035	0.346627565982405
-4	0.0346287173873384	0.0216602809706259	0.305185185185185	0.283524904214559
6	0.204710701484895	0.0724867724867723	0.296296296296296	0.223809523809524
-5	0.0205928330928333	-0.00724089986058057	0.311268715524035	0.318509615384615
-4	-0.256303594234629	-0.145561122572617	0.209876543209877	0.355437665782494
-7	0.0426480628093532	0.0269198505300084	0.311268715524035	0.284348864994026
1	0.120054616828811	0.0436065024300319	0.227920227920228	0.184313725490196
-2	-0.029100529100529	-0.043988603988604	0.263703703703704	0.307692307692308
-4	0.132305194805195	0.0366276004218196	0.345029239766082	0.308401639344262
8	0.13501185914979	0.0289484887186037	0.253086419753086	0.224137931034483
-9	-0.0420293565454858	-0.0142197858832901	0.286855482933914	0.301075268817204
-4	0.00604256854256835	-0.0222133190883192	0.296296296296296	0.318509615384615
-13	0.112503200204813	0.0777573700593012	0.304526748971193	0.226769378911892
-15	-0.0758235193719066	-3.04984372866413e-05	0.326345213137666	0.326375711574953
-7	-0.0461459836459835	-0.0356384015594541	0.263703703703704	0.299342105263158
-4	0.0821300563236046	0.0424501424501424	0.296296296296296	0.253846153846154
-6	0.364481993514251	0.183494844904642	0.381344307270233	0.197849462365591
-10	-0.0570586820586818	-0.0242576002654388	0.311268715524035	0.335526315789474
-14	0.03718734968735	0.0400708912037039	0.263703703703704	0.2236328125
-5	0.0830928330928332	0.0324225616778809	0.311268715524035	0.278846153846154
2	0.0902176527176528	0.00198495370370372	0.263703703703704	0.26171875
-3	0.217341909882233	0.0968300879638363	0.304526748971193	0.207696661007357
-2	0.237079706434545	0.111799758592211	0.326345213137666	0.214545454545455
0	0.0258237133237134	-0.0300462962962963	0.263703703703704	0.29375
2	0.0420986943164363	-0.0391349831078184	0.345029239766082	0.3841642228739
-6	0.0926139272913466	0.050179211469534	0.296296296296296	0.246117084826762
4	0.106458675424193	0.0316859066859067	0.296296296296296	0.26461038961039
-5	0.128457190957191	0.0482362423151897	0.347578347578348	0.299342105263158
-10	-0.0507253797576379	-0.00259259259259265	0.305185185185185	0.307777777777778
-4	0.0679112554112553	0.00986111111111104	0.346666666666667	0.336805555555556
-2	0.139911014911015	0.0536156542995449	0.311268715524035	0.25765306122449
-1	0.0708738692609661	0.0101934467068304	0.311268715524035	0.301075268817204
4	0.177232676224612	0.057484212322922	0.28042328042328	0.222939068100358
7	-0.0648148148148152	-0.0772035365964819	0.248078266946191	0.325281803542673
4	0.277325482164192	0.134524529477523	0.311268715524035	0.176744186046512
-1	0.133239460658816	0.0598798266351459	0.311268715524035	0.251388888888889
-1	0.167674731182796	0.0531975099037917	0.333333333333333	0.280135823429542
4	0.130162997098481	0.0209566794990929	0.266117969821674	0.245161290322581
-8	0.1392089093702	0.0819280682239526	0.346666666666667	0.264738598442714
-5	-0.169986345792797	-0.101551797296478	0.311268715524035	0.412820512820513
-10	-0.119558682058682	-0.0604418107917546	0.311268715524035	0.371710526315789
-13	-0.0246512746512747	0.00721110203340591	0.327523602033406	0.3203125
-11	-0.0419071669071667	-0.00985197413113759	0.311268715524035	0.321120689655172
-7	-0.135552142003755	-0.066120857699805	0.263703703703704	0.329824561403509
-13	-0.0858721624850657	-0.0171833793061681	0.28042328042328	0.297606659729448
2	0.0890595664789215	0.0107407407407408	0.305185185185185	0.294444444444444
-11	-0.178481240981241	-0.0895415545773212	0.267139479905437	0.356681034482759
-7	0.243028887182113	0.11332946705583	0.319284802043423	0.205955334987593
-12	0.0260642135642135	0.0309106663461153	0.267139479905437	0.236228813559322
1	0.0496415770609319	-0.0154761904761905	0.365079365079365	0.380555555555556
-3	0.0106588154975252	-0.00606461780929862	0.311268715524035	0.317333333333333
0	-0.0480457415941288	-0.0792206598658212	0.347578347578348	0.426799007444169
-9	-0.0555715565796212	-0.0200591083443376	0.296296296296296	0.316355404640634
5	0.052043422733078	-0.0135612164487544	0.311268715524035	0.324829931972789
-5	0.0357740228707968	0.0200093174935941	0.339506172839506	0.319496855345912
-2	0.0603558627752175	0.00984468339307043	0.296296296296296	0.286451612903226
-8	0.137891491722137	0.0787537824598684	0.327523602033406	0.248769819573537
-10	-0.27684583934584	-0.143349071776491	0.347578347578348	0.490927419354839
-16	-0.0300024050024051	0.0165626044420137	0.326345213137666	0.309782608695652
8	0.234340331114525	0.0891005291005291	0.263703703703704	0.174603174603175
-13	-0.00240548728451939	0.0271513910223588	0.305185185185185	0.278033794162826
-8	-0.0727086533538148	-0.0355009387267453	0.296296296296296	0.331797235023041
-18	-0.141414141414142	-0.0192489931295902	0.365079365079365	0.384328358208955
-5	-0.124866658132787	-0.082923862278701	0.263703703703704	0.346627565982405
-1	0.119653524492234	0.0467513227513227	0.322751322751323	0.276
-5	-0.275942993684929	-0.155559605532268	0.328311362209667	0.483870967741935
-7	-0.139375320020481	-0.0685521885521886	0.296296296296296	0.364848484848485
2	0.109131251066735	0.0342458400429413	0.253086419753086	0.218840579710145
7	-0.00925925925925947	-0.0489577950043067	0.263703703703704	0.31266149870801
-1	0.236726874657909	0.113304178438278	0.304526748971193	0.191222570532915
9	0.396588213829593	0.162123569501276	0.387464387464387	0.225340817963111
8	0.210658815497525	0.0620492813835267	0.286855482933914	0.224806201550388
-9	0.063902756443079	0.0453897587457293	0.253086419753086	0.207696661007357
-2	0.099931728963987	0.0354158625126367	0.263703703703704	0.228287841191067
-13	-0.198713323713324	-0.0891266950010121	0.253086419753086	0.342213114754098
-2	0.113846801346802	0.0136893358876119	0.37037037037037	0.356681034482758
-10	-0.225919913419914	-0.116702853598015	0.307692307692308	0.424395161290323
-4	0.144462578938385	0.0740770646701448	0.311268715524035	0.23719165085389
-5	-0.122895622895623	-0.0945767195767195	0.28042328042328	0.375
-6	0.0429424816521591	0.0267989417989418	0.263703703703704	0.236904761904762
-4	-0.13877688172043	-0.0972669043271599	0.238095238095238	0.335362142422398
-9	-0.06487493987494	-0.0359165097300692	0.305185185185185	0.341101694915254
-9	-0.096918202764977	-0.0429158361469308	0.307692307692308	0.350608143839238
-8	-0.201740911418331	-0.109233657620754	0.296296296296296	0.405529953917051
-4	-0.130653695169825	-0.0943081211898418	0.253086419753086	0.347394540942928
4	0.0435686918445536	-0.0203181237663998	0.296296296296296	0.316614420062696
4	0.112161845024748	-0.013059825945662	0.365478686233403	0.378538512179065
2	0.190612732548216	0.0757380568974771	0.339506172839506	0.263768115942029
-5	-0.342400580303806	-0.19817422728414	0.208944793850454	0.407119021134594
1	0.196049990877577	0.0983751623006464	0.311268715524035	0.212893553223388
6	0.121729611384784	0.0204342273307789	0.296296296296296	0.275862068965517
-13	-0.0505651755651757	-0.00270694191459225	0.339506172839506	0.342213114754098
0	0.163578469022017	0.0500386534542131	0.368191721132897	0.318153067678684
-5	0.139880952380952	0.0591666666666667	0.346666666666667	0.2875
1	0.197755589691074	0.0924281358138898	0.311268715524035	0.218840579710145
-7	0.0268157768157768	0.001345213137666	0.326345213137666	0.325
-1	0.0379170933606419	-0.0129678824934992	0.305185185185185	0.318153067678684
-5	-0.0677163338453661	-0.0487435117416142	0.246187363834423	0.294930875576037
6	0.0520566649598909	-0.0303553254568786	0.227709190672154	0.258064516129032
0	0.0644222563577402	0.00914105594956655	0.311268715524035	0.302127659574468
-9	-0.0985151049667181	-0.0335282651072126	0.296296296296296	0.329824561403509
-2	0.0628607503607502	0.00254629629629621	0.296296296296296	0.29375
-18	0.112753882915173	0.0887984758952501	0.296296296296296	0.207497820401046
-8	0.165133477633477	0.0942873677248676	0.296296296296296	0.202008928571429
4	0.0718819337770949	-0.0199393008684193	0.286855482933914	0.306794783802334
1	0.197755589691074	0.0924281358138898	0.311268715524035	0.218840579710145
-2	-0.23115719406042	-0.151296912895137	0.246187363834423	0.39748427672956
-3	-0.0762385762385761	-0.0816072676450035	0.305185185185185	0.386792452830189
-8	-0.135972823472824	-0.0814596331696095	0.342935528120713	0.424395161290323
-7	0.0287698412698412	0.00879629629629625	0.296296296296296	0.2875
-7	0.0222763347763347	0.00672281323877066	0.267139479905437	0.260416666666667
-8	0.0430796055796058	0.019624840357599	0.305185185185185	0.285560344827586
-7	-0.0753626898788187	-0.031941161019175	0.311268715524035	0.34320987654321
-4	-0.0564574314574315	-0.0618767806267807	0.296296296296296	0.358173076923077
0	0.144462578938385	0.0496638320800243	0.286855482933914	0.23719165085389
-7	-0.0949394094555386	-0.0529970018710129	0.248078266946191	0.301075268817204
-1	0.0474750384024579	-0.0119671094244148	0.346666666666667	0.358633776091082
-4	0.331397209421403	0.160695917110691	0.40461215932914	0.243916242218449
-2	-0.00416026625704058	-0.0314456391875748	0.296296296296296	0.327741935483871
-1	-0.0167424048472437	-0.0411861279756826	0.253086419753086	0.294272547728769
-6	0.0262746512746513	0.00230645137309127	0.311268715524035	0.308962264150943
-6	-0.0624338624338621	-0.0220105820105819	0.263703703703704	0.285714285714286
-14	-0.0475889850889851	0.00286707617977239	0.311268715524035	0.308401639344262
-1	0.0336021505376344	-0.00706605222734252	0.238095238095238	0.245161290322581
0	-0.0474057006315073	-0.0595497458242557	0.286855482933914	0.34640522875817
0	-0.159241014413428	-0.117603235419327	0.253086419753086	0.370689655172414
-10	-0.15589264379587	-0.0676128482950878	0.339506172839506	0.407119021134594
3	0.151519030551289	0.0414739941164101	0.311268715524035	0.269794721407625
0	0.13578726509761	0.072666891815828	0.311268715524035	0.238601823708207
-9	0.00635774022870805	0.0163378399479979	0.311268715524035	0.294930875576037
-6	-0.0405092592592592	-0.0286676286676287	0.28042328042328	0.309090909090909
-8	-0.0194805194805195	-0.0173076923076924	0.307692307692308	0.325
-8	0.0401334776334774	0.0206266534391533	0.296296296296296	0.275669642857143
-11	-0.0833333333333333	-0.0285714285714286	0.238095238095238	0.266666666666667
-8	0.11715367965368	0.0611063218390806	0.346666666666667	0.285560344827586
4	0.192437511403029	0.0886773533977889	0.311268715524035	0.222591362126246
-7	0.0775985663082436	0.0543650793650793	0.365079365079365	0.310714285714286
5	0.184289127837515	0.0575493801300253	0.28042328042328	0.222873900293255
2	0.133239460658816	0.0431205673758867	0.311268715524035	0.268148148148148
-3	0.0154260171501552	0.00368511461549859	0.326345213137666	0.322660098522167
-11	0.023088023088023	0.0251098556183301	0.296296296296296	0.271186440677966
2	0.0521932070319167	-0.00819373219373226	0.267806267806268	0.276
-6	-0.0547739297739299	-0.0455246913580248	0.253086419753086	0.298611111111111
-2	0.30465367965368	0.147147435897436	0.346666666666667	0.199519230769231
-1	-9.38726745174367e-05	-0.0262312844759651	0.311268715524035	0.3375
-1	0.199906127325482	0.102935382190701	0.311268715524035	0.208333333333333
-7	0.103643966547192	0.0592251237412528	0.28042328042328	0.221198156682028
4	0.0252234993614304	-0.0299215471629265	0.28042328042328	0.310344827586207
-8	-0.0732793565454856	-0.03535885045837	0.311268715524035	0.346627565982405
-3	0.0106588154975252	-0.00606461780929862	0.311268715524035	0.317333333333333
-8	0.0133128520225291	0.0224867724867723	0.296296296296296	0.273809523809524
-4	0.029821200510856	0.0195254274629683	0.28042328042328	0.260897852960312
-1	0.0527180406212664	-0.00499061273254825	0.322751322751323	0.327741935483871
-5	0.0782396740058032	0.0336309329857717	0.305185185185185	0.271554252199413
-9	-0.00910894660894668	-0.00304580896686163	0.296296296296296	0.299342105263158
8	0.0718846925743479	-0.0118065003779289	0.263703703703704	0.275510204081633
-8	-0.178562894691926	-0.0834227330779053	0.263703703703704	0.347126436781609
1	0.0180662229049323	-0.0311430646332609	0.327523602033406	0.358666666666667
-11	-0.0642174432497014	-0.0127325482164192	0.322751322751323	0.335483870967742
1	0.103643966547192	0.0223587642942482	0.28042328042328	0.258064516129032
0	0.0718819337770951	0.00447393172170119	0.311268715524035	0.306794783802334
-2	-0.0258736559139785	-0.0395771211710491	0.238095238095238	0.277672359266287
1	0.226693975081072	0.103824640967498	0.305185185185185	0.201360544217687
-8	0.13678955453149	0.0792688792688792	0.357575757575758	0.278306878306878
-4	0.136968766001024	0.0680084551052292	0.296296296296296	0.228287841191067
-3	-0.06368407578085	-0.0606024555784336	0.267139479905437	0.327741935483871
-12	-0.0661375661375662	-0.0135802469135803	0.253086419753086	0.266666666666667
3	0.0128349547704388	-0.0384239558707644	0.263703703703704	0.302127659574468
-1	-0.161503669568186	-0.138977638661383	0.327523602033406	0.466501240694789
-14	-0.0818903318903318	-0.0230434053963466	0.246187363834423	0.269230769230769
1	0.178607918263091	0.0813720124064951	0.322751322751323	0.241379310344828
-5	0.0137235449735451	-0.00390572390572386	0.305185185185185	0.309090909090909
-2	0.136849291688001	0.0635061728395061	0.339506172839506	0.276
-6	0.0503498890595664	0.0313756613756613	0.305185185185185	0.273809523809524
-4	0.136968766001024	0.0680084551052292	0.296296296296296	0.228287841191067
-8	0.114207551707552	0.0638365299823633	0.339506172839506	0.275669642857143
-7	0.0186688311688312	-0.00750982273391809	0.345029239766082	0.3525390625
-4	0.0154303208738693	-0.00688435215464966	0.311268715524035	0.318153067678684
-5	-0.0603505291005291	-0.0453872053872054	0.263703703703704	0.309090909090909
-7	-0.0279882154882153	-0.0265790343915343	0.322751322751323	0.349330357142857
-8	-0.147366522366522	-0.0898644179894179	0.296296296296296	0.386160714285714
1	-0.159961685823755	-0.11640089276537	0.267139479905437	0.383540372670807
-1	0.0708738692609661	0.0101934467068304	0.311268715524035	0.301075268817204
-6	-0.0625	-0.0494047619047619	0.238095238095238	0.2875
-4	-0.139331583888036	-0.0986689351362446	0.326345213137666	0.425014148273911
-3	0.0371873496873496	-0.0063434661076171	0.263703703703704	0.270047169811321
-8	0.129650964328384	0.0760416924154411	0.305185185185185	0.229143492769744
2	0.125935048348842	0.0469008994320807	0.311268715524035	0.264367816091954
-4	0.128845579450418	0.0619205415310102	0.28042328042328	0.21850273889227
-7	0.0912698412698411	0.0462962962962962	0.296296296296296	0.25
-1	0.133239460658816	0.059879826635146	0.311268715524035	0.251388888888889
-9	0.0601250601250601	0.0339987445072191	0.305185185185185	0.271186440677966
-10	-0.0384199134199139	-0.0169044665012409	0.307692307692308	0.324596774193549
-1	-0.00165115854771025	-0.016317491372517	0.311268715524035	0.327586206896552
-5	-0.115308713090971	-0.0789790376887151	0.305185185185185	0.3841642228739
4	0.116508789895887	-0.0129738714871955	0.388148148148148	0.401122019635344
3	0.204207202594299	0.0870262912816104	0.311268715524035	0.224242424242424
-9	0.16170406860062	0.106485702534797	0.263703703703704	0.157218001168907
1	0.0860215053763442	0.00606060606060616	0.333333333333333	0.327272727272727
-1	-0.0735267286991426	-0.047205125436418	0.253086419753086	0.300291545189504
-3	0.0579706434545144	0.0201888162672476	0.286855482933914	0.266666666666667
-13	-0.00592231842231838	0.0206437155240347	0.311268715524035	0.290625
-8	-0.225499037999038	-0.127946323217743	0.248078266946191	0.376024590163934
-6	0.011574074074074	-0.00707671957671963	0.28042328042328	0.2875
-7	-0.221640851681174	-0.125090863359115	0.263703703703704	0.388794567062818
-8	-0.0703463203463199	-0.045574712643678	0.346666666666667	0.392241379310345
-9	0.0716991341991342	0.0405225988700565	0.346666666666667	0.30614406779661
3	0.0374931581828132	-0.00687830687830693	0.296296296296296	0.303174603174603
-3	-0.183670421573648	-0.124964138979712	0.282154882154882	0.407119021134594
-3	-0.00126301416623986	-0.0143116701607267	0.305185185185185	0.319496855345912
-17	-0.235299422799423	-0.0853995825945628	0.267139479905437	0.3525390625
-1	0.106673493770268	0.0289738214266516	0.387464387464387	0.358490566037736
0	0.0933350401092337	0.0216412490922295	0.327523602033406	0.305882352941176
-9	-0.145683020683021	-0.0824398960363875	0.253086419753086	0.335526315789474
-10	-0.0662485065710872	-0.012232086808358	0.28042328042328	0.292655367231638
3	0.24985599078341	0.0976857244138351	0.307692307692308	0.210006583278473
-8	-0.0309944684944684	-0.0218566411238825	0.263703703703704	0.285560344827586
-6	0.0315593531319339	0.0148597076116793	0.311268715524035	0.296409007912355
-6	-0.0232462877624168	-0.00864197530864197	0.296296296296296	0.304938271604938
-7	0.061763952892985	0.0322629113442434	0.368191721132897	0.335928809788654
-3	-0.0904804574159412	-0.0830230371943386	0.395286195286195	0.478309232480534
7	0.15301952198504	0.0317288900769255	0.305185185185185	0.27345629510826
-3	-0.143811870626387	-0.111659189078544	0.347578347578348	0.459237536656891
-11	-0.0989357864357869	-0.0451432813268679	0.246187363834423	0.29133064516129
-7	0.096350408850409	0.0508520488573682	0.311268715524035	0.260416666666667
1	-0.0651305683563748	-0.0792357968828557	0.307692307692308	0.386928104575163
-10	0.0711725550435229	0.0464622328421612	0.304526748971193	0.258064516129032
2	0.0400836320191159	-0.0233479680288191	0.322751322751323	0.346099290780142
-5	-0.0744740996757124	-0.0526354473461777	0.266117969821674	0.318753417167851
-4	0.154531490015361	0.0800000000000001	0.346666666666667	0.266666666666667
1	0.196049990877577	0.0983751623006464	0.311268715524035	0.212893553223388
-2	0.0315055315055316	-0.0151424501424501	0.263703703703704	0.278846153846154
-17	-0.0229134664618538	0.0418160095579449	0.368191721132897	0.326375711574953
3	0.127084473636198	0.0416762390350064	0.311268715524035	0.269592476489028
-10	-0.0410212920293564	-0.0050866891165991	0.311268715524035	0.316355404640634
-1	0.0673143586936691	0.0267859569033451	0.311268715524035	0.28448275862069
-8	0.17965367965368	0.0966666666666668	0.346666666666667	0.25
-15	-0.463864838864839	-0.217151675485009	0.253086419753086	0.470238095238095
1	0.143992148830858	0.0521888162672475	0.286855482933914	0.234666666666667
-2	0.307492746202423	0.144439545365471	0.381344307270233	0.236904761904762
-8	-0.173813790749275	-0.0901610843323858	0.388148148148148	0.478309232480534
-6	-0.238777948455368	-0.141826250213347	0.263703703703704	0.405529953917051
-9	-0.145349035671616	-0.0575266792215946	0.305185185185185	0.36271186440678
-14	0.111261423761424	0.0815523726851854	0.305185185185185	0.2236328125
-5	0.152313748079877	0.0751124144672532	0.346666666666667	0.271554252199413
-1	-0.0419071669071669	-0.0713175939891627	0.286855482933914	0.358173076923077
5	0.158045977011494	0.0676406926406927	0.238095238095238	0.170454545454545
-1	0.0563236047107012	0.0105820105820104	0.296296296296296	0.285714285714286
-2	0.156866281866282	0.0489672364672365	0.347578347578348	0.298611111111111
-7	0.0416065416065412	0.00415716302813063	0.395286195286195	0.391129032258065
0	0.0718819337770951	0.00447393172170119	0.311268715524035	0.306794783802334
3	0.146168288103772	0.0495193065405831	0.263703703703704	0.214184397163121
-3	0.0727854582693293	0.0249818445896877	0.368191721132897	0.34320987654321
-8	-0.147366522366522	-0.089864417989418	0.296296296296296	0.386160714285714
-3	0.147910965152345	0.0808800212053303	0.263703703703704	0.182823682498373
4	0.161909028844513	0.0387055217910758	0.305185185185185	0.266479663394109
0	0.0257381805768903	-0.0122962962962963	0.263703703703704	0.276
-7	-0.195406445406446	-0.116055206149546	0.208944793850454	0.325
1	0.148980201399556	0.0410719891301802	0.327523602033406	0.286451612903226
-9	-0.0228441286909028	-0.00302979626089089	0.347578347578348	0.350608143839238
-3	0.0857051632913703	0.0491997500067934	0.311268715524035	0.262068965517241
-9	0.00635774022870805	0.0163378399479979	0.311268715524035	0.294930875576037
3	0.0128349547704389	-0.0384239558707642	0.263703703703704	0.302127659574468
-10	-0.0475889850889851	-0.021546156410348	0.286855482933914	0.308401639344262
-6	-0.105699855699856	-0.0787037037037038	0.296296296296296	0.375
-4	-0.0541634664618538	-0.0535091586324984	0.368191721132897	0.421700879765396
-4	-0.125277351083803	-0.0802469135802469	0.253086419753086	0.333333333333333
-2	-0.03115719406042	-0.0343157808196654	0.246187363834423	0.280503144654088
-8	-0.129730969448711	-0.0668897330310939	0.286855482933914	0.353745215965008
-14	-0.312560125060126	-0.14798636001593	0.209876543209877	0.357862903225807
3	0.192437511403029	0.0937362479915672	0.311268715524035	0.217532467532468
-3	0.129330943847073	0.0547612483096354	0.322751322751323	0.267990074441687
3	0.120354369346305	0.030147351652728	0.253086419753086	0.222939068100358
-7	-0.0193025686977301	-0.0145075951527565	0.296296296296296	0.310803891449053
-10	-0.110088985088985	-0.0553576318201843	0.286855482933914	0.342213114754098
-2	0.330146705146705	0.142505021555947	0.381344307270233	0.238839285714286
3	0.137540535927633	0.0400565943119136	0.311268715524035	0.271212121212121
6	0.186320191158901	0.0498831056970592	0.322751322751323	0.272868217054264
-11	-0.274861712361713	-0.137539678356409	0.286855482933914	0.424395161290323
-5	0.0782396740058032	0.0336309329857717	0.305185185185185	0.271554252199413
-2	-0.00389144905273953	-0.0210370370370371	0.296296296296296	0.317333333333333
4	0.00802773216566299	-0.0333241315850013	0.305185185185185	0.338509316770187
4	0.076810800948732	0.0152564987347596	0.263703703703704	0.248447204968944
-3	0.0786900200693304	0.0441614704630256	0.253086419753086	0.208924949290061
-10	0.0234948370029016	0.0311328920944932	0.311268715524035	0.280135823429542
-4	-0.0554958183990442	-0.0390735749226315	0.28042328042328	0.319496855345912
6	0.21853676336435	0.0826146522698246	0.305185185185185	0.222570532915361
-8	0.128727753727754	0.0670274584929758	0.388148148148148	0.321120689655172
-6	0.0830559822495306	0.0452011150935882	0.253086419753086	0.207885304659498
7	0.356204130397679	0.168774465522433	0.339506172839506	0.170731707317073
-9	0.137926887926888	0.0729881836439214	0.347578347578348	0.274590163934426
-5	-0.171061614610002	-0.115530291920134	0.311268715524035	0.426799007444169
-9	-0.0206830206830206	-0.0100714749837556	0.253086419753086	0.263157894736842
-12	-0.10857654889913	-0.0255158873262011	0.267139479905437	0.292655367231638
-10	-0.0364183307731696	-0.00403740781938783	0.296296296296296	0.300333704115684
-8	-0.155994468494468	-0.0929773307790547	0.263703703703704	0.356681034482758
-4	0.0570286195286196	0.0103761106119596	0.28042328042328	0.270047169811321
-6	-0.101958525345622	-0.0638316077693163	0.307692307692308	0.371523915461624
1	-0.0392473118279569	-0.0563492063492063	0.238095238095238	0.294444444444444
6	-0.060308337894545	-0.0901462378227008	0.248078266946191	0.338224504768892
6	-0.140834613415259	-0.159738562091503	0.246187363834423	0.405925925925926
-15	-0.202290764790765	-0.0757275132275133	0.296296296296296	0.37202380952381
-10	0.0176166426166425	0.0183854831843338	0.339506172839506	0.321120689655172
-5	-0.0507756132756134	-0.0515810621942698	0.296296296296296	0.347877358490566
7	0.257920506912443	0.0847532395919493	0.307692307692308	0.222939068100358
-13	-0.239327801827802	-0.108320105820106	0.263703703703704	0.37202380952381
-3	-0.0538770297390984	-0.0337868382370658	0.305185185185185	0.338972023422251
0	0.1600017067759	0.0621641249092229	0.327523602033406	0.265359477124183
-1	0.115821812596006	0.0407843137254902	0.346666666666667	0.305882352941176
-1	0.00523088023087992	-0.0375480200945629	0.267139479905437	0.3046875
-3	0.0702561327561327	0.00518464370803551	0.304526748971193	0.299342105263158
-10	-0.17003367003367	-0.0882656264012197	0.322751322751323	0.411016949152542
-4	0.0820105820105819	0.0318138651471984	0.339506172839506	0.307692307692308
-1	0.170754394947943	0.0736774481872521	0.327523602033406	0.253846153846154
5	0.184948002189381	0.0709554783331848	0.296296296296296	0.225340817963111
-2	0.0406052654036525	-0.0101114418592093	0.308641975308642	0.318753417167851
-3	-0.0878126503126502	-0.0841736547868623	0.263703703703704	0.347877358490566
-1	0.066572793992149	0.0168242710795904	0.311268715524035	0.294444444444444
-2	-0.084058713090971	-0.0819115890083632	0.305185185185185	0.387096774193548
-12	-0.00162143710530832	0.0208283552369572	0.253086419753086	0.232258064516129
-6	-0.0362554112554113	-0.0394940476190476	0.346666666666667	0.386160714285714
-4	0.0653108465608466	0.0184326929424969	0.327523602033406	0.309090909090909
-1	-0.00815544608648078	-0.0196783694320641	0.296296296296296	0.31597466572836
3	0.070873869260966	-0.0069131026577835	0.311268715524035	0.318181818181818
-1	0.130397678784775	0.0537918871252204	0.339506172839506	0.285714285714286
-7	-0.0328714371053081	-0.018467832446327	0.253086419753086	0.271554252199413
-9	0.115746074415429	0.0707007703305959	0.387464387464387	0.316763617133792
-1	0.0928752773510839	0.0265120528498138	0.263703703703704	0.23719165085389
-3	-0.134596347499573	-0.0922990915443744	0.305185185185185	0.39748427672956
4	0.277325482164192	0.134524529477523	0.311268715524035	0.176744186046512
2	0.229800307219662	0.0952777777777779	0.346666666666667	0.251388888888889
-2	0.0864748677248677	0.0172543040467569	0.326345213137666	0.309090909090909
-10	0.250794717528588	0.146138091721402	0.327523602033406	0.181385510312004
-6	0.117016555726233	0.0682804232804232	0.305185185185185	0.236904761904762
-1	0.176507296466974	0.0689943074003795	0.346666666666667	0.277672359266287
5	0.131043605181536	0.0340453411638406	0.327523602033406	0.293478260869565
-11	-0.0541261307390342	-0.0107511767955343	0.286855482933914	0.297606659729448
-8	-0.0932539682539683	-0.0578605200945626	0.267139479905437	0.325
-3	0.0636040706605224	0.0113045242442687	0.346666666666667	0.335362142422398
-11	-0.101510496671787	-0.0353689051193616	0.287211740041929	0.32258064516129
-5	-0.124866658132787	-0.082923862278701	0.263703703703704	0.346627565982405
-9	-0.106331168831169	-0.0594164299242426	0.357575757575758	0.4169921875
-3	-0.0243375576036867	-0.0389352582900971	0.307692307692308	0.346627565982405
-5	0.00330687830687826	-0.0198148148148149	0.305185185185185	0.325
-5	0.0542328042328042	0.0154882154882155	0.282154882154882	0.266666666666667
-4	0.212477598566308	0.107623491677052	0.365079365079365	0.257455873402313
4	0.189656938044035	0.072053872053872	0.296296296296296	0.224242424242424
-6	-0.043199855699856	-0.0405092592592594	0.296296296296296	0.336805555555556
-1	0.202107279693486	0.103010399562124	0.365079365079365	0.262068965517241
0	0.199498266739646	0.105105839515231	0.311268715524035	0.206162876008804
-3	-0.0654281874039937	-0.0666017447758165	0.346666666666667	0.413268411442483
-9	-0.120087685611879	-0.0562786895554299	0.296296296296296	0.352574985851726
-11	0.172979797979798	0.108829365079365	0.365079365079365	0.25625
4	-0.0994708994708997	-0.110549943883277	0.253086419753086	0.363636363636364
5	-0.0754059478197411	-0.0977613918407674	0.319284802043423	0.41704619388419
-8	0.284034178187404	0.145082157985384	0.357575757575758	0.212493599590374
3	0.237864823348695	0.0783625730994154	0.345029239766082	0.266666666666667
-3	0.124662911759686	0.0611879804332635	0.263703703703704	0.20251572327044
1	0.108900836320191	0.0283068783068783	0.322751322751323	0.294444444444444
1	0.202962322922	0.0699059883120604	0.347578347578348	0.277672359266287
-4	-0.0177368927368927	-0.0349074074074074	0.263703703703704	0.298611111111111
0	-0.0146441372247823	-0.0412037037037036	0.296296296296296	0.3375
-4	0.11082831600073	0.059557554335488	0.326345213137666	0.266787658802178
-5	-0.1297363031234	-0.0843121754196953	0.287211740041929	0.371523915461624
-5	0.00901875901875898	-0.0117066739407165	0.267139479905437	0.278846153846154
-3	-0.0683990442054959	-0.052910052910053	0.28042328042328	0.333333333333333
-4	0.0820105820105819	0.0318138651471984	0.339506172839506	0.307692307692308
-4	0.080457415941287	0.0385185185185186	0.305185185185185	0.266666666666667
7	0.138888888888889	0.0407579672695951	0.305185185185185	0.26442721791559
0	0.293335040109234	0.14320987654321	0.327523602033406	0.184313725490196
-7	-0.0878296210957502	-0.0503312696861085	0.296296296296296	0.346627565982405
-10	0.0801166426166425	0.0539458280119199	0.339506172839506	0.285560344827586
-3	-0.063415258576549	-0.0501938534278961	0.267139479905437	0.317333333333333
-5	-0.0219485495347563	-0.00363864189498536	0.296296296296296	0.299934938191282
6	0.0999317289639871	-0.0060910177039209	0.263703703703704	0.269794721407625
1	-0.0318399044205493	-0.0570767195767194	0.28042328042328	0.3375
-6	-0.0459762758149856	-0.0312624452409399	0.253086419753086	0.284348864994026
-5	-0.122895622895623	-0.0945767195767195	0.28042328042328	0.375
-7	0.0421912059843094	0.0533322075875268	0.311268715524035	0.257936507936508
-15	-0.113516598395631	-0.02494737440974	0.253086419753086	0.278033794162826
-5	0.136724386724387	0.065164220824598	0.296296296296296	0.231132075471698
0	0.111281788701143	0.0380326563122262	0.253086419753086	0.21505376344086
3	0.151519030551289	0.0414739941164101	0.311268715524035	0.269794721407625
-1	-0.0071844598054277	-0.0401092336576208	0.296296296296296	0.336405529953917
-6	-0.122610513739546	-0.071646047712645	0.259259259259259	0.330905306971904
-4	0.10389527458493	0.0618534697910106	0.322751322751323	0.260897852960312
-5	0.0278631165727937	0.0130459591243903	0.286855482933914	0.273809523809524
3	0.264670514670515	0.0864197530864197	0.308641975308642	0.222222222222222
-9	-0.0324020737327189	-0.00907130944148393	0.307692307692308	0.316763617133792
-10	0.00499037999037988	0.00745370370370357	0.263703703703704	0.25625
-2	0.105633427206008	0.0311145941210504	0.327523602033406	0.296409007912355
-4	0.144462578938385	0.0740770646701448	0.311268715524035	0.23719165085389
3	0.209907834101383	0.063986013986014	0.357575757575758	0.293589743589744
0	0.0520225294418842	0.00185185185185177	0.296296296296296	0.294444444444444
0	0.126797448370029	0.0299362052253105	0.326345213137666	0.296409007912355
2	0.0816521590715142	0.0123148148148149	0.263703703703704	0.251388888888889
-5	0.0357740228707968	0.0200093174935941	0.339506172839506	0.319496855345912
-9	0.00635774022870805	0.0163378399479979	0.311268715524035	0.294930875576037
0	0.0878349547704387	0.0185424133811231	0.263703703703704	0.245161290322581
3	0.314372119815668	0.139818706638983	0.307692307692308	0.167873601053325
-8	0.0176224611708482	0.0231133389028125	0.28042328042328	0.257309941520468
-10	0.0572463304318144	0.0446045116050612	0.327523602033406	0.282919090428345
-12	-0.0945466570466572	-0.0375385802469136	0.253086419753086	0.290625
-5	0.145592833092833	0.0720860232163424	0.311268715524035	0.239182692307692
-8	0.0658815497525174	0.0445752972634693	0.339506172839506	0.294930875576037
1	-0.114046765659669	-0.106364323507181	0.263703703703704	0.370068027210884
-5	0.0742243867243866	0.0262491264849755	0.296296296296296	0.270047169811321
-10	-0.0475889850889851	-0.021546156410348	0.286855482933914	0.308401639344262
-5	-0.169004949650111	-0.0972390572390573	0.305185185185185	0.402424242424243
-4	0.0349297573435506	0.0228163845600411	0.322751322751323	0.299934938191282
1	0.0237730341178617	-0.010047175958506	0.263703703703704	0.27375087966221
-10	0.157497594997595	0.0852737845662375	0.326345213137666	0.241071428571428
-2	0.131832437275986	0.0469262974006807	0.365079365079365	0.318153067678684
-6	0.0262746512746513	0.00230645137309132	0.311268715524035	0.308962264150943
-7	-0.0395622895622896	-0.0320767195767196	0.28042328042328	0.3125
-9	-0.130922318422318	-0.0725195170660857	0.286855482933914	0.359375
-9	-0.0264123570575184	-0.00816769849027915	0.282154882154882	0.290322580645161
-4	-0.0661375661375662	-0.0546058879392213	0.253086419753086	0.307692307692308
-8	-0.0638974227683904	-0.0307436246034689	0.305185185185185	0.335928809788654
-8	0.106238265915685	0.069896483389338	0.327523602033406	0.257627118644068
-11	0.0199479433350399	0.0299169423039574	0.327523602033406	0.297606659729448
-9	0.16037826420891	0.0978968470931293	0.346666666666667	0.248769819573537
2	0.222392899812255	0.090131421744325	0.305185185185185	0.21505376344086
