4
[ 21.521, 1.307, 1.307, 1.307, 21.831, 21.521, 21.521, 1.307, 21.831, 1.307, 21.521, 1.307, 21.521, 21.521, 1.307, 21.521, 1.307, 21.521, 1.307, 21.831, 1.307, 1.307, 21.521, 1.307, 1.307, 21.521, 1.307, 21.521, 21.521, 21.521, 21.521, 1.307, 1.695, 21.521, 1.307, 1.307, 1.307, 21.831, 1.307, 1.307, 1.307, 1.307, 1.307, 1.307, 21.831, 1.307, 21.521, 21.521, 21.521, 1.307 ]
2
[ 0.360, 0.360, 0.360, 0.360, 0.360, 0.360, 0.360, 0.360, 0.512, 0.360, 0.360, 0.360, 0.360, 0.360, 0.360, 0.360, 0.360, 0.360, 0.360, 0.360, 0.360, 0.360, 0.360, 0.360, 0.360, 0.360, 0.360, 0.360, 0.360, 0.360, 0.360, 0.512, 0.360, 0.360, 0.360, 0.512, 0.360, 0.360, 0.360, 0.360, 0.360, 0.512, 0.360, 0.360, 0.512, 0.360, 0.360, 0.360, 0.360, 0.360 ]