3
[ 1.082, 1.082, 1.082, 1.082, 1.082, 3.191, 1.082, 1.082, 3.191, 3.191, 1.082, 1.082, 1.082, 1.082, 3.191, 3.191, 1.082, 1.082, 1.082, 3.191, 1.082, 1.082, 1.082, 3.191, 3.191, 1.082, 1.082, 3.191, 1.082, 1.082, 1.082, 1.082, 3.191, 1.082, 3.191, 1.082, 3.191, 3.191, 3.191, 3.191, 3.191, 3.191, 3.191, 1.082, 1.082, 2.670, 1.082, 1.082, 1.082, 1.082 ]
5
[ 0.955, 0.955, 0.685, 0.955, 0.831, 0.955, 0.955, 0.955, 0.955, 0.832, 0.955, 0.030, 0.955, 0.030, 0.955, 0.955, 0.955, 0.832, 0.955, 0.955, 0.955, 0.955, 0.955, 0.832, 0.955, 0.832, 0.030, 0.955, 0.955, 0.955, 0.955, 0.955, 0.030, 0.030, 0.955, 0.955, 0.955, 0.831, 0.955, 0.955, 0.030, 0.955, 0.955, 0.030, 0.832, 0.955, 0.955, 0.030, 0.955, 0.955 ]