5
[ 7.486, 12.714, 3.438, 12.714, 12.714, 13.035, 12.714, 6.718, 13.035, 13.035, 12.714, 12.714, 13.035, 12.714, 12.714, 12.714, 3.438, 12.714, 12.714, 13.035, 12.714, 12.714, 12.714, 12.714, 6.718, 13.035, 12.714, 13.035, 12.714, 12.714, 13.035, 12.714, 13.035, 13.035, 13.035, 13.035, 13.035, 12.714, 6.718, 12.714, 12.714, 12.714, 12.714, 12.714, 13.035, 13.035, 12.714, 12.714, 3.438, 13.035, 13.035, 12.714, 12.714, 12.714, 12.714, 12.714, 13.035, 12.714, 12.714, 13.035, 12.714, 3.438, 13.035, 12.714, 13.035, 13.035, 13.035, 6.718, 6.718, 13.035, 13.035, 12.714, 12.714, 12.714, 13.035, 12.714, 12.714, 13.035, 12.714, 12.714, 13.035, 13.035, 12.714, 12.714, 12.714, 12.714, 12.714, 12.714, 12.714, 12.714, 13.035, 12.714, 12.714, 13.035, 6.718, 12.714, 12.714, 13.035, 12.714, 12.714 ]
10
[ 0.658, 0.658, 0.658, 0.119, 0.349, 0.119, 0.658, 0.119, 0.658, 0.658, 0.658, 0.658, 0.658, 0.658, 0.658, 0.658, 0.119, 0.119, 0.016, 0.016, 0.658, 0.658, 0.658, 0.119, 0.658, 0.016, 0.119, 0.658, 0.658, 0.016, 0.016, 0.658, 0.658, 0.016, 0.658, 0.060, 0.349, 0.658, 0.523, 0.658, 0.658, 0.119, 0.658, 0.658, 0.658, 0.658, 0.349, 0.119, 0.658, 0.658, 0.119, 0.016, 0.658, 0.119, 0.658, 0.658, 0.119, 0.119, 0.658, 0.349, 0.658, 0.658, 0.658, 0.349, 0.658, 0.658, 0.658, 0.016, 0.005, 0.226, 0.658, 0.349, 0.658, 0.349, 0.523, 0.060, 0.349, 0.349, 0.658, 0.119, 0.523, 0.658, 0.658, 0.016, 0.828, 0.658, 0.119, 0.119, 0.349, 0.658, 0.658, 0.658, 0.658, 0.658, 0.086, 0.658, 0.016, 0.658, 0.658, 0.658 ]