3
[ 1.462, 1.462, 1.462, 6.009, 4.036, 4.036, 4.036, 1.462, 1.462, 4.036, 1.462, 4.036, 6.009, 4.036, 1.462, 4.036, 1.462, 4.036, 1.462, 1.462, 6.009, 4.036, 1.462, 1.462, 1.462, 1.462, 1.462, 1.462, 1.462, 1.462, 4.036, 1.462, 1.462, 1.462, 4.036, 1.462, 1.462, 1.462, 4.036, 1.462, 1.462, 1.462, 1.462, 1.462, 4.036, 1.462, 1.462, 1.462, 1.462, 4.036 ]
2
[ 0.892, 0.892, 0.892, 0.892, 0.892, 0.892, 0.892, 0.892, 0.892, 0.892, 0.892, 0.892, 0.892, 0.892, 0.892, 0.892, 0.892, 0.892, 0.540, 0.892, 0.892, 0.892, 0.892, 0.892, 0.892, 0.892, 0.892, 0.892, 0.892, 0.892, 0.892, 0.892, 0.892, 0.892, 0.892, 0.892, 0.892, 0.892, 0.892, 0.540, 0.892, 0.892, 0.892, 0.892, 0.892, 0.892, 0.892, 0.892, 0.892, 0.892 ]