3
[ 2.246, 2.246, 2.246, 2.246, 1.984, 2.246, 1.898, 1.898, 2.246, 2.246, 1.898, 1.898, 2.246, 2.246, 2.246, 2.246, 1.898, 1.984, 1.898, 2.246, 1.898, 2.246, 2.246, 2.246, 2.246, 2.246, 1.984, 2.246, 1.984, 1.984, 1.984, 1.898, 1.898, 1.898, 1.984, 2.246, 1.984, 1.898, 1.984, 1.984, 1.898, 1.898, 1.898, 2.246, 1.984, 2.246, 1.984, 1.984, 2.246, 2.246, 2.246, 1.898, 1.898, 2.246, 1.984, 2.246, 1.984, 1.898, 1.898, 1.898, 1.984, 1.898, 2.246, 2.246, 2.246, 1.984, 2.246, 1.984, 1.984, 1.898, 1.984, 2.246, 2.246, 1.898, 1.898, 2.246, 1.984, 1.898, 1.984, 1.984, 1.898, 1.984, 1.898, 1.898, 1.898, 2.246, 1.898, 1.984, 1.898, 2.246, 1.898, 1.984, 2.246, 2.246, 2.246, 1.984, 1.984, 1.984, 1.898, 2.246, 1.898, 2.246, 1.984, 1.984, 2.246, 1.898, 1.984, 1.984, 2.246, 1.898, 1.898, 2.246, 2.246, 1.898, 1.898, 1.984, 2.246, 1.898, 1.984, 1.898, 1.984, 1.898, 1.898, 1.984, 1.898, 2.246, 1.984, 2.246, 1.898, 1.984, 1.984, 2.246, 2.246, 1.898, 1.898, 2.246, 1.898, 2.246, 2.246, 2.246, 2.246, 1.898, 1.984, 1.984, 2.246, 1.984, 1.984, 2.246, 1.984, 2.246, 2.246, 1.984, 1.984, 2.246, 2.246, 1.898, 1.984, 1.984, 1.984, 1.898, 1.984, 2.246, 1.984, 1.898, 1.984, 2.246, 1.898, 1.984, 2.246, 1.984, 1.984, 2.246, 1.984, 1.984, 2.246, 1.984, 2.246, 2.246, 2.246, 2.246, 1.984, 1.898, 1.898, 1.898, 2.246, 1.898, 1.898, 1.898, 2.246, 2.246, 1.984, 2.246, 1.984, 1.984, 2.246, 1.984, 1.898, 1.984, 2.246, 2.246 ]
3
[ 0.044, 0.870, 0.528, 0.870, 0.870, 0.528, 0.044, 0.870, 0.044, 0.528, 0.044, 0.870, 0.528, 0.870, 0.870, 0.870, 0.044, 0.528, 0.044, 0.870, 0.528, 0.870, 0.870, 0.528, 0.044, 0.528, 0.044, 0.870, 0.044, 0.870, 0.870, 0.528, 0.044, 0.870, 0.870, 0.870, 0.870, 0.044, 0.528, 0.870, 0.528, 0.528, 0.044, 0.528, 0.044, 0.044, 0.528, 0.044, 0.528, 0.528, 0.044, 0.528, 0.044, 0.528, 0.870, 0.870, 0.870, 0.044, 0.870, 0.044, 0.528, 0.870, 0.870, 0.870, 0.044, 0.870, 0.528, 0.044, 0.528, 0.528, 0.044, 0.044, 0.044, 0.044, 0.528, 0.044, 0.870, 0.870, 0.528, 0.528, 0.870, 0.870, 0.528, 0.528, 0.870, 0.870, 0.044, 0.870, 0.044, 0.870, 0.044, 0.044, 0.870, 0.044, 0.044, 0.528, 0.528, 0.528, 0.044, 0.528, 0.870, 0.528, 0.870, 0.528, 0.044, 0.528, 0.044, 0.528, 0.870, 0.044, 0.528, 0.044, 0.528, 0.044, 0.528, 0.870, 0.870, 0.528, 0.528, 0.528, 0.870, 0.870, 0.870, 0.044, 0.528, 0.870, 0.528, 0.044, 0.528, 0.528, 0.528, 0.044, 0.528, 0.528, 0.528, 0.044, 0.528, 0.870, 0.528, 0.870, 0.528, 0.044, 0.870, 0.528, 0.528, 0.528, 0.870, 0.528, 0.870, 0.870, 0.044, 0.870, 0.528, 0.870, 0.528, 0.044, 0.044, 0.870, 0.528, 0.870, 0.870, 0.870, 0.528, 0.044, 0.528, 0.870, 0.528, 0.528, 0.528, 0.044, 0.044, 0.528, 0.044, 0.528, 0.870, 0.044, 0.870, 0.044, 0.870, 0.528, 0.870, 0.044, 0.528, 0.870, 0.870, 0.870, 0.044, 0.528, 0.870, 0.528, 0.044, 0.044, 0.870, 0.044, 0.044, 0.044, 0.044, 0.044, 0.044, 0.870 ]