3
[ 2.923, 1.237, 1.687, 1.237, 2.923, 1.237, 1.237, 1.687, 1.237, 1.237, 1.237, 1.687, 2.923, 2.923, 2.923, 2.923, 2.923, 1.687, 1.237, 1.687, 1.687, 1.237, 1.687, 2.923, 2.923, 2.923, 1.687, 1.237, 1.687, 1.687, 1.237, 1.237, 1.237, 2.923, 1.687, 1.237, 1.687, 1.687, 2.923, 2.923, 1.687, 1.687, 1.687, 1.237, 1.687, 1.687, 2.923, 1.237, 1.237, 1.687, 2.923, 2.923, 2.923, 2.923, 2.923, 2.923, 1.687, 1.237, 2.923, 1.237, 1.687, 1.237, 1.237, 1.687, 1.687, 1.687, 1.237, 1.687, 1.237, 1.237, 1.237, 1.687, 2.923, 2.923, 2.923, 1.687, 1.237, 1.237, 1.687, 1.687, 1.687, 1.237, 1.237, 1.237, 1.687, 1.237, 2.923, 1.237, 2.923, 1.687, 1.687, 1.687, 2.923, 2.923, 1.237, 1.687, 1.687, 1.237, 1.237, 1.237, 1.237, 2.923, 2.923, 2.923, 2.923, 2.923, 1.687, 2.923, 2.923, 2.923, 1.237, 1.237, 2.923, 1.687, 2.923, 2.923, 2.923, 1.687, 1.237, 1.687, 1.237, 1.237, 2.923, 1.687, 1.687, 1.237, 1.687, 2.923, 2.923, 2.923, 1.687, 1.237, 1.687, 1.237, 1.237, 2.923, 1.687, 1.237, 1.237, 1.237, 2.923, 1.687, 2.923, 1.687, 1.237, 1.237, 2.923, 1.237, 1.237, 2.923, 2.923, 2.923, 1.687, 1.237, 1.687, 1.237, 2.923, 2.923, 1.237, 2.923, 1.237, 1.237, 2.923, 1.237, 1.237, 2.923, 1.687, 2.923, 1.687, 1.237, 2.923, 2.923, 1.687, 2.923, 1.687, 1.237, 2.923, 2.923, 1.237, 1.687, 1.687, 2.923, 1.687, 2.923, 2.923, 1.687, 1.687, 2.923, 1.237, 2.923, 2.923, 1.687, 1.687, 1.687, 1.687, 1.237, 1.687, 1.687, 1.687, 2.923 ]
3
[ 0.679, 0.679, 0.999, 0.999, 0.999, 0.679, 0.622, 0.679, 0.679, 0.999, 0.679, 0.622, 0.679, 0.999, 0.999, 0.999, 0.679, 0.622, 0.679, 0.679, 0.999, 0.622, 0.679, 0.622, 0.622, 0.622, 0.999, 0.679, 0.622, 0.622, 0.679, 0.999, 0.999, 0.622, 0.999, 0.679, 0.679, 0.622, 0.679, 0.679, 0.999, 0.679, 0.999, 0.679, 0.679, 0.622, 0.622, 0.622, 0.999, 0.622, 0.679, 0.999, 0.679, 0.999, 0.679, 0.622, 0.999, 0.679, 0.679, 0.622, 0.999, 0.622, 0.999, 0.622, 0.622, 0.622, 0.679, 0.622, 0.679, 0.999, 0.999, 0.679, 0.679, 0.622, 0.679, 0.622, 0.679, 0.679, 0.622, 0.622, 0.622, 0.679, 0.679, 0.622, 0.999, 0.622, 0.622, 0.679, 0.622, 0.679, 0.679, 0.622, 0.999, 0.622, 0.622, 0.999, 0.679, 0.999, 0.622, 0.679, 0.999, 0.679, 0.999, 0.999, 0.622, 0.679, 0.999, 0.622, 0.622, 0.679, 0.679, 0.622, 0.999, 0.999, 0.622, 0.999, 0.999, 0.622, 0.622, 0.679, 0.679, 0.999, 0.999, 0.679, 0.999, 0.999, 0.622, 0.622, 0.679, 0.622, 0.679, 0.622, 0.999, 0.622, 0.999, 0.999, 0.679, 0.622, 0.679, 0.999, 0.679, 0.622, 0.679, 0.999, 0.999, 0.622, 0.999, 0.679, 0.999, 0.622, 0.679, 0.679, 0.622, 0.999, 0.622, 0.679, 0.622, 0.999, 0.999, 0.622, 0.679, 0.622, 0.622, 0.999, 0.679, 0.622, 0.679, 0.622, 0.679, 0.622, 0.622, 0.999, 0.999, 0.622, 0.999, 0.622, 0.622, 0.999, 0.679, 0.622, 0.622, 0.999, 0.622, 0.679, 0.999, 0.622, 0.679, 0.679, 0.679, 0.622, 0.622, 0.622, 0.622, 0.622, 0.622, 0.679, 0.622, 0.999, 0.679, 0.999 ]