6
[ 3.793, 3.793, 1.892, 2.774, 2.774, 2.774, 2.774, 8.013, 2.774, 2.774, 2.774, 2.774, 2.774, 2.774, 2.774, 2.774, 2.774, 2.774, 2.774, 2.774, 2.774, 2.234, 2.774, 2.774, 3.793, 2.774, 2.774, 2.774, 2.774, 2.774, 2.774, 2.774, 2.774, 2.774, 2.774, 2.234, 2.774, 2.234, 5.660, 2.774, 1.892, 2.234, 2.774, 2.774, 2.774, 2.774, 2.774, 2.774, 2.774, 2.234, 1.892, 2.774, 1.892, 1.892, 2.774, 2.774, 2.234, 3.793, 2.774, 2.774, 3.793, 2.774, 2.774, 3.793, 2.774, 2.774, 2.774, 2.774, 2.234, 2.774, 1.892, 2.774, 2.774, 1.892, 2.774, 2.774, 1.892, 2.774, 2.774, 2.774, 2.234, 2.774, 2.774, 2.774, 2.234, 2.774, 2.774, 2.774, 1.892, 2.774, 2.774, 2.774, 2.234, 2.774, 2.774, 2.774, 2.774, 2.774, 1.892, 2.234 ]
5
[ 0.410, 0.110, 0.110, 0.410, 0.110, 0.110, 0.110, 0.110, 0.110, 0.110, 0.110, 0.110, 0.110, 0.110, 0.978, 0.110, 0.282, 0.110, 0.110, 0.110, 0.110, 0.110, 0.110, 0.110, 0.978, 0.110, 0.282, 0.110, 0.110, 0.110, 0.110, 0.110, 0.110, 0.110, 0.110, 0.110, 0.110, 0.110, 0.978, 0.110, 0.110, 0.110, 0.110, 0.110, 0.110, 0.110, 0.110, 0.978, 0.110, 0.410, 0.110, 0.282, 0.282, 0.110, 0.110, 0.110, 0.410, 0.110, 0.110, 0.110, 0.110, 0.978, 0.110, 0.110, 0.110, 0.282, 0.110, 0.978, 0.110, 0.110, 0.110, 0.110, 0.978, 0.110, 0.110, 0.110, 0.110, 0.110, 0.978, 0.110, 0.110, 0.282, 0.110, 0.110, 0.110, 0.110, 0.978, 0.110, 0.110, 0.110, 0.978, 0.110, 0.107, 0.110, 0.282, 0.110, 0.110, 0.282, 0.110, 0.110 ]