rate_constant_pi_constant_tree_unrooted_run_1	rate_constant_pi_constant_tree_unrooted_run_2	rate_constant_pi_constant_tree_unrooted_run_3	rate_constant_pi_constant_tree_unrooted_run_4	rate_DPP_pi_DPP_tree_unrooted_run_1	rate_DPP_pi_DPP_tree_unrooted_run_2	rate_DPP_pi_DPP_tree_unrooted_run_3	rate_DPP_pi_DPP_tree_unrooted_run_4	rate_discrete_gamma_pi_discrete_beta_tree_unrooted_run_1	rate_discrete_gamma_pi_discrete_beta_tree_unrooted_run_2	rate_discrete_gamma_pi_discrete_beta_tree_unrooted_run_3	rate_discrete_gamma_pi_discrete_beta_tree_unrooted_run_4
1	1	1	1	1	1	1	1	1	1	1	1
0.524491836054648	0.530489836721093	0.512495834721759	0.518160613128957	0.468177274241919	0.467510829723426	0.480506497834055	0.46051316227924	0.547150949683439	0.518493835388204	0.547484171942686	0.550816394535155
1	0.999666777740753	0.999666777740753	0.996667777407531	0.998333888703765	0.995001666111296	0.997000999666778	0.998000666444518	0.999333555481506	0.999666777740753	0.999333555481506	0.999666777740753
0.0993002332555815	0.09296901032989	0.0966344551816061	0.09296901032989	0.100966344551816	0.104631789403532	0.113962012662446	0.110629790069977	0.10596467844052	0.0966344551816061	0.104631789403532	0.104631789403532
0.254248583805398	0.248583805398201	0.267910696434522	0.246251249583472	0.252582472509164	0.24758413862046	0.259580139953349	0.262912362545818	0.272242585804732	0.275574808397201	0.269910029990003	0.263578807064312
0.281239586804399	0.292902365878041	0.276241252915695	0.285571476174608	0.255914695101633	0.253915361546151	0.236921026324558	0.243918693768744	0.289236921026325	0.283905364878374	0.282905698100633	0.275574808397201
0.399533488837054	0.373875374875042	0.386871042985671	0.398533822059314	0.329223592135955	0.311896034655115	0.309896701099633	0.330889703432189	0.415194935021659	0.392869043652116	0.398533822059314	0.400533155614795
0.172609130289903	0.171609463512163	0.186271242919027	0.172609130289903	0.184605131622792	0.173942019326891	0.17294235254915	0.189270243252249	0.16861046317894	0.187937354215262	0.161612795734755	0.165278240586471
0.105298233922026	0.11462845718094	0.108630456514495	0.106297900699767	0.111296234588471	0.114961679440187	0.116627790736421	0.104965011662779	0.103298900366544	0.110963012329224	0.101966011329557	0.117627457514162
0.0826391202932356	0.100966344551816	0.0869710096634455	0.0883038987004332	0.0899700099966678	0.103965344885038	0.0859713428857048	0.0986337887370876	0.100633122292569	0.0909696767744085	0.0946351216261246	0.102299233588804
0.0539820059980007	0.0639786737754082	0.056647784071976	0.0579806731089637	0.0673108963678774	0.0723092302565811	0.0676441186271243	0.0713095634788404	0.0503165611462846	0.0546484505164945	0.0466511162945685	0.0483172275908031
0.0906364545151616	0.0919693435521493	0.0919693435521493	0.0939686771076308	0.115294901699434	0.113295568143952	0.11462845718094	0.112629123625458	0.0883038987004332	0.0859713428857048	0.0906364545151616	0.0856381206264578
0.0336554481839387	0.0339886704431856	0.0346551149616794	0.032322559146951	0.044651782739087	0.0443185604798401	0.0489836721092969	0.0459846717760746	0.0343218927024325	0.0253248917027657	0.0296567810729757	0.024325224925025
0.123958680439853	0.108297234255248	0.108963678773742	0.128290569810063	0.117627457514162	0.123958680439853	0.11462845718094	0.125958013995335	0.111962679106964	0.107297567477508	0.11462845718094	0.10596467844052
0.119293568810397	0.128290569810063	0.120293235588137	0.112629123625458	0.129956681106298	0.126957680773076	0.126291236254582	0.121292902365878	0.110629790069977	0.113628790403199	0.114961679440187	0.123625458180606
0.0643118960346551	0.0663112295901366	0.0799733422192603	0.0653115628123959	0.0713095634788404	0.0743085638120626	0.0823058980339887	0.0773075641452849	0.0569810063312229	0.0766411196267911	0.0623125624791736	0.0629790069976674
0.0536487837387538	0.0593135621459513	0.0586471176274575	0.0596467844051983	0.0713095634788404	0.0666444518493835	0.0726424525158281	0.0656447850716428	0.0569810063312229	0.0693102299233589	0.0599800066644452	0.0579806731089637
0.14595134955015	0.133288903698767	0.131956014661779	0.14161946017994	0.133955348217261	0.12329223592136	0.132289236921026	0.134955014995002	0.13728757080973	0.131956014661779	0.145284905031656	0.142285904698434
0.0669776741086305	0.0739753415528157	0.0776407864045318	0.0813062312562479	0.0713095634788404	0.0773075641452849	0.0823058980339887	0.0619793402199267	0.068643785404865	0.068977007664112	0.0759746751082972	0.0693102299233589
0.0246584471842719	0.0229923358880373	0.0239920026657781	0.0189936687770743	0.028323892035988	0.0309896701099633	0.0359880039986671	0.0356547817394202	0.0176607797400866	0.020326557814062	0.020326557814062	0.0193268910363212
0.0469843385538154	0.0463178940353216	0.0476507830723092	0.0443185604798401	0.0549816727757414	0.0616461179606798	0.0563145618127291	0.0559813395534822	0.0409863378873709	0.0469843385538154	0.0443185604798401	0.0426524491836055
0.0553148950349883	0.0496501166277907	0.0559813395534822	0.0509830056647784	0.0783072309230257	0.0736421192935688	0.068977007664112	0.0673108963678774	0.0556481172942353	0.0546484505164945	0.0509830056647784	0.0509830056647784
0.0449850049983339	0.0516494501832722	0.0586471176274575	0.0449850049983339	0.0619793402199267	0.0516494501832722	0.0523158947017661	0.0553148950349883	0.0416527824058647	0.052649116961013	0.0429856714428524	0.0443185604798401
0.0199933355548151	0.0189936687770743	0.0193268910363212	0.0206597800733089	0.0209930023325558	0.0273242252582473	0.0219926691102966	0.0236587804065312	0.0143285571476175	0.0149950016661113	0.0189936687770743	0.0183272242585805
0.0669776741086305	0.0676441186271243	0.0623125624791736	0.0763078973675441	0.0723092302565811	0.0776407864045318	0.0743085638120626	0.0796401199600133	0.0653115628123959	0.0696434521826058	0.0656447850716428	0.0726424525158281
0.0343218927024325	0.0279906697767411	0.0229923358880373	0.0279906697767411	0.0336554481839387	0.0329890036654449	0.0343218927024325	0.0316561146284572	0.0239920026657781	0.0263245584805065	0.0249916694435188	0.0246584471842719
0.0349883372209264	0.0293235588137288	0.0256581139620127	0.0293235588137288	0.0329890036654449	0.040653115628124	0.036321226257914	0.0309896701099633	0.0226591136287904	0.0233255581472842	0.0299900033322226	0.0256581139620127
0	0.000333222259246918	0.000333222259246918	0.000999666777740753	0	0.000666444518493835	0	0	0	0	0	0
0	0	0.000333222259246918	0.000666444518493835	0	0.00266577807397534	0.000999666777740753	0.000333222259246918	0	0	0.000333222259246918	0
0	0	0.000333222259246918	0	0	0	0.000333222259246918	0	0	0	0	0
0	0	0	0.000666444518493835	0	0	0	0	0	0	0	0
0	0	0	0.000999666777740753	0.000999666777740753	0.000666444518493835	0.000999666777740753	0.000666444518493835	0.000666444518493835	0.000333222259246918	0.000333222259246918	0
0	0	0	0.000333222259246918	0.000333222259246918	0	0	0	0	0	0	0
0	0	0	0.000666444518493835	0	0	0	0	0	0	0	0.000333222259246918
0	0	0	0.000333222259246918	0.000333222259246918	0.000666444518493835	0	0.000333222259246918	0	0	0	0.000333222259246918
0	0	0	0.000666444518493835	0.000333222259246918	0.000999666777740753	0.000333222259246918	0.000666444518493835	0	0	0	0
0	0	0	0.000333222259246918	0	0	0	0.000333222259246918	0	0	0	0
0	0	0	0.000333222259246918	0	0.000333222259246918	0	0	0	0	0	0
0	0	0	0.000333222259246918	0	0	0	0	0	0	0	0
0	0	0	0.000666444518493835	0	0	0	0	0	0	0	0
0	0	0	0.000333222259246918	0	0.000333222259246918	0.000333222259246918	0	0	0	0	0
0	0	0	0.000333222259246918	0	0.000333222259246918	0.000333222259246918	0	0	0	0	0
0	0	0	0.000333222259246918	0	0	0	0	0	0	0	0
0	0	0	0	0.000333222259246918	0	0	0	0	0	0	0
0	0	0	0	0.000333222259246918	0.000333222259246918	0	0	0	0	0	0
0	0	0	0	0	0.000333222259246918	0.000333222259246918	0.000333222259246918	0	0	0	0
0	0	0	0	0	0.000333222259246918	0	0	0	0	0	0
0	0	0	0	0	0	0.000333222259246918	0	0	0	0	0
0	0	0	0	0	0	0.000333222259246918	0	0	0	0	0
0	0	0	0	0	0	0	0.000333222259246918	0	0	0	0
0	0	0	0	0	0	0	0	0	0	0	0.000333222259246918
