7
[ 1.311, 0.682, 2.677, 2.677, 0.682, 2.677, 2.677, 0.682, 2.677, 2.677, 2.677, 2.677, 2.677, 8.685, 0.682, 2.216, 8.685, 2.677, 2.677, 2.216, 2.677, 2.677, 8.685, 2.677, 1.311, 4.565, 2.677, 2.677, 2.677, 2.677, 2.677, 1.311, 1.311, 2.677, 2.677, 2.677, 2.677, 2.677, 2.677, 2.677, 1.311, 2.677, 1.311, 2.677, 9.200, 2.677, 8.685, 2.677, 2.677, 4.565 ]
2
[ 0.483, 0.483, 0.413, 0.483, 0.483, 0.413, 0.413, 0.413, 0.413, 0.483, 0.483, 0.483, 0.483, 0.483, 0.413, 0.483, 0.483, 0.483, 0.483, 0.483, 0.483, 0.483, 0.483, 0.413, 0.483, 0.483, 0.413, 0.483, 0.483, 0.483, 0.483, 0.483, 0.483, 0.483, 0.483, 0.413, 0.413, 0.483, 0.413, 0.483, 0.483, 0.483, 0.483, 0.483, 0.483, 0.483, 0.483, 0.413, 0.483, 0.483 ]