3
[ 2.045, 4.514, 2.045, 2.045, 2.045, 2.713, 4.514, 2.713, 2.713, 2.045, 2.713, 2.713, 2.045, 4.514, 4.514, 4.514, 4.514, 2.045, 2.045, 2.713, 2.713, 4.514, 2.045, 2.713, 4.514, 4.514, 4.514, 2.713, 4.514, 2.713, 2.045, 2.713, 2.713, 4.514, 4.514, 2.713, 2.045, 2.045, 2.045, 4.514, 4.514, 2.045, 2.045, 4.514, 2.713, 4.514, 2.045, 2.045, 4.514, 4.514, 4.514, 2.713, 2.045, 2.045, 2.713, 2.045, 2.045, 2.713, 2.045, 2.713, 2.713, 2.045, 4.514, 2.713, 2.045, 4.514, 2.045, 2.045, 4.514, 2.713, 2.045, 4.514, 2.713, 2.713, 4.514, 2.045, 2.045, 2.713, 2.045, 2.045, 4.514, 4.514, 2.713, 2.045, 2.713, 4.514, 4.514, 2.045, 4.514, 2.045, 2.713, 4.514, 2.713, 2.045, 4.514, 2.045, 2.045, 2.045, 4.514, 2.045 ]
3
[ 0.431, 0.364, 0.639, 0.639, 0.364, 0.639, 0.364, 0.639, 0.431, 0.364, 0.364, 0.431, 0.639, 0.639, 0.364, 0.431, 0.364, 0.431, 0.431, 0.639, 0.364, 0.364, 0.431, 0.431, 0.431, 0.639, 0.364, 0.431, 0.431, 0.431, 0.431, 0.639, 0.364, 0.431, 0.639, 0.431, 0.431, 0.364, 0.364, 0.639, 0.639, 0.364, 0.364, 0.431, 0.431, 0.639, 0.364, 0.431, 0.639, 0.639, 0.639, 0.364, 0.639, 0.639, 0.639, 0.639, 0.639, 0.639, 0.431, 0.431, 0.431, 0.639, 0.639, 0.364, 0.364, 0.639, 0.431, 0.364, 0.364, 0.364, 0.431, 0.639, 0.431, 0.431, 0.639, 0.639, 0.364, 0.431, 0.431, 0.639, 0.639, 0.639, 0.431, 0.364, 0.364, 0.639, 0.364, 0.431, 0.431, 0.431, 0.431, 0.364, 0.431, 0.639, 0.431, 0.364, 0.639, 0.431, 0.639, 0.639 ]