3
[ 1.255, 3.783, 1.255, 6.162, 1.255, 3.783, 6.162, 6.162, 6.162, 3.783, 3.783, 1.255, 1.255, 3.783, 6.162, 1.255, 3.783, 3.783, 6.162, 3.783, 6.162, 3.783, 6.162, 3.783, 3.783, 1.255, 1.255, 3.783, 1.255, 1.255, 3.783, 1.255, 1.255, 6.162, 6.162, 6.162, 3.783, 6.162, 3.783, 3.783, 6.162, 1.255, 1.255, 6.162, 1.255, 1.255, 6.162, 6.162, 6.162, 1.255, 3.783, 3.783, 3.783, 3.783, 6.162, 6.162, 6.162, 6.162, 6.162, 1.255, 1.255, 3.783, 6.162, 6.162, 6.162, 1.255, 3.783, 6.162, 3.783, 1.255, 6.162, 6.162, 6.162, 3.783, 1.255, 3.783, 1.255, 1.255, 6.162, 1.255, 3.783, 3.783, 6.162, 6.162, 6.162, 1.255, 1.255, 1.255, 6.162, 6.162, 3.783, 1.255, 6.162, 6.162, 3.783, 1.255, 6.162, 1.255, 6.162, 1.255 ]
3
[ 0.468, 0.573, 0.573, 0.478, 0.468, 0.573, 0.478, 0.573, 0.478, 0.468, 0.573, 0.478, 0.478, 0.468, 0.478, 0.468, 0.478, 0.478, 0.468, 0.468, 0.573, 0.468, 0.573, 0.478, 0.478, 0.468, 0.573, 0.573, 0.468, 0.478, 0.468, 0.468, 0.468, 0.573, 0.478, 0.468, 0.468, 0.468, 0.478, 0.573, 0.468, 0.468, 0.573, 0.468, 0.478, 0.573, 0.468, 0.573, 0.468, 0.573, 0.478, 0.573, 0.468, 0.468, 0.468, 0.478, 0.478, 0.478, 0.468, 0.573, 0.478, 0.468, 0.478, 0.468, 0.478, 0.573, 0.573, 0.478, 0.478, 0.468, 0.468, 0.468, 0.573, 0.573, 0.468, 0.573, 0.468, 0.573, 0.478, 0.468, 0.468, 0.478, 0.468, 0.468, 0.468, 0.478, 0.573, 0.573, 0.468, 0.468, 0.573, 0.478, 0.478, 0.468, 0.573, 0.468, 0.468, 0.573, 0.573, 0.478 ]