4
[ 3.033, 3.033, 3.033, 3.033, 3.033, 3.079, 3.033, 3.033, 3.033, 3.033, 3.033, 3.033, 3.079, 3.033, 3.033, 3.033, 3.033, 3.079, 3.033, 3.033, 0.705, 3.033, 3.033, 3.033, 0.705, 3.033, 3.033, 3.079, 3.079, 3.033, 3.033, 3.033, 3.033, 3.033, 3.079, 3.033, 3.033, 3.033, 3.033, 0.705, 0.705, 3.033, 3.033, 3.033, 3.079, 3.033, 3.079, 3.903, 3.033, 3.033 ]
3
[ 0.601, 0.601, 0.601, 0.601, 0.086, 0.845, 0.086, 0.086, 0.601, 0.601, 0.845, 0.601, 0.601, 0.601, 0.601, 0.845, 0.601, 0.601, 0.601, 0.601, 0.086, 0.601, 0.845, 0.601, 0.086, 0.845, 0.601, 0.601, 0.086, 0.601, 0.086, 0.601, 0.601, 0.601, 0.601, 0.601, 0.845, 0.601, 0.086, 0.086, 0.845, 0.601, 0.601, 0.845, 0.601, 0.086, 0.086, 0.086, 0.601, 0.601 ]