3
[ 1.903, 1.436, 1.436, 1.436, 1.436, 1.903, 1.903, 19.772, 19.772, 1.436, 19.772, 19.772, 1.436, 1.903, 1.903, 1.436, 19.772, 1.436, 19.772, 19.772, 1.436, 1.903, 1.903, 1.903, 19.772, 1.903, 1.903, 1.436, 1.436, 1.903, 19.772, 1.903, 1.436, 1.436, 1.436, 19.772, 1.903, 19.772, 1.436, 19.772, 19.772, 1.903, 19.772, 19.772, 1.436, 1.903, 1.436, 1.436, 19.772, 1.436, 1.436, 1.436, 1.903, 19.772, 1.903, 19.772, 1.436, 1.436, 1.903, 1.903, 19.772, 1.903, 1.436, 19.772, 1.436, 1.903, 1.436, 1.436, 1.903, 1.436, 1.903, 1.436, 1.903, 1.903, 19.772, 1.436, 1.903, 1.436, 1.436, 19.772, 1.903, 1.436, 19.772, 1.903, 1.903, 1.436, 19.772, 19.772, 1.903, 1.436, 1.436, 19.772, 1.436, 19.772, 19.772, 1.903, 1.903, 19.772, 1.903, 1.436 ]
3
[ 0.443, 0.293, 0.831, 0.443, 0.831, 0.831, 0.443, 0.443, 0.293, 0.831, 0.443, 0.443, 0.443, 0.293, 0.293, 0.831, 0.831, 0.293, 0.293, 0.443, 0.293, 0.293, 0.831, 0.443, 0.443, 0.443, 0.831, 0.293, 0.831, 0.293, 0.443, 0.831, 0.831, 0.831, 0.831, 0.443, 0.831, 0.443, 0.443, 0.293, 0.831, 0.831, 0.293, 0.831, 0.443, 0.443, 0.293, 0.831, 0.831, 0.293, 0.293, 0.443, 0.443, 0.831, 0.443, 0.443, 0.831, 0.831, 0.831, 0.293, 0.293, 0.293, 0.831, 0.293, 0.831, 0.443, 0.293, 0.293, 0.831, 0.293, 0.831, 0.293, 0.293, 0.831, 0.443, 0.831, 0.293, 0.293, 0.831, 0.443, 0.293, 0.293, 0.443, 0.443, 0.293, 0.293, 0.443, 0.443, 0.831, 0.831, 0.831, 0.443, 0.831, 0.831, 0.293, 0.443, 0.293, 0.443, 0.293, 0.293 ]