3
[ 1.932, 3.204, 3.204, 1.932, 1.932, 1.932, 1.932, 1.932, 1.932, 3.564, 3.204, 1.932, 3.204, 3.204, 3.564, 3.204, 3.204, 3.564, 1.932, 3.204, 1.932, 3.564, 1.932, 3.204, 3.204, 3.204, 3.564, 3.204, 1.932, 1.932, 3.204, 1.932, 1.932, 3.204, 3.564, 3.204, 3.204, 3.564, 3.204, 3.204, 3.564, 3.204, 3.564, 1.932, 3.564, 3.204, 3.204, 3.204, 3.204, 3.564, 3.564, 3.564, 3.204, 3.564, 3.564, 3.204, 1.932, 3.564, 3.204, 1.932, 3.204, 3.564, 3.204, 3.564, 3.204, 1.932, 3.564, 3.204, 1.932, 3.204, 1.932, 1.932, 1.932, 3.204, 3.564, 1.932, 3.564, 1.932, 1.932, 3.564, 3.564, 1.932, 1.932, 3.564, 3.204, 1.932, 3.564, 3.204, 1.932, 3.564, 3.204, 3.564, 3.564, 1.932, 1.932, 3.204, 1.932, 3.564, 3.204, 1.932, 3.204, 3.564, 3.564, 3.204, 3.564, 1.932, 3.204, 3.204, 3.564, 3.564, 3.564, 3.564, 3.564, 3.564, 1.932, 3.204, 3.204, 3.564, 3.204, 3.564, 3.204, 1.932, 1.932, 3.204, 3.564, 1.932, 3.204, 1.932, 3.204, 1.932, 3.564, 3.564, 3.564, 1.932, 1.932, 1.932, 3.204, 3.564, 3.564, 1.932, 1.932, 1.932, 1.932, 1.932, 1.932, 3.204, 3.204, 3.204, 3.564, 3.564, 3.204, 3.204, 3.204, 3.564, 3.204, 1.932, 3.204, 1.932, 1.932, 1.932, 1.932, 1.932, 3.564, 3.204, 1.932, 3.204, 1.932, 1.932, 1.932, 3.564, 3.204, 3.564, 3.564, 3.204, 3.564, 1.932, 3.564, 3.564, 3.204, 3.204, 3.204, 1.932, 3.204, 3.564, 1.932, 3.564, 3.564, 3.204, 3.564, 3.204, 1.932, 1.932, 3.204, 1.932, 3.564, 3.564, 3.564, 3.564, 3.564, 3.204 ]
3
[ 0.050, 0.909, 0.050, 0.909, 0.909, 0.909, 0.656, 0.050, 0.050, 0.656, 0.656, 0.909, 0.050, 0.909, 0.909, 0.050, 0.656, 0.050, 0.050, 0.050, 0.909, 0.909, 0.909, 0.656, 0.050, 0.050, 0.656, 0.050, 0.050, 0.909, 0.656, 0.909, 0.656, 0.050, 0.656, 0.656, 0.909, 0.050, 0.909, 0.050, 0.909, 0.050, 0.909, 0.909, 0.656, 0.909, 0.050, 0.656, 0.909, 0.050, 0.050, 0.656, 0.909, 0.656, 0.909, 0.909, 0.909, 0.050, 0.909, 0.050, 0.909, 0.909, 0.050, 0.656, 0.909, 0.050, 0.656, 0.656, 0.909, 0.656, 0.656, 0.909, 0.656, 0.909, 0.656, 0.050, 0.050, 0.050, 0.050, 0.656, 0.656, 0.050, 0.050, 0.050, 0.656, 0.909, 0.050, 0.909, 0.909, 0.050, 0.050, 0.050, 0.656, 0.909, 0.909, 0.050, 0.656, 0.656, 0.909, 0.050, 0.909, 0.909, 0.050, 0.050, 0.656, 0.656, 0.050, 0.909, 0.909, 0.050, 0.656, 0.656, 0.050, 0.909, 0.909, 0.050, 0.909, 0.909, 0.909, 0.909, 0.050, 0.050, 0.656, 0.909, 0.050, 0.050, 0.656, 0.909, 0.050, 0.909, 0.656, 0.909, 0.656, 0.050, 0.909, 0.050, 0.050, 0.909, 0.909, 0.909, 0.909, 0.656, 0.909, 0.909, 0.656, 0.656, 0.909, 0.050, 0.909, 0.909, 0.050, 0.656, 0.909, 0.909, 0.050, 0.050, 0.050, 0.050, 0.050, 0.656, 0.050, 0.656, 0.909, 0.656, 0.656, 0.050, 0.909, 0.050, 0.909, 0.656, 0.050, 0.050, 0.656, 0.656, 0.656, 0.656, 0.656, 0.656, 0.050, 0.909, 0.909, 0.909, 0.909, 0.656, 0.656, 0.909, 0.656, 0.909, 0.656, 0.050, 0.656, 0.909, 0.656, 0.656, 0.909, 0.050, 0.909, 0.050, 0.909, 0.656 ]