rate_constant_pi_constant_tree_unrooted_run_1	rate_constant_pi_constant_tree_unrooted_run_2	rate_constant_pi_constant_tree_unrooted_run_3	rate_constant_pi_constant_tree_unrooted_run_4	rate_DPP_pi_DPP_tree_unrooted_run_1	rate_DPP_pi_DPP_tree_unrooted_run_2	rate_DPP_pi_DPP_tree_unrooted_run_3	rate_DPP_pi_DPP_tree_unrooted_run_4	rate_discrete_gamma_pi_discrete_beta_tree_unrooted_run_1	rate_discrete_gamma_pi_discrete_beta_tree_unrooted_run_2	rate_discrete_gamma_pi_discrete_beta_tree_unrooted_run_3	rate_discrete_gamma_pi_discrete_beta_tree_unrooted_run_4
NA	NA	NA	NA	NA	NA	NA	NA	NA	NA	NA	NA
7.93223299861286	7.7818314599604	7.92097653142424	7.90970541525422	7.74449626284483	7.99109724312156	7.76175110723328	7.80757134792399	8.39974485578574	8.26409239450573	8.30763510221944	8.2994810803865
11.7674265232121	11.7787505582984	11.8727890125375	11.8670572304309	11.8928847328104	12.0117255263763	11.9245744778172	11.9942073195915	13.6237685163504	13.7185624565078	13.8298087686222	13.6110533281575
5.68972812682568	6.09416020729155	5.71910019095824	5.77670024136901	6.4686581478372	6.56103837134759	6.47910596266854	6.20253813093511	7.77129584546374	7.68990355788391	7.8382679530109	7.80803433299612
13.525244188239	13.6745525042559	13.5876849797317	13.5876849797317	14.0117438566203	14.2150806999601	14.030113213349	14.2579292417323	15.7055196231485	15.8496654586784	15.7570161449943	15.7897259804823
6.2357290742555	6.15635414609275	6.21378129119668	6.24946729421353	6.64505993493291	6.41850826541382	6.35721846327929	6.38781462430385	6.24122240896783	6.2357290742555	6.2357290742555	6.32117953805838
15.083797187806	14.9879969295515	14.7095022999655	14.8812676245581	15.2011436527531	15.1166856902466	15.1001795580474	15.1333175607639	18.5886595923162	18.3414391576031	18.8701972379348	18.121022749389
8.03104930320194	7.98531865809921	7.96266546984571	7.98153344534088	7.84776061380663	7.89182654708457	7.95139070135573	8.01956272889172	9.81750089290814	9.78943934522933	9.75479200040636	9.60766519320609
8.14057634952879	8.16457364679707	8.12448502363134	8.00131072817973	7.88641186572967	8.09207413824342	8.05523907212278	8.17651037124113	8.488321311999	8.45535122853394	8.52823916678274	8.3885393821763
2.04892837781719	1.98488757086484	2.15256562454004	1.99566241630577	2.25262399071386	2.23783111987554	2.14747142973351	2.08041484717997	0.490839348739112	0.668799394038479	0.595493718135842	0.641574141975677
3.87442888417552	3.91194987134291	3.92123786882818	4.14240400084118	3.94888551018177	3.91194987134291	3.71805838534465	3.82667272678311	2.78164639318181	2.34267043809834	2.58994963460936	2.50483161308166
8.8923390158658	9.06261276853309	9.01516371523445	9.17100113294612	8.38169086812526	8.5249514658297	8.47648480828261	8.73619212227587	7.20908364431504	7.29819244900258	7.20593033987736	7.25980672174091
6.94897239281988	7.02551964742218	6.94299317812632	7.06586042530152	6.87632515179125	7.01388310713738	7.060133822137	6.91894217422228	7.40987238453666	7.4749612719053	7.41998096102268	7.43507835915509
6.54075132495131	6.87823408296426	6.67771578933188	6.73050888969551	6.84773675565302	6.76879578926505	6.77225894763335	6.83411285465393	6.75143659272234	6.93193194594429	6.90516474579997	6.85792643168134
4.05637299250957	3.80729550194618	3.80729550194618	3.70792937177568	3.63576334925604	3.34600294454262	3.41619981328741	3.55043655885364	1.64048211799938	1.93153589038925	1.95408143479431	2.24703100589657
3.13578343504019	2.75663620491846	2.81528547385085	2.87230165031635	2.81528547385085	2.63403925233971	1.87792739755785	2.29087587423624	0.0815828727514845	1.68596475601962	0.292972464995977	0.658953371275906
2.67178545948564	2.89830866867629	3.00293434004093	2.89830866867629	2.07451231701036	2.02050094516121	2.86223028200364	2.27738102447104	0.970654093994789	0.77869145245656	-0.0875652848776234	0.566629039467553
-5.7641403986915	-7.15110153761386	-4.95254318230224	-4.95254318230224	-Inf	-Inf	-5.7641403986915	-4.95254318230224	-Inf	-7.15110153761386	-Inf	-7.15110153761386
-10.4675576908209	-Inf	-Inf	-9.08059655189857	-Inf	-Inf	-10.4675576908209	-Inf	-Inf	-Inf	-Inf	-Inf
2.7171462808208	2.67880174019126	2.61823984022527	2.62696152985255	2.75085846250157	2.74246262961759	2.92647945679532	2.81316142389763	3.12015379588337	3.25717116369647	3.15767985036294	3.19113418089407
0.0613201155030172	-0.614300838567084	0.0613201155030172	-1.061924839641	0.45164185816985	-0.248319932287155	0.199975538710868	-0.423011694468002	-0.423011694468002	-0.825690430811576	-1.061924839641	-0.825690430811576
6.28339870494797	5.86039142653896	6.09416020729155	5.86039142653896	6.30598539877569	6.30598539877569	6.41569957884364	6.39417135532728	7.99024203740019	7.77745427113903	7.82016882777321	7.72778139824296
5.91988339658352	6.05106328480361	5.95557272139542	6.09324776170076	5.46516677525216	5.38744661696289	5.58223359960164	5.29526482737205	4.0519738964381	3.51345029467275	3.51345029467275	3.4594481566172
6.36149699207046	6.80003483219233	6.5710801438436	6.65956752536426	6.93266755811431	6.71675992438822	6.73552009325848	7.03374758411902	5.33772641166282	5.00023176499301	5.07992580447772	5.33772641166282
-0.618171962229868	-0.86539239694298	-0.618171962229868	-0.86539239694298	-0.136638487954954	-0.397755554015724	-1.25018743462986	-1.86430137951507	-2.75131192582967	-1.59589900948722	-2.9875463346591	-3.25527723416189
5.2235919140628	5.23569579561994	5.1116362370941	5.02053687983109	4.84081409194117	5.02053687983109	5.31866201347031	5.09884626520185	3.48662225394547	2.82551426912451	3.19763911223318	3.31804769538165
3.76950358556671	3.84104492089367	3.73278757268757	4.39389555750853	2.87230165031635	3.08572264829247	3.32466881167224	3.36930332956558	0.292972464995977	0.819708018685438	0.0815828727514845	0.658953371275906
7.63853353806113	7.23936631663415	7.43627447415422	7.32146193375112	7.24694234623759	6.86284602495848	7.090823948711	6.82715670014658	5.80494880663495	5.81893952337224	6.04427335541327	5.87403907280668
7.56620301560595	7.37233668977235	7.35790577659173	7.4009531508533	7.07465226166917	7.17011900213208	7.14659812503979	7.23936631663415	5.92781018339415	5.86039142653896	5.58373273636841	5.9542184639262
3.6922667506559	4.11316082340274	3.78805120774226	3.61747561152494	3.92409085612698	3.76450735650359	4.0101901219966	3.81133701353585	2.78813722035788	2.54850335103266	2.41739550810918	3.13473339702682
-0.0551907444966684	0.255609640134641	-0.0428894205578079	0.179000534326637	0.255609640134641	0.167844775917238	0.212146040282242	-0.0184857341623568	-1.40770710235116	-1.89497820546003	-1.36237471841276	-1.14911918679521
2.92777424872427	2.6962563106262	2.98178562057342	3.03441169887159	2.50361540866688	2.6962563106262	3.08572264829247	2.29087587423624	0.484261609095059	0.292972464995977	1.23699578909394	1.23699578909394
-5.49039758051231	-5.66508934269316	-5.18075753272214	-7.24601341992646	-5.66508934269316	-5.32964293310278	-6.30400248786616	-5.85637848679224	-5.66508934269316	-4.91235516269428	-5.49039758051231	-5.49039758051231
-0.618171962229868	-1.35899245555054	-0.618171962229868	-0.779601463649033	-0.46861102795916	-1.25018743462986	-0.542018924344914	-2.9875463346591	-1.47397963684824	-1.35899245555054	-1.14693004256153	-1.59589900948722
1.8493629013554	1.38360257067318	1.06022909807511	1.78898300706314	1.78898300706314	1.66259503808152	0.876942809152666	1.14602003136906	2.02050094516121	2.37177332083629	2.07451231701036	1.06022909807511
1.78898300706314	1.06022909807511	1.78898300706314	0.876942809152666	0.970654093994789	0.675434060388234	1.66259503808152	0.77869145245656	0.45164185816985	0.0613201155030172	-0.825690430811576	-0.0875652848776234
4.97983739800117	4.89626160138517	5.0204341269658	4.67178066006665	4.28302794064443	4.54997414908806	4.10491241579624	4.22532099894471	1.87792739755785	2.43513924456543	2.50361540866688	1.47390234303061
4.75268695182311	4.37773596549055	4.44774503763822	4.39545094635925	4.69191760587914	4.15300428600855	4.35987511703305	4.21141893700089	2.75007441319051	2.71129971223702	2.86223028200364	2.89830866867629
-1.3296557391438	-1.3296557391438	-0.825690430811576	-1.3296557391438	0.566629039467553	-1.63862498993827	-0.248319932287155	-0.423011694468002	-1.061924839641	-1.63862498993827	-1.061924839641	0.199975538710868
0.252827849711318	0.622881856014565	0.862515725339788	0.78567821721893	-0.618171962229868	0.302888636459032	-0.017609324730298	0.0394068517351975	-2.17394142730525	-3.56424648495636	-3.56424648495636	-3.56424648495636
-8.26899933550931	-8.26899933550931	-7.24601341992646	-Inf	-9.08059655189857	-10.4675576908209	-10.4675576908209	-10.4675576908209	-Inf	-Inf	-Inf	-Inf
-5.85637848679224	-5.04210210951429	-5.66508934269316	-6.30400248786616	-4.79043579005531	-4.91235516269428	-4.79043579005531	-6.57173338736896	-5.18075753272214	-5.66508934269316	-6.06776807903674	-5.49039758051231
0.824452918172417	1.00815012231252	1.53382666159911	1.36296648086806	0.78567821721893	0.14889082199227	0.302888636459032	0.536408530984422	-2.34863318948609	-2.75131192582967	-2.34863318948609	-1.86430137951507
2.6962563106262	2.13560925409822	2.98178562057342	2.98178562057342	3.13578343504019	2.05329333493212	3.27904662439935	3.03441169887159	1.78421611271573	1.23699578909394	0.658953371275906	0.819708018685438
0.536408530984422	0.399496542532262	0.824452918172417	0.705880858657043	0.201516900290434	-0.198855546241438	0.399496542532262	-0.198855546241438	-1.14693004256153	-1.59589900948722	-0.779601463649033	-2.17394142730525
-0.248319932287155	0.0613201155030172	0.0613201155030172	0.199975538710868	-0.825690430811576	-0.0875652848776234	-1.3296557391438	-2.0039357717013	-2.45089031968882	-0.825690430811576	-2.0039357717013	-2.0039357717013
1.38360257067318	1.66259503808152	1.30744953278822	1.72676594877665	1.52786594100237	1.8493629013554	1.30744953278822	1.38360257067318	-1.061924839641	-2.0039357717013	-1.63862498993827	-2.0039357717013
-0.154651536077944	-0.731351686375209	0.292972464995977	-0.422382435580738	-2.11964838372109	-1.09666246813824	-1.54361701612576	-2.11964838372109	-4.31820673903271	-Inf	-Inf	-4.31820673903271
-2.93124560011035	-Inf	-4.31820673903271	-Inf	-Inf	-Inf	-Inf	-4.31820673903271	-Inf	-Inf	-Inf	-Inf
-0.954967401023303	-1.25018743462986	-1.35899245555054	-2.34863318948609	-2.53992233358518	-1.47397963684824	-1.47397963684824	-0.954967401023303	-1.04867868586543	-2.17394142730525	-1.47397963684824	-2.01318677989572
3.08572264829247	2.43513924456543	2.63403925233971	3.13578343504019	3.08572264829247	2.63403925233971	3.08572264829247	2.63403925233971	1.78421611271573	0.819708018685438	1.5827073639513	1.10724884227393
1.90801217028779	1.30744953278822	1.52786594100237	1.66259503808152	2.37177332083629	2.41739550810918	2.22851013147712	1.45701046705893	1.30744953278822	1.96502834675329	2.22851013147712	2.54850335103266
-0.825690430811576	-1.63862498993827	-1.63862498993827	-0.825690430811576	-1.061924839641	-1.63862498993827	-1.061924839641	-1.061924839641	-5.22548004259577	-Inf	-Inf	-3.83851890367341
-0.017609324730298	-0.329279389914277	0.399496542532262	0.536408530984422	0.351759529452945	0.201516900290434	0.302888636459032	-0.263026456936569	-3.25527723416189	-2.17394142730525	-3.56424648495636	-2.17394142730525
-3.92955726671939	-4.37651181470692	-3.56424648495636	-5.7641403986915	-2.9875463346591	-4.95254318230224	-4.37651181470692	-4.37651181470692	-7.15110153761386	-5.7641403986915	-7.15110153761386	-4.37651181470692
-3.83851890367341	-3.02692168728415	-2.45089031968882	-3.83851890367341	-3.83851890367341	-3.02692168728415	-3.83851890367341	-Inf	-Inf	-3.83851890367341	-Inf	-3.83851890367341
-3.92955726671939	-4.95254318230224	-4.37651181470692	-3.92955726671939	-4.95254318230224	-3.92955726671939	-5.7641403986915	-4.37651181470692	-7.15110153761386	-7.15110153761386	-Inf	-Inf
0.199975538710868	-0.614300838567084	0.329722485530876	-0.825690430811576	-2.0039357717013	-0.825690430811576	0.45164185816985	-0.423011694468002	-Inf	-Inf	-Inf	-3.83851890367341
-4.37651181470692	-5.7641403986915	-7.15110153761386	-5.7641403986915	-5.7641403986915	-Inf	-Inf	-7.15110153761386	-Inf	-Inf	-Inf	-Inf
0.292972464995977	-0.731351686375209	0.292972464995977	-0.154651536077944	-0.154651536077944	-0.154651536077944	-0.731351686375209	-0.422382435580738	-Inf	-2.93124560011035	-1.09666246813824	-4.31820673903271
-6.88070263816343	-6.06776807903674	-7.69296796791398	-9.08059655189857	-7.69296796791398	-10.4675576908209	-5.66508934269316	-9.08059655189857	-9.08059655189857	-8.26899933550931	-9.08059655189857	-10.4675576908209
-9.08059655189857	-10.4675576908209	-10.4675576908209	-10.4675576908209	-Inf	-10.4675576908209	-9.08059655189857	-9.08059655189857	-Inf	-10.4675576908209	-10.4675576908209	-Inf
-1.061924839641	-2.45089031968882	-1.3296557391438	-2.0039357717013	-0.614300838567084	-0.825690430811576	-1.3296557391438	-1.3296557391438	-1.63862498993827	-3.02692168728415	-3.83851890367341	-0.614300838567084
-4.31820673903271	-Inf	-Inf	-Inf	-Inf	-Inf	-Inf	-Inf	-Inf	-Inf	-Inf	-Inf
-7.69296796791398	-6.57173338736896	-9.08059655189857	-7.69296796791398	-8.26899933550931	-9.08059655189857	-9.08059655189857	-10.4675576908209	-10.4675576908209	-Inf	-10.4675576908209	-10.4675576908209
-5.85637848679224	-5.85637848679224	-5.66508934269316	-6.06776807903674	-5.85637848679224	-6.06776807903674	-6.88070263816343	-5.85637848679224	-7.24601341992646	-6.57173338736896	-6.57173338736896	-6.88070263816343
0.199975538710868	0.566629039467553	0.199975538710868	0.0613201155030172	0.876942809152666	0.0613201155030172	0.45164185816985	-0.248319932287155	-0.423011694468002	-0.0875652848776234	-1.3296557391438	0.199975538710868
-2.11964838372109	-4.31820673903271	-4.31820673903271	-2.11964838372109	-0.422382435580738	-4.31820673903271	-4.31820673903271	-Inf	-Inf	-4.31820673903271	-4.31820673903271	-2.93124560011035
-4.37651181470692	-4.37651181470692	-3.56424648495636	-5.7641403986915	-Inf	-3.56424648495636	-4.37651181470692	-4.95254318230224	-Inf	-7.15110153761386	-4.95254318230224	-5.7641403986915
1.35891516173291	1.5827073639513	1.10724884227393	0.658953371275906	0.819708018685438	-0.154651536077944	1.47390234303061	0.658953371275906	0.292972464995977	-0.154651536077944	-0.731351686375209	-2.93124560011035
-6.57173338736896	-6.06776807903674	-6.30400248786616	-7.24601341992646	-4.79043579005531	-7.24601341992646	-5.85637848679224	-5.85637848679224	-10.4675576908209	-6.57173338736896	-6.88070263816343	-6.88070263816343
-2.9875463346591	-4.37651181470692	-3.92955726671939	-4.37651181470692	-2.9875463346591	-3.25527723416189	-3.92955726671939	-2.9875463346591	-Inf	-5.7641403986915	-4.95254318230224	-5.7641403986915
-1.09666246813824	-0.154651536077944	-1.09666246813824	-0.731351686375209	-0.154651536077944	-2.11964838372109	-0.422382435580738	0.292972464995977	-2.11964838372109	-1.09666246813824	-2.11964838372109	-1.09666246813824
-7.15110153761386	-3.25527723416189	-5.7641403986915	-4.37651181470692	-4.37651181470692	-3.25527723416189	-4.95254318230224	-2.17394142730525	-4.95254318230224	-4.95254318230224	-5.7641403986915	-3.56424648495636
-9.08059655189857	-7.24601341992646	-8.26899933550931	-7.69296796791398	-9.08059655189857	-7.69296796791398	-9.08059655189857	-8.26899933550931	-Inf	-9.08059655189857	-10.4675576908209	-9.08059655189857
-8.26899933550931	-9.08059655189857	-10.4675576908209	-Inf	-Inf	-8.26899933550931	-10.4675576908209	-9.08059655189857	-9.08059655189857	-10.4675576908209	-10.4675576908209	-Inf
-5.22548004259577	-Inf	-5.22548004259577	-5.22548004259577	-Inf	-Inf	-5.22548004259577	-5.22548004259577	-Inf	-Inf	-Inf	-Inf
-4.31820673903271	-Inf	-Inf	-Inf	-Inf	-Inf	-Inf	-Inf	-Inf	-Inf	-Inf	-Inf
-3.83851890367341	-Inf	-3.83851890367341	-5.22548004259577	-5.22548004259577	-5.22548004259577	-5.22548004259577	-Inf	-5.22548004259577	-3.83851890367341	-Inf	-3.83851890367341
-2.34863318948609	-2.34863318948609	-2.01318677989572	-2.53992233358518	-3.92955726671939	-2.01318677989572	-3.56424648495636	-4.37651181470692	-7.15110153761386	-7.15110153761386	-Inf	-Inf
-1.54361701612576	-2.11964838372109	-2.11964838372109	-2.93124560011035	-2.11964838372109	-1.54361701612576	-4.31820673903271	-2.93124560011035	-4.31820673903271	-4.31820673903271	-Inf	-2.93124560011035
-0.154651536077944	-0.154651536077944	-0.154651536077944	-0.731351686375209	-1.54361701612576	-2.93124560011035	-4.31820673903271	-2.93124560011035	-Inf	-Inf	-Inf	-Inf
0.292972464995977	0.819708018685438	0.484261609095059	0.484261609095059	0.819708018685438	0.484261609095059	-0.731351686375209	0.658953371275906	-Inf	-4.31820673903271	-4.31820673903271	-4.31820673903271
-1.54361701612576	-2.93124560011035	-2.93124560011035	-4.31820673903271	-Inf	-4.31820673903271	-Inf	-2.93124560011035	-Inf	-Inf	-Inf	-Inf
-1.63862498993827	-1.63862498993827	-2.45089031968882	-3.83851890367341	-5.22548004259577	-2.0039357717013	-2.45089031968882	-0.248319932287155	-Inf	-5.22548004259577	-Inf	-5.22548004259577
-2.93124560011035	-4.31820673903271	-2.93124560011035	-Inf	-4.31820673903271	-Inf	-4.31820673903271	-2.11964838372109	-2.11964838372109	-Inf	-2.93124560011035	-2.11964838372109
-5.22548004259577	-Inf	-Inf	-Inf	-5.22548004259577	-Inf	-5.22548004259577	-5.22548004259577	-Inf	-Inf	-Inf	-Inf
-1.061924839641	-0.614300838567084	0.199975538710868	0.0613201155030172	-1.3296557391438	-2.0039357717013	-0.614300838567084	0.0613201155030172	-5.22548004259577	-1.63862498993827	-Inf	-5.22548004259577
-3.02692168728415	-5.22548004259577	-5.22548004259577	-2.45089031968882	-2.0039357717013	-3.83851890367341	-2.0039357717013	-5.22548004259577	-Inf	-Inf	-Inf	-3.02692168728415
-7.69296796791398	-9.08059655189857	-7.69296796791398	-9.08059655189857	-7.69296796791398	-7.24601341992646	-7.24601341992646	-9.08059655189857	-9.08059655189857	-8.26899933550931	-7.24601341992646	-Inf
-4.95254318230224	-4.95254318230224	-5.7641403986915	-4.95254318230224	-7.15110153761386	-3.92955726671939	-4.37651181470692	-4.95254318230224	-Inf	-Inf	-Inf	-Inf
-4.31820673903271	-Inf	-Inf	-Inf	-Inf	-Inf	-4.31820673903271	-Inf	-Inf	-Inf	-Inf	-Inf
-4.95254318230224	-7.15110153761386	-7.15110153761386	-Inf	-7.15110153761386	-Inf	-7.15110153761386	-Inf	-Inf	-7.15110153761386	-7.15110153761386	-Inf
-1.54361701612576	-2.11964838372109	-0.422382435580738	-2.93124560011035	-0.154651536077944	-0.154651536077944	-0.422382435580738	-2.11964838372109	-1.54361701612576	-2.93124560011035	-1.54361701612576	-2.93124560011035
-1.54361701612576	0.0815828727514845	-2.11964838372109	-2.11964838372109	-1.54361701612576	-2.11964838372109	-0.731351686375209	-0.154651536077944	-2.93124560011035	-4.31820673903271	-Inf	-Inf
-3.56424648495636	-2.17394142730525	-2.9875463346591	-3.25527723416189	-2.9875463346591	-2.75131192582967	-4.37651181470692	-2.75131192582967	-Inf	-7.15110153761386	-7.15110153761386	-5.7641403986915
-10.4675576908209	-Inf	-Inf	-Inf	-Inf	-Inf	-Inf	-Inf	-Inf	-10.4675576908209	-10.4675576908209	-Inf
-5.22548004259577	-Inf	-3.83851890367341	-5.22548004259577	-Inf	-3.83851890367341	-5.22548004259577	-5.22548004259577	-Inf	-Inf	-5.22548004259577	-Inf
-3.56424648495636	-5.7641403986915	-4.95254318230224	-5.7641403986915	-Inf	-4.95254318230224	-4.37651181470692	-2.75131192582967	-7.15110153761386	-5.7641403986915	-7.15110153761386	-Inf
-2.11964838372109	-1.54361701612576	-1.54361701612576	-2.11964838372109	-4.31820673903271	-Inf	-2.11964838372109	-4.31820673903271	-Inf	-Inf	-Inf	-Inf
-4.31820673903271	-Inf	-Inf	-Inf	-Inf	-Inf	-Inf	-Inf	-Inf	-Inf	-Inf	-Inf
-5.22548004259577	-Inf	-5.22548004259577	-Inf	-Inf	-Inf	-Inf	-Inf	-Inf	-Inf	-Inf	-Inf
-3.02692168728415	-3.02692168728415	-Inf	-2.45089031968882	-3.02692168728415	-3.83851890367341	-5.22548004259577	-3.83851890367341	-5.22548004259577	-5.22548004259577	-Inf	-Inf
-10.4675576908209	-10.4675576908209	-7.69296796791398	-8.26899933550931	-Inf	-10.4675576908209	-10.4675576908209	-10.4675576908209	-Inf	-Inf	-10.4675576908209	-Inf
-4.31820673903271	-1.54361701612576	-4.31820673903271	-1.54361701612576	-2.11964838372109	-Inf	-4.31820673903271	-4.31820673903271	-Inf	-Inf	-4.31820673903271	-Inf
-2.93124560011035	-2.11964838372109	-Inf	-2.93124560011035	-4.31820673903271	-Inf	-2.93124560011035	-4.31820673903271	-Inf	-4.31820673903271	-Inf	-Inf
-2.93124560011035	-2.93124560011035	-Inf	-2.93124560011035	-4.31820673903271	-Inf	-4.31820673903271	-4.31820673903271	-4.31820673903271	-Inf	-Inf	-Inf
-2.11964838372109	-2.93124560011035	-2.93124560011035	-1.54361701612576	-4.31820673903271	-2.11964838372109	-2.11964838372109	-1.54361701612576	-4.31820673903271	-Inf	-Inf	-2.93124560011035
-2.0039357717013	-2.0039357717013	-3.02692168728415	-Inf	-Inf	-5.22548004259577	-2.45089031968882	-5.22548004259577	-Inf	-Inf	-Inf	-Inf
-3.83851890367341	-2.0039357717013	-2.0039357717013	-1.3296557391438	-1.3296557391438	-2.0039357717013	-1.63862498993827	-2.0039357717013	-3.83851890367341	-Inf	-2.45089031968882	-3.83851890367341
-5.22548004259577	-Inf	-Inf	-Inf	-Inf	-Inf	-Inf	-Inf	-Inf	-Inf	-Inf	-Inf
-7.15110153761386	-Inf	-7.15110153761386	-Inf	-Inf	-Inf	-7.15110153761386	-Inf	-Inf	-Inf	-Inf	-7.15110153761386
-4.31820673903271	-4.31820673903271	-Inf	-Inf	-2.93124560011035	-Inf	-2.93124560011035	-Inf	-4.31820673903271	-Inf	-Inf	-Inf
-5.22548004259577	-3.83851890367341	-Inf	-Inf	-Inf	-Inf	-3.83851890367341	-Inf	-Inf	-5.22548004259577	-Inf	-5.22548004259577
-5.22548004259577	-3.83851890367341	-Inf	-Inf	-Inf	-Inf	-Inf	-5.22548004259577	-5.22548004259577	-5.22548004259577	-Inf	-Inf
-3.83851890367341	-5.22548004259577	-3.83851890367341	-3.02692168728415	-3.83851890367341	-3.83851890367341	-2.0039357717013	-Inf	-Inf	-5.22548004259577	-5.22548004259577	-Inf
-4.31820673903271	-Inf	-Inf	-Inf	-Inf	-Inf	-Inf	-Inf	-Inf	-Inf	-Inf	-Inf
-7.15110153761386	-Inf	-7.15110153761386	-7.15110153761386	-5.7641403986915	-7.15110153761386	-4.95254318230224	-Inf	-Inf	-7.15110153761386	-Inf	-7.15110153761386
-4.31820673903271	-4.31820673903271	-Inf	-Inf	-4.31820673903271	-2.93124560011035	-Inf	-Inf	-Inf	-Inf	-Inf	-Inf
-4.31820673903271	-Inf	-Inf	-Inf	-Inf	-Inf	-Inf	-Inf	-Inf	-Inf	-Inf	-Inf
-5.22548004259577	-3.83851890367341	-5.22548004259577	-5.22548004259577	-Inf	-Inf	-Inf	-Inf	-Inf	-Inf	-Inf	-Inf
-10.4675576908209	-Inf	-Inf	-10.4675576908209	-10.4675576908209	-Inf	-8.26899933550931	-9.08059655189857	-10.4675576908209	-Inf	-Inf	-9.08059655189857
-7.15110153761386	-7.15110153761386	-7.15110153761386	-Inf	-7.15110153761386	-Inf	-Inf	-7.15110153761386	-7.15110153761386	-Inf	-Inf	-7.15110153761386
-10.4675576908209	-9.08059655189857	-10.4675576908209	-8.26899933550931	-8.26899933550931	-8.26899933550931	-7.24601341992646	-9.08059655189857	-9.08059655189857	-7.69296796791398	-10.4675576908209	-10.4675576908209
-5.22548004259577	-Inf	-Inf	-5.22548004259577	-Inf	-Inf	-5.22548004259577	-Inf	-Inf	-Inf	-Inf	-Inf
-7.15110153761386	-Inf	-Inf	-Inf	-Inf	-Inf	-Inf	-Inf	-Inf	-Inf	-Inf	-Inf
-5.7641403986915	-7.15110153761386	-5.7641403986915	-4.37651181470692	-3.56424648495636	-4.37651181470692	-3.92955726671939	-4.95254318230224	-7.15110153761386	-7.15110153761386	-7.15110153761386	-5.7641403986915
-4.31820673903271	-Inf	-4.31820673903271	-Inf	-Inf	-Inf	-Inf	-Inf	-Inf	-Inf	-Inf	-Inf
-5.22548004259577	-Inf	-5.22548004259577	-Inf	-3.83851890367341	-5.22548004259577	-Inf	-Inf	-5.22548004259577	-Inf	-Inf	-Inf
-4.31820673903271	-4.31820673903271	-Inf	-Inf	-Inf	-4.31820673903271	-Inf	-Inf	-Inf	-Inf	-Inf	-Inf
-Inf	-7.15110153761386	-5.7641403986915	-7.15110153761386	-Inf	-Inf	-Inf	-Inf	-Inf	-Inf	-Inf	-Inf
-Inf	-4.31820673903271	-Inf	-Inf	-Inf	-Inf	-Inf	-Inf	-Inf	-Inf	-Inf	-4.31820673903271
-Inf	-8.26899933550931	-10.4675576908209	-Inf	-Inf	-Inf	-Inf	-8.26899933550931	-Inf	-Inf	-Inf	-Inf
-Inf	-3.83851890367341	-5.22548004259577	-5.22548004259577	-Inf	-5.22548004259577	-Inf	-Inf	-5.22548004259577	-Inf	-Inf	-Inf
-Inf	-4.31820673903271	-4.31820673903271	-Inf	-Inf	-4.31820673903271	-Inf	-2.93124560011035	-Inf	-Inf	-Inf	-Inf
-Inf	-3.83851890367341	-3.83851890367341	-5.22548004259577	-5.22548004259577	-Inf	-3.83851890367341	-5.22548004259577	-Inf	-Inf	-Inf	-Inf
-Inf	-4.31820673903271	-Inf	-Inf	-Inf	-Inf	-Inf	-Inf	-Inf	-Inf	-Inf	-Inf
-Inf	-5.22548004259577	-Inf	-Inf	-Inf	-Inf	-5.22548004259577	-Inf	-Inf	-Inf	-Inf	-Inf
-Inf	-4.31820673903271	-Inf	-4.31820673903271	-Inf	-Inf	-Inf	-Inf	-Inf	-Inf	-Inf	-Inf
-Inf	-2.93124560011035	-2.11964838372109	-4.31820673903271	-4.31820673903271	-4.31820673903271	-2.93124560011035	-Inf	-4.31820673903271	-Inf	-Inf	-2.93124560011035
-Inf	-4.31820673903271	-Inf	-4.31820673903271	-Inf	-Inf	-Inf	-Inf	-Inf	-Inf	-Inf	-Inf
-Inf	-9.08059655189857	-9.08059655189857	-9.08059655189857	-7.69296796791398	-8.26899933550931	-Inf	-10.4675576908209	-10.4675576908209	-10.4675576908209	-Inf	-10.4675576908209
-Inf	-4.31820673903271	-Inf	-Inf	-Inf	-Inf	-Inf	-Inf	-Inf	-Inf	-Inf	-Inf
-Inf	-5.22548004259577	-Inf	-Inf	-5.22548004259577	-Inf	-Inf	-Inf	-Inf	-Inf	-Inf	-Inf
-Inf	-5.22548004259577	-Inf	-Inf	-Inf	-Inf	-Inf	-Inf	-Inf	-Inf	-Inf	-Inf
-Inf	-4.31820673903271	-Inf	-Inf	-Inf	-Inf	-Inf	-4.31820673903271	-Inf	-Inf	-Inf	-Inf
-Inf	-2.11964838372109	-2.93124560011035	-4.31820673903271	-2.93124560011035	-1.09666246813824	-2.93124560011035	-1.54361701612576	-2.93124560011035	-4.31820673903271	-4.31820673903271	-Inf
-Inf	-5.22548004259577	-Inf	-Inf	-5.22548004259577	-Inf	-Inf	-Inf	-Inf	-Inf	-Inf	-Inf
-Inf	-7.15110153761386	-Inf	-7.15110153761386	-Inf	-Inf	-Inf	-Inf	-Inf	-Inf	-Inf	-Inf
-Inf	-5.22548004259577	-3.83851890367341	-2.45089031968882	-5.22548004259577	-Inf	-5.22548004259577	-5.22548004259577	-Inf	-Inf	-Inf	-Inf
-Inf	-Inf	-4.31820673903271	-2.93124560011035	-4.31820673903271	-Inf	-2.93124560011035	-Inf	-Inf	-2.93124560011035	-4.31820673903271	-Inf
-Inf	-Inf	-2.93124560011035	-2.11964838372109	-4.31820673903271	-Inf	-Inf	-Inf	-Inf	-Inf	-Inf	-Inf
-Inf	-Inf	-4.31820673903271	-Inf	-Inf	-Inf	-4.31820673903271	-Inf	-Inf	-Inf	-Inf	-Inf
-Inf	-Inf	-5.22548004259577	-Inf	-Inf	-Inf	-Inf	-Inf	-Inf	-Inf	-Inf	-Inf
-Inf	-Inf	-4.31820673903271	-Inf	-Inf	-Inf	-Inf	-Inf	-Inf	-Inf	-Inf	-Inf
-Inf	-Inf	-5.22548004259577	-5.22548004259577	-Inf	-Inf	-Inf	-Inf	-Inf	-Inf	-Inf	-Inf
-Inf	-Inf	-9.08059655189857	-Inf	-Inf	-Inf	-Inf	-10.4675576908209	-Inf	-Inf	-Inf	-Inf
-Inf	-Inf	-4.31820673903271	-2.93124560011035	-Inf	-4.31820673903271	-4.31820673903271	-4.31820673903271	-4.31820673903271	-Inf	-Inf	-Inf
-Inf	-Inf	-7.15110153761386	-Inf	-7.15110153761386	-Inf	-7.15110153761386	-Inf	-7.15110153761386	-Inf	-Inf	-Inf
-Inf	-Inf	-10.4675576908209	-Inf	-Inf	-Inf	-Inf	-Inf	-Inf	-Inf	-Inf	-Inf
-Inf	-Inf	-7.15110153761386	-7.15110153761386	-7.15110153761386	-7.15110153761386	-Inf	-5.7641403986915	-Inf	-Inf	-Inf	-Inf
-Inf	-Inf	-Inf	-7.15110153761386	-Inf	-Inf	-7.15110153761386	-Inf	-Inf	-Inf	-Inf	-7.15110153761386
-Inf	-Inf	-Inf	-4.31820673903271	-2.93124560011035	-Inf	-4.31820673903271	-Inf	-Inf	-4.31820673903271	-Inf	-Inf
-Inf	-Inf	-Inf	-4.31820673903271	-4.31820673903271	-4.31820673903271	-4.31820673903271	-Inf	-Inf	-Inf	-Inf	-Inf
-Inf	-Inf	-Inf	-5.22548004259577	-Inf	-Inf	-Inf	-Inf	-Inf	-Inf	-Inf	-5.22548004259577
-Inf	-Inf	-Inf	-2.93124560011035	-Inf	-Inf	-4.31820673903271	-4.31820673903271	-Inf	-Inf	-Inf	-Inf
-Inf	-Inf	-Inf	-5.22548004259577	-Inf	-Inf	-Inf	-Inf	-Inf	-Inf	-Inf	-Inf
-Inf	-Inf	-Inf	-5.22548004259577	-Inf	-Inf	-Inf	-Inf	-Inf	-Inf	-Inf	-Inf
-Inf	-Inf	-Inf	-4.31820673903271	-Inf	-4.31820673903271	-4.31820673903271	-Inf	-Inf	-Inf	-Inf	-Inf
-Inf	-Inf	-Inf	-7.15110153761386	-Inf	-Inf	-Inf	-Inf	-Inf	-Inf	-Inf	-Inf
-Inf	-Inf	-Inf	-4.31820673903271	-Inf	-4.31820673903271	-Inf	-Inf	-Inf	-Inf	-Inf	-Inf
-Inf	-Inf	-Inf	-4.31820673903271	-Inf	-Inf	-Inf	-Inf	-Inf	-Inf	-Inf	-Inf
-Inf	-Inf	-Inf	-5.22548004259577	-Inf	-Inf	-Inf	-Inf	-Inf	-Inf	-Inf	-Inf
-Inf	-Inf	-Inf	-Inf	-7.15110153761386	-Inf	-Inf	-Inf	-Inf	-Inf	-Inf	-Inf
-Inf	-Inf	-Inf	-Inf	-4.31820673903271	-Inf	-4.31820673903271	-Inf	-Inf	-Inf	-Inf	-Inf
-Inf	-Inf	-Inf	-Inf	-4.31820673903271	-Inf	-Inf	-Inf	-Inf	-Inf	-Inf	-Inf
-Inf	-Inf	-Inf	-Inf	-4.31820673903271	-Inf	-4.31820673903271	-Inf	-Inf	-Inf	-Inf	-Inf
-Inf	-Inf	-Inf	-Inf	-Inf	-9.08059655189857	-Inf	-6.57173338736896	-Inf	-Inf	-Inf	-10.4675576908209
-Inf	-Inf	-Inf	-Inf	-Inf	-5.22548004259577	-Inf	-Inf	-Inf	-Inf	-Inf	-Inf
-Inf	-Inf	-Inf	-Inf	-Inf	-4.31820673903271	-Inf	-Inf	-4.31820673903271	-Inf	-Inf	-Inf
-Inf	-Inf	-Inf	-Inf	-Inf	-4.31820673903271	-Inf	-Inf	-Inf	-Inf	-Inf	-Inf
-Inf	-Inf	-Inf	-Inf	-Inf	-Inf	-7.15110153761386	-Inf	-Inf	-Inf	-Inf	-Inf
-Inf	-Inf	-Inf	-Inf	-Inf	-Inf	-4.31820673903271	-4.31820673903271	-Inf	-Inf	-Inf	-Inf
-Inf	-Inf	-Inf	-Inf	-Inf	-Inf	-10.4675576908209	-Inf	-Inf	-Inf	-Inf	-Inf
-Inf	-Inf	-Inf	-Inf	-Inf	-Inf	-Inf	-7.15110153761386	-Inf	-Inf	-Inf	-Inf
-Inf	-Inf	-Inf	-Inf	-Inf	-Inf	-Inf	-7.15110153761386	-Inf	-Inf	-Inf	-7.15110153761386
-Inf	-Inf	-Inf	-Inf	-Inf	-Inf	-Inf	-10.4675576908209	-Inf	-Inf	-Inf	-Inf
-Inf	-Inf	-Inf	-Inf	-Inf	-Inf	-Inf	-5.22548004259577	-Inf	-Inf	-Inf	-Inf
-Inf	-Inf	-Inf	-Inf	-Inf	-Inf	-Inf	-7.15110153761386	-Inf	-Inf	-Inf	-Inf
-Inf	-Inf	-Inf	-Inf	-Inf	-Inf	-Inf	-Inf	-5.22548004259577	-Inf	-Inf	-Inf
-Inf	-Inf	-Inf	-Inf	-Inf	-Inf	-Inf	-Inf	-4.31820673903271	-Inf	-Inf	-Inf
-Inf	-Inf	-Inf	-Inf	-Inf	-Inf	-Inf	-Inf	-Inf	-5.22548004259577	-Inf	-Inf
-Inf	-Inf	-Inf	-Inf	-Inf	-Inf	-Inf	-Inf	-Inf	-Inf	-7.15110153761386	-Inf
-Inf	-Inf	-Inf	-Inf	-Inf	-Inf	-Inf	-Inf	-Inf	-Inf	-10.4675576908209	-Inf
