dataset	posterior_rate_constant	posterior_pi_constant	pi_num_tbl_mean	rate_num_tbl_mean
n_100_char_200	0.146249528835281	0.0844327176781003	3.14813418771202	2.40859404447795
n_100_char_200	0.175335570469799	0.00419463087248322	4.1136744966443	2.26971476510067
n_100_char_200	0.151971326164875	0.0731182795698925	3.2336917562724	2.13906810035842
n_100_char_200	0.539891205802357	0.0766092475067996	3.44106980961015	1.56890299184044
n_100_char_200	0.00573445081605646	0.027348919276577	3.65063961182179	3.51918835465373
n_100_char_200	0.116034719049794	0.0150753768844221	3.76199177706715	2.42804933759708
n_100_char_200	0.043382756727073	0.099945085118067	3.18066996155958	2.72267984623833
n_100_char_200	0.559734513274336	0.0835176991150443	3.13716814159292	1.47953539823009
n_100_char_200	0.259313014029995	0.17029511369134	2.8326076439284	2.15432994678278
n_100_char_200	0.315222962583291	0.154792414146591	2.91184008200923	1.83854433623783
n_100_char_200	0.764787752261656	0.0494084899095338	3.37299930410578	1.2366040361865
n_100_char_200	0.419790104947526	0.119940029985007	2.96151924037981	1.70664667666167
n_100_char_200	0.194444444444444	0.012037037037037	3.87916666666667	2.37407407407407
n_100_char_200	0.162921348314607	0.0600691443388073	3.36343993085566	2.27787381158168
n_100_char_200	0.970115967885816	0.114183764495986	2.92729705619982	1.03166815343443
n_100_char_200	0.0654885654885655	0.0758835758835759	3.24116424116424	2.57016632016632
n_100_char_200	0.475698663426488	0.109356014580802	3.00607533414338	1.53827460510328
n_100_char_200	0.687864644107351	0.160443407234539	2.975495915986	1.31796966161027
n_100_char_200	0.284103720405862	0.0608793686583991	3.20011273957159	1.96899661781285
n_100_char_200	0.678876066231811	0.0531861515303562	3.44856999498244	1.3567486201706
n_100_char_200	0.010468594217348	0.080259222333001	3.0777666999003	3.2382851445663
n_100_char_200	0.0961446930033317	0.06282722513089	3.27510709186102	2.4850071394574
n_100_char_200	0.0582788671023965	0.0816993464052288	3.1677559912854	2.62363834422658
n_100_char_200	0.225331369661267	0.078546882670594	3.10358370152185	2.21600392734413
n_100_char_200	0.491518578352181	0.14983844911147	2.7843295638126	1.66720516962843
n_100_char_200	0.14308426073132	0.0627980922098569	3.3318759936407	2.43282988871224
n_100_char_200	0.161428571428571	0.0733333333333333	3.2347619047619	2.24619047619048
n_100_char_200	0.00578703703703704	0.0769675925925926	3.38252314814815	3.60474537037037
n_100_char_200	0.620915032679739	0.0899949723479135	3.11362493715435	1.40774258421317
n_100_char_200	0.382808328884143	0.0261612386545649	3.52162306460224	1.73945541911372
n_100_char_200	0.372154779969651	0.0299696509863429	3.57094081942337	1.90667678300455
n_100_char_200	0.607621440536013	0.0536013400335008	3.52386934673367	1.48869346733668
n_100_char_200	0.368956743002545	0.113486005089059	2.8676844783715	1.74351145038168
n_100_char_200	0.0913312693498452	0.108875128998968	3.05675954592363	2.49019607843137
n_100_char_200	0.169905331340309	0.0418535127055306	3.63826606875934	2.25460886895864
n_100_char_200	0.38038038038038	0.0925925925925926	3.0995995995996	1.76876876876877
n_100_char_200	0.0656370656370656	0.0755040755040755	3.27069927069927	2.79236379236379
n_100_char_200	0.0198986975397974	0.0683791606367583	3.37554269175109	3.21056439942113
n_100_char_200	0.0804099329917225	0.00551832873472605	4.09657075285771	2.72290106424911
n_100_char_200	0.0952130457653866	0.00420831141504471	4.07732772225145	2.47711730668069
n_100_char_200	0.00275103163686382	0.0146721687299404	3.784502521779	3.44933516735442
n_100_char_50	0.43389152711822	0.283429142714321	2.22069482629343	1.59460134966258
n_100_char_50	0.27168207948013	0.0319920019995001	3.51262184453887	1.88302924268933
n_100_char_50	0.972256935766059	0.237190702324419	2.38615346163459	1.02774306423394
n_100_char_50	0.0654836290927268	0.126468382904274	2.77955511122219	2.53986503374156
n_100_char_50	0.479880029992502	0.103224193951512	2.93451637090727	1.6338415396151
n_100_char_50	0.138965258685329	0.110722319420145	2.95001249687578	2.17095726068483
n_100_char_50	0.985753561609598	0.0217445638590352	3.57635591102224	1.0142464383904
n_100_char_50	0.995001249687578	0.143714071482129	2.76680829792552	1.00499875031242
n_100_char_50	0.95201199700075	0.184203949012747	2.63584103974007	1.04898775306173
n_100_char_50	0.997250687328168	0.0959760059985004	2.90377405648588	1.00274931267183
n_100_char_50	0.990002499375156	0.184453886528368	2.61359660084979	1.00999750062484
n_100_char_50	0.0409897525618595	0.108222944263934	3.12621844538865	2.76280929767558
n_100_char_50	0.462134466383404	0.0609847538115471	3.25143714071482	1.67208197950512
n_100_char_50	0.154461384653837	0.108722819295176	2.9965008747813	2.11647088227943
n_100_char_50	0.708322919270182	0.0827293176705824	3.15221194701325	1.2974256435891
n_100_char_50	0.159460134966258	0.0562359410147463	3.19870032491877	2.07898025493627
n_100_char_50	0.0424893776555861	0.0879780054986253	3.03899025243689	2.35641089727568
n_100_char_50	0.988752811797051	0.0439890027493127	3.30367408147963	1.01149712571857
n_100_char_50	0.219695076230942	0.0392401899525119	3.46338415396151	1.96700824793802
n_100_char_50	0.978255436140965	0.0989752561859535	3.05198700324919	1.02199450137466
n_100_char_50	0.988752811797051	0.162959260184954	2.68107973006748	1.01149712571857
n_100_char_50	0.293176705823544	0.15746063484129	2.6753311672082	1.86628342914271
n_100_char_50	0.0257435641089728	0.071232191952012	3.20269932516871	2.67258185453637
n_100_char_50	0.410397400649838	0.00849787553111722	3.68057985503624	1.61234691327168
n_100_char_50	0.307173206698325	0.0679830042489378	3.2866783304174	1.83329167708073
n_100_char_50	0.413896525868533	0.114971257185704	2.94276430892277	1.70657335666083
n_100_char_50	0.161959510122469	0.150962259435141	2.72406898275431	2.11572106973257
n_100_char_50	0.738315421144714	0.0577355661084729	3.35691077230692	1.26843289177706
n_100_char_50	0.183954011497126	0.216445888527868	2.50137465633592	2.03099225193702
n_100_char_50	0.498125468632842	0.166958260434891	2.67233191702074	1.51612096975756
n_100_char_50	0.0789802549362659	0.039490127468133	3.44263934016496	2.45413646588353
n_100_char_50	0.176455886028493	0.0737315671082229	3.22119470132467	2.06973256685829
n_100_char_50	0.162709322669333	0.0767308172956761	3.01099725068733	2.08097975506123
n_100_char_50	0.464383904023994	0.076480879780055	3.12021994501375	1.6220944763809
n_100_char_50	0.993001749562609	0.0664833791552112	3.24493876530867	1.00699825043739
n_100_char_50	0.193701574606348	0.0914771307173207	3.0284928767808	2.05348662834291
n_100_char_50	0.372906773306673	0.0589852536865784	3.24968757810547	1.80629842539365
n_100_char_50	0.187953011747063	0.105973506623344	2.92501874531367	2.18570357410647
n_100_char_50	0.505373656585854	0.0747313171707073	3.22069482629343	1.57560609847538
n_100_char_50	0.206198450387403	0.106973256685829	2.93801549612597	1.81504623844039
n_100_char_50	0.368657835541115	0.133966508372907	2.86503374156461	1.75906023494126
n_200_char_100	0.163987138263666	0.0589496248660236	3.61521972132905	2.28188638799571
n_200_char_100	0.708139534883721	0.0674418604651163	3.12790697674419	1.29186046511628
n_200_char_100	0.0866752910737387	0.03751617076326	3.47218628719276	2.40103492884864
n_200_char_100	0.00354609929078014	0.0260047281323877	3.56501182033097	3.58037825059102
n_200_char_100	0.990728476821192	0.0490066225165563	3.41456953642384	1.00927152317881
n_200_char_100	0.0137142857142857	0.146285714285714	2.94628571428571	2.89257142857143
n_200_char_100	0.6	0.155172413793103	2.74827586206897	1.45057471264368
n_200_char_100	0.981081081081081	0.0783783783783784	3.13648648648649	1.01891891891892
n_200_char_100	0.173262032085561	0.13903743315508	2.76042780748663	2.20427807486631
n_200_char_100	0.6875	0.23546511627907	2.43604651162791	1.31395348837209
n_200_char_100	0.02625	0.04	3.25	2.90875
n_200_char_100	0.553273427471117	0.17201540436457	2.69191270860077	1.44929396662388
n_200_char_100	0.122287968441815	0.029585798816568	3.68145956607495	2.43195266272189
n_200_char_100	0.00740740740740741	0.0264550264550265	3.86560846560847	3.29417989417989
n_200_char_100	0.0889370932754881	0.0672451193058568	3.19088937093276	2.46312364425163
n_200_char_100	0.0166994106090373	0.0412573673870334	3.63457760314342	3.11787819253438
n_200_char_100	0.218573046432616	0.0509626274065685	3.23329558323896	2.21177802944507
n_200_char_100	0.381294964028777	0	4.00719424460432	1.63021582733813
n_200_char_100	0.973809523809524	0.148809523809524	2.94761904761905	1.02619047619048
n_200_char_100	0.110520722635494	0.109458023379384	3.13283740701381	2.32624867162593
n_200_char_100	0.403640256959315	0.0331905781584582	3.58886509635974	1.7847965738758
n_200_char_100	0.687230989956958	0.131994261119082	2.86800573888092	1.31563845050215
n_200_char_100	0.0114583333333333	0.19375	2.62083333333333	3.0375
n_200_char_100	0.607990012484395	0.0461922596754057	3.46566791510612	1.44694132334582
n_200_char_100	0.37603305785124	0.150137741046832	2.77685950413223	1.63085399449036
n_200_char_100	0.146666666666667	0.00888888888888889	3.85777777777778	2.22666666666667
n_200_char_100	0.0947368421052632	0.0463157894736842	3.17263157894737	2.45368421052632
n_200_char_100	0.117730496453901	0.107801418439716	3.27234042553191	2.14042553191489
n_200_char_100	0.648837209302326	0.0616279069767442	3.02558139534884	1.35348837209302
n_200_char_100	0.515815085158151	0.105839416058394	2.90024330900243	1.57785888077859
n_200_char_100	0.615746180963572	0.0528789659224442	3.50881316098707	1.38895417156287
n_200_char_100	0.757211538461538	0.09375	3.11899038461538	1.24759615384615
n_200_char_100	0.130688448074679	0.0980163360560093	2.84597432905484	2.31155192532089
n_200_char_100	0.419437340153453	0	3.73913043478261	1.72250639386189
n_200_char_100	0.985274431057564	0.0321285140562249	3.46586345381526	1.01472556894244
n_200_char_100	0.573529411764706	0.119909502262443	2.76809954751131	1.48642533936652
n_200_char_100	0.416755037115589	0.114528101802757	3.02969247083775	1.71474019088017
n_200_char_100	0.257369614512472	0.216553287981859	2.4750566893424	2.00113378684807
n_200_char_100	0.293963254593176	0.123359580052493	3.03674540682415	1.91207349081365
n_200_char_100	0.114321608040201	0.121859296482412	3.06281407035176	2.27763819095477
n_200_char_100	0.0723514211886305	0.434108527131783	2.20413436692506	2.41731266149871
n_200_char_200	0.412048192771084	0.0602409638554217	3.27710843373494	1.81927710843373
n_200_char_200	0.0517711171662125	0.0599455040871935	3.3841961852861	2.70572207084469
n_200_char_200	0.120521172638436	0.0390879478827362	3.47557003257329	2.31596091205212
n_200_char_200	0.34185303514377	0.00319488817891374	4.08945686900958	1.89456869009585
n_200_char_200	0.355263157894737	0.0296052631578947	3.57565789473684	1.73684210526316
n_200_char_200	0.0932944606413994	0.157434402332362	2.95043731778426	2.43440233236152
n_200_char_200	0.405913978494624	0.032258064516129	3.52956989247312	1.76344086021505
n_200_char_200	0.0616883116883117	0.0714285714285714	3.12662337662338	2.56168831168831
n_200_char_200	0.0339805825242718	0.0655339805825243	3.19174757281553	2.89320388349515
n_200_char_200	0.214814814814815	0.0481481481481481	3.30740740740741	2
n_200_char_200	0.344827586206897	0.00940438871473354	4.10971786833856	1.90595611285266
n_200_char_200	0.658064516129032	0.135483870967742	2.95483870967742	1.3741935483871
n_200_char_200	0.326340326340326	0	4.04195804195804	1.96270396270396
n_200_char_200	0.0203045685279188	0.0304568527918782	3.77918781725888	3.0989847715736
n_200_char_200	0.16497461928934	0.0558375634517767	3.39847715736041	2.28172588832487
n_200_char_200	0.242352941176471	0.00235294117647059	3.96	2.09411764705882
n_200_char_200	0.492877492877493	0.111111111111111	3.2022792022792	1.62108262108262
n_200_char_200	0.446428571428571	0.0928571428571429	3.20714285714286	1.7
n_200_char_200	0.174157303370787	0.0112359550561798	3.6938202247191	2.23876404494382
n_200_char_200	0.116222760290557	0.0387409200968523	3.60048426150121	2.4455205811138
n_200_char_200	0.462765957446808	0.167553191489362	2.86170212765957	1.625
n_200_char_200	0.0176056338028169	0.0105633802816901	3.82746478873239	2.94718309859155
n_200_char_200	0.0148883374689826	0.0347394540942928	3.46898263027295	3.0818858560794
n_200_char_200	0.404833836858006	0.0151057401812689	3.75528700906344	1.74018126888218
n_200_char_200	0.413194444444444	0	3.92013888888889	1.77430555555556
n_200_char_200	0.407103825136612	0.144808743169399	2.7896174863388	1.74043715846995
n_200_char_200	0.522277227722772	0.0247524752475248	3.66584158415842	1.60891089108911
n_200_char_200	0.678571428571429	0.0392857142857143	3.62857142857143	1.35714285714286
n_200_char_200	0.104683195592287	0.115702479338843	2.87603305785124	2.41046831955923
n_200_char_200	0.221212121212121	0.0181818181818182	3.8030303030303	2.07272727272727
n_200_char_200	0.144444444444444	0.111111111111111	3.37222222222222	2.375
n_200_char_200	0.679300291545189	0	4.19241982507289	1.32069970845481
n_200_char_200	0.171511627906977	0.0406976744186047	3.29941860465116	2.21220930232558
n_200_char_200	0.279365079365079	0.0285714285714286	3.49206349206349	1.96507936507936
n_200_char_200	0.169381107491857	0.140065146579805	3.31270358306189	2.20521172638436
n_200_char_200	0.372282608695652	0.0896739130434783	3.1195652173913	1.82336956521739
n_200_char_200	0.0295566502463054	0.160098522167488	2.85221674876847	3.20689655172414
n_200_char_200	0.0141242937853107	0.00847457627118644	4.06214689265537	2.65536723163842
n_200_char_200	0.317567567567568	0.0608108108108108	3.12162162162162	1.76689189189189
n_200_char_200	0.017910447761194	0.170149253731343	2.86865671641791	3.14626865671642
n_200_char_200	0.515151515151515	0.0471380471380471	3.43434343434343	1.58585858585859
n_200_char_50	0.790813503043719	0.0570005534034311	3.24349750968456	1.20973990038738
n_200_char_50	0.0276395798783858	0.0154781647318961	3.42509673852957	2.66998341625207
n_200_char_50	0.652482269503546	0.0773694390715667	3.16827852998066	1.34945196647324
n_200_char_50	0.475253807106599	0.130710659898477	3.06281725888325	1.53616751269036
n_200_char_50	0.622940430925222	0.0310519645120406	3.46768060836502	1.37705956907478
n_200_char_50	0.493856056173201	0.190169689877121	2.6050321825629	1.50906963136337
n_200_char_50	0.467403314917127	0.0469613259668508	3.3878453038674	1.66132596685083
n_200_char_50	0.179075738125802	0.101412066752246	2.91527599486521	2.04942233632863
n_200_char_50	0.471718835804503	0.0494233937397035	3.26908292147172	1.53761669412411
n_200_char_50	0.023306627822287	0.0436999271667881	3.1755280407866	2.45884923525127
n_200_char_50	0.63653603034134	0.116308470290771	2.9070796460177	1.36472819216182
n_200_char_50	0.467157765500307	0.0613873542050338	3.19889502762431	1.60712093308778
n_200_char_50	0.689285714285714	0.0877551020408163	3.15918367346939	1.31275510204082
n_200_char_50	0.512972972972973	0.0308108108108108	3.66540540540541	1.49567567567568
n_200_char_50	0.120331950207469	0.0601659751037344	3.28682572614108	2.29771784232365
n_200_char_50	0.022940074906367	0.0337078651685393	3.53183520599251	2.90308988764045
n_200_char_50	0.978072706289671	0.085401038661281	3.24235429890364	1.02250432775534
n_200_char_50	0.575418994413408	0.135474860335196	2.80516759776536	1.42946927374302
n_200_char_50	0.0762430939226519	0.302209944751381	2.24640883977901	2.44254143646409
n_200_char_50	0.246732880292734	0.0533193936225823	3.25039205436487	1.89492943021432
n_200_char_50	0.949561403508772	0.0959429824561404	3.09594298245614	1.05098684210526
n_200_char_50	0.961352657004831	0.101449275362319	2.91028295376121	1.03864734299517
n_200_char_50	0.00544824170381377	0.109955423476969	3.01634472511144	3.11688954928182
n_200_char_50	0.424848484848485	0.133939393939394	2.88181818181818	1.67333333333333
n_200_char_50	0.043039677202421	0.254203093476799	2.37457969065232	2.37054472091459
n_200_char_50	0.0091792656587473	0.111231101511879	2.91144708423326	2.79481641468682
n_200_char_50	0.977042178323545	0.0928990923651895	3.08809396689802	1.02295782167645
n_200_char_50	0.397079276773296	0.134214186369958	2.75938803894298	1.60361613351878
n_200_char_50	0.405862457722661	0.204058624577227	2.55355129650507	1.7119503945885
n_200_char_50	0.524500907441016	0.124621899576528	2.96733212341198	1.53660012099214
n_200_char_50	0.0910623946037099	0.125351320966835	2.91343451377178	2.23327712197864
n_200_char_50	1	0.17643576080521	2.67081113084665	1
n_200_char_50	0.166179052077238	0.156231714452896	2.73434757167934	2.10415447630193
n_200_char_50	0.423857868020305	0.206852791878173	2.52728426395939	1.58312182741117
n_200_char_50	0.467948717948718	0	3.87820512820513	1.53782051282051
n_200_char_50	0.394766780432309	0.129692832764505	2.82650739476678	1.61717861205916
n_200_char_50	0.262029288702929	0.189853556485356	2.61558577405858	1.91422594142259
n_200_char_50	0.267541357672561	0.0536223616657159	3.26640045636052	1.87393040501997
n_200_char_50	0.256975989617132	0.129136924075276	2.79688513951979	1.75665152498378
n_200_char_50	0.162776412776413	0.157248157248157	2.71990171990172	2.07555282555283
n_200_char_50	0.266279819471309	0.136041263700838	2.82656350741457	1.74016763378465
n_25_char_100	0.355161209697576	0.141214696325919	2.84803799050237	1.93376655836041
n_25_char_100	0.4063984003999	0.104473881529618	3.09822544363909	1.83754061484629
n_25_char_100	0.239940014996251	0.0614846288427893	3.42864283929018	2.27593101724569
n_25_char_100	0.32416895776056	0.0569857535616096	3.39715071232192	2.02549362659335
n_25_char_100	0.461884528867783	0.133716570857286	2.9052736815796	1.73831542114471
n_25_char_100	0.345663584103974	0.184453886528368	2.7713071732067	1.90602349412647
n_25_char_100	0.25343664083979	0.0497375656085979	3.50287428142964	1.96850787303174
n_25_char_100	0.772806798300425	0.0467383154211447	3.46438390402399	1.24493876530867
n_25_char_100	0.213196700824794	0.0982254436390902	3.08947763059235	2.29342664333917
n_25_char_100	0.194701324668833	0.039490127468133	3.53061734566358	2.4656335916021
n_25_char_100	0.421394651337166	0.089727568107973	3.2049487628093	1.77205698575356
n_25_char_100	0.293926518370407	0.0827293176705824	3.25818545363659	2.04098975256186
n_25_char_100	0.478630342414396	0.111222194451387	2.9537615596101	1.61484628842789
n_25_char_100	0.297425643589103	0.0119970007498125	3.94376405898525	1.8637840539865
n_25_char_100	0.508122969257686	0.0884778805298675	3.02999250187453	1.52236940764809
n_25_char_100	0.0649837540614846	0.15971007248188	2.83704073981505	2.52236940764809
n_25_char_100	0.226193451637091	0.0277430642339415	3.63934016495876	2.28417895526118
n_25_char_100	0.13246688327918	0.169207698075481	2.72806798300425	2.33941514621345
n_25_char_100	0.0987253186703324	0.116220944763809	2.89827543114221	2.53486628342914
n_25_char_100	0.178455386153462	0.0449887528117971	3.61334666333417	2.24093976505874
n_25_char_100	0.135716070982254	0.0529867533116721	3.34691327168208	2.42089477630592
n_25_char_100	0.89952511872032	0.104723819045239	2.98150462384404	1.10772306923269
n_25_char_100	0.0162459385153712	0.0532366908272932	3.37865533616596	3.04373906523369
n_25_char_100	0.0109972506873282	0.0704823794051487	3.34316420894776	3.28817795551112
n_25_char_100	0.0559860034991252	0.0639840039990003	3.30292426893277	2.85228692826793
n_25_char_100	0.0569857535616096	0.0254936265933517	3.78105473631592	3.12571857035741
n_25_char_100	0.837540614846288	0.119970007498125	2.96500874781305	1.17545613596601
n_25_char_100	0.623594101474631	0.131467133216696	2.81779555111222	1.3981504623844
n_25_char_100	0.102974256435891	0.0832291927018246	3.104223944014	2.5166208447888
n_25_char_100	0.0737315671082229	0.116220944763809	3.09222694326418	2.83704073981505
n_25_char_100	0.0144963759060235	0.12096975756061	3.03774056485879	3.19270182454386
n_25_char_100	0.364908772806798	0.0794801299675081	3.15746063484129	1.83004248937766
n_25_char_100	0.0242439390152462	0.0399900024993752	3.68207948012997	3.16295926018495
n_25_char_100	0.153211697075731	0.0249937515621095	3.7345663584104	2.64008997750562
n_25_char_100	0.0187453136715821	0.0782304423894026	3.21619595101225	3.30242439390152
n_25_char_100	0.0567358160459885	0.144213946513372	2.70057485628593	2.73906523369158
n_25_char_100	0.314921269682579	0.0344913771557111	3.55886028492877	2.02274431392152
n_25_char_100	0.460134966258435	0.0917270682329418	3.2144463884029	1.67908022994251
n_25_char_100	0.395651087228193	0.0942264433891527	3.05873531617096	1.7583104223944
n_25_char_100	0.89502624343914	0.18945263684079	2.57535616095976	1.10747313171707
n_25_char_100	0.384153961509623	0.0432391902024494	3.41339665083729	1.88477880529868
n_25_char_100	0.261434641339665	0.183704073981505	2.64083979005249	2.08622844288928
n_25_char_100	0.210447388152962	0.0367408147963009	3.67008247938015	2.33216695826043
n_25_char_100	0.0657335666083479	0.184203949012747	2.6018495376156	2.48862784303924
n_25_char_100	0.387153211697076	0.0804798800299925	3.32541864533867	1.89127718070482
n_25_char_100	0.47488127968008	0.189952511872032	2.62984253936516	1.6610847288178
n_25_char_100	0.192201949512622	0.0472381904523869	3.58035491127218	2.29042739315171
n_25_char_100	0.281679580104974	0.22144463884029	2.48562859285179	1.80479880029993
n_25_char_100	0.115971007248188	0.132966758310422	2.9442639340165	2.40839790052487
n_25_char_100	0.890777305673582	0.141964508872782	2.76055986003499	1.1137215696076
n_25_char_100	0.446138465383654	0.129967508122969	2.92601849537616	1.69507623094226
n_25_char_100	0.196700824793802	0.0797300674831292	3.23569107723069	2.42089477630592
n_25_char_100	0.330917270682329	0.0222444388902774	3.67308172956761	1.95426143464134
n_25_char_100	0.139965008747813	0.166458385403649	2.6930767308173	2.35466133466633
n_25_char_100	0.353411647088228	0.101474631342164	3.16970757310672	1.96200949762559
n_25_char_100	0.191952011997001	0.0187453136715821	3.77180704823794	2.46263434141465
n_25_char_100	0.00249937515621095	0.0797300674831292	3.21744563859035	3.41639590102474
n_25_char_100	0.118470382404399	0.0889777555611097	3.13221694576356	2.37615596100975
n_25_char_100	0.120469882529368	0.138215446138465	2.90102474381405	2.44988752811797
n_25_char_100	0.334416395901025	0.0444888777805549	3.59810047488128	2.03224193951512
n_25_char_100	0.199450137465634	0.00199950012496876	4.28242939265184	2.34916270932267
n_25_char_100	0.437890527368158	0.100224943764059	3.09347663084229	1.74381404648838
n_25_char_100	0.377155711072232	0.128717820544864	2.89752561859535	1.7725568607848
n_25_char_100	0.472881779555111	0.138215446138465	2.88827793051737	1.60559860034991
n_25_char_100	0.208197950512372	0.0669832541864534	3.42839290177456	2.09372656835791
n_25_char_100	0.19395151212197	0.116970757310672	2.88377905523619	2.10497375656086
n_25_char_100	0.286428392901775	0.0827293176705824	3.24593851537116	1.99500124968758
n_25_char_100	0.383154211447138	0.106223444138965	3.11322169457636	1.93101724568858
n_25_char_100	0.230942264433892	0.0914771307173207	3.15746063484129	2.15121219695076
n_25_char_100	0.000999750062484379	0.106473381654586	3.01599600099975	3.92451887028243
n_25_char_100	0.369657585603599	0.0459885028742814	3.57560609847538	1.94801299675081
n_25_char_100	0.237190702324419	0.186703324168958	2.66833291677081	2.12221944513872
n_25_char_100	0.536865783554112	0.113471632091977	3.04123969007748	1.5426143464134
n_25_char_100	0.0499875031242189	0.0299925018745314	3.6765808547863	3.2831792051987
n_25_char_100	0.227693076730817	0.122719320169958	2.97650587353162	2.13921519620095
n_25_char_100	0.281929517620595	0.0144963759060235	3.8910272431892	2.03524118970257
n_25_char_100	0.359160209947513	0.114471382154461	2.97400649837541	1.93526618345414
n_25_char_100	0.35391152211947	0.104723819045239	2.94576355911022	1.78380404898775
n_25_char_100	0.730067483129218	0.196200949762559	2.55486128467883	1.28617845538615
n_25_char_100	0.0419895026243439	0.0499875031242189	3.50962259435141	2.95926018495376
n_25_char_100	0.164208947763059	0.0112471882029493	3.96925768557861	2.41239690077481
n_25_char_100	0.412896775806048	0.0877280679830043	3.16620844788803	1.8257935516121
n_25_char_100	0.00999750062484379	0.0829792551862034	3.3009247688078	3.46313421644589
n_25_char_100	0.312171957010747	0.0129967508122969	3.74831292176956	1.8542864283929
n_25_char_100	0.15746063484129	0.0302424393901525	3.55136215946014	2.28742814296426
n_25_char_100	0.479130217445639	0.125968507873032	2.92901774556361	1.70332416895776
n_25_char_100	0.152461884528868	0.119220194951262	2.98775306173457	2.39665083729068
n_25_char_100	0.0852286928267933	0.0464883779055236	3.6433391652087	2.92426893276681
n_25_char_100	0.226693326668333	0.0889777555611097	2.86653336665834	1.95576105973507
n_25_char_100	0.390652336915771	0.141964508872782	2.81304673831542	1.91327168207948
n_25_char_100	0.273181704573857	0.133466633341665	2.88827793051737	2.00799800049987
n_25_char_100	0.433391652086978	0.0577355661084729	3.36565858535366	1.77755561109723
n_25_char_100	0.164958760309923	0.03424143964009	3.68557860534866	2.32741814546363
n_25_char_100	0.341414646338415	0.0752311922019495	3.3104223944014	2.01149712571857
n_25_char_100	0.120719820044989	0.0282429392651837	3.64608847788053	2.71507123219195
n_25_char_100	0.199450137465634	0.0769807548112972	3.18670332416896	2.24743814046488
n_25_char_100	0.351912021994501	0.0424893776555861	3.50837290677331	2.023744063984
n_25_char_100	0.217195701074731	0.0552361909522619	3.33216695826043	2.25643589102724
n_25_char_100	0.149712571857036	0.157710572356911	2.84328917770557	2.44163959010247
n_25_char_100	0.556360909772557	0.137215696075981	2.84753811547113	1.51362159460135
n_25_char_200	0.125218695326168	0.0947263184203949	3.16645838540365	2.51787053236691
n_25_char_200	0.0574856285928518	0.0377405648587853	3.67833041739565	2.93501624593852
n_25_char_200	0.0694826293426643	0.0794801299675081	3.28467883029243	2.87653086728318
n_25_char_200	0.154711322169458	0.0092476880779805	4.06523369157711	2.57735566108473
n_25_char_200	0.317920519870033	0.0654836290927268	3.4206448387903	2.12346913271682
n_25_char_200	0.246188452886778	0.144463884028993	2.90777305673582	2.18695326168458
n_25_char_200	0.153961509622594	0.113221694576356	3.11697075731067	2.47838040489878
n_25_char_200	0.19170207448138	0.0902274431392152	3.21194701324669	2.20169957510622
n_25_char_200	0.0127468132966758	0.00749812546863284	4.07298175456136	3.28967758060485
n_25_char_200	0.0482379405148713	0.0282429392651837	3.79555111222194	3.32766808297926
n_25_char_200	0.336415896025993	0.0267433141714571	3.75656085978505	2.0094976255936
n_25_char_200	0.144963759060235	0.113471632091977	3.20094976255936	2.37065733566608
n_25_char_200	0.130967258185454	0.0962259435141215	3.09997500624844	2.59210197450637
n_25_char_200	0.130467383154211	0.0694826293426643	3.39240189952512	2.37740564858785
n_25_char_200	0.131967008247938	0.146963259185204	2.88477880529868	2.2191952011997
n_25_char_200	0.377655586103474	0.110472381904524	3.01374656335916	1.82379405148713
n_25_char_200	0.240689827543114	0.0437390652336916	3.61584603849038	2.34866283429143
n_25_char_200	0.06848287928018	0.0917270682329418	3.2049487628093	2.76380904773807
n_25_char_200	0.0427393151712072	0.122219445138715	2.92726818295426	2.9715071232192
n_25_char_200	0.226193451637091	0.0717320669832542	3.37665583604099	2.18845288677831
n_25_char_200	0.0849787553111722	0.0309922519370157	3.82204448887778	2.76030992251937
n_25_char_200	0.162959260184954	0.0957260684828793	3.01374656335916	2.51912021994501
n_25_char_200	0.0109972506873282	0.0507373156710822	3.59985003749063	3.27393151712072
n_25_char_200	0.0464883779055236	0.0832291927018246	3.1102224443889	2.93526618345414
n_25_char_200	0.16895776055986	0.0347413146713322	3.61509622594351	2.69732566858285
n_25_char_200	0.216695826043489	0.0382404398900275	3.61034741314671	2.38365408647838
n_25_char_200	0.0154961259685079	0.0504873781554611	3.67433141714571	3.25368657835541
n_25_char_200	0.40864783804049	0.00999750062484379	4.01474631342164	1.79655086228443
n_25_char_200	0.0334916270932267	0.0662334416395901	3.37740564858785	2.98275431142214
n_25_char_200	0.0267433141714571	0.0267433141714571	3.80204948762809	3.24818795301175
n_25_char_200	0.168207948012997	0.0557360659835041	3.40889777555611	2.29667583104224
n_25_char_200	0.063234191452137	0.0454886278430392	3.62134466383404	2.80579855036241
n_25_char_200	0.00999750062484379	0.0112471882029493	3.98675331167208	3.43589102724319
n_25_char_200	0.198950262434391	0.0677330667333167	3.57710572356911	2.49037740564859
n_25_char_200	0.0334916270932267	0.0652336915771057	3.38965258685329	3.13246688327918
n_25_char_200	0.0599850037490627	0.111472131967008	3.00749812546863	2.78330417395651
n_25_char_200	0.0364908772806798	0.042239440139965	3.62609347663084	3.14671332166958
n_25_char_200	0.422894276430892	0.133716570857286	2.88002999250187	1.78580354911272
n_25_char_200	0.0967258185453637	0.0609847538115471	3.21019745063734	2.57810547363159
n_25_char_200	0.0204948762809298	0.135966008497876	2.78055486128468	2.9822544363909
n_25_char_200	0.0167458135466133	0.0519870032491877	3.58635341164709	3.34041489627593
n_25_char_200	0.0364908772806798	0.107723069232692	3.14396400899775	2.97775556110972
n_25_char_200	0.124718820294926	0.0807298175456136	3.25518620344914	2.97925518620345
n_25_char_200	0.25568607848038	0.119220194951262	2.97250687328168	1.95126218445389
n_25_char_200	0.0467383154211447	0.0914771307173207	3.22119470132467	3.43939015246188
n_25_char_200	0.143714071482129	0.0467383154211447	3.53361659585104	2.35966008497876
n_25_char_200	0.135216195951012	0.0584853786553362	3.47538115471132	2.48112971757061
n_25_char_200	0.275431142214446	0.136215946013497	2.77555611097226	1.81604598850287
n_25_char_200	0.0917270682329418	0.0399900024993752	3.62834291427143	2.61834541364659
n_25_char_200	0.110972256935766	0.17120719820045	2.66283429142714	2.33366658335416
n_25_char_200	0.621844538865284	0.092226943264184	3.06973256685829	1.447888027993
n_25_char_200	0.166208447888028	0.0909772556860785	3.2109472631842	2.35116220944764
n_25_char_200	0.0754811297175706	0.0927268182954261	3.13496625843539	2.65733566608348
n_25_char_200	0.4703824043989	0.0807298175456136	3.29117720569858	1.70107473131717
n_25_char_200	0.320919770057486	0.0242439390152462	3.87028242939265	2.07098225443639
n_25_char_200	0.137465633591602	0.0262434391402149	3.84528867783054	2.70632341914521
n_25_char_200	0.0252436890777306	0.0437390652336916	3.68757810547363	3.00324918770307
n_25_char_200	0.0464883779055236	0.0189952511872032	3.97925518620345	2.89777555611097
n_25_char_200	0.397650587353162	0.103224193951512	3.05998500374906	1.83004248937766
n_25_char_200	0.226693326668333	0.0794801299675081	3.30342414396401	2.36340914771307
n_25_char_200	0.154961259685079	0.0102474381404649	4.2819295176206	2.39490127468133
n_25_char_200	0.118220444888778	0.103724068982754	3.11397150712322	2.54811297175706
n_25_char_200	0.229692576855786	0.0674831292176956	3.39365158710322	2.12521869532617
n_25_char_200	0.234941264683829	0.0492376905773557	3.59735066233442	2.24093976505874
n_25_char_200	0.519370157460635	0.0997250687328168	3.06973256685829	1.55411147213197
n_25_char_200	0.590352411897026	0.0934766308422894	3.18895276180955	1.47688077980505
n_25_char_200	0.498125468632842	0.0599850037490627	3.40414896275931	1.67458135466133
n_25_char_200	0.05023744063984	0.0702324418895276	3.29217695576106	2.9087728067983
n_25_char_200	0.0387403149212697	0.0397400649837541	3.66383404148963	2.8897775556111
n_25_char_200	0.270432391902025	0.0432391902024494	3.71707073231692	2.22519370157461
n_25_char_200	0.113971507123219	0.0452386903274181	3.6848287928018	2.77305673581605
n_25_char_200	0.0964758810297426	0.125718570357411	2.96225943514121	2.63909022744314
n_25_char_200	0.474131467133217	0.0834791302174456	3.30442389402649	1.69007748062984
n_25_char_200	0.214946263434141	0.0199950012496876	3.98900274931267	2.39040239940015
n_25_char_200	0.11422144463884	0.115971007248188	2.99775056235941	2.56260934766308
n_25_char_200	0.460634841289678	0.0997250687328168	3.1742064483879	1.68532866783304
n_25_char_200	0.0047488127968008	0.115221194701325	2.99375156210947	3.67483129217696
n_25_char_200	0.515621094726318	0.0937265683579105	3.11347163209198	1.55911022244439
n_25_char_200	0.0702324418895276	0.102224443889028	3.09072731817046	2.58785303674081
n_25_char_200	0.0904773806548363	0.105723569107723	3.16645838540365	2.63959010247438
n_25_char_200	0.123719070232442	0.0202449387653087	3.83129217695576	2.35266183454136
n_25_char_200	0.121719570107473	0.0229942514371407	3.95076230942264	2.77430642339415
n_25_char_200	0.2511872031992	0.0657335666083479	3.40664833791552	2.18695326168458
n_25_char_200	0.126468382904274	0.0892276930767308	3.31467133216696	2.4016495876031
n_25_char_200	0.129717570607348	0.092226943264184	3.32716820794801	2.48637840539865
n_25_char_200	0.0309922519370157	0.0417395651087228	3.70182454386403	3.18870282429393
n_25_char_200	0.247438140464884	0.0697325668582854	3.31017245688578	2.37615596100975
n_25_char_200	0.0519870032491877	0.0119970007498125	4.0082479380155	3.11297175706073
n_25_char_200	0.614346413396651	0.0809797550612347	3.36840789802549	1.43939015246188
n_25_char_200	0.279680079980005	0.129717570607348	2.8862784303924	2.29867533116721
n_25_char_200	0.0277430642339415	0.0737315671082229	3.31842039490127	3.09222694326418
n_25_char_200	0.139715071232192	0.042239440139965	3.51162209447638	2.44088977755561
n_25_char_200	0.0177455636090977	0.0749812546863284	3.3246688327918	3.34166458385404
n_25_char_200	0.20769807548113	0.0754811297175706	3.28492876780805	2.41814546363409
n_25_char_200	0.119220194951262	0.0564858785303674	3.63634091477131	2.76330917270682
n_25_char_200	0.37665583604099	0.0252436890777306	3.96100974756311	1.90602349412647
n_25_char_200	0.134966258435391	0.0729817545613597	3.35516120969758	2.575856035991
n_25_char_200	0.337665583604099	0.0737315671082229	3.36065983504124	2.02049487628093
n_25_char_200	0.331417145713572	0.0117470632341915	3.96175956010997	2.04223944013996
n_25_char_200	0.129467633091727	0.0232441889527618	3.84278930267433	2.40439890027493
n_25_char_50	0.727568107973007	0.161209697575606	2.58685328667833	1.30642339415146
n_25_char_50	0.155461134716321	0.0617345663584104	3.1327168207948	2.49612596850787
n_25_char_50	0.245438640339915	0.0477380654836291	3.35741064733817	2.1967008247938
n_25_char_50	0.658085478630342	0.0477380654836291	3.4608847788053	1.40264933766558
n_25_char_50	0.302424393901525	0.174956260934766	2.7120719820045	2.05748562859285
n_25_char_50	0.228442889277681	0.144963759060235	2.78730317420645	2.17570607348163
n_25_char_50	0.964008997750562	0.137465633591602	2.81704573856536	1.03699075231192
n_25_char_50	0.951012246938265	0.178705323669083	2.6575856035991	1.04998750312422
n_25_char_50	0.329667583104224	0.0732316920769808	3.17270682329418	1.86128467883029
n_25_char_50	0.31742064483879	0.065983504123969	3.50512371907023	2.05273681579605
n_25_char_50	0.619595101224694	0.11647088227943	2.9537615596101	1.44638840289928
n_25_char_50	0.206698325418645	0.0637340664833792	3.29692576855786	2.21944513871532
n_25_char_50	0.0637340664833792	0.134466383404149	2.86303424143964	2.48862784303924
n_25_char_50	0.751312171957011	0.102474381404649	2.97725568607848	1.25718570357411
n_25_char_50	0.338915271182204	0.213946513371657	2.51212196950762	1.71132216945764
n_25_char_50	0.950512371907023	0.159460134966258	2.66758310422394	1.04998750312422
n_25_char_50	0.432641839540115	0.121719570107473	2.96700824793802	1.77630592351912
n_25_char_50	0.0617345663584104	0.162959260184954	2.66333416645839	2.55286178455386
n_25_char_50	0.187453136715821	0.108722819295176	2.9537615596101	2.16320919770057
n_25_char_50	0.218695326168458	0.121469632591852	2.93376655836041	2.07098225443639
n_25_char_50	0.290927268182954	0.138965258685329	2.87028242939265	1.8862784303924
n_25_char_50	0.505873531617096	0.176705823544114	2.66158460384904	1.5901024743814
n_25_char_50	0.283679080229943	0.0894776305923519	3.08972756810797	2.06923269182704
n_25_char_50	0.32191952011997	0.0114971257185704	3.75931017245689	1.93676580854786
n_25_char_50	0.514121469632592	0.110222444388903	3.00374906273432	1.5853536615846
n_25_char_50	0.347913021744564	0.101724568857786	3.07723069232692	1.9715071232192
n_25_char_50	0.0354911272181955	0.135466133466633	2.83729067733067	2.75456135966009
n_25_char_50	0.254436390902274	0.170707323169208	2.63134216445889	1.94926268432892
n_25_char_50	0.599100224943764	0.102474381404649	2.92001999500125	1.45888527868033
n_25_char_50	0.18045488627843	0.0859785053736566	3.16995751062234	2.42239440139965
n_25_char_50	0.943764058985254	0.145713571607098	2.85928517870532	1.05823544113972
n_25_char_50	0.382154461384654	0.115471132216946	2.89852536865784	1.79630092476881
n_25_char_50	0.458135466133467	0.13696575856036	2.78805298675331	1.67808047988003
n_25_char_50	0.392401899525119	0.0934766308422894	3.12921769557611	1.90127468132967
n_25_char_50	0.526868282929268	0.0904773806548363	3.06098475381155	1.54536365908523
n_25_char_50	0.957510622344414	0.131967008247938	2.84578855286178	1.04398900274931
n_25_char_50	0.385403649087728	0.0759810047488128	3.14146463384154	1.76430892276931
n_25_char_50	0.274181454636341	0.106723319170207	3.03624093976506	1.90677330667333
n_25_char_50	0.698325418645339	0.103724068982754	2.95401149712572	1.33866533366658
n_25_char_50	0.547613096725819	0.130467383154211	2.84853786553362	1.48887778055486
n_25_char_50	0.357660584853787	0.13021744563859	2.93576605848538	1.93676580854786
n_25_char_50	0.263184203949013	0.179455136215946	2.64908772806798	1.83704073981505
n_25_char_50	0.364908772806798	0.156210947263184	2.73556610847288	1.94751312171957
n_25_char_50	0.935016245938515	0.166208447888028	2.55086228442889	1.06673331667083
n_25_char_50	0.421394651337166	0.0287428142964259	3.54036490877281	1.72356910772307
n_25_char_50	0.079230192451887	0.124468882779305	2.92701824543864	2.48187953011747
n_25_char_50	0.597850537365659	0.0662334416395901	3.23844038990252	1.47938015496126
n_25_char_50	0.882029492626843	0.292426893276681	2.16995751062234	1.12046988252937
n_25_char_50	0.513871532116971	0.0822294426393402	3.07498125468633	1.52261934516371
n_25_char_50	0.793051737065734	0.225193701574606	2.40339915021245	1.21594601349663
n_25_char_50	0.590852286928268	0.0907273181704574	3.05273681579605	1.42389402649338
n_25_char_50	0.744063984003999	0.111472131967008	3.03399150212447	1.27268182954261
n_25_char_50	0.0357410647338165	0.0822294426393402	3.25518620344914	2.78780304923769
n_25_char_50	0.147963009247688	0.132716820794801	2.74206448387903	2.16495876030992
n_25_char_50	0.455386153461635	0.0494876280929768	3.488127968008	1.71032241939515
n_25_char_50	0.113221694576356	0.0937265683579105	3.16270932266933	2.55361159710072
n_25_char_50	0.276430892276931	0.0339915021244689	3.42139465133717	1.88227943014246
n_25_char_50	0.225693576605849	0.0274931267183204	3.63959010247438	2.15496125968508
n_25_char_50	0.234941264683829	0.180204948762809	2.57860534866283	1.95601099725069
n_25_char_50	0.190952261934516	0.0337415646088478	3.6338415396151	2.43139215196201
n_25_char_50	0.543114221444639	0.0529867533116721	3.34766308422894	1.55411147213197
n_25_char_50	0.00774806298425394	0.148212946763309	2.84903774056486	3.17870532366908
n_25_char_50	0.218695326168458	0.190202449387653	2.58160459885029	2.08547863034241
n_25_char_50	0.298425393651587	0.0719820044988753	3.23019245188703	2.00124968757811
n_25_char_50	0.458135466133467	0.137715571107223	2.89902524368908	1.59035241189703
n_25_char_50	0.819045238690327	0.0444888777805549	3.39015246188453	1.19745063734066
n_25_char_50	0.447888027993002	0.122219445138715	2.90902274431392	1.68307923019245
n_25_char_50	0.380404898775306	0.105723569107723	3.06498375406148	1.83329167708073
n_25_char_50	0.0692326918270432	0.208197950512372	2.56335916020995	2.54211447138215
n_25_char_50	0.382404398900275	0.194701324668833	2.5438640339915	1.83554111472132
n_25_char_50	0.186703324168958	0.0662334416395901	3.22719320169958	2.488127968008
n_25_char_50	0.479880029992502	0.177455636090977	2.64383904023994	1.64383904023994
n_25_char_50	0.287928017995501	0.147963009247688	2.70982254436391	1.82829292676831
n_25_char_50	0.381654586353412	0.0729817545613597	3.2144463884029	1.86078480379905
n_25_char_50	0.202949262684329	0.136465883529118	2.86353411647088	2.12121969507623
n_25_char_50	0.693326668332917	0.0604848787803049	3.22644338915271	1.32191952011997
n_25_char_50	0.53186703324169	0.174206448387903	2.59510122469383	1.59085228692827
n_25_char_50	0.934766308422894	0.136215946013497	2.85878530367408	1.06698325418645
n_25_char_50	0.106473381654586	0.186203449137716	2.4928767808048	2.2096975756061
n_25_char_50	0.372906773306673	0.145463634091477	2.80429892526868	1.86703324168958
n_25_char_50	0.771557110722319	0.135966008497876	2.83929017745564	1.23719070232442
n_25_char_50	0.288427893026743	0.0509872531867033	3.4028992751812	2.06373406648338
n_25_char_50	0.544613846538365	0.156960759810047	2.73281679580105	1.54686328417896
n_25_char_50	0.415396150962259	0.0717320669832542	3.21194701324669	1.63084228942764
n_25_char_50	0.600099975006248	0.112471882029493	2.94351412146963	1.46788302924269
n_25_char_50	0.24893776555861	0.165708572856786	2.69332666833292	2.06898275431142
n_25_char_50	0.44738815296176	0.0229942514371407	3.3779055236191	1.74631342164459
n_25_char_50	0.367908022994251	0.143964008997751	2.81404648837791	1.88927768057986
n_25_char_50	0.0149962509372657	0.173706573356661	2.60684828792802	2.62684328917771
n_25_char_50	0.376405898525369	0.145213696575856	2.82304423894026	1.92701824543864
n_25_char_50	0.467133216695826	0.0982254436390902	2.9395151212197	1.62709322669333
n_25_char_50	0.110972256935766	0.0917270682329418	3.10647338165459	2.53961509622594
n_25_char_50	0.410397400649838	0.0457385653586603	3.34516370907273	1.79930017495626
n_25_char_50	0.1872031992002	0.100724818795301	3.06298425393652	2.34491377155711
n_25_char_50	0.137465633591602	0.0732316920769808	3.21419645088728	2.62784303924019
n_25_char_50	0.543614096475881	0.0909772556860785	3.05323669082729	1.54986253436641
n_25_char_50	0.118970257435641	0.0549862534366408	3.4111472131967	2.46663334166458
n_25_char_50	0.0409897525618595	0.102974256435891	3.02224443889028	2.84853786553362
n_25_char_50	0.165708572856786	0.169957510622344	2.70507373156711	2.28642839290177
n_25_char_50	0.412146963259185	0.126218445388653	2.86453386653337	1.64783804048988
n_50_char_100	0.18270432391902	0.108722819295176	3.1837040739815	2.25543614096476
n_50_char_100	0.0864783804048988	0.0777305673581605	3.24843789052737	2.55311172206948
n_50_char_100	0.61634591352162	0.0444888777805549	3.51612096975756	1.45788552861785
n_50_char_100	0.0722319420144964	0.0827293176705824	3.22644338915271	2.51087228192952
n_50_char_100	0.374156460884779	0.0477380654836291	3.46288427893027	1.84228942764309
n_50_char_100	0.0667333166708323	0.0572356910772307	3.5261184703824	2.5901024743814
n_50_char_100	0.493376655836041	0.0602349412646838	3.43289177705574	1.62759310172457
n_50_char_100	0.0899775056235941	0.0367408147963009	3.5841039740065	2.61909522619345
n_50_char_100	0.0224943764058985	0.135466133466633	2.78055486128468	2.8862784303924
n_50_char_100	0.20769807548113	0.108472881779555	3.00024993751562	2.12971757060735
n_50_char_100	0.0987253186703324	0.0497375656085979	3.4418895276181	2.45963509122719
n_50_char_100	0.457885528617846	0.0972256935766058	3.14471382154461	1.63309172706823
n_50_char_100	0.110222444388903	0.028992751812047	3.63334166458385	2.48137965508623
n_50_char_100	0.938515371157211	0.107473131717071	3.0354911272182	1.06223444138965
n_50_char_100	0.0357410647338165	0.0877280679830043	3.23769057735566	3.01799550112472
n_50_char_100	0.849537615596101	0.131717070732317	2.92751812046988	1.15496125968508
n_50_char_100	0.0837290677330667	0.0354911272181955	3.69807548112972	2.66283429142714
n_50_char_100	0.189202699325169	0.124468882779305	2.87228192951762	2.18870282429393
n_50_char_100	0.244438890277431	0.147713071732067	2.93301674581355	2.08322919270182
n_50_char_100	0.597100724818795	0.146713321669583	2.75481129717571	1.4158960259935
n_50_char_100	0.431392151962009	0.106473381654586	3.05548612846788	1.66058485378655
n_50_char_100	0.408397900524869	0.0674831292176956	3.36690827293177	1.73806548362909
n_50_char_100	0.238940264933767	0.0979755061234691	3.11622094476381	1.95951012246938
n_50_char_100	0.0182454386403399	0.0544863784053986	3.32791802049488	3.1007248187953
n_50_char_100	0.607848037990502	0.122719320169958	2.8802799300175	1.40939765058735
n_50_char_100	0.0889777555611097	0.10497375656086	3.02024493876531	2.58335416145963
n_50_char_100	0.287428142964259	0.153711572106973	2.77855536115971	1.98675331167208
n_50_char_100	0.32416895776056	0.112471882029493	3.03074231442139	1.72456885778555
n_50_char_100	0.00349912521869533	0.0279930017495626	3.7535616095976	3.29567608097976
n_50_char_100	0.073981504623844	0.103724068982754	3.19745063734067	2.56335916020995
n_50_char_100	0.431642089477631	0.065983504123969	3.37615596100975	1.66558360409898
n_50_char_100	0.939015246188453	0.204198950262434	2.49162709322669	1.06223444138965
n_50_char_100	0.94751312171957	0.0449887528117971	3.39740064983754	1.05373656585854
n_50_char_100	0.871532116970757	0.0912271932016996	3.07323169207698	1.13421644588853
n_50_char_100	0.973256685828543	0.259685078730317	2.3471632091977	1.02699325168708
n_50_char_100	0.174206448387903	0.031742064483879	3.54911272181955	2.21469632591852
n_50_char_100	0.0667333166708323	0.165708572856786	2.75331167208198	2.67408147963009
n_50_char_100	0.169457635591102	0.160709822544364	2.77355661084729	1.8530367408148
n_50_char_100	0.148212946763309	0.0424893776555861	3.57010747313172	2.49962509372657
n_50_char_100	0.322919270182454	0.0894776305923519	3.09647588102974	1.87928017995501
n_50_char_100	0.0444888777805549	0.10272431892027	3.00149962509373	2.53036740814796
n_50_char_100	0.262934266433392	0.0204948762809298	3.83679080229943	2.09072731817046
n_50_char_100	0.23519120219945	0.0322419395151212	3.56685828542864	2.09047738065484
n_50_char_100	0.0314921269682579	0.0439890027493127	3.40764808797801	3.02524368907773
n_50_char_100	0.258685328667833	0.0507373156710822	3.44938765308673	2.07273181704574
n_50_char_100	0.171957010747313	0.0239940014996251	3.70557360659835	2.44438890277431
n_50_char_100	0.921769557610597	0.138215446138465	2.85128717820545	1.07923019245189
n_50_char_100	0.0259935016245939	0.0709822544363909	3.19995001249688	2.95326168457886
n_50_char_100	0.277430642339415	0.0532366908272932	3.37040739815046	2.12246938265434
n_50_char_100	0.426393401649588	0.106223444138965	2.97500624843789	1.78730317420645
n_50_char_100	0.365908522869283	0.0834791302174456	3.23569107723069	1.83829042739315
n_50_char_100	0.633091727068233	0.158960259935016	2.75781054736316	1.38115471132217
n_50_char_100	0.10497375656086	0.0954761309672582	3.15246188452887	2.22194451387153
n_50_char_100	0.574356410897276	0.141214696325919	2.84853786553362	1.48087978005499
n_50_char_100	0.141714571357161	0.145963509122719	2.88077980504874	2.32016995751062
n_50_char_100	0.578605348662834	0.0849787553111722	3.23394151462134	1.50662334416396
n_50_char_100	0.32641839540115	0.157710572356911	2.68532866783304	1.90677330667333
n_50_char_100	0.231192201949513	0.161709572606848	2.76355911022244	1.98950262434391
n_50_char_100	0.247438140464884	0.17345663584104	2.62884278930267	2.03649087728068
n_50_char_100	0.870782304423894	0.136465883529118	2.76905773556611	1.1327168207948
n_50_char_100	0.386403399150212	0.105723569107723	3.02299425143714	1.75606098475381
n_50_char_100	0.529367658085479	0.0984753811547113	3.1552111972007	1.57510622344414
n_50_char_100	0.0967258185453637	0.0417395651087228	3.52836790802299	2.51762059485129
n_50_char_100	0.00149962509372657	0.0609847538115471	3.37640589852537	3.54886278430392
n_50_char_100	0.623094226443389	0.0679830042489378	3.41014746313422	1.4431392151962
n_50_char_100	0.631592101974506	0.0789802549362659	3.14646338415396	1.42339415146213
n_50_char_100	0.196200949762559	0.103474131467133	2.93476630842289	2.15571107223194
n_50_char_100	0.531117220694826	0.0419895026243439	3.53061734566358	1.55861034741315
n_50_char_100	0.394401399650087	0.0654836290927268	3.39840039990003	1.64408897775556
n_50_char_100	0.28992751812047	0.0787303174206448	3.21819545113722	2.01174706323419
n_50_char_100	0.624343914021495	0.111722069482629	2.99750062484379	1.38240439890027
n_50_char_100	0.468632841789553	0.0824793801549613	3.18320419895026	1.5616095976006
n_50_char_100	0.0699825043739065	0.142964258935266	2.83304173956511	2.51637090727318
n_50_char_100	0.160959760059985	0.111472131967008	3.01249687578105	2.23019245188703
n_50_char_100	0.133966508372907	0.0919770057485629	3.11547113221695	2.31442139465134
n_50_char_100	0.30142464383904	0.152711822044489	2.79005248687828	1.85178705323669
n_50_char_100	0.471632091977006	0.0727318170457386	3.25718570357411	1.67883029242689
n_50_char_100	0.135966008497876	0.0682329417645589	3.41164708822794	2.33266683329168
n_50_char_100	0.0962259435141215	0.156460884778805	2.71482129467633	2.42039490127468
n_50_char_100	0.50687328167958	0.124968757810547	3.02049487628093	1.63559110222444
n_50_char_100	0.447638090477381	0.0744813796550862	3.29467633091727	1.68632841789553
n_50_char_100	0.920269932516871	0.172956760809798	2.84228942764309	1.08097975506123
n_50_char_100	0.268682829292677	0.0769807548112972	3.27218195451137	2.07748062984254
n_50_char_100	0.359160209947513	0.0777305673581605	3.30392401899525	1.85728567858035
n_50_char_100	0.0337415646088478	0.0629842539365159	3.31417145713572	2.89727568107973
n_50_char_100	0.0347413146713322	0.112721819545114	3.06448387903024	2.85553611597101
n_50_char_100	0.773556610847288	0.172206948262934	2.71582104473882	1.23094226443389
n_50_char_100	0.130467383154211	0.111222194451387	3.00299925018745	2.18845288677831
n_50_char_100	0.0789802549362659	0.0189952511872032	3.9217695576106	2.70807298175456
n_50_char_100	0.0122469382654336	0.0987253186703324	3.01849537615596	3.17970507373157
n_50_char_100	0.0904773806548363	0.0662334416395901	3.37765558610347	2.59760059985004
n_50_char_100	0.357660584853787	0.0854786303424144	3.18420394901275	1.89227693076731
n_50_char_100	0.0519870032491877	0.109972506873282	3.05798550362409	2.81954511372157
n_50_char_100	0.287428142964259	0.0657335666083479	3.28567858035491	2.05798550362409
n_50_char_100	0.393401649587603	0.1232191952012	3.00749812546863	1.74131467133217
n_50_char_100	0.978255436140965	0.0517370657335666	3.31842039490127	1.02174456385904
n_50_char_100	0.0439890027493127	0.0567358160459885	3.46113471632092	2.99400149962509
n_50_char_100	0.00549862534366408	0.0127468132966758	3.97200699825044	3.43039240189953
n_50_char_100	0.383904023994001	0.0987253186703324	3.04873781554611	1.78380404898775
n_50_char_100	0.0382404398900275	0.03424143964009	3.61284678830292	2.92426893276681
n_50_char_200	0.350412396900775	0.122969257685579	3.12696825793552	1.93876530867283
n_50_char_200	0.368407898025494	0.0942264433891527	3.09997500624844	1.89552611847038
n_50_char_200	0.394401399650087	0.0747313171707073	3.25643589102724	1.8352911772057
n_50_char_200	0.183454136465884	0.0479880029992502	3.45388652836791	2.24218945263684
n_50_char_200	0.0754811297175706	0.107473131717071	3.11072231942014	2.74181454636341
n_50_char_200	0.126218445388653	0.0372406898275431	3.71182204448888	2.53811547113222
n_50_char_200	0.0364908772806798	0.120719820044989	2.98850287428143	2.97600599850038
n_50_char_200	0.19645088727818	0.00724818795301175	4.05773556610847	2.41964508872782
n_50_char_200	0.0139965008747813	0.0627343164208948	3.27818045488628	3.32141964508873
n_50_char_200	0.102974256435891	0.0784803799050237	3.30442389402649	2.58010497375656
n_50_char_200	0.543864033991502	0.0382404398900275	3.65883529117721	1.55386153461635
n_50_char_200	0.676830792301925	0.00999750062484379	4.063984003999	1.33641589602599
n_50_char_200	0.391152211947013	0.123469132716821	3.01824543864034	1.75731067233192
n_50_char_200	0.118970257435641	0.0452386903274181	3.65608597850537	2.6990752311922
n_50_char_200	0.355911022244439	0.155711072231942	2.75606098475381	1.81429642589353
n_50_char_200	0.00724818795301175	0.110472381904524	3.2594351412147	3.30717320669833
n_50_char_200	0.0307423144213947	0.0242439390152462	3.70232441889528	3.00199950012497
n_50_char_200	0.354161459635091	0.0889777555611097	3.15421144713822	1.90327418145464
n_50_char_200	0.424893776555861	0.0172456885778555	3.73631592101975	1.74131467133217
n_50_char_200	0.187453136715821	0.000249937515621095	4.27818045488628	2.28692826793302
n_50_char_200	0.00299925018745314	0.112221944513872	3.06073481629593	3.10947263184204
n_50_char_200	0.018495376155961	0.0204948762809298	3.87553111722069	2.9680079980005
n_50_char_200	0.635091227193202	0.0612346913271682	3.27668082979255	1.42589352661835
n_50_char_200	0.0142464383904024	0.0577355661084729	3.34341414646338	3.31142214446388
n_50_char_200	0.0172456885778555	0.076480879780055	3.29542614346413	3.29192701824544
n_50_char_200	0.286178455386153	0.0709822544363909	3.26468382904274	2.15696075981005
n_50_char_200	0.0389902524368908	0.101224693826543	3.05373656585854	2.96475881029743
n_50_char_200	0.322419395151212	0.0872281929517621	3.26668332916771	1.98675331167208
n_50_char_200	0.0354911272181955	0.131967008247938	2.94676330917271	2.88852786803299
n_50_char_200	0.0914771307173207	0.0407398150462384	3.54586353411647	2.4751312171957
n_50_char_200	0.00374906273431642	0.0559860034991252	3.46713321669583	3.67458135466133
n_50_char_200	0.141214696325919	0.0124968757810547	3.98425393651587	2.40539865033742
n_50_char_200	0.0307423144213947	0.0719820044988753	3.29117720569858	3.06173456635841
n_50_char_200	0.0627343164208948	0.0609847538115471	3.39290177455636	2.78630342414396
n_50_char_200	0.0309922519370157	0.0627343164208948	3.38340414896276	3.10047488127968
n_50_char_200	0.510622344413897	0.0962259435141215	3.16770807298175	1.56560859785054
n_50_char_200	0.125718570357411	0.0347413146713322	3.59110222444389	2.37190702324419
n_50_char_200	0.117470632341915	0.010497375656086	4.04948762809298	2.56660834791302
n_50_char_200	0.290427393151712	0.0149962509372657	4.03474131467133	2.11197200699825
n_50_char_200	0.413896525868533	0.0332416895776056	3.88877780554861	1.82629342664334
n_50_char_200	0.275931017245689	0.000499875031242189	4.44163959010247	2.13346663334166
n_50_char_50	0.425643589102724	0.0624843789052737	3.28217945513622	1.66958260434891
n_50_char_50	0.106473381654586	0.170707323169208	2.71557110722319	2.21219695076231
n_50_char_50	0.4976255936016	0.154961259685079	2.78305423644089	1.57860534866283
n_50_char_50	0.850787303174206	0.131967008247938	2.87778055486128	1.15621094726318
n_50_char_50	0.489377655586103	0.0717320669832542	3.27693076730817	1.59210197450637
n_50_char_50	0.414146463384154	0.104223944013996	2.99950012496876	1.69732566858285
n_50_char_50	0.962009497625594	0.0727318170457386	3.21594601349663	1.03824043989003
n_50_char_50	0.277430642339415	0.19645088727818	2.56410897275681	1.97475631092227
n_50_char_50	0.113221694576356	0.0779805048737816	3.15271182204449	2.26218445388653
n_50_char_50	0.400899775056236	0.0372406898275431	3.53036740814796	1.76230942264434
n_50_char_50	0.327918020494876	0.0757310672331917	3.21319670082479	1.91427143214196
n_50_char_50	0.124218945263684	0.0374906273431642	3.2689327668083	2.21519620094976
n_50_char_50	0.498625343664084	0.0457385653586603	3.49312671832042	1.55836040989753
n_50_char_50	0.961759560109973	0.135216195951012	2.81004748812797	1.03899025243689
n_50_char_50	0.103474131467133	0.119470132466883	2.98150462384404	2.63359160209948
n_50_char_50	0.0577355661084729	0.0969757560609848	3.00524868782804	2.60684828792802
n_50_char_50	0.69857535616096	0.104223944013996	2.98850287428143	1.3139215196201
n_50_char_50	0.0437390652336916	0.133716570857286	2.82004498875281	2.75656085978505
n_50_char_50	0.40864783804049	0.134466383404149	2.90452386903274	1.69382654336416
n_50_char_50	0.971007248187953	0.183204198950262	2.60034991252187	1.02924268932767
n_50_char_50	0.616095976005999	0.0957260684828793	2.99800049987503	1.38990252436891
n_50_char_50	0.259185203699075	0.137465633591602	2.81104723819045	1.91277180704824
n_50_char_50	0.537865533616596	0.060734816295926	3.31917020744814	1.53536615846038
n_50_char_50	0.409647588102974	0.0282429392651837	3.4893776555861	1.63334166458385
n_50_char_50	0.462384403899025	0.15971007248188	2.7298175456136	1.55461134716321
n_50_char_50	0.485378655336166	0.089727568107973	3.11247188202949	1.55586103474131
n_50_char_50	0.468882779305174	0.0729817545613597	3.29092726818295	1.60284928767808
n_50_char_50	0.276430892276931	0.1552111972007	2.83404148962759	1.73381654586353
n_50_char_50	0.416395901024744	0.0672331917020745	3.22369407648088	1.72081979505124
n_50_char_50	0.888277930517371	0.136715821044739	2.91977005748563	1.11922019495126
n_50_char_50	0.521119720069983	0.108222944263934	2.92626843289178	1.49887528117971
n_50_char_50	0.0649837540614846	0.146963259185204	2.75456135966009	1.99425143714071
n_50_char_50	0.464883779055236	0.254436390902274	2.31692076980755	1.55986003499125
n_50_char_50	0.548862784303924	0.0859785053736566	3.05998500374906	1.4608847788053
n_50_char_50	0.958760309922519	0.182454386403399	2.65533616595851	1.04198950262434
n_50_char_50	0.386653336665834	0.151962009497626	2.78155461134716	1.65033741564609
n_50_char_50	0.516120969757561	0.147213196700825	2.84928767808048	1.54761309672582
n_50_char_50	0.983004248937766	0.166208447888028	2.71532116970757	1.01699575106223
n_50_char_50	0.00674831292176956	0.0112471882029493	3.90427393151712	3.30292426893277
n_50_char_50	0.333916520869783	0.0822294426393402	3.25568607848038	1.79530117470632
n_50_char_50	0.490377405648588	0.119220194951262	2.86353411647088	1.5201199700075
n_50_char_50	0.0917270682329418	0.10497375656086	3.03824043989003	2.38240439890027
n_50_char_50	0.0584853786553362	0.0964758810297426	3.04298925268683	2.60384903774056
n_50_char_50	0.286428392901775	0.149462634341415	2.83154211447138	1.8862784303924
n_50_char_50	0.293176705823544	0.055486128467883	3.30017495626093	2.09722569357661
n_50_char_50	0.494626343414146	0.133716570857286	2.89777555611097	1.63784053986503
n_50_char_50	0.657085728567858	0.152711822044489	2.78480379905024	1.36840789802549
n_50_char_50	0.28992751812047	0.127718070482379	2.80729817545614	1.98650337415646
n_50_char_50	0.536365908522869	0.163209197700575	2.69982504373907	1.58235441139715
n_50_char_50	0.305173706573357	0.0672331917020745	3.17170707323169	1.92051987003249
n_50_char_50	0.273431642089478	0.0609847538115471	3.17370657335666	2.10797300674831
n_50_char_50	0.915021244688828	0.140214946263434	2.81879530117471	1.087728067983
n_50_char_50	0.357410647338165	0.186703324168958	2.64583854036491	1.66433391652087
n_50_char_50	0.933016745813547	0.150962259435141	2.75056235941015	1.06798300424894
n_50_char_50	0.0439890027493127	0.113971507123219	2.95876030992252	2.69732566858285
n_50_char_50	0.010497375656086	0.17345663584104	2.57260684828793	3.21844538865284
n_50_char_50	0.0902274431392152	0.092226943264184	3.21694576355911	2.49162709322669
n_50_char_50	0.401149712571857	0.152711822044489	2.68782804298925	1.62134466383404
n_50_char_50	0.0497375656085979	0.144213946513372	2.76480879780055	2.62359410147463
n_50_char_50	0.393401649587603	0.149962509372657	2.80854786303424	1.65608597850537
n_50_char_50	0.345413646588353	0.0362409397650587	3.55561109722569	1.79430142464384
n_50_char_50	0.291927018245439	0.0532366908272932	3.32441889527618	1.89002749312672
n_50_char_50	0.212196950762309	0.0384903774056486	3.53611597100725	1.99025243689078
n_50_char_50	0.0327418145463634	0.0379905023744064	3.50337415646088	2.93026743314171
n_50_char_50	0.130967258185454	0.0822294426393402	3.05948512871782	2.27343164208948
n_50_char_50	0.0877280679830043	0.117220694826293	2.91652086978255	2.58135466133467
n_50_char_50	0.548862784303924	0.0674831292176956	3.26268432891777	1.47138215446138
n_50_char_50	0.357410647338165	0.183204198950262	2.61059735066233	1.7535616095976
n_50_char_50	0.312921769557611	0.0557360659835041	3.38090477380655	1.81729567608098
n_50_char_50	0.108472881779555	0.120469882529368	2.89852536865784	2.24093976505874
n_50_char_50	0.160959760059985	0.0849787553111722	3.17470632341915	2.11097225693577
n_50_char_50	0.864783804048988	0.0624843789052737	3.23144213946513	1.14296425893527
n_50_char_50	0.936265933516621	0.0204948762809298	3.73981504623844	1.06548362909273
n_50_char_50	0.942014496375906	0.0569857535616096	3.24468882779305	1.05873531617096
n_50_char_50	0.403149212696826	0.121219695076231	2.90752311922019	1.66258435391152
n_50_char_50	0.577355661084729	0.140214946263434	2.78930267433142	1.43339165208698
n_50_char_50	0.578105473631592	0.102224443889028	2.95626093476631	1.4976255936016
n_50_char_50	0.224443889027743	0.0789802549362659	3.08697825543614	2.03324168957761
n_50_char_50	0.971757060734816	0.146963259185204	2.77155711072232	1.0284928767808
n_50_char_50	0.146463384153962	0.140464883779055	2.76530867283179	2.27418145463634
n_50_char_50	0.312171957010747	0.138965258685329	2.85753561609598	1.8910272431892
n_50_char_50	0.0244938765308673	0.0967258185453637	2.96375906023494	2.82604348912772
n_50_char_50	0.798300424893777	0.0559860034991252	3.24043989002749	1.20869782554361
n_50_char_50	0.0359910022494376	0.0707323169207698	3.28867783054236	2.83554111472132
n_50_char_50	0.224943764058985	0.0932266933266683	3.02149462634341	1.9917520619845
n_50_char_50	0.323919020244939	0.0834791302174456	3.11247188202949	1.73306673331667
n_50_char_50	0.234191452136966	0.0357410647338165	3.53636590852287	1.80079980004999
n_50_char_50	0.862034491377156	0.226193451637091	2.35916020994751	1.14321419645089
n_50_char_50	0.0702324418895276	0.168457885528618	2.75006248437891	2.66308422894276
n_50_char_50	0.121219695076231	0.111722069482629	3.04873781554611	2.14846288427893
n_50_char_50	0.26943264183954	0.0907273181704574	3.11997000749813	1.92451887028243
n_50_char_50	0.0674831292176956	0.0809797550612347	3.15721069732567	2.4976255936016
n_50_char_50	0.435891027243189	0.154211447138215	2.73431642089478	1.71582104473882
n_50_char_50	0.140714821294676	0.0594851287178205	3.26618345413647	2.33441639590102
n_50_char_50	0.0492376905773557	0.17120719820045	2.7298175456136	2.61009747563109
n_50_char_50	0.287428142964259	0.139965008747813	2.70482379405149	1.78130467383154
n_50_char_50	0.128717820544864	0.0672331917020745	3.22544363909023	2.71107223194201
n_50_char_50	0.113721569607598	0.0224943764058985	3.72206948262934	2.44763809047738
n_50_char_50	0.795051237190702	0.117220694826293	2.93551612096976	1.21294676330917
n_50_char_50	0.0482379405148713	0.0807298175456136	3.17470632341915	2.7570607348163
