3
[ 10.114, 10.114, 3.323, 10.114, 0.489, 0.489, 3.323, 3.323, 3.323, 3.323, 10.114, 10.114, 3.323, 3.323, 10.114, 10.114, 3.323, 3.323, 0.489, 3.323, 0.489, 3.323, 10.114, 10.114, 3.323, 3.323, 3.323, 3.323, 10.114, 0.489, 3.323, 3.323, 3.323, 10.114, 3.323, 3.323, 3.323, 0.489, 3.323, 3.323, 10.114, 3.323, 10.114, 0.489, 10.114, 0.489, 0.489, 3.323, 10.114, 3.323 ]
4
[ 0.534, 0.927, 0.534, 0.534, 0.534, 0.927, 0.927, 0.927, 0.534, 0.220, 0.534, 0.927, 0.534, 0.927, 0.927, 0.534, 0.534, 0.534, 0.534, 0.534, 0.534, 0.534, 0.927, 0.534, 0.534, 0.498, 0.534, 0.534, 0.534, 0.534, 0.927, 0.534, 0.927, 0.534, 0.534, 0.534, 0.927, 0.534, 0.534, 0.927, 0.534, 0.534, 0.534, 0.534, 0.534, 0.534, 0.927, 0.534, 0.534, 0.927 ]