3
[ 4.500, 5.541, 2.803, 2.803, 2.803, 4.500, 4.500, 2.803, 4.500, 4.500, 5.541, 2.803, 2.803, 5.541, 4.500, 5.541, 5.541, 2.803, 5.541, 2.803, 2.803, 2.803, 2.803, 4.500, 4.500, 5.541, 4.500, 5.541, 4.500, 4.500, 5.541, 2.803, 4.500, 5.541, 2.803, 5.541, 5.541, 4.500, 5.541, 2.803, 4.500, 5.541, 4.500, 2.803, 5.541, 2.803, 4.500, 5.541, 2.803, 5.541 ]
3
[ 0.322, 0.322, 0.033, 0.322, 0.146, 0.146, 0.322, 0.033, 0.033, 0.033, 0.146, 0.033, 0.146, 0.033, 0.146, 0.322, 0.033, 0.322, 0.146, 0.146, 0.033, 0.146, 0.322, 0.146, 0.322, 0.033, 0.322, 0.146, 0.033, 0.146, 0.322, 0.322, 0.322, 0.322, 0.322, 0.322, 0.322, 0.322, 0.146, 0.146, 0.322, 0.322, 0.146, 0.322, 0.033, 0.033, 0.033, 0.033, 0.322, 0.322 ]