3
[ 3.321, 1.960, 3.321, 3.379, 1.960, 3.321, 1.960, 1.960, 3.379, 3.321, 1.960, 1.960, 1.960, 3.379, 1.960, 1.960, 1.960, 3.321, 1.960, 3.379, 3.379, 3.379, 3.379, 1.960, 3.379, 3.379, 3.321, 3.379, 3.379, 3.379, 3.379, 1.960, 1.960, 1.960, 1.960, 1.960, 3.321, 3.379, 1.960, 3.321, 3.321, 3.379, 3.379, 3.379, 1.960, 3.379, 3.321, 3.321, 3.321, 3.321, 1.960, 1.960, 1.960, 3.379, 3.379, 3.321, 3.379, 3.379, 3.379, 3.321, 1.960, 3.321, 1.960, 3.321, 3.379, 3.379, 1.960, 1.960, 3.321, 1.960, 3.379, 1.960, 3.379, 1.960, 3.379, 1.960, 1.960, 1.960, 3.379, 1.960, 1.960, 3.321, 3.379, 1.960, 3.321, 1.960, 1.960, 3.321, 1.960, 3.321, 3.379, 3.321, 3.321, 1.960, 1.960, 1.960, 1.960, 3.321, 1.960, 1.960, 1.960, 1.960, 1.960, 1.960, 1.960, 3.379, 3.321, 3.379, 3.379, 1.960, 3.321, 1.960, 3.379, 3.321, 3.321, 1.960, 3.321, 1.960, 1.960, 3.379, 3.379, 3.321, 1.960, 3.379, 3.321, 3.379, 1.960, 3.321, 3.321, 3.321, 1.960, 3.379, 1.960, 3.321, 3.379, 3.321, 3.379, 1.960, 1.960, 1.960, 1.960, 3.379, 3.321, 1.960, 3.321, 3.321, 3.321, 1.960, 1.960, 1.960, 3.321, 3.379, 3.379, 3.321, 1.960, 1.960, 3.321, 1.960, 1.960, 3.379, 3.321, 3.321, 3.321, 3.379, 1.960, 3.379, 3.321, 3.321, 1.960, 3.321, 3.379, 3.321, 3.321, 3.321, 1.960, 1.960, 1.960, 3.379, 3.321, 3.321, 3.379, 3.321, 3.321, 3.379, 3.321, 1.960, 3.379, 3.321, 3.379, 3.321, 1.960, 3.379, 3.321, 3.379, 3.379, 1.960, 1.960, 3.321, 1.960, 3.321 ]
3
[ 0.725, 0.725, 0.725, 0.969, 0.725, 0.164, 0.725, 0.969, 0.725, 0.725, 0.164, 0.725, 0.164, 0.969, 0.164, 0.725, 0.164, 0.969, 0.725, 0.969, 0.725, 0.164, 0.164, 0.164, 0.969, 0.164, 0.725, 0.164, 0.969, 0.969, 0.969, 0.969, 0.164, 0.164, 0.969, 0.725, 0.725, 0.969, 0.164, 0.969, 0.164, 0.164, 0.969, 0.164, 0.164, 0.164, 0.725, 0.725, 0.164, 0.969, 0.969, 0.164, 0.164, 0.969, 0.164, 0.725, 0.164, 0.969, 0.164, 0.969, 0.725, 0.969, 0.725, 0.725, 0.725, 0.164, 0.725, 0.164, 0.969, 0.164, 0.164, 0.969, 0.164, 0.164, 0.969, 0.969, 0.969, 0.725, 0.164, 0.725, 0.969, 0.969, 0.164, 0.725, 0.969, 0.164, 0.164, 0.164, 0.969, 0.164, 0.725, 0.164, 0.725, 0.164, 0.969, 0.725, 0.164, 0.969, 0.725, 0.969, 0.725, 0.969, 0.164, 0.969, 0.969, 0.164, 0.969, 0.725, 0.164, 0.164, 0.164, 0.164, 0.969, 0.164, 0.969, 0.969, 0.725, 0.164, 0.725, 0.725, 0.725, 0.969, 0.725, 0.725, 0.164, 0.725, 0.164, 0.725, 0.164, 0.969, 0.969, 0.969, 0.164, 0.164, 0.725, 0.164, 0.969, 0.725, 0.725, 0.164, 0.725, 0.969, 0.725, 0.725, 0.725, 0.969, 0.164, 0.969, 0.969, 0.969, 0.969, 0.969, 0.164, 0.725, 0.725, 0.969, 0.969, 0.969, 0.969, 0.725, 0.725, 0.969, 0.164, 0.164, 0.164, 0.725, 0.164, 0.164, 0.969, 0.725, 0.725, 0.725, 0.969, 0.969, 0.164, 0.725, 0.725, 0.969, 0.969, 0.164, 0.969, 0.969, 0.164, 0.969, 0.969, 0.725, 0.164, 0.969, 0.969, 0.164, 0.725, 0.725, 0.969, 0.969, 0.164, 0.164, 0.725, 0.969, 0.725, 0.164 ]