5
[ 0.326, 5.554, 0.326, 0.326, 5.554, 5.554, 5.554, 5.554, 5.554, 0.326, 0.326, 0.326, 5.122, 0.326, 0.326, 0.326, 0.326, 0.326, 0.326, 0.326, 0.326, 5.554, 0.326, 6.126, 5.554, 5.122, 0.326, 0.326, 5.122, 0.691, 0.326, 5.554, 0.326, 0.691, 0.326, 0.326, 0.326, 0.326, 0.326, 5.554, 5.554, 0.326, 0.326, 0.326, 5.554, 0.326, 0.326, 0.326, 5.554, 0.326 ]
4
[ 0.422, 0.003, 0.422, 0.779, 0.422, 0.422, 0.422, 0.422, 0.032, 0.422, 0.422, 0.032, 0.422, 0.422, 0.422, 0.003, 0.032, 0.422, 0.032, 0.422, 0.422, 0.422, 0.422, 0.779, 0.003, 0.422, 0.779, 0.003, 0.422, 0.422, 0.422, 0.779, 0.422, 0.422, 0.779, 0.422, 0.422, 0.422, 0.422, 0.422, 0.422, 0.422, 0.422, 0.032, 0.422, 0.422, 0.422, 0.422, 0.422, 0.779 ]