3
[ 0.924, 0.924, 2.309, 2.024, 0.924, 0.924, 2.309, 2.309, 2.024, 0.924, 2.309, 2.024, 2.024, 0.924, 2.309, 0.924, 2.309, 0.924, 2.024, 2.024, 2.309, 0.924, 2.309, 2.024, 0.924, 2.024, 0.924, 2.024, 2.024, 2.024, 0.924, 2.024, 2.309, 2.024, 2.309, 0.924, 2.024, 0.924, 2.309, 2.024, 2.024, 2.024, 2.024, 0.924, 0.924, 0.924, 2.024, 0.924, 2.309, 2.024, 0.924, 0.924, 2.309, 0.924, 0.924, 2.024, 2.024, 0.924, 2.309, 2.024, 0.924, 2.309, 2.024, 0.924, 2.024, 0.924, 2.309, 2.024, 2.309, 0.924, 2.024, 2.024, 0.924, 2.024, 2.024, 2.024, 2.024, 2.024, 2.024, 2.309, 2.024, 0.924, 0.924, 0.924, 2.309, 0.924, 2.024, 2.024, 0.924, 0.924, 2.024, 2.024, 0.924, 2.309, 2.309, 2.024, 2.309, 2.309, 2.309, 2.309 ]
3
[ 0.439, 0.439, 0.439, 0.433, 0.433, 0.617, 0.617, 0.433, 0.439, 0.617, 0.433, 0.617, 0.439, 0.439, 0.617, 0.433, 0.617, 0.433, 0.439, 0.617, 0.433, 0.433, 0.617, 0.617, 0.439, 0.617, 0.433, 0.617, 0.617, 0.433, 0.439, 0.617, 0.439, 0.617, 0.617, 0.439, 0.433, 0.433, 0.433, 0.617, 0.439, 0.617, 0.617, 0.433, 0.439, 0.439, 0.433, 0.617, 0.433, 0.433, 0.439, 0.439, 0.433, 0.617, 0.439, 0.617, 0.439, 0.439, 0.439, 0.433, 0.617, 0.433, 0.439, 0.439, 0.617, 0.439, 0.433, 0.439, 0.439, 0.433, 0.617, 0.617, 0.433, 0.433, 0.433, 0.433, 0.433, 0.433, 0.617, 0.617, 0.439, 0.433, 0.439, 0.433, 0.439, 0.433, 0.439, 0.439, 0.617, 0.617, 0.617, 0.439, 0.617, 0.433, 0.433, 0.433, 0.433, 0.617, 0.617, 0.439 ]