4
[ 1.232, 0.608, 1.232, 0.608, 0.608, 1.232, 0.608, 1.232, 0.608, 1.232, 0.608, 1.232, 0.608, 0.608, 0.608, 1.232, 0.608, 0.608, 1.232, 1.232, 0.608, 1.232, 1.232, 3.428, 1.232, 1.232, 1.232, 0.608, 1.232, 1.232, 1.232, 1.232, 1.232, 1.232, 1.232, 1.232, 1.232, 1.232, 1.232, 1.232, 1.232, 0.608, 0.608, 1.232, 1.232, 0.608, 0.608, 1.232, 0.608, 0.608, 0.608, 0.608, 0.608, 0.608, 1.232, 0.608, 0.608, 0.608, 0.608, 1.232, 0.608, 0.608, 1.232, 0.608, 0.608, 1.232, 1.232, 1.232, 0.608, 1.232, 0.608, 0.608, 1.232, 0.608, 0.608, 0.608, 0.608, 0.608, 1.232, 1.232, 1.232, 1.232, 1.232, 1.232, 0.608, 1.232, 1.232, 1.232, 0.608, 1.232, 1.232, 0.608, 0.608, 0.608, 0.608, 0.608, 1.232, 1.232, 0.608, 1.232, 1.232, 1.232, 1.232, 1.232, 1.232, 1.232, 1.232, 1.232, 1.232, 1.232, 0.608, 1.232, 1.232, 0.608, 1.232, 0.608, 1.232, 0.608, 0.608, 0.608, 1.232, 1.232, 0.608, 1.232, 1.232, 0.608, 1.232, 1.232, 1.232, 0.608, 0.608, 0.608, 1.232, 1.232, 1.232, 0.608, 1.232, 0.608, 1.232, 1.232, 1.232, 0.608, 0.608, 0.608, 1.232, 1.232, 1.232, 0.608, 1.232, 1.232, 3.428, 1.232, 0.608, 1.232, 0.608, 1.232, 12.446, 0.608, 3.428, 0.608, 1.232, 1.232, 0.608, 1.232, 0.608, 1.232, 1.232, 1.232, 0.608, 0.608, 0.608, 1.232, 0.608, 1.232, 0.608, 1.232, 0.608, 1.232, 1.232, 1.232, 1.232, 0.608, 1.232, 0.608, 0.608, 0.608, 1.232, 1.232, 0.608, 1.232, 0.608, 1.232, 0.608, 0.608, 1.232, 0.608, 0.608, 1.232, 1.232, 0.608 ]
7
[ 0.570, 0.566, 0.566, 0.566, 0.566, 0.566, 0.570, 0.570, 0.570, 0.566, 0.409, 0.566, 0.566, 0.566, 0.570, 0.570, 0.566, 0.566, 0.566, 0.566, 0.570, 0.409, 0.409, 0.570, 0.570, 0.619, 0.566, 0.566, 0.566, 0.566, 0.566, 0.566, 0.566, 0.570, 0.566, 0.566, 0.566, 0.570, 0.566, 0.566, 0.566, 0.566, 0.570, 0.566, 0.566, 0.566, 0.566, 0.409, 0.566, 0.570, 0.566, 0.566, 0.570, 0.566, 0.566, 0.566, 0.566, 0.570, 0.570, 0.566, 0.566, 0.739, 0.566, 0.409, 0.566, 0.566, 0.570, 0.566, 0.570, 0.566, 0.570, 0.570, 0.566, 0.566, 0.566, 0.566, 0.570, 0.566, 0.566, 0.566, 0.570, 0.566, 0.566, 0.566, 0.566, 0.570, 0.570, 0.566, 0.566, 0.566, 0.566, 0.566, 0.566, 0.570, 0.566, 0.566, 0.570, 0.566, 0.566, 0.566, 0.570, 0.566, 0.566, 0.566, 0.570, 0.570, 0.566, 0.566, 0.570, 0.566, 0.566, 0.566, 0.566, 0.566, 0.566, 0.566, 0.566, 0.566, 0.570, 0.566, 0.566, 0.566, 0.570, 0.566, 0.566, 0.566, 0.739, 0.566, 0.566, 0.570, 0.566, 0.566, 0.566, 0.566, 0.566, 0.566, 0.570, 0.570, 0.566, 0.566, 0.566, 0.566, 0.566, 0.718, 0.566, 0.566, 0.566, 0.570, 0.718, 0.570, 0.566, 0.566, 0.570, 0.566, 0.566, 0.570, 0.566, 0.566, 0.566, 0.242, 0.566, 0.570, 0.566, 0.566, 0.566, 0.566, 0.566, 0.409, 0.566, 0.566, 0.570, 0.570, 0.566, 0.566, 0.566, 0.570, 0.570, 0.566, 0.566, 0.566, 0.570, 0.570, 0.409, 0.566, 0.570, 0.566, 0.566, 0.570, 0.566, 0.566, 0.570, 0.570, 0.566, 0.566, 0.566, 0.570, 0.566, 0.570, 0.566, 0.570 ]