2
[ 7.366, 7.366, 2.452, 2.452, 2.452, 2.452, 7.366, 2.452, 7.366, 7.366, 2.452, 2.452, 7.366, 2.452, 2.452, 7.366, 2.452, 2.452, 2.452, 2.452, 7.366, 7.366, 2.452, 2.452, 7.366, 7.366, 7.366, 2.452, 2.452, 7.366, 7.366, 7.366, 2.452, 7.366, 7.366, 2.452, 2.452, 2.452, 2.452, 2.452, 2.452, 2.452, 7.366, 2.452, 7.366, 2.452, 2.452, 2.452, 7.366, 2.452 ]
2
[ 0.151, 0.151, 0.151, 0.151, 0.151, 0.151, 0.151, 0.151, 0.151, 0.004, 0.151, 0.004, 0.151, 0.004, 0.151, 0.151, 0.151, 0.151, 0.004, 0.151, 0.004, 0.151, 0.151, 0.151, 0.151, 0.151, 0.151, 0.151, 0.151, 0.151, 0.151, 0.151, 0.151, 0.151, 0.151, 0.151, 0.151, 0.151, 0.004, 0.151, 0.151, 0.151, 0.004, 0.151, 0.004, 0.004, 0.151, 0.151, 0.151, 0.151 ]