6
[ 1.662, 1.662, 1.662, 2.950, 1.662, 1.662, 1.662, 1.662, 1.662, 1.662, 1.662, 14.724, 1.662, 1.662, 1.662, 1.662, 1.662, 2.950, 1.662, 1.662, 2.950, 1.662, 1.662, 14.724, 2.162, 1.662, 1.662, 1.662, 1.662, 1.662, 1.662, 2.950, 1.662, 1.662, 4.998, 1.662, 1.662, 1.662, 1.662, 1.662, 1.662, 1.662, 2.950, 1.662, 1.662, 1.662, 1.662, 2.950, 1.662, 1.662, 1.662, 1.662, 1.662, 1.662, 1.662, 2.950, 1.662, 1.662, 1.662, 1.662, 1.662, 1.662, 1.662, 3.092, 1.662, 1.662, 1.662, 1.662, 1.662, 1.662, 2.162, 1.662, 1.662, 1.662, 1.662, 1.662, 1.662, 1.662, 1.662, 1.662, 1.662, 3.092, 1.662, 1.662, 1.662, 1.662, 1.662, 1.662, 1.662, 1.662, 1.662, 1.662, 1.662, 1.662, 1.662, 1.662, 1.662, 1.662, 1.662, 1.662, 1.662, 1.662, 1.662, 1.662, 1.662, 1.662, 1.662, 1.662, 1.662, 1.662, 2.950, 1.662, 1.662, 1.662, 1.662, 1.662, 1.662, 1.662, 1.662, 2.162, 1.662, 1.662, 1.662, 1.662, 1.662, 1.662, 1.662, 1.662, 1.662, 1.662, 2.162, 1.662, 1.662, 1.662, 1.662, 1.662, 2.950, 1.662, 1.662, 4.998, 2.162, 1.662, 3.092, 1.662, 1.662, 1.662, 1.662, 4.998, 1.662, 2.162, 1.662, 3.092, 1.662, 1.662, 1.662, 14.724, 1.662, 1.662, 1.662, 1.662, 2.162, 1.662, 1.662, 2.950, 1.662, 1.662, 3.092, 2.950, 1.662, 1.662, 1.662, 1.662, 1.662, 1.662, 1.662, 1.662, 1.662, 1.662, 1.662, 1.662, 1.662, 1.662, 1.662, 1.662, 1.662, 1.662, 1.662, 1.662, 1.662, 2.950, 2.162, 1.662, 2.950, 1.662, 2.950, 1.662, 1.662, 1.662, 1.662, 1.662 ]
8
[ 0.360, 0.697, 0.697, 0.697, 0.636, 0.451, 0.697, 0.418, 0.636, 0.697, 0.697, 0.360, 0.697, 0.697, 0.418, 0.697, 0.697, 0.636, 0.697, 0.697, 0.636, 0.636, 0.697, 0.469, 0.418, 0.469, 0.636, 0.697, 0.697, 0.697, 0.697, 0.697, 0.697, 0.697, 0.948, 0.697, 0.697, 0.418, 0.697, 0.636, 0.697, 0.697, 0.360, 0.469, 0.697, 0.697, 0.360, 0.418, 0.697, 0.697, 0.360, 0.360, 0.418, 0.360, 0.697, 0.636, 0.418, 0.697, 0.697, 0.697, 0.469, 0.697, 0.360, 0.697, 0.697, 0.697, 0.636, 0.360, 0.697, 0.469, 0.697, 0.697, 0.697, 0.418, 0.697, 0.697, 0.418, 0.697, 0.697, 0.697, 0.469, 0.697, 0.418, 0.360, 0.697, 0.469, 0.360, 0.360, 0.697, 0.697, 0.697, 0.418, 0.360, 0.469, 0.636, 0.360, 0.469, 0.697, 0.697, 0.697, 0.697, 0.697, 0.697, 0.697, 0.697, 0.697, 0.697, 0.927, 0.697, 0.697, 0.697, 0.360, 0.697, 0.636, 0.697, 0.360, 0.697, 0.697, 0.697, 0.697, 0.636, 0.697, 0.697, 0.697, 0.697, 0.697, 0.697, 0.697, 0.697, 0.697, 0.636, 0.697, 0.697, 0.697, 0.418, 0.697, 0.360, 0.697, 0.418, 0.697, 0.697, 0.697, 0.636, 0.697, 0.697, 0.360, 0.697, 0.697, 0.697, 0.697, 0.451, 0.418, 0.360, 0.697, 0.697, 0.697, 0.697, 0.697, 0.697, 0.697, 0.451, 0.697, 0.360, 0.697, 0.697, 0.469, 0.636, 0.469, 0.697, 0.697, 0.697, 0.697, 0.697, 0.636, 0.418, 0.697, 0.697, 0.697, 0.636, 0.697, 0.697, 0.697, 0.451, 0.697, 0.697, 0.697, 0.697, 0.697, 0.697, 0.697, 0.697, 0.697, 0.697, 0.697, 0.697, 0.697, 0.636, 0.469, 0.469, 0.697 ]