5
[ 0.377, 1.291, 1.291, 1.291, 1.291, 1.291, 1.291, 1.291, 1.291, 1.291, 1.291, 1.291, 1.291, 7.088, 1.291, 1.291, 1.291, 1.291, 1.291, 1.291, 1.291, 1.291, 1.291, 1.291, 1.291, 1.291, 1.291, 1.291, 1.291, 1.291, 1.291, 1.291, 1.291, 1.291, 1.291, 1.291, 1.291, 1.291, 1.291, 1.291, 1.291, 1.291, 1.291, 1.291, 1.291, 1.291, 1.291, 1.291, 1.291, 1.291, 1.291, 1.291, 1.291, 0.377, 0.377, 0.377, 1.291, 1.291, 1.291, 7.088, 1.291, 1.291, 1.291, 1.291, 1.291, 1.291, 1.291, 1.291, 1.291, 1.291, 1.291, 1.291, 1.291, 1.291, 1.291, 1.291, 1.291, 1.291, 1.291, 1.291, 1.291, 1.291, 1.291, 1.291, 1.291, 1.291, 0.377, 1.291, 1.291, 1.291, 1.291, 1.291, 1.291, 1.291, 1.291, 1.291, 1.291, 1.291, 1.291, 1.291, 1.174, 1.291, 1.291, 1.291, 1.291, 1.291, 1.291, 1.291, 1.291, 1.291, 1.291, 1.291, 1.291, 1.291, 1.291, 1.291, 1.291, 1.291, 1.291, 1.291, 1.291, 1.291, 1.291, 1.291, 0.377, 0.377, 1.291, 1.291, 1.291, 1.291, 1.291, 1.291, 1.291, 1.291, 5.216, 1.291, 1.291, 1.291, 1.291, 1.291, 1.291, 1.291, 1.291, 1.291, 0.377, 1.291, 1.291, 1.291, 1.291, 1.291, 1.291, 1.291, 1.291, 1.291, 1.291, 1.291, 0.377, 1.291, 1.291, 0.377, 1.291, 1.291, 1.291, 0.377, 7.088, 1.291, 1.291, 1.291, 1.291, 1.291, 1.291, 0.377, 1.291, 1.291, 1.291, 1.291, 1.291, 1.291, 1.291, 0.377, 1.291, 1.291, 1.291, 1.291, 1.291, 1.291, 1.291, 1.291, 1.291, 1.291, 1.291, 1.291, 1.291, 1.291, 1.291, 1.291, 1.291, 1.291, 1.291, 1.291 ]
3
[ 0.565, 0.565, 0.565, 0.983, 0.565, 0.932, 0.565, 0.565, 0.565, 0.932, 0.565, 0.565, 0.932, 0.565, 0.565, 0.932, 0.565, 0.983, 0.932, 0.565, 0.565, 0.565, 0.932, 0.565, 0.565, 0.565, 0.565, 0.565, 0.932, 0.565, 0.565, 0.565, 0.565, 0.565, 0.565, 0.932, 0.565, 0.565, 0.565, 0.565, 0.565, 0.565, 0.932, 0.565, 0.983, 0.565, 0.565, 0.565, 0.565, 0.565, 0.565, 0.565, 0.932, 0.565, 0.565, 0.565, 0.565, 0.983, 0.565, 0.565, 0.565, 0.565, 0.932, 0.565, 0.565, 0.932, 0.565, 0.932, 0.565, 0.565, 0.932, 0.565, 0.565, 0.565, 0.565, 0.565, 0.565, 0.932, 0.565, 0.565, 0.565, 0.565, 0.932, 0.565, 0.565, 0.565, 0.983, 0.565, 0.565, 0.565, 0.932, 0.932, 0.565, 0.565, 0.565, 0.565, 0.932, 0.565, 0.565, 0.565, 0.932, 0.565, 0.565, 0.565, 0.932, 0.565, 0.565, 0.932, 0.565, 0.565, 0.565, 0.932, 0.565, 0.932, 0.565, 0.565, 0.565, 0.932, 0.565, 0.565, 0.932, 0.932, 0.565, 0.565, 0.565, 0.932, 0.565, 0.565, 0.983, 0.565, 0.565, 0.565, 0.932, 0.565, 0.565, 0.565, 0.565, 0.932, 0.565, 0.565, 0.565, 0.565, 0.565, 0.565, 0.565, 0.565, 0.565, 0.565, 0.565, 0.565, 0.565, 0.983, 0.565, 0.565, 0.565, 0.565, 0.565, 0.565, 0.983, 0.565, 0.565, 0.932, 0.565, 0.565, 0.565, 0.565, 0.565, 0.932, 0.565, 0.565, 0.565, 0.565, 0.983, 0.565, 0.565, 0.565, 0.565, 0.565, 0.565, 0.932, 0.932, 0.565, 0.932, 0.565, 0.565, 0.565, 0.565, 0.932, 0.565, 0.565, 0.565, 0.565, 0.983, 0.565, 0.565, 0.565, 0.565, 0.565, 0.565, 0.932 ]