6
[ 11.081, 1.609, 1.609, 1.736, 1.609, 1.609, 1.609, 1.609, 1.609, 1.609, 1.609, 1.609, 1.609, 1.736, 1.609, 11.081, 1.609, 1.609, 1.609, 1.736, 11.081, 1.609, 1.736, 11.081, 1.609, 4.687, 1.609, 1.736, 1.609, 1.609, 1.609, 1.609, 1.736, 1.609, 11.081, 11.081, 1.609, 1.609, 1.609, 1.609, 11.081, 11.081, 1.736, 1.609, 1.736, 1.609, 11.081, 11.081, 1.609, 1.736, 1.609, 11.081, 1.609, 1.609, 1.736, 1.736, 1.609, 1.609, 1.609, 1.609, 1.609, 1.609, 11.081, 1.736, 4.687, 1.736, 1.609, 1.609, 1.609, 1.609, 1.609, 1.736, 1.736, 11.081, 1.609, 11.081, 1.736, 1.609, 1.609, 1.609, 1.609, 1.609, 1.609, 1.736, 1.609, 1.609, 4.687, 11.081, 1.609, 1.736, 11.081, 1.736, 1.609, 1.609, 1.736, 1.736, 11.081, 1.609, 11.081, 4.687, 1.609, 1.609, 1.609, 1.609, 11.081, 1.609, 1.609, 1.736, 1.609, 1.609, 1.609, 1.609, 4.687, 1.609, 11.081, 1.609, 11.081, 1.609, 1.609, 1.609, 1.609, 1.609, 11.081, 1.736, 1.736, 1.609, 1.609, 4.687, 3.685, 11.081, 3.685, 1.609, 1.609, 1.609, 1.609, 1.609, 1.609, 11.081, 1.609, 1.609, 11.081, 1.736, 11.081, 1.609, 1.609, 1.736, 1.609, 1.609, 1.609, 4.687, 11.081, 1.609, 1.609, 8.173, 1.609, 1.736, 11.081, 1.609, 1.609, 1.609, 1.736, 1.736, 1.609, 1.736, 11.081, 1.609, 1.609, 1.609, 1.609, 11.081, 1.609, 11.081, 11.081, 1.609, 11.081, 1.609, 3.685, 1.609, 1.736, 1.736, 11.081, 4.687, 1.736, 1.609, 1.609, 1.609, 1.736, 1.609, 1.609, 11.081, 1.609, 11.081, 4.687, 1.736, 1.609, 1.609, 1.736, 1.609, 11.081, 1.609 ]
7
[ 0.640, 0.640, 0.640, 0.640, 0.640, 0.640, 0.640, 0.640, 0.640, 0.640, 0.308, 0.640, 0.692, 0.640, 0.640, 0.640, 0.640, 0.640, 0.640, 0.640, 0.308, 0.308, 0.640, 0.640, 0.308, 0.640, 0.292, 0.308, 0.292, 0.640, 0.640, 0.640, 0.640, 0.640, 0.292, 0.640, 0.640, 0.640, 0.640, 0.640, 0.292, 0.640, 0.292, 0.292, 0.640, 0.640, 0.640, 0.640, 0.640, 0.640, 0.640, 0.292, 0.640, 0.640, 0.640, 0.292, 0.292, 0.640, 0.640, 0.640, 0.292, 0.640, 0.472, 0.308, 0.640, 0.640, 0.292, 0.640, 0.640, 0.692, 0.308, 0.292, 0.640, 0.640, 0.640, 0.640, 0.308, 0.640, 0.292, 0.292, 0.640, 0.292, 0.640, 0.640, 0.640, 0.292, 0.640, 0.620, 0.640, 0.620, 0.292, 0.640, 0.640, 0.292, 0.620, 0.292, 0.640, 0.308, 0.308, 0.640, 0.640, 0.308, 0.640, 0.640, 0.640, 0.640, 0.620, 0.292, 0.308, 0.640, 0.640, 0.640, 0.640, 0.640, 0.292, 0.640, 0.292, 0.640, 0.640, 0.640, 0.640, 0.640, 0.640, 0.292, 0.703, 0.640, 0.640, 0.640, 0.640, 0.640, 0.640, 0.640, 0.640, 0.640, 0.640, 0.692, 0.640, 0.640, 0.640, 0.640, 0.640, 0.640, 0.640, 0.640, 0.640, 0.640, 0.640, 0.292, 0.292, 0.640, 0.640, 0.640, 0.640, 0.640, 0.640, 0.292, 0.640, 0.640, 0.640, 0.640, 0.640, 0.640, 0.640, 0.640, 0.292, 0.640, 0.640, 0.292, 0.640, 0.640, 0.640, 0.640, 0.292, 0.292, 0.308, 0.640, 0.292, 0.640, 0.640, 0.308, 0.640, 0.640, 0.640, 0.292, 0.640, 0.640, 0.640, 0.292, 0.640, 0.640, 0.640, 0.308, 0.640, 0.640, 0.640, 0.640, 0.640, 0.640, 0.292, 0.640 ]