3
[ 1.840, 5.054, 1.840, 5.054, 1.840, 5.054, 1.840, 1.768, 1.840, 5.054, 5.054, 1.840, 5.054, 5.054, 5.054, 1.840, 1.768, 1.768, 1.768, 1.840, 5.054, 5.054, 1.840, 1.768, 5.054, 1.768, 5.054, 1.768, 1.768, 1.840, 1.768, 5.054, 1.768, 1.768, 1.768, 1.840, 1.840, 1.840, 5.054, 5.054, 5.054, 1.840, 1.840, 1.768, 1.768, 1.768, 1.768, 5.054, 1.768, 1.768 ]
3
[ 0.218, 0.218, 0.218, 0.024, 0.218, 0.971, 0.971, 0.024, 0.971, 0.024, 0.218, 0.218, 0.971, 0.024, 0.971, 0.218, 0.218, 0.218, 0.218, 0.971, 0.971, 0.971, 0.971, 0.218, 0.024, 0.971, 0.971, 0.971, 0.218, 0.971, 0.024, 0.971, 0.971, 0.218, 0.971, 0.971, 0.218, 0.024, 0.218, 0.971, 0.024, 0.218, 0.024, 0.218, 0.971, 0.971, 0.024, 0.218, 0.024, 0.024 ]