3
[ 0.480, 0.480, 0.480, 0.480, 0.480, 4.750, 0.480, 0.480, 0.480, 0.480, 0.480, 0.480, 0.480, 0.480, 0.480, 1.986, 0.480, 0.480, 0.480, 0.480, 4.750, 0.480, 0.480, 4.750, 0.480, 0.480, 0.480, 0.480, 0.480, 0.480, 0.480, 0.480, 0.480, 0.480, 1.986, 0.480, 0.480, 4.750, 0.480, 0.480, 0.480, 0.480, 0.480, 4.750, 0.480, 0.480, 0.480, 0.480, 0.480, 0.480, 0.480, 0.480, 0.480, 0.480, 4.750, 4.750, 0.480, 4.750, 0.480, 4.750, 0.480, 0.480, 4.750, 0.480, 0.480, 0.480, 4.750, 0.480, 0.480, 0.480, 4.750, 0.480, 0.480, 0.480, 0.480, 1.986, 4.750, 0.480, 0.480, 0.480, 0.480, 0.480, 0.480, 0.480, 0.480, 0.480, 0.480, 0.480, 0.480, 0.480, 0.480, 4.750, 4.750, 0.480, 4.750, 1.986, 0.480, 0.480, 1.986, 0.480, 0.480, 0.480, 0.480, 0.480, 0.480, 0.480, 0.480, 0.480, 0.480, 4.750, 0.480, 0.480, 4.750, 0.480, 0.480, 0.480, 0.480, 0.480, 0.480, 0.480, 1.986, 0.480, 0.480, 0.480, 0.480, 0.480, 0.480, 0.480, 0.480, 0.480, 0.480, 0.480, 0.480, 0.480, 0.480, 0.480, 0.480, 0.480, 4.750, 0.480, 0.480, 0.480, 0.480, 0.480, 0.480, 0.480, 0.480, 0.480, 0.480, 0.480, 0.480, 4.750, 0.480, 1.986, 0.480, 0.480, 0.480, 0.480, 0.480, 0.480, 0.480, 0.480, 0.480, 0.480, 1.986, 0.480, 1.986, 0.480, 0.480, 1.986, 0.480, 0.480, 0.480, 0.480, 0.480, 4.750, 4.750, 0.480, 0.480, 0.480, 0.480, 0.480, 0.480, 0.480, 4.750, 0.480, 0.480, 0.480, 0.480, 0.480, 4.750, 4.750, 0.480, 0.480, 0.480, 0.480, 0.480, 0.480, 0.480, 0.480 ]
8
[ 0.895, 0.895, 0.895, 0.895, 0.895, 0.139, 0.139, 0.197, 0.895, 0.895, 0.895, 0.895, 0.197, 0.139, 0.139, 0.139, 0.895, 0.139, 0.895, 0.895, 0.895, 0.895, 0.895, 0.895, 0.895, 0.895, 0.895, 0.895, 0.895, 0.895, 0.650, 0.895, 0.895, 0.895, 0.139, 0.895, 0.895, 0.895, 0.895, 0.895, 0.895, 0.895, 0.895, 0.895, 0.895, 0.895, 0.895, 0.895, 0.895, 0.895, 0.895, 0.139, 0.139, 0.139, 0.139, 0.139, 0.139, 0.895, 0.139, 0.895, 0.895, 0.895, 0.139, 0.139, 0.895, 0.895, 0.197, 0.139, 0.895, 0.895, 0.895, 0.895, 0.895, 0.895, 0.895, 0.139, 0.139, 0.139, 0.607, 0.895, 0.895, 0.895, 0.895, 0.139, 0.197, 0.197, 0.139, 0.895, 0.895, 0.895, 0.139, 0.139, 0.633, 0.895, 0.895, 0.895, 0.895, 0.895, 0.895, 0.139, 0.895, 0.895, 0.197, 0.895, 0.650, 0.895, 0.895, 0.895, 0.895, 0.197, 0.895, 0.895, 0.201, 0.895, 0.895, 0.895, 0.895, 0.895, 0.895, 0.895, 0.895, 0.139, 0.895, 0.895, 0.139, 0.139, 0.139, 0.895, 0.895, 0.139, 0.139, 0.895, 0.895, 0.895, 0.895, 0.895, 0.895, 0.895, 0.650, 0.895, 0.895, 0.139, 0.895, 0.197, 0.895, 0.139, 0.895, 0.895, 0.895, 0.895, 0.895, 0.895, 0.139, 0.895, 0.895, 0.895, 0.895, 0.895, 0.895, 0.895, 0.895, 0.139, 0.895, 0.895, 0.139, 0.139, 0.895, 0.895, 0.895, 0.895, 0.895, 0.139, 0.895, 0.895, 0.895, 0.895, 0.895, 0.895, 0.895, 0.895, 0.754, 0.895, 0.895, 0.895, 0.197, 0.895, 0.895, 0.895, 0.895, 0.139, 0.895, 0.895, 0.895, 0.895, 0.895, 0.895, 0.197, 0.895, 0.895, 0.895 ]