3
[ 0.618, 2.940, 0.618, 0.618, 0.618, 0.618, 0.618, 0.887, 2.940, 0.618, 0.887, 0.887, 0.887, 0.618, 2.940, 0.887, 0.618, 0.618, 0.887, 0.618, 0.618, 0.887, 0.887, 2.940, 0.618, 0.618, 0.618, 0.618, 0.618, 0.618, 0.618, 0.887, 2.940, 0.618, 0.618, 0.618, 0.618, 0.618, 0.887, 0.618, 2.940, 0.618, 0.618, 0.887, 2.940, 0.618, 0.618, 0.887, 0.887, 0.887 ]
2
[ 0.530, 0.530, 0.530, 0.530, 0.530, 0.986, 0.530, 0.530, 0.530, 0.530, 0.530, 0.986, 0.530, 0.530, 0.986, 0.530, 0.530, 0.530, 0.530, 0.530, 0.986, 0.530, 0.530, 0.530, 0.530, 0.530, 0.530, 0.530, 0.986, 0.530, 0.530, 0.530, 0.530, 0.530, 0.530, 0.530, 0.986, 0.530, 0.530, 0.530, 0.986, 0.530, 0.530, 0.530, 0.530, 0.530, 0.530, 0.530, 0.986, 0.530 ]