6
[ 3.336, 6.780, 3.336, 6.780, 2.213, 3.336, 3.336, 3.336, 6.780, 6.780, 3.336, 3.336, 3.336, 2.213, 3.336, 6.780, 3.336, 3.336, 3.336, 2.213, 3.336, 3.336, 2.213, 3.336, 3.336, 3.336, 3.336, 3.336, 3.336, 3.336, 3.336, 6.780, 2.213, 3.336, 3.336, 3.336, 3.336, 3.336, 6.780, 3.336, 2.213, 3.336, 3.336, 6.780, 3.336, 3.336, 3.336, 2.213, 3.336, 6.780, 3.336, 3.336, 6.780, 3.336, 3.336, 3.336, 3.336, 3.336, 6.780, 3.336, 6.780, 3.336, 3.336, 3.336, 3.336, 3.336, 6.780, 6.780, 3.336, 6.780, 2.213, 3.336, 3.336, 6.780, 3.336, 6.780, 9.583, 6.780, 3.336, 6.780, 6.780, 3.336, 6.780, 3.336, 3.336, 3.336, 3.336, 2.036, 3.336, 2.213, 6.780, 3.336, 3.336, 2.213, 6.780, 3.336, 6.780, 2.213, 0.852, 2.213 ]
4
[ 0.225, 0.459, 0.459, 0.459, 0.336, 0.459, 0.336, 0.225, 0.459, 0.225, 0.225, 0.336, 0.459, 0.336, 0.225, 0.225, 0.459, 0.336, 0.225, 0.459, 0.225, 0.459, 0.459, 0.459, 0.225, 0.225, 0.459, 0.459, 0.459, 0.459, 0.459, 0.225, 0.590, 0.225, 0.336, 0.459, 0.590, 0.459, 0.590, 0.459, 0.225, 0.459, 0.459, 0.459, 0.459, 0.459, 0.459, 0.225, 0.459, 0.336, 0.225, 0.459, 0.225, 0.225, 0.459, 0.590, 0.459, 0.225, 0.459, 0.225, 0.459, 0.459, 0.459, 0.459, 0.225, 0.225, 0.225, 0.336, 0.459, 0.459, 0.459, 0.225, 0.459, 0.459, 0.459, 0.459, 0.225, 0.225, 0.336, 0.459, 0.459, 0.225, 0.225, 0.459, 0.225, 0.459, 0.459, 0.225, 0.225, 0.459, 0.459, 0.459, 0.459, 0.225, 0.225, 0.459, 0.225, 0.590, 0.336, 0.459 ]