3
[ 4.336, 4.336, 3.640, 3.640, 3.640, 1.552, 3.640, 3.640, 4.336, 3.640, 4.336, 1.552, 1.552, 3.640, 3.640, 3.640, 3.640, 3.640, 3.640, 1.552, 1.552, 1.552, 3.640, 4.336, 4.336, 1.552, 1.552, 3.640, 1.552, 3.640, 3.640, 3.640, 3.640, 3.640, 1.552, 4.336, 4.336, 1.552, 4.336, 1.552, 1.552, 4.336, 1.552, 3.640, 3.640, 3.640, 1.552, 1.552, 3.640, 4.336 ]
3
[ 0.531, 0.790, 0.531, 0.310, 0.790, 0.790, 0.531, 0.310, 0.790, 0.310, 0.310, 0.531, 0.531, 0.310, 0.531, 0.531, 0.790, 0.310, 0.310, 0.531, 0.310, 0.310, 0.531, 0.531, 0.531, 0.310, 0.310, 0.790, 0.310, 0.790, 0.790, 0.790, 0.790, 0.310, 0.790, 0.310, 0.531, 0.310, 0.531, 0.310, 0.790, 0.531, 0.790, 0.790, 0.790, 0.531, 0.531, 0.310, 0.310, 0.531 ]