7
[ 5.859, 1.037, 5.859, 1.037, 5.859, 1.037, 5.859, 5.859, 5.859, 5.859, 5.859, 5.859, 5.859, 0.381, 5.859, 5.859, 4.185, 5.859, 5.859, 3.142, 5.859, 5.859, 5.859, 4.185, 4.185, 5.859, 5.859, 5.859, 1.037, 5.859, 5.859, 5.859, 5.859, 4.185, 5.859, 5.859, 5.859, 1.037, 5.859, 5.859, 5.859, 1.037, 5.859, 5.859, 1.037, 5.859, 5.859, 5.859, 0.381, 5.859, 3.142, 5.859, 5.859, 5.859, 5.859, 1.037, 5.859, 5.859, 0.381, 5.859, 0.381, 5.859, 5.859, 5.859, 5.859, 1.037, 5.859, 5.859, 5.859, 5.859, 5.859, 5.859, 5.859, 5.859, 2.363, 0.381, 0.555, 5.859, 5.859, 5.859, 1.037, 5.859, 5.859, 5.859, 5.859, 5.859, 5.859, 5.859, 0.381, 4.185, 5.859, 5.859, 5.859, 5.859, 5.859, 5.859, 5.859, 5.859, 1.037, 0.381, 5.859, 5.859, 5.859, 5.859, 5.859, 4.185, 5.859, 1.037, 5.859, 5.859, 5.859, 5.859, 5.859, 4.185, 5.859, 4.185, 0.381, 5.859, 5.859, 5.859, 5.859, 5.859, 5.859, 5.859, 5.859, 5.859, 4.185, 5.859, 5.859, 5.859, 5.859, 5.859, 0.555, 1.037, 5.859, 5.859, 5.859, 1.037, 5.859, 5.859, 1.037, 5.859, 4.185, 5.859, 1.037, 5.859, 5.859, 1.037, 1.037, 5.859, 1.037, 5.859, 5.859, 5.859, 5.859, 5.859, 5.859, 4.185, 5.859, 5.859, 5.859, 1.037, 5.859, 5.859, 5.859, 5.859, 1.037, 5.859, 4.185, 5.859, 5.859, 5.859, 0.381, 5.859, 5.859, 5.859, 5.859, 5.859, 5.859, 5.859, 0.555, 5.859, 5.859, 5.859, 5.859, 0.381, 5.859, 5.859, 5.859, 5.859, 5.859, 5.859, 5.859, 4.185, 5.859, 5.859, 5.859, 1.037, 5.859, 5.859 ]
5
[ 0.650, 0.650, 0.650, 0.650, 0.650, 0.650, 0.650, 0.650, 0.650, 0.650, 0.272, 0.272, 0.650, 0.650, 0.650, 0.650, 0.650, 0.650, 0.650, 0.650, 0.650, 0.650, 0.650, 0.650, 0.272, 0.650, 0.650, 0.650, 0.582, 0.582, 0.650, 0.650, 0.650, 0.650, 0.650, 0.650, 0.650, 0.650, 0.650, 0.650, 0.650, 0.650, 0.650, 0.650, 0.650, 0.650, 0.650, 0.650, 0.650, 0.650, 0.650, 0.272, 0.650, 0.650, 0.650, 0.650, 0.650, 0.650, 0.650, 0.650, 0.650, 0.650, 0.650, 0.650, 0.650, 0.650, 0.650, 0.650, 0.650, 0.650, 0.650, 0.650, 0.650, 0.650, 0.650, 0.650, 0.650, 0.650, 0.650, 0.650, 0.650, 0.650, 0.650, 0.650, 0.650, 0.650, 0.582, 0.650, 0.650, 0.650, 0.650, 0.650, 0.650, 0.272, 0.272, 0.650, 0.650, 0.650, 0.650, 0.650, 0.650, 0.650, 0.650, 0.650, 0.650, 0.650, 0.650, 0.650, 0.650, 0.650, 0.650, 0.650, 0.650, 0.650, 0.272, 0.650, 0.650, 0.650, 0.650, 0.650, 0.650, 0.650, 0.336, 0.650, 0.650, 0.272, 0.650, 0.272, 0.650, 0.650, 0.650, 0.650, 0.650, 0.650, 0.650, 0.650, 0.650, 0.650, 0.650, 0.650, 0.650, 0.650, 0.650, 0.650, 0.650, 0.650, 0.650, 0.833, 0.650, 0.650, 0.650, 0.650, 0.650, 0.650, 0.650, 0.650, 0.650, 0.272, 0.650, 0.650, 0.650, 0.650, 0.650, 0.650, 0.650, 0.650, 0.650, 0.650, 0.650, 0.650, 0.650, 0.650, 0.650, 0.650, 0.650, 0.650, 0.650, 0.650, 0.650, 0.272, 0.650, 0.650, 0.650, 0.650, 0.650, 0.650, 0.650, 0.650, 0.272, 0.650, 0.650, 0.650, 0.650, 0.650, 0.650, 0.650, 0.650, 0.650, 0.272, 0.650 ]