4
[ 5.076, 5.076, 5.076, 5.076, 5.076, 5.076, 5.076, 5.076, 5.076, 5.076, 5.076, 5.076, 5.076, 5.076, 5.076, 5.076, 5.076, 5.076, 5.076, 5.076, 5.076, 5.076, 5.076, 5.076, 5.076, 5.076, 5.076, 5.076, 5.076, 5.076, 5.076, 6.345, 5.076, 5.076, 5.076, 5.076, 5.076, 5.076, 5.076, 5.076, 5.076, 5.076, 5.076, 5.076, 5.076, 5.076, 5.076, 5.076, 5.076, 5.076, 5.076, 5.076, 5.076, 5.076, 5.076, 5.076, 5.076, 5.076, 5.076, 5.076, 5.076, 5.076, 5.076, 5.076, 5.076, 5.076, 5.076, 5.076, 5.076, 5.076, 5.076, 5.076, 5.076, 5.076, 5.076, 5.076, 5.076, 5.076, 1.395, 5.076, 5.076, 5.076, 5.076, 5.076, 5.076, 5.076, 5.076, 5.076, 5.076, 5.076, 5.076, 2.243, 5.076, 5.076, 5.076, 5.076, 5.076, 5.076, 5.076, 5.076, 5.076, 5.076, 5.076, 5.076, 5.076, 5.076, 5.076, 5.076, 5.076, 5.076, 5.076, 5.076, 5.076, 5.076, 5.076, 5.076, 5.076, 5.076, 5.076, 5.076, 6.345, 5.076, 5.076, 5.076, 5.076, 5.076, 5.076, 5.076, 5.076, 5.076, 5.076, 5.076, 5.076, 5.076, 5.076, 5.076, 5.076, 5.076, 5.076, 5.076, 5.076, 5.076, 5.076, 5.076, 5.076, 5.076, 5.076, 5.076, 5.076, 5.076, 5.076, 5.076, 5.076, 5.076, 5.076, 5.076, 5.076, 5.076, 5.076, 5.076, 5.076, 5.076, 5.076, 5.076, 5.076, 5.076, 5.076, 5.076, 5.076, 5.076, 5.076, 5.076, 5.076, 5.076, 5.076, 5.076, 5.076, 5.076, 5.076, 5.076, 5.076, 5.076, 5.076, 5.076, 5.076, 5.076, 5.076, 5.076, 5.076, 5.076, 5.076, 5.076, 5.076, 5.076, 5.076, 5.076, 5.076, 5.076, 5.076, 5.076 ]
8
[ 0.998, 0.715, 0.461, 0.785, 0.461, 0.785, 0.785, 0.715, 0.154, 0.998, 0.188, 0.715, 0.021, 0.785, 0.461, 0.785, 0.785, 0.715, 0.785, 0.154, 0.785, 0.021, 0.154, 0.154, 0.021, 0.785, 0.715, 0.154, 0.715, 0.154, 0.715, 0.715, 0.785, 0.021, 0.021, 0.715, 0.154, 0.998, 0.154, 0.154, 0.785, 0.785, 0.715, 0.785, 0.021, 0.154, 0.154, 0.785, 0.785, 0.461, 0.021, 0.785, 0.785, 0.154, 0.785, 0.461, 0.785, 0.021, 0.461, 0.785, 0.154, 0.998, 0.785, 0.021, 0.785, 0.154, 0.154, 0.715, 0.021, 0.154, 0.785, 0.021, 0.785, 0.715, 0.461, 0.154, 0.021, 0.021, 0.715, 0.715, 0.715, 0.715, 0.154, 0.461, 0.715, 0.785, 0.715, 0.715, 0.154, 0.715, 0.154, 0.785, 0.785, 0.785, 0.154, 0.785, 0.715, 0.021, 0.785, 0.785, 0.021, 0.785, 0.715, 0.785, 0.998, 0.785, 0.785, 0.021, 0.021, 0.715, 0.154, 0.998, 0.998, 0.873, 0.785, 0.715, 0.021, 0.785, 0.998, 0.461, 0.715, 0.021, 0.785, 0.154, 0.785, 0.021, 0.461, 0.154, 0.785, 0.021, 0.785, 0.785, 0.785, 0.154, 0.154, 0.785, 0.715, 0.154, 0.021, 0.188, 0.154, 0.715, 0.154, 0.785, 0.021, 0.021, 0.154, 0.461, 0.715, 0.785, 0.154, 0.785, 0.715, 0.998, 0.021, 0.785, 0.715, 0.021, 0.154, 0.154, 0.154, 0.154, 0.998, 0.154, 0.154, 0.154, 0.785, 0.715, 0.715, 0.021, 0.785, 0.785, 0.715, 0.785, 0.785, 0.785, 0.715, 0.715, 0.461, 0.154, 0.715, 0.873, 0.154, 0.785, 0.785, 0.021, 0.154, 0.785, 0.785, 0.021, 0.715, 0.785, 0.715, 0.715, 0.154, 0.021, 0.715, 0.021, 0.461, 0.998 ]