6
[ 0.922, 0.922, 4.211, 0.466, 0.922, 0.922, 0.922, 0.922, 0.922, 0.466, 4.211, 0.922, 0.922, 4.211, 0.922, 0.922, 4.211, 0.922, 0.466, 0.922, 0.922, 0.922, 0.922, 0.922, 0.922, 0.922, 0.922, 0.922, 4.211, 0.466, 0.466, 0.922, 0.922, 4.211, 0.466, 0.922, 0.466, 0.922, 0.922, 0.922, 0.922, 0.922, 4.211, 0.466, 4.211, 0.466, 0.922, 0.922, 0.922, 0.466, 0.922, 0.922, 0.922, 0.922, 0.922, 0.922, 0.466, 0.466, 0.922, 1.513, 0.466, 0.922, 4.211, 0.922, 0.466, 0.922, 0.466, 11.661, 0.466, 0.922, 0.922, 0.922, 0.922, 0.922, 0.922, 0.466, 0.922, 0.922, 0.922, 0.466, 0.922, 4.211, 0.922, 0.922, 0.466, 0.466, 4.211, 0.922, 4.211, 0.922, 0.922, 0.922, 0.922, 0.466, 0.922, 0.922, 0.922, 0.922, 0.922, 0.922, 0.922, 0.922, 0.922, 0.922, 0.466, 0.922, 0.922, 0.922, 0.922, 0.922, 0.922, 0.922, 0.466, 0.466, 0.922, 0.922, 0.922, 0.466, 0.922, 0.922, 0.922, 0.922, 0.922, 0.466, 0.922, 0.466, 0.922, 0.466, 4.211, 0.922, 0.466, 4.211, 0.922, 4.211, 0.922, 0.922, 0.922, 4.211, 0.922, 4.211, 0.922, 4.211, 0.922, 0.922, 0.922, 37.432, 0.466, 0.922, 0.922, 0.466, 0.922, 0.922, 0.922, 0.922, 0.922, 4.211, 0.466, 0.922, 0.922, 0.922, 0.922, 0.922, 4.211, 0.466, 4.211, 0.922, 0.922, 0.466, 0.466, 4.211, 4.211, 0.922, 0.922, 0.922, 0.922, 0.922, 0.466, 0.922, 0.922, 0.466, 0.922, 4.211, 0.922, 0.466, 0.922, 0.466, 0.466, 4.211, 0.922, 0.922, 0.466, 0.466, 0.922, 0.922, 0.466, 0.466, 0.922, 0.922, 0.922, 0.922 ]
6
[ 0.433, 0.433, 0.433, 0.433, 0.433, 0.433, 0.433, 0.433, 0.433, 0.060, 0.060, 0.433, 0.060, 0.433, 0.463, 0.433, 0.060, 0.433, 0.575, 0.433, 0.060, 0.060, 0.433, 0.433, 0.060, 0.433, 0.433, 0.060, 0.433, 0.433, 0.433, 0.060, 0.463, 0.433, 0.060, 0.433, 0.433, 0.433, 0.433, 0.433, 0.433, 0.060, 0.433, 0.463, 0.433, 0.463, 0.433, 0.433, 0.433, 0.060, 0.433, 0.433, 0.433, 0.433, 0.433, 0.433, 0.887, 0.433, 0.433, 0.433, 0.433, 0.433, 0.433, 0.433, 0.060, 0.433, 0.433, 0.433, 0.060, 0.433, 0.433, 0.060, 0.060, 0.433, 0.433, 0.433, 0.433, 0.433, 0.463, 0.433, 0.433, 0.433, 0.433, 0.433, 0.433, 0.433, 0.999, 0.433, 0.433, 0.433, 0.060, 0.060, 0.433, 0.433, 0.433, 0.433, 0.433, 0.433, 0.887, 0.433, 0.060, 0.433, 0.433, 0.433, 0.463, 0.060, 0.433, 0.433, 0.575, 0.433, 0.463, 0.433, 0.433, 0.433, 0.433, 0.433, 0.433, 0.433, 0.433, 0.433, 0.463, 0.433, 0.433, 0.433, 0.060, 0.433, 0.887, 0.433, 0.433, 0.060, 0.433, 0.433, 0.433, 0.887, 0.575, 0.060, 0.433, 0.433, 0.060, 0.060, 0.433, 0.433, 0.463, 0.060, 0.433, 0.433, 0.433, 0.433, 0.433, 0.060, 0.433, 0.433, 0.433, 0.433, 0.433, 0.887, 0.887, 0.433, 0.433, 0.433, 0.575, 0.060, 0.433, 0.433, 0.433, 0.433, 0.433, 0.463, 0.433, 0.433, 0.433, 0.463, 0.433, 0.060, 0.433, 0.433, 0.060, 0.060, 0.060, 0.060, 0.433, 0.433, 0.463, 0.433, 0.433, 0.433, 0.060, 0.433, 0.463, 0.433, 0.433, 0.060, 0.433, 0.060, 0.433, 0.887, 0.433, 0.433, 0.433, 0.433 ]