5
[ 3.916, 0.520, 1.399, 0.520, 0.520, 0.520, 0.520, 0.674, 0.520, 0.520, 3.916, 0.520, 3.916, 0.520, 0.674, 3.916, 3.916, 0.674, 3.916, 3.916, 0.674, 0.520, 0.674, 0.520, 0.520, 0.520, 0.520, 3.916, 0.520, 3.916, 3.916, 0.520, 3.916, 0.520, 0.520, 0.520, 0.520, 1.399, 1.399, 0.520, 3.916, 0.520, 0.520, 3.916, 0.674, 3.916, 0.520, 1.399, 0.674, 0.674, 3.916, 0.520, 0.520, 3.916, 0.674, 0.520, 3.916, 0.520, 0.520, 0.520, 0.520, 0.674, 1.399, 0.520, 1.399, 0.520, 0.674, 0.520, 3.916, 0.674, 3.916, 0.280, 0.674, 0.674, 0.520, 0.674, 3.916, 0.674, 3.916, 3.916, 0.520, 0.520, 3.916, 0.674, 0.520, 3.916, 3.916, 3.916, 0.520, 0.520, 0.520, 3.916, 0.520, 3.916, 0.520, 0.520, 3.916, 3.916, 1.399, 3.916 ]
6
[ 0.670, 0.820, 0.181, 0.181, 0.820, 0.181, 0.181, 0.181, 0.181, 0.181, 0.181, 0.181, 0.670, 0.820, 0.181, 0.181, 0.770, 0.181, 0.181, 0.670, 0.181, 0.670, 0.820, 0.820, 0.181, 0.181, 0.670, 0.770, 0.181, 0.670, 0.181, 0.181, 0.181, 0.181, 0.181, 0.670, 0.820, 0.181, 0.670, 0.670, 0.820, 0.181, 0.670, 0.181, 0.670, 0.181, 0.181, 0.820, 0.820, 0.770, 0.820, 0.181, 0.670, 0.181, 0.820, 0.181, 0.058, 0.181, 0.670, 0.181, 0.181, 0.181, 0.820, 0.820, 0.181, 0.670, 0.670, 0.670, 0.181, 0.181, 0.181, 0.181, 0.670, 0.284, 0.181, 0.670, 0.181, 0.670, 0.670, 0.670, 0.670, 0.820, 0.670, 0.181, 0.181, 0.181, 0.670, 0.181, 0.181, 0.181, 0.058, 0.181, 0.181, 0.181, 0.181, 0.181, 0.181, 0.181, 0.181, 0.058 ]