3
[ 1.070, 1.112, 2.875, 2.875, 1.070, 1.070, 2.875, 2.875, 1.112, 1.070, 1.070, 2.875, 2.875, 1.112, 1.112, 1.112, 1.070, 1.070, 2.875, 2.875, 1.112, 2.875, 1.112, 1.112, 1.070, 1.070, 1.070, 2.875, 2.875, 1.070, 2.875, 1.070, 1.070, 1.112, 1.112, 1.070, 1.112, 2.875, 1.070, 1.070, 2.875, 2.875, 1.070, 1.070, 1.112, 1.112, 1.070, 1.112, 2.875, 2.875 ]
3
[ 0.527, 0.527, 0.328, 0.527, 0.690, 0.527, 0.328, 0.527, 0.690, 0.328, 0.690, 0.328, 0.527, 0.690, 0.527, 0.328, 0.527, 0.328, 0.328, 0.527, 0.690, 0.690, 0.690, 0.527, 0.690, 0.328, 0.527, 0.527, 0.527, 0.328, 0.527, 0.527, 0.527, 0.527, 0.328, 0.527, 0.527, 0.527, 0.690, 0.328, 0.328, 0.328, 0.527, 0.527, 0.527, 0.527, 0.328, 0.328, 0.690, 0.527 ]