6
[ 2.666, 3.210, 1.265, 3.210, 3.210, 5.812, 2.666, 3.210, 3.210, 2.666, 1.265, 2.666, 0.769, 2.666, 1.265, 3.210, 3.210, 3.210, 2.666, 3.210, 1.265, 2.666, 5.812, 5.812, 3.210, 2.666, 3.210, 1.265, 1.265, 1.265, 2.666, 3.210, 3.210, 2.666, 1.265, 2.666, 3.210, 2.666, 2.624, 3.210, 2.666, 3.210, 3.210, 2.666, 3.210, 1.265, 2.666, 5.812, 2.666, 5.812 ]
3
[ 0.045, 0.541, 0.540, 0.045, 0.045, 0.045, 0.045, 0.045, 0.045, 0.045, 0.045, 0.045, 0.045, 0.045, 0.541, 0.045, 0.045, 0.541, 0.045, 0.045, 0.045, 0.541, 0.541, 0.045, 0.045, 0.045, 0.045, 0.045, 0.045, 0.045, 0.045, 0.541, 0.045, 0.045, 0.045, 0.045, 0.045, 0.045, 0.045, 0.045, 0.045, 0.045, 0.045, 0.045, 0.541, 0.045, 0.045, 0.045, 0.045, 0.541 ]