4
[ 2.410, 2.410, 2.410, 2.410, 2.410, 2.410, 1.174, 1.174, 2.410, 2.410, 2.410, 2.410, 2.410, 2.410, 2.410, 1.174, 1.675, 2.410, 2.410, 2.410, 2.410, 1.174, 2.410, 2.410, 1.174, 2.410, 2.410, 2.410, 2.410, 2.410, 2.410, 2.410, 2.410, 2.410, 2.410, 2.410, 2.410, 2.410, 1.174, 1.174, 1.174, 2.410, 1.174, 2.410, 2.410, 2.410, 2.410, 2.410, 1.174, 2.410, 2.410, 2.410, 2.410, 2.410, 1.174, 2.410, 2.410, 2.410, 2.410, 1.675, 2.410, 2.410, 2.410, 2.410, 2.410, 1.174, 2.410, 2.410, 1.675, 2.410, 2.410, 2.410, 2.410, 2.410, 2.410, 2.410, 2.410, 2.410, 1.174, 1.675, 2.410, 2.410, 2.410, 1.174, 2.410, 2.410, 1.174, 2.410, 2.410, 2.410, 1.174, 2.410, 2.410, 2.410, 1.174, 2.410, 2.410, 2.410, 2.410, 2.410, 2.410, 2.410, 2.410, 1.174, 2.410, 1.174, 2.410, 2.410, 2.410, 1.174, 1.174, 1.174, 2.410, 2.410, 2.410, 2.410, 2.410, 2.410, 2.410, 1.174, 2.410, 2.410, 2.410, 2.410, 2.410, 1.675, 2.139, 2.410, 2.410, 2.410, 2.410, 2.410, 1.174, 2.410, 2.410, 2.410, 2.410, 2.410, 2.410, 2.410, 2.410, 2.410, 2.410, 2.410, 2.410, 2.410, 1.174, 2.410, 2.410, 1.174, 2.410, 2.410, 2.410, 2.410, 2.410, 2.410, 2.410, 2.410, 1.174, 2.410, 1.174, 1.174, 2.410, 2.410, 1.675, 2.410, 2.410, 2.410, 2.410, 2.410, 2.410, 2.410, 2.410, 1.174, 1.174, 2.410, 2.410, 2.410, 2.410, 2.410, 2.410, 2.410, 2.410, 2.410, 2.410, 2.410, 2.410, 2.410, 2.410, 1.174, 2.410, 2.410, 2.410, 1.174, 2.410, 1.174, 1.174, 2.410, 2.410, 2.410 ]
9
[ 0.174, 0.174, 0.174, 0.912, 0.726, 0.174, 0.912, 0.174, 0.174, 0.173, 0.174, 0.173, 0.174, 0.174, 0.726, 0.726, 0.174, 0.174, 0.912, 0.912, 0.173, 0.174, 0.174, 0.726, 0.174, 0.173, 0.912, 0.173, 0.174, 0.174, 0.174, 0.174, 0.726, 0.174, 0.912, 0.174, 0.912, 0.726, 0.726, 0.174, 0.726, 0.174, 0.726, 0.726, 0.726, 0.726, 0.418, 0.726, 0.726, 0.726, 0.173, 0.726, 0.174, 0.174, 0.174, 0.726, 0.174, 0.174, 0.174, 0.174, 0.418, 0.173, 0.174, 0.174, 0.173, 0.173, 0.173, 0.726, 0.571, 0.173, 0.173, 0.173, 0.726, 0.726, 0.174, 0.174, 0.173, 0.912, 0.912, 0.174, 0.174, 0.174, 0.912, 0.726, 0.174, 0.173, 0.173, 0.009, 0.174, 0.174, 0.726, 0.726, 0.726, 0.726, 0.174, 0.174, 0.174, 0.174, 0.173, 0.726, 0.174, 0.387, 0.726, 0.912, 0.174, 0.174, 0.173, 0.912, 0.912, 0.173, 0.174, 0.726, 0.174, 0.726, 0.726, 0.174, 0.174, 0.726, 0.174, 0.174, 0.174, 0.174, 0.174, 0.174, 0.174, 0.912, 0.173, 0.418, 0.726, 0.174, 0.912, 0.173, 0.418, 0.174, 0.174, 0.174, 0.912, 0.726, 0.173, 0.418, 0.174, 0.726, 0.174, 0.174, 0.174, 0.173, 0.173, 0.174, 0.726, 0.174, 0.174, 0.174, 0.800, 0.418, 0.174, 0.173, 0.174, 0.174, 0.174, 0.174, 0.174, 0.174, 0.800, 0.726, 0.726, 0.912, 0.174, 0.174, 0.174, 0.726, 0.173, 0.173, 0.726, 0.418, 0.174, 0.726, 0.726, 0.173, 0.174, 0.174, 0.173, 0.173, 0.912, 0.912, 0.912, 0.726, 0.726, 0.418, 0.174, 0.912, 0.173, 0.726, 0.726, 0.173, 0.418, 0.726, 0.912, 0.174, 0.173, 0.726 ]