3
[ 2.704, 2.704, 4.712, 2.704, 4.712, 2.192, 4.712, 2.192, 4.712, 2.192, 2.192, 4.712, 4.712, 2.704, 4.712, 2.192, 4.712, 2.192, 4.712, 2.704, 2.704, 2.704, 2.704, 4.712, 2.192, 2.704, 2.704, 4.712, 4.712, 4.712, 2.704, 2.192, 2.704, 2.704, 2.192, 2.704, 4.712, 4.712, 2.192, 2.192, 2.704, 2.192, 4.712, 2.192, 4.712, 4.712, 4.712, 4.712, 2.704, 4.712, 2.192, 2.704, 2.704, 2.704, 2.192, 4.712, 4.712, 2.192, 4.712, 2.704, 4.712, 2.192, 2.192, 2.704, 2.704, 4.712, 2.192, 4.712, 4.712, 4.712, 2.192, 2.192, 2.192, 2.704, 4.712, 2.192, 2.704, 2.704, 2.704, 2.192, 4.712, 2.192, 2.704, 2.704, 2.192, 4.712, 2.704, 2.704, 2.704, 4.712, 2.704, 4.712, 4.712, 2.704, 2.192, 2.192, 4.712, 2.192, 2.704, 2.192, 2.704, 2.704, 4.712, 2.192, 4.712, 2.704, 2.704, 2.192, 2.704, 4.712, 4.712, 2.704, 2.192, 2.704, 2.192, 4.712, 2.704, 2.704, 4.712, 4.712, 2.192, 4.712, 4.712, 2.704, 2.192, 2.192, 2.704, 2.704, 2.704, 2.704, 2.704, 2.704, 2.704, 4.712, 2.704, 2.192, 2.704, 2.704, 2.704, 2.704, 2.704, 4.712, 4.712, 2.192, 2.704, 2.192, 2.704, 2.704, 2.192, 2.192, 2.192, 2.704, 2.192, 4.712, 2.704, 4.712, 4.712, 2.192, 2.192, 2.704, 2.192, 4.712, 2.704, 2.704, 2.192, 2.704, 2.704, 2.704, 2.704, 4.712, 4.712, 2.192, 4.712, 2.192, 4.712, 2.192, 4.712, 2.704, 2.192, 2.192, 2.704, 4.712, 4.712, 2.192, 2.192, 4.712, 2.704, 4.712, 2.704, 2.704, 2.192, 2.192, 2.704, 4.712, 4.712, 2.192, 2.192, 4.712, 2.704, 4.712 ]
3
[ 0.798, 0.839, 0.594, 0.839, 0.839, 0.839, 0.839, 0.594, 0.839, 0.839, 0.839, 0.594, 0.839, 0.594, 0.798, 0.839, 0.798, 0.594, 0.594, 0.594, 0.839, 0.594, 0.798, 0.798, 0.839, 0.839, 0.839, 0.798, 0.798, 0.594, 0.839, 0.839, 0.839, 0.798, 0.798, 0.798, 0.594, 0.798, 0.798, 0.594, 0.594, 0.839, 0.594, 0.798, 0.594, 0.798, 0.594, 0.594, 0.839, 0.594, 0.594, 0.839, 0.594, 0.839, 0.594, 0.798, 0.798, 0.839, 0.594, 0.594, 0.839, 0.839, 0.839, 0.839, 0.839, 0.594, 0.594, 0.594, 0.839, 0.798, 0.839, 0.594, 0.798, 0.839, 0.839, 0.839, 0.839, 0.594, 0.839, 0.594, 0.594, 0.839, 0.594, 0.798, 0.798, 0.594, 0.839, 0.798, 0.594, 0.798, 0.798, 0.594, 0.839, 0.594, 0.798, 0.798, 0.594, 0.839, 0.798, 0.839, 0.798, 0.839, 0.839, 0.839, 0.839, 0.594, 0.594, 0.839, 0.594, 0.594, 0.798, 0.798, 0.594, 0.594, 0.839, 0.839, 0.839, 0.798, 0.594, 0.798, 0.594, 0.594, 0.594, 0.839, 0.839, 0.594, 0.839, 0.839, 0.594, 0.798, 0.839, 0.594, 0.594, 0.594, 0.798, 0.839, 0.594, 0.798, 0.839, 0.839, 0.798, 0.594, 0.594, 0.594, 0.839, 0.594, 0.798, 0.839, 0.839, 0.798, 0.839, 0.798, 0.594, 0.798, 0.798, 0.798, 0.594, 0.798, 0.839, 0.839, 0.839, 0.839, 0.798, 0.798, 0.839, 0.839, 0.594, 0.839, 0.798, 0.798, 0.594, 0.798, 0.839, 0.839, 0.798, 0.798, 0.594, 0.798, 0.594, 0.798, 0.594, 0.798, 0.594, 0.798, 0.839, 0.594, 0.839, 0.594, 0.839, 0.798, 0.798, 0.839, 0.839, 0.839, 0.839, 0.594, 0.594, 0.839, 0.594, 0.594 ]