3
[ 1.177, 1.177, 1.177, 4.531, 3.162, 4.531, 4.531, 1.177, 3.162, 4.531, 3.162, 4.531, 4.531, 1.177, 3.162, 4.531, 4.531, 4.531, 3.162, 3.162, 3.162, 4.531, 4.531, 4.531, 3.162, 3.162, 1.177, 1.177, 1.177, 1.177, 1.177, 1.177, 1.177, 3.162, 1.177, 1.177, 4.531, 1.177, 1.177, 4.531, 3.162, 1.177, 1.177, 3.162, 1.177, 1.177, 4.531, 4.531, 4.531, 3.162, 3.162, 4.531, 3.162, 3.162, 1.177, 4.531, 4.531, 1.177, 3.162, 1.177, 1.177, 3.162, 4.531, 3.162, 1.177, 3.162, 1.177, 4.531, 4.531, 3.162, 3.162, 4.531, 3.162, 4.531, 1.177, 3.162, 4.531, 4.531, 3.162, 4.531, 3.162, 4.531, 1.177, 3.162, 3.162, 1.177, 4.531, 1.177, 1.177, 4.531, 4.531, 1.177, 1.177, 4.531, 4.531, 3.162, 1.177, 3.162, 4.531, 3.162 ]
3
[ 0.816, 0.816, 0.279, 0.279, 0.286, 0.286, 0.816, 0.279, 0.816, 0.816, 0.279, 0.286, 0.286, 0.816, 0.279, 0.279, 0.279, 0.279, 0.816, 0.816, 0.279, 0.816, 0.286, 0.279, 0.279, 0.286, 0.279, 0.279, 0.279, 0.279, 0.279, 0.286, 0.279, 0.286, 0.816, 0.279, 0.816, 0.279, 0.816, 0.816, 0.816, 0.816, 0.816, 0.816, 0.816, 0.816, 0.816, 0.286, 0.816, 0.816, 0.816, 0.286, 0.816, 0.286, 0.279, 0.279, 0.286, 0.816, 0.279, 0.816, 0.286, 0.286, 0.816, 0.279, 0.816, 0.279, 0.279, 0.816, 0.279, 0.816, 0.279, 0.279, 0.279, 0.279, 0.816, 0.286, 0.286, 0.816, 0.816, 0.286, 0.279, 0.286, 0.286, 0.816, 0.816, 0.816, 0.286, 0.816, 0.816, 0.286, 0.286, 0.816, 0.279, 0.279, 0.279, 0.279, 0.279, 0.816, 0.279, 0.816 ]