3
[ 1.008, 1.869, 1.008, 1.610, 1.008, 1.610, 1.869, 1.610, 1.610, 1.008, 1.008, 1.610, 1.008, 1.610, 1.869, 1.610, 1.610, 1.869, 1.869, 1.610, 1.869, 1.869, 1.869, 1.869, 1.869, 1.008, 1.610, 1.869, 1.008, 1.610, 1.008, 1.869, 1.008, 1.869, 1.610, 1.008, 1.008, 1.610, 1.610, 1.008, 1.610, 1.008, 1.869, 1.869, 1.610, 1.869, 1.008, 1.869, 1.610, 1.610 ]
3
[ 0.871, 0.624, 0.624, 0.624, 0.871, 0.624, 0.434, 0.624, 0.871, 0.434, 0.624, 0.871, 0.624, 0.871, 0.434, 0.434, 0.871, 0.624, 0.624, 0.871, 0.871, 0.434, 0.871, 0.871, 0.434, 0.434, 0.871, 0.624, 0.624, 0.434, 0.434, 0.871, 0.624, 0.434, 0.871, 0.434, 0.871, 0.871, 0.434, 0.434, 0.871, 0.434, 0.871, 0.871, 0.624, 0.624, 0.434, 0.624, 0.871, 0.434 ]