3
[ 3.781, 3.282, 4.595, 4.595, 3.282, 3.282, 3.781, 3.781, 3.781, 3.282, 3.781, 3.781, 4.595, 3.781, 3.282, 3.282, 4.595, 3.282, 3.781, 4.595, 4.595, 4.595, 4.595, 4.595, 3.781, 4.595, 3.282, 4.595, 3.282, 3.781, 3.282, 3.781, 3.781, 3.781, 3.282, 3.282, 4.595, 4.595, 3.282, 3.781, 4.595, 3.282, 3.282, 3.781, 4.595, 3.781, 3.282, 3.781, 3.282, 4.595, 3.282, 3.781, 4.595, 4.595, 4.595, 3.781, 4.595, 3.781, 4.595, 3.781, 4.595, 4.595, 3.282, 3.781, 3.282, 4.595, 3.781, 3.282, 3.282, 3.282, 3.781, 3.781, 3.282, 3.282, 4.595, 4.595, 4.595, 3.282, 3.781, 3.282, 3.282, 3.282, 3.781, 3.781, 3.282, 4.595, 4.595, 3.282, 3.781, 3.282, 3.282, 4.595, 3.282, 4.595, 3.781, 3.282, 3.781, 4.595, 3.282, 3.781 ]
3
[ 0.953, 0.953, 0.969, 0.953, 0.953, 0.953, 0.969, 0.969, 0.969, 0.395, 0.395, 0.953, 0.395, 0.395, 0.969, 0.969, 0.969, 0.953, 0.395, 0.395, 0.969, 0.969, 0.969, 0.953, 0.953, 0.953, 0.395, 0.953, 0.953, 0.969, 0.395, 0.969, 0.953, 0.395, 0.395, 0.953, 0.953, 0.953, 0.953, 0.969, 0.969, 0.953, 0.395, 0.953, 0.969, 0.969, 0.969, 0.969, 0.953, 0.395, 0.953, 0.953, 0.969, 0.953, 0.969, 0.395, 0.395, 0.953, 0.969, 0.953, 0.953, 0.953, 0.953, 0.969, 0.395, 0.395, 0.969, 0.953, 0.395, 0.969, 0.395, 0.953, 0.395, 0.953, 0.953, 0.969, 0.953, 0.969, 0.395, 0.969, 0.969, 0.395, 0.395, 0.969, 0.395, 0.969, 0.395, 0.953, 0.969, 0.395, 0.969, 0.953, 0.395, 0.969, 0.953, 0.395, 0.953, 0.953, 0.969, 0.969 ]