3
[ 2.224, 3.103, 3.103, 1.870, 2.224, 1.870, 1.870, 3.103, 3.103, 3.103, 3.103, 2.224, 2.224, 1.870, 1.870, 1.870, 3.103, 3.103, 3.103, 2.224, 2.224, 2.224, 1.870, 1.870, 2.224, 1.870, 3.103, 2.224, 1.870, 1.870, 1.870, 2.224, 2.224, 2.224, 1.870, 3.103, 1.870, 2.224, 3.103, 2.224, 1.870, 3.103, 2.224, 1.870, 1.870, 2.224, 1.870, 2.224, 1.870, 3.103, 2.224, 3.103, 3.103, 2.224, 1.870, 3.103, 3.103, 1.870, 1.870, 1.870, 2.224, 1.870, 1.870, 3.103, 3.103, 1.870, 1.870, 2.224, 3.103, 1.870, 1.870, 3.103, 1.870, 3.103, 3.103, 1.870, 2.224, 1.870, 1.870, 2.224, 1.870, 1.870, 1.870, 1.870, 2.224, 2.224, 1.870, 1.870, 2.224, 1.870, 2.224, 1.870, 1.870, 2.224, 2.224, 1.870, 3.103, 1.870, 3.103, 1.870, 1.870, 1.870, 2.224, 3.103, 1.870, 2.224, 3.103, 2.224, 3.103, 1.870, 3.103, 3.103, 3.103, 1.870, 2.224, 3.103, 2.224, 3.103, 2.224, 2.224, 2.224, 3.103, 2.224, 3.103, 1.870, 3.103, 3.103, 1.870, 2.224, 2.224, 1.870, 3.103, 2.224, 1.870, 2.224, 2.224, 2.224, 1.870, 2.224, 3.103, 1.870, 2.224, 2.224, 2.224, 3.103, 2.224, 3.103, 1.870, 2.224, 3.103, 1.870, 3.103, 1.870, 2.224, 1.870, 3.103, 3.103, 3.103, 1.870, 2.224, 3.103, 1.870, 2.224, 3.103, 1.870, 3.103, 2.224, 2.224, 1.870, 3.103, 1.870, 3.103, 2.224, 2.224, 3.103, 2.224, 3.103, 2.224, 3.103, 2.224, 2.224, 1.870, 1.870, 3.103, 1.870, 2.224, 3.103, 2.224, 3.103, 3.103, 2.224, 1.870, 3.103, 3.103, 3.103, 3.103, 3.103, 3.103, 3.103, 3.103 ]
3
[ 0.634, 0.634, 0.508, 0.508, 0.830, 0.634, 0.508, 0.830, 0.634, 0.508, 0.634, 0.508, 0.634, 0.508, 0.830, 0.634, 0.634, 0.830, 0.830, 0.830, 0.508, 0.508, 0.634, 0.830, 0.634, 0.634, 0.634, 0.508, 0.634, 0.508, 0.634, 0.634, 0.830, 0.830, 0.634, 0.634, 0.634, 0.830, 0.508, 0.508, 0.634, 0.634, 0.830, 0.508, 0.634, 0.830, 0.508, 0.830, 0.508, 0.508, 0.830, 0.508, 0.634, 0.508, 0.634, 0.830, 0.634, 0.634, 0.830, 0.508, 0.508, 0.830, 0.508, 0.508, 0.634, 0.830, 0.830, 0.830, 0.634, 0.634, 0.830, 0.508, 0.830, 0.634, 0.634, 0.634, 0.634, 0.634, 0.508, 0.830, 0.830, 0.634, 0.830, 0.634, 0.508, 0.830, 0.508, 0.508, 0.830, 0.634, 0.508, 0.830, 0.508, 0.830, 0.830, 0.634, 0.634, 0.508, 0.508, 0.830, 0.634, 0.634, 0.634, 0.508, 0.634, 0.634, 0.508, 0.634, 0.508, 0.830, 0.508, 0.508, 0.508, 0.508, 0.830, 0.830, 0.830, 0.508, 0.830, 0.830, 0.634, 0.508, 0.634, 0.830, 0.634, 0.830, 0.508, 0.508, 0.508, 0.830, 0.830, 0.830, 0.830, 0.508, 0.830, 0.830, 0.830, 0.634, 0.508, 0.634, 0.634, 0.634, 0.508, 0.634, 0.830, 0.634, 0.830, 0.634, 0.508, 0.508, 0.508, 0.634, 0.508, 0.830, 0.634, 0.508, 0.508, 0.830, 0.830, 0.634, 0.508, 0.508, 0.634, 0.508, 0.634, 0.830, 0.830, 0.830, 0.830, 0.830, 0.830, 0.830, 0.508, 0.508, 0.830, 0.830, 0.508, 0.508, 0.634, 0.634, 0.830, 0.508, 0.830, 0.508, 0.508, 0.634, 0.634, 0.830, 0.830, 0.634, 0.634, 0.634, 0.508, 0.634, 0.830, 0.830, 0.830, 0.634, 0.830, 0.830 ]