4
[ 1.117, 2.464, 2.464, 2.464, 2.464, 2.464, 2.464, 2.464, 2.464, 2.464, 2.464, 2.464, 1.117, 2.464, 1.117, 2.464, 2.464, 2.464, 1.117, 2.464, 2.464, 2.464, 2.464, 2.464, 2.464, 2.464, 2.464, 1.117, 2.464, 2.464, 2.464, 2.464, 2.970, 2.464, 2.464, 2.464, 2.464, 2.464, 2.464, 2.464, 2.464, 2.464, 2.464, 2.464, 2.464, 6.724, 2.464, 2.464, 2.464, 2.464, 2.464, 2.464, 2.464, 2.464, 2.464, 2.464, 2.464, 2.464, 2.464, 2.464, 2.464, 2.464, 2.464, 2.464, 2.464, 2.464, 2.464, 2.464, 2.464, 2.464, 2.464, 1.117, 2.464, 2.464, 2.464, 2.464, 2.464, 2.464, 1.117, 2.464, 2.464, 2.464, 2.464, 2.464, 2.464, 2.464, 2.464, 2.464, 2.464, 2.464, 2.464, 2.464, 2.464, 2.464, 2.464, 2.464, 2.464, 2.464, 2.464, 2.464 ]
3
[ 0.648, 0.592, 0.648, 0.648, 0.648, 0.648, 0.648, 0.648, 0.648, 0.648, 0.648, 0.648, 0.648, 0.648, 0.648, 0.648, 0.648, 0.648, 0.228, 0.648, 0.648, 0.648, 0.648, 0.648, 0.648, 0.648, 0.648, 0.648, 0.648, 0.648, 0.648, 0.648, 0.648, 0.648, 0.648, 0.648, 0.648, 0.648, 0.648, 0.228, 0.648, 0.648, 0.648, 0.228, 0.648, 0.228, 0.648, 0.648, 0.648, 0.648, 0.648, 0.648, 0.648, 0.648, 0.648, 0.648, 0.648, 0.648, 0.648, 0.648, 0.648, 0.648, 0.648, 0.648, 0.648, 0.648, 0.648, 0.648, 0.648, 0.648, 0.592, 0.648, 0.648, 0.648, 0.648, 0.228, 0.228, 0.592, 0.648, 0.648, 0.648, 0.228, 0.592, 0.648, 0.648, 0.648, 0.648, 0.648, 0.648, 0.648, 0.648, 0.648, 0.592, 0.648, 0.648, 0.648, 0.648, 0.648, 0.648, 0.228 ]