3
[ 2.909, 8.202, 3.980, 2.909, 3.980, 2.909, 3.980, 2.909, 8.202, 3.980, 2.909, 2.909, 2.909, 3.980, 2.909, 8.202, 3.980, 3.980, 3.980, 3.980, 3.980, 3.980, 3.980, 2.909, 2.909, 8.202, 3.980, 8.202, 2.909, 8.202, 2.909, 3.980, 3.980, 3.980, 3.980, 2.909, 3.980, 2.909, 2.909, 8.202, 2.909, 8.202, 2.909, 8.202, 3.980, 3.980, 8.202, 8.202, 3.980, 8.202, 8.202, 8.202, 2.909, 3.980, 2.909, 3.980, 2.909, 8.202, 8.202, 3.980, 2.909, 8.202, 2.909, 3.980, 2.909, 3.980, 2.909, 3.980, 3.980, 3.980, 2.909, 8.202, 3.980, 2.909, 2.909, 3.980, 3.980, 3.980, 2.909, 2.909, 3.980, 3.980, 3.980, 8.202, 2.909, 3.980, 3.980, 3.980, 8.202, 8.202, 3.980, 2.909, 2.909, 3.980, 2.909, 3.980, 3.980, 3.980, 2.909, 3.980 ]
3
[ 0.941, 0.941, 0.061, 0.941, 0.941, 0.392, 0.941, 0.941, 0.061, 0.061, 0.392, 0.392, 0.061, 0.941, 0.941, 0.061, 0.941, 0.392, 0.392, 0.941, 0.941, 0.061, 0.941, 0.941, 0.392, 0.941, 0.941, 0.941, 0.061, 0.061, 0.941, 0.941, 0.061, 0.941, 0.392, 0.061, 0.392, 0.061, 0.941, 0.061, 0.392, 0.061, 0.061, 0.941, 0.061, 0.392, 0.392, 0.941, 0.941, 0.061, 0.392, 0.941, 0.941, 0.392, 0.941, 0.392, 0.061, 0.061, 0.941, 0.392, 0.941, 0.392, 0.061, 0.941, 0.061, 0.392, 0.061, 0.061, 0.392, 0.392, 0.061, 0.061, 0.392, 0.061, 0.061, 0.392, 0.941, 0.941, 0.941, 0.392, 0.392, 0.392, 0.392, 0.061, 0.941, 0.392, 0.941, 0.941, 0.941, 0.392, 0.392, 0.061, 0.392, 0.392, 0.941, 0.392, 0.061, 0.392, 0.941, 0.941 ]