3
[ 2.746, 4.528, 2.746, 4.528, 3.541, 2.746, 3.541, 4.528, 3.541, 2.746, 3.541, 3.541, 4.528, 2.746, 3.541, 2.746, 3.541, 3.541, 2.746, 3.541, 3.541, 4.528, 2.746, 3.541, 3.541, 3.541, 4.528, 4.528, 3.541, 2.746, 4.528, 3.541, 2.746, 3.541, 3.541, 3.541, 4.528, 3.541, 3.541, 2.746, 2.746, 3.541, 3.541, 4.528, 2.746, 2.746, 3.541, 2.746, 3.541, 3.541, 4.528, 4.528, 4.528, 2.746, 4.528, 4.528, 3.541, 3.541, 4.528, 4.528, 4.528, 4.528, 2.746, 4.528, 4.528, 2.746, 3.541, 3.541, 2.746, 2.746, 4.528, 4.528, 2.746, 4.528, 4.528, 2.746, 4.528, 3.541, 2.746, 3.541, 2.746, 3.541, 2.746, 4.528, 2.746, 4.528, 4.528, 3.541, 4.528, 3.541, 2.746, 2.746, 4.528, 2.746, 2.746, 2.746, 4.528, 2.746, 4.528, 3.541, 2.746, 4.528, 2.746, 4.528, 3.541, 4.528, 3.541, 3.541, 4.528, 4.528, 3.541, 3.541, 3.541, 4.528, 2.746, 2.746, 2.746, 2.746, 2.746, 4.528, 4.528, 2.746, 2.746, 2.746, 3.541, 4.528, 3.541, 3.541, 2.746, 4.528, 3.541, 4.528, 4.528, 4.528, 4.528, 3.541, 3.541, 4.528, 2.746, 3.541, 3.541, 4.528, 4.528, 2.746, 4.528, 4.528, 3.541, 3.541, 4.528, 2.746, 2.746, 2.746, 4.528, 3.541, 3.541, 2.746, 2.746, 3.541, 3.541, 4.528, 3.541, 3.541, 4.528, 2.746, 4.528, 2.746, 4.528, 3.541, 2.746, 2.746, 3.541, 3.541, 3.541, 4.528, 3.541, 4.528, 4.528, 3.541, 2.746, 2.746, 3.541, 4.528, 2.746, 4.528, 3.541, 2.746, 4.528, 3.541, 2.746, 4.528, 3.541, 2.746, 2.746, 4.528, 4.528, 4.528, 3.541, 4.528, 3.541, 4.528 ]
3
[ 0.384, 0.790, 0.790, 0.218, 0.384, 0.218, 0.218, 0.218, 0.790, 0.790, 0.790, 0.384, 0.790, 0.218, 0.218, 0.384, 0.218, 0.790, 0.384, 0.218, 0.218, 0.790, 0.790, 0.218, 0.218, 0.218, 0.790, 0.384, 0.218, 0.384, 0.384, 0.790, 0.218, 0.384, 0.790, 0.218, 0.790, 0.790, 0.384, 0.218, 0.218, 0.384, 0.218, 0.384, 0.218, 0.384, 0.218, 0.218, 0.790, 0.384, 0.384, 0.218, 0.790, 0.218, 0.384, 0.218, 0.218, 0.384, 0.790, 0.790, 0.384, 0.218, 0.790, 0.790, 0.384, 0.218, 0.790, 0.218, 0.218, 0.790, 0.384, 0.218, 0.218, 0.218, 0.384, 0.384, 0.384, 0.218, 0.218, 0.218, 0.384, 0.790, 0.218, 0.218, 0.218, 0.384, 0.790, 0.790, 0.790, 0.384, 0.218, 0.790, 0.790, 0.790, 0.384, 0.218, 0.218, 0.790, 0.790, 0.790, 0.790, 0.218, 0.790, 0.384, 0.790, 0.218, 0.218, 0.218, 0.384, 0.384, 0.384, 0.384, 0.790, 0.384, 0.384, 0.218, 0.790, 0.384, 0.218, 0.218, 0.218, 0.218, 0.218, 0.790, 0.790, 0.384, 0.790, 0.384, 0.384, 0.218, 0.218, 0.384, 0.218, 0.384, 0.790, 0.218, 0.218, 0.218, 0.790, 0.790, 0.790, 0.384, 0.384, 0.384, 0.384, 0.790, 0.790, 0.218, 0.790, 0.790, 0.218, 0.384, 0.384, 0.384, 0.384, 0.384, 0.218, 0.790, 0.384, 0.384, 0.218, 0.790, 0.384, 0.218, 0.218, 0.218, 0.384, 0.218, 0.218, 0.218, 0.384, 0.218, 0.790, 0.218, 0.384, 0.218, 0.790, 0.384, 0.790, 0.790, 0.384, 0.384, 0.790, 0.384, 0.384, 0.790, 0.218, 0.384, 0.384, 0.790, 0.218, 0.218, 0.384, 0.384, 0.218, 0.790, 0.790, 0.218, 0.790, 0.384 ]