3
[ 3.738, 1.877, 1.877, 2.399, 3.738, 3.738, 2.399, 2.399, 2.399, 3.738, 3.738, 1.877, 1.877, 1.877, 1.877, 3.738, 1.877, 3.738, 3.738, 1.877, 3.738, 1.877, 1.877, 1.877, 2.399, 3.738, 1.877, 3.738, 1.877, 2.399, 2.399, 2.399, 3.738, 2.399, 3.738, 1.877, 2.399, 2.399, 2.399, 1.877, 2.399, 1.877, 3.738, 1.877, 1.877, 1.877, 2.399, 2.399, 3.738, 1.877 ]
3
[ 0.345, 0.972, 0.959, 0.972, 0.972, 0.972, 0.972, 0.972, 0.972, 0.972, 0.972, 0.959, 0.972, 0.972, 0.345, 0.972, 0.959, 0.345, 0.345, 0.972, 0.345, 0.959, 0.972, 0.959, 0.345, 0.959, 0.972, 0.972, 0.959, 0.972, 0.959, 0.972, 0.345, 0.972, 0.959, 0.972, 0.972, 0.959, 0.959, 0.972, 0.972, 0.972, 0.972, 0.345, 0.959, 0.345, 0.972, 0.959, 0.345, 0.959 ]