2
[ 4.182, 4.182, 4.182, 1.376, 4.182, 4.182, 4.182, 4.182, 4.182, 1.376, 1.376, 4.182, 4.182, 4.182, 4.182, 4.182, 4.182, 4.182, 4.182, 1.376, 4.182, 4.182, 4.182, 4.182, 4.182, 4.182, 1.376, 4.182, 4.182, 1.376, 1.376, 4.182, 4.182, 4.182, 4.182, 4.182, 4.182, 4.182, 1.376, 4.182, 1.376, 1.376, 4.182, 4.182, 4.182, 4.182, 4.182, 4.182, 4.182, 4.182 ]
5
[ 0.859, 0.202, 0.202, 0.859, 0.978, 0.978, 0.978, 0.179, 0.978, 0.978, 0.859, 0.859, 0.202, 0.978, 0.978, 0.978, 0.202, 0.978, 0.752, 0.202, 0.978, 0.202, 0.978, 0.978, 0.859, 0.202, 0.978, 0.978, 0.978, 0.978, 0.202, 0.978, 0.978, 0.752, 0.978, 0.978, 0.202, 0.978, 0.859, 0.859, 0.978, 0.978, 0.978, 0.859, 0.859, 0.978, 0.202, 0.859, 0.978, 0.978 ]