3
[ 2.119, 1.553, 1.553, 4.173, 2.119, 2.119, 4.173, 2.119, 1.553, 4.173, 4.173, 1.553, 2.119, 1.553, 1.553, 4.173, 4.173, 2.119, 4.173, 2.119, 1.553, 1.553, 1.553, 4.173, 4.173, 4.173, 4.173, 2.119, 4.173, 4.173, 2.119, 4.173, 2.119, 1.553, 2.119, 4.173, 1.553, 4.173, 1.553, 2.119, 4.173, 2.119, 2.119, 1.553, 1.553, 4.173, 4.173, 1.553, 1.553, 2.119, 2.119, 1.553, 2.119, 2.119, 4.173, 2.119, 2.119, 1.553, 1.553, 4.173, 2.119, 4.173, 4.173, 1.553, 1.553, 4.173, 4.173, 1.553, 2.119, 4.173, 2.119, 1.553, 2.119, 2.119, 2.119, 4.173, 4.173, 1.553, 2.119, 4.173, 4.173, 4.173, 4.173, 1.553, 1.553, 4.173, 4.173, 4.173, 1.553, 1.553, 4.173, 4.173, 4.173, 2.119, 4.173, 1.553, 2.119, 4.173, 1.553, 2.119, 4.173, 1.553, 4.173, 2.119, 2.119, 1.553, 4.173, 1.553, 1.553, 1.553, 2.119, 2.119, 1.553, 4.173, 4.173, 2.119, 2.119, 1.553, 1.553, 1.553, 2.119, 2.119, 1.553, 1.553, 1.553, 2.119, 2.119, 2.119, 2.119, 4.173, 2.119, 2.119, 1.553, 1.553, 1.553, 1.553, 4.173, 2.119, 4.173, 1.553, 2.119, 1.553, 4.173, 4.173, 2.119, 2.119, 1.553, 2.119, 1.553, 2.119, 1.553, 4.173, 4.173, 4.173, 1.553, 2.119, 2.119, 1.553, 4.173, 4.173, 1.553, 2.119, 4.173, 2.119, 4.173, 4.173, 4.173, 2.119, 4.173, 1.553, 4.173, 1.553, 1.553, 4.173, 2.119, 4.173, 4.173, 1.553, 2.119, 2.119, 2.119, 1.553, 4.173, 2.119, 2.119, 1.553, 2.119, 2.119, 4.173, 2.119, 4.173, 4.173, 4.173, 2.119, 1.553, 2.119, 1.553, 1.553, 4.173, 1.553 ]
3
[ 0.062, 0.062, 0.478, 0.970, 0.062, 0.062, 0.970, 0.478, 0.062, 0.062, 0.970, 0.970, 0.062, 0.478, 0.062, 0.478, 0.970, 0.970, 0.970, 0.970, 0.970, 0.478, 0.062, 0.062, 0.062, 0.478, 0.478, 0.970, 0.062, 0.970, 0.970, 0.970, 0.062, 0.478, 0.478, 0.062, 0.062, 0.478, 0.970, 0.062, 0.478, 0.478, 0.062, 0.970, 0.478, 0.062, 0.970, 0.478, 0.478, 0.062, 0.478, 0.970, 0.970, 0.062, 0.970, 0.970, 0.062, 0.970, 0.970, 0.478, 0.478, 0.478, 0.062, 0.478, 0.062, 0.062, 0.478, 0.970, 0.062, 0.970, 0.970, 0.062, 0.970, 0.478, 0.970, 0.478, 0.970, 0.062, 0.478, 0.970, 0.970, 0.478, 0.062, 0.062, 0.970, 0.970, 0.062, 0.970, 0.478, 0.478, 0.478, 0.062, 0.970, 0.478, 0.478, 0.478, 0.062, 0.062, 0.478, 0.062, 0.062, 0.062, 0.970, 0.970, 0.478, 0.970, 0.478, 0.062, 0.478, 0.062, 0.478, 0.062, 0.478, 0.970, 0.062, 0.970, 0.062, 0.478, 0.478, 0.478, 0.062, 0.062, 0.970, 0.478, 0.478, 0.478, 0.062, 0.970, 0.062, 0.970, 0.478, 0.478, 0.062, 0.478, 0.478, 0.478, 0.970, 0.478, 0.478, 0.062, 0.478, 0.478, 0.062, 0.970, 0.970, 0.478, 0.970, 0.970, 0.062, 0.970, 0.970, 0.062, 0.062, 0.970, 0.970, 0.062, 0.478, 0.478, 0.970, 0.062, 0.970, 0.478, 0.478, 0.062, 0.062, 0.970, 0.970, 0.478, 0.478, 0.478, 0.062, 0.062, 0.062, 0.062, 0.478, 0.970, 0.062, 0.062, 0.970, 0.062, 0.062, 0.062, 0.062, 0.478, 0.970, 0.970, 0.478, 0.478, 0.478, 0.062, 0.970, 0.062, 0.062, 0.970, 0.062, 0.970, 0.478, 0.970, 0.970, 0.478 ]