3
[ 4.660, 4.660, 4.660, 1.714, 2.257, 2.257, 4.660, 1.714, 2.257, 1.714, 2.257, 2.257, 2.257, 4.660, 2.257, 2.257, 2.257, 1.714, 4.660, 1.714, 4.660, 2.257, 4.660, 4.660, 4.660, 2.257, 2.257, 1.714, 1.714, 4.660, 4.660, 4.660, 2.257, 2.257, 1.714, 1.714, 4.660, 4.660, 2.257, 2.257, 2.257, 1.714, 1.714, 1.714, 4.660, 1.714, 4.660, 4.660, 2.257, 1.714, 4.660, 2.257, 4.660, 1.714, 1.714, 1.714, 1.714, 2.257, 1.714, 1.714, 1.714, 4.660, 2.257, 1.714, 2.257, 4.660, 4.660, 4.660, 4.660, 2.257, 2.257, 1.714, 4.660, 4.660, 2.257, 4.660, 4.660, 1.714, 2.257, 1.714, 2.257, 1.714, 4.660, 4.660, 2.257, 1.714, 4.660, 4.660, 1.714, 4.660, 2.257, 1.714, 4.660, 1.714, 1.714, 4.660, 2.257, 1.714, 2.257, 2.257, 1.714, 4.660, 2.257, 1.714, 4.660, 2.257, 1.714, 1.714, 4.660, 4.660, 2.257, 4.660, 4.660, 1.714, 1.714, 2.257, 1.714, 4.660, 2.257, 1.714, 1.714, 2.257, 2.257, 4.660, 1.714, 4.660, 1.714, 4.660, 4.660, 4.660, 1.714, 4.660, 1.714, 4.660, 1.714, 4.660, 1.714, 4.660, 4.660, 1.714, 1.714, 1.714, 1.714, 1.714, 2.257, 1.714, 4.660, 2.257, 4.660, 1.714, 1.714, 1.714, 2.257, 4.660, 4.660, 1.714, 2.257, 1.714, 2.257, 1.714, 1.714, 1.714, 1.714, 4.660, 1.714, 2.257, 1.714, 4.660, 2.257, 1.714, 4.660, 2.257, 4.660, 2.257, 1.714, 4.660, 4.660, 1.714, 1.714, 1.714, 1.714, 2.257, 4.660, 4.660, 2.257, 2.257, 4.660, 4.660, 2.257, 2.257, 2.257, 1.714, 1.714, 2.257, 2.257, 1.714, 1.714, 4.660, 4.660, 2.257 ]
3
[ 0.463, 0.079, 0.345, 0.345, 0.345, 0.463, 0.079, 0.463, 0.463, 0.079, 0.079, 0.079, 0.463, 0.079, 0.345, 0.345, 0.079, 0.079, 0.463, 0.079, 0.345, 0.345, 0.079, 0.079, 0.463, 0.345, 0.463, 0.079, 0.079, 0.345, 0.463, 0.079, 0.463, 0.463, 0.345, 0.463, 0.079, 0.463, 0.345, 0.463, 0.345, 0.079, 0.079, 0.345, 0.345, 0.079, 0.079, 0.079, 0.079, 0.079, 0.463, 0.079, 0.463, 0.463, 0.079, 0.345, 0.345, 0.345, 0.079, 0.079, 0.079, 0.345, 0.079, 0.345, 0.463, 0.079, 0.079, 0.079, 0.079, 0.079, 0.345, 0.463, 0.463, 0.345, 0.345, 0.079, 0.345, 0.079, 0.463, 0.463, 0.079, 0.079, 0.079, 0.463, 0.463, 0.463, 0.079, 0.463, 0.345, 0.079, 0.463, 0.345, 0.463, 0.079, 0.079, 0.079, 0.079, 0.079, 0.079, 0.079, 0.079, 0.345, 0.079, 0.079, 0.463, 0.345, 0.463, 0.345, 0.463, 0.345, 0.079, 0.463, 0.463, 0.079, 0.345, 0.079, 0.345, 0.079, 0.345, 0.345, 0.463, 0.079, 0.463, 0.463, 0.079, 0.079, 0.463, 0.463, 0.463, 0.463, 0.079, 0.079, 0.463, 0.345, 0.079, 0.463, 0.079, 0.345, 0.463, 0.345, 0.079, 0.463, 0.079, 0.079, 0.345, 0.463, 0.079, 0.345, 0.079, 0.079, 0.463, 0.463, 0.079, 0.345, 0.463, 0.079, 0.463, 0.079, 0.345, 0.345, 0.345, 0.079, 0.463, 0.463, 0.345, 0.345, 0.345, 0.345, 0.079, 0.345, 0.345, 0.079, 0.463, 0.079, 0.079, 0.079, 0.345, 0.079, 0.079, 0.345, 0.079, 0.345, 0.079, 0.079, 0.345, 0.345, 0.345, 0.463, 0.463, 0.345, 0.463, 0.079, 0.463, 0.463, 0.463, 0.463, 0.079, 0.463, 0.345, 0.463 ]