3
[ 3.437, 5.318, 2.845, 5.318, 5.318, 2.845, 2.845, 2.845, 2.845, 5.318, 5.318, 2.845, 5.318, 2.845, 3.437, 3.437, 5.318, 3.437, 5.318, 3.437, 3.437, 3.437, 2.845, 3.437, 2.845, 5.318, 5.318, 5.318, 5.318, 3.437, 5.318, 3.437, 3.437, 2.845, 3.437, 5.318, 3.437, 3.437, 5.318, 2.845, 5.318, 3.437, 2.845, 5.318, 3.437, 3.437, 2.845, 2.845, 5.318, 3.437, 2.845, 2.845, 3.437, 3.437, 3.437, 3.437, 3.437, 2.845, 3.437, 3.437, 3.437, 2.845, 5.318, 2.845, 3.437, 3.437, 5.318, 5.318, 2.845, 3.437, 2.845, 2.845, 2.845, 2.845, 5.318, 2.845, 3.437, 5.318, 2.845, 2.845, 2.845, 2.845, 5.318, 5.318, 3.437, 5.318, 5.318, 2.845, 5.318, 3.437, 5.318, 2.845, 2.845, 3.437, 2.845, 2.845, 5.318, 3.437, 2.845, 2.845 ]
3
[ 0.206, 0.627, 0.206, 0.789, 0.789, 0.627, 0.789, 0.627, 0.789, 0.206, 0.206, 0.206, 0.789, 0.627, 0.206, 0.789, 0.789, 0.627, 0.627, 0.206, 0.627, 0.789, 0.789, 0.627, 0.627, 0.206, 0.206, 0.789, 0.789, 0.206, 0.627, 0.789, 0.789, 0.789, 0.206, 0.627, 0.627, 0.206, 0.627, 0.206, 0.789, 0.789, 0.789, 0.789, 0.206, 0.627, 0.627, 0.789, 0.789, 0.206, 0.206, 0.206, 0.627, 0.206, 0.627, 0.789, 0.627, 0.789, 0.206, 0.627, 0.627, 0.789, 0.627, 0.789, 0.627, 0.206, 0.627, 0.627, 0.627, 0.789, 0.789, 0.206, 0.789, 0.789, 0.206, 0.789, 0.206, 0.627, 0.789, 0.627, 0.206, 0.789, 0.627, 0.627, 0.206, 0.789, 0.627, 0.627, 0.206, 0.789, 0.627, 0.789, 0.627, 0.206, 0.627, 0.627, 0.206, 0.206, 0.206, 0.627 ]