3
[ 1.389, 0.947, 0.947, 1.389, 5.558, 1.389, 1.389, 0.947, 0.947, 5.558, 1.389, 0.947, 1.389, 1.389, 5.558, 1.389, 5.558, 1.389, 5.558, 5.558, 5.558, 5.558, 0.947, 5.558, 1.389, 5.558, 0.947, 0.947, 0.947, 1.389, 1.389, 0.947, 0.947, 5.558, 0.947, 0.947, 1.389, 1.389, 1.389, 1.389, 1.389, 0.947, 1.389, 1.389, 0.947, 1.389, 1.389, 5.558, 0.947, 1.389, 1.389, 0.947, 5.558, 5.558, 5.558, 5.558, 5.558, 0.947, 1.389, 0.947, 0.947, 5.558, 5.558, 1.389, 1.389, 0.947, 0.947, 5.558, 1.389, 0.947, 5.558, 0.947, 1.389, 1.389, 1.389, 0.947, 5.558, 5.558, 1.389, 5.558, 0.947, 5.558, 1.389, 1.389, 0.947, 0.947, 5.558, 5.558, 1.389, 1.389, 5.558, 5.558, 5.558, 1.389, 1.389, 5.558, 1.389, 0.947, 5.558, 1.389, 5.558, 5.558, 0.947, 5.558, 1.389, 0.947, 0.947, 0.947, 1.389, 0.947, 5.558, 0.947, 0.947, 5.558, 5.558, 1.389, 5.558, 5.558, 0.947, 0.947, 1.389, 5.558, 5.558, 5.558, 0.947, 5.558, 1.389, 1.389, 5.558, 1.389, 0.947, 5.558, 5.558, 0.947, 5.558, 5.558, 0.947, 1.389, 5.558, 5.558, 1.389, 5.558, 1.389, 0.947, 1.389, 0.947, 0.947, 0.947, 5.558, 0.947, 5.558, 5.558, 1.389, 1.389, 5.558, 0.947, 0.947, 5.558, 0.947, 0.947, 0.947, 1.389, 1.389, 5.558, 5.558, 1.389, 5.558, 1.389, 5.558, 5.558, 0.947, 5.558, 5.558, 1.389, 0.947, 1.389, 5.558, 5.558, 0.947, 1.389, 1.389, 5.558, 1.389, 5.558, 0.947, 5.558, 1.389, 0.947, 0.947, 0.947, 5.558, 5.558, 1.389, 0.947, 1.389, 1.389, 1.389, 5.558, 1.389, 5.558 ]
3
[ 0.768, 0.768, 0.768, 0.768, 0.962, 0.962, 0.962, 0.975, 0.768, 0.975, 0.962, 0.768, 0.975, 0.975, 0.975, 0.768, 0.962, 0.975, 0.768, 0.768, 0.975, 0.975, 0.975, 0.975, 0.975, 0.768, 0.768, 0.962, 0.768, 0.962, 0.768, 0.768, 0.962, 0.768, 0.768, 0.768, 0.962, 0.768, 0.975, 0.962, 0.768, 0.962, 0.768, 0.962, 0.975, 0.975, 0.975, 0.975, 0.768, 0.768, 0.975, 0.962, 0.975, 0.975, 0.768, 0.975, 0.768, 0.975, 0.768, 0.768, 0.975, 0.962, 0.768, 0.768, 0.975, 0.975, 0.975, 0.768, 0.962, 0.768, 0.975, 0.768, 0.768, 0.962, 0.975, 0.768, 0.975, 0.962, 0.962, 0.768, 0.962, 0.962, 0.768, 0.768, 0.975, 0.962, 0.975, 0.768, 0.962, 0.768, 0.962, 0.975, 0.962, 0.962, 0.962, 0.768, 0.975, 0.975, 0.975, 0.962, 0.975, 0.962, 0.975, 0.975, 0.975, 0.962, 0.768, 0.975, 0.768, 0.962, 0.975, 0.962, 0.962, 0.768, 0.962, 0.768, 0.975, 0.975, 0.768, 0.962, 0.975, 0.975, 0.768, 0.962, 0.768, 0.768, 0.768, 0.975, 0.962, 0.962, 0.975, 0.975, 0.768, 0.962, 0.975, 0.975, 0.768, 0.975, 0.962, 0.768, 0.768, 0.768, 0.768, 0.962, 0.975, 0.962, 0.962, 0.768, 0.975, 0.962, 0.768, 0.962, 0.768, 0.768, 0.768, 0.768, 0.975, 0.975, 0.962, 0.962, 0.975, 0.768, 0.975, 0.962, 0.962, 0.975, 0.962, 0.962, 0.975, 0.975, 0.768, 0.768, 0.975, 0.962, 0.975, 0.768, 0.975, 0.975, 0.768, 0.962, 0.975, 0.962, 0.975, 0.962, 0.768, 0.768, 0.768, 0.962, 0.962, 0.975, 0.962, 0.962, 0.975, 0.962, 0.768, 0.768, 0.962, 0.975, 0.768, 0.975 ]