4
[ 5.795, 5.795, 5.795, 5.795, 5.795, 3.372, 5.795, 5.795, 5.795, 5.795, 5.795, 5.795, 5.795, 5.795, 5.795, 5.795, 5.795, 5.795, 5.795, 5.795, 5.795, 5.795, 5.795, 5.795, 5.795, 5.795, 5.795, 5.795, 0.648, 5.795, 5.795, 5.795, 5.795, 5.795, 5.795, 5.795, 5.795, 5.795, 5.795, 5.795, 5.795, 5.795, 5.795, 5.795, 5.795, 5.795, 5.795, 5.795, 5.795, 5.795, 5.795, 5.795, 5.795, 5.795, 5.795, 5.795, 5.795, 5.795, 5.795, 1.950, 5.795, 5.795, 5.795, 1.950, 5.795, 5.795, 5.795, 5.795, 5.795, 5.795, 5.795, 5.795, 5.795, 5.795, 5.795, 5.795, 5.795, 5.795, 5.795, 5.795, 5.795, 5.795, 5.795, 5.795, 5.795, 5.795, 5.795, 5.795, 5.795, 5.795, 5.795, 5.795, 5.795, 5.795, 5.795, 5.795, 5.795, 5.795, 5.795, 5.795 ]
3
[ 0.632, 0.438, 0.714, 0.438, 0.714, 0.714, 0.438, 0.438, 0.438, 0.714, 0.714, 0.438, 0.438, 0.632, 0.438, 0.438, 0.632, 0.438, 0.438, 0.438, 0.438, 0.632, 0.438, 0.438, 0.714, 0.438, 0.438, 0.438, 0.438, 0.438, 0.714, 0.438, 0.438, 0.438, 0.438, 0.714, 0.714, 0.438, 0.438, 0.438, 0.438, 0.438, 0.632, 0.438, 0.438, 0.714, 0.714, 0.438, 0.714, 0.438, 0.438, 0.438, 0.714, 0.438, 0.438, 0.714, 0.438, 0.438, 0.714, 0.438, 0.438, 0.438, 0.714, 0.438, 0.714, 0.438, 0.438, 0.438, 0.714, 0.714, 0.714, 0.714, 0.438, 0.714, 0.438, 0.714, 0.438, 0.714, 0.632, 0.438, 0.438, 0.714, 0.714, 0.438, 0.714, 0.438, 0.714, 0.438, 0.438, 0.438, 0.714, 0.632, 0.714, 0.632, 0.714, 0.438, 0.438, 0.438, 0.714, 0.438 ]