3
[ 3.216, 10.597, 3.216, 10.597, 3.216, 3.216, 3.216, 3.216, 3.216, 10.597, 10.597, 10.597, 10.597, 3.210, 10.597, 3.210, 10.597, 3.216, 3.216, 3.210, 3.210, 3.216, 3.216, 3.210, 3.216, 3.210, 10.597, 3.216, 3.216, 10.597, 3.210, 10.597, 3.216, 10.597, 3.210, 3.216, 3.216, 3.210, 3.210, 10.597, 10.597, 3.210, 10.597, 10.597, 3.216, 3.216, 3.210, 10.597, 3.210, 10.597 ]
3
[ 0.645, 0.845, 0.588, 0.645, 0.845, 0.645, 0.645, 0.845, 0.845, 0.588, 0.588, 0.588, 0.645, 0.588, 0.645, 0.588, 0.645, 0.845, 0.645, 0.845, 0.645, 0.845, 0.588, 0.845, 0.845, 0.588, 0.845, 0.588, 0.645, 0.645, 0.588, 0.845, 0.845, 0.645, 0.845, 0.845, 0.845, 0.588, 0.845, 0.588, 0.645, 0.588, 0.645, 0.845, 0.645, 0.645, 0.645, 0.588, 0.588, 0.645 ]