3
[ 2.609, 4.407, 2.609, 1.243, 1.243, 2.609, 4.407, 1.243, 4.407, 4.407, 1.243, 1.243, 2.609, 1.243, 2.609, 2.609, 2.609, 4.407, 2.609, 4.407, 2.609, 2.609, 2.609, 4.407, 1.243, 4.407, 2.609, 4.407, 2.609, 4.407, 2.609, 2.609, 4.407, 2.609, 4.407, 1.243, 4.407, 4.407, 2.609, 2.609, 1.243, 2.609, 2.609, 2.609, 1.243, 2.609, 2.609, 2.609, 1.243, 1.243 ]
3
[ 0.971, 0.971, 0.840, 0.495, 0.840, 0.971, 0.495, 0.495, 0.971, 0.495, 0.495, 0.495, 0.495, 0.840, 0.840, 0.971, 0.840, 0.971, 0.495, 0.971, 0.840, 0.840, 0.971, 0.840, 0.495, 0.971, 0.840, 0.971, 0.840, 0.971, 0.495, 0.495, 0.971, 0.495, 0.495, 0.495, 0.971, 0.840, 0.495, 0.840, 0.840, 0.495, 0.840, 0.840, 0.495, 0.495, 0.971, 0.840, 0.840, 0.971 ]