4
[ 0.873, 5.041, 5.041, 0.873, 4.748, 5.041, 0.873, 0.873, 0.873, 4.748, 5.041, 0.873, 0.873, 4.748, 0.873, 5.041, 5.041, 0.873, 5.041, 0.873, 5.041, 0.873, 5.041, 5.041, 0.873, 0.873, 0.873, 0.873, 5.041, 5.041, 0.873, 0.873, 0.873, 5.041, 0.873, 5.041, 0.873, 5.041, 5.041, 0.873, 0.873, 5.041, 5.041, 5.041, 5.041, 0.873, 5.041, 0.873, 5.041, 5.041, 5.041, 0.873, 0.873, 0.873, 5.041, 0.873, 0.873, 0.873, 5.041, 0.873, 5.041, 0.873, 0.873, 0.873, 5.041, 5.041, 0.873, 5.041, 0.873, 5.041, 0.873, 5.041, 5.041, 4.748, 0.873, 5.041, 5.041, 5.041, 5.041, 0.873, 5.041, 5.041, 5.041, 0.873, 33.007, 5.041, 5.041, 0.873, 5.041, 0.873, 4.748, 5.041, 0.873, 5.041, 0.873, 0.873, 5.041, 5.041, 0.873, 5.041 ]
4
[ 0.242, 0.242, 0.386, 0.669, 0.386, 0.242, 0.386, 0.386, 0.386, 0.242, 0.242, 0.386, 0.386, 0.386, 0.386, 0.386, 0.386, 0.242, 0.242, 0.386, 0.386, 0.386, 0.386, 0.567, 0.386, 0.386, 0.386, 0.242, 0.386, 0.567, 0.386, 0.242, 0.242, 0.386, 0.386, 0.567, 0.386, 0.386, 0.242, 0.386, 0.386, 0.386, 0.386, 0.242, 0.386, 0.242, 0.386, 0.386, 0.386, 0.386, 0.386, 0.386, 0.242, 0.567, 0.386, 0.242, 0.386, 0.386, 0.386, 0.242, 0.386, 0.242, 0.386, 0.242, 0.386, 0.242, 0.386, 0.242, 0.386, 0.386, 0.386, 0.386, 0.386, 0.242, 0.386, 0.242, 0.386, 0.242, 0.386, 0.386, 0.567, 0.386, 0.386, 0.242, 0.242, 0.386, 0.242, 0.242, 0.386, 0.386, 0.242, 0.386, 0.386, 0.386, 0.386, 0.242, 0.242, 0.386, 0.386, 0.242 ]