3
[ 1.446, 1.446, 1.446, 1.215, 1.397, 1.215, 1.446, 1.397, 1.446, 1.215, 1.215, 1.397, 1.446, 1.397, 1.397, 1.215, 1.397, 1.397, 1.446, 1.397, 1.397, 1.397, 1.397, 1.215, 1.446, 1.397, 1.446, 1.446, 1.397, 1.397, 1.446, 1.397, 1.215, 1.446, 1.397, 1.397, 1.446, 1.215, 1.215, 1.397, 1.215, 1.397, 1.446, 1.397, 1.215, 1.397, 1.446, 1.397, 1.397, 1.397, 1.397, 1.397, 1.446, 1.446, 1.397, 1.446, 1.446, 1.397, 1.397, 1.397, 1.446, 1.397, 1.215, 1.397, 1.397, 1.215, 1.215, 1.446, 1.215, 1.397, 1.215, 1.446, 1.397, 1.397, 1.215, 1.446, 1.215, 1.397, 1.446, 1.215, 1.215, 1.397, 1.215, 1.397, 1.215, 1.215, 1.215, 1.446, 1.446, 1.397, 1.397, 1.446, 1.215, 1.397, 1.215, 1.397, 1.446, 1.215, 1.446, 1.215, 1.446, 1.446, 1.446, 1.446, 1.215, 1.446, 1.215, 1.215, 1.397, 1.446, 1.215, 1.397, 1.215, 1.397, 1.397, 1.215, 1.397, 1.397, 1.446, 1.397, 1.397, 1.397, 1.215, 1.397, 1.397, 1.215, 1.397, 1.397, 1.215, 1.446, 1.397, 1.397, 1.215, 1.215, 1.397, 1.446, 1.446, 1.446, 1.446, 1.215, 1.397, 1.215, 1.215, 1.215, 1.446, 1.215, 1.397, 1.446, 1.446, 1.397, 1.215, 1.215, 1.446, 1.446, 1.397, 1.215, 1.446, 1.397, 1.397, 1.446, 1.215, 1.215, 1.446, 1.397, 1.446, 1.397, 1.397, 1.446, 1.215, 1.446, 1.397, 1.446, 1.397, 1.215, 1.446, 1.446, 1.215, 1.215, 1.446, 1.397, 1.446, 1.397, 1.397, 1.446, 1.397, 1.215, 1.397, 1.446, 1.215, 1.397, 1.215, 1.446, 1.446, 1.446, 1.215, 1.215, 1.397, 1.397, 1.215, 1.397 ]
3
[ 0.869, 0.282, 0.761, 0.869, 0.282, 0.761, 0.761, 0.761, 0.761, 0.282, 0.761, 0.282, 0.761, 0.869, 0.761, 0.869, 0.282, 0.869, 0.761, 0.761, 0.761, 0.761, 0.282, 0.761, 0.761, 0.282, 0.282, 0.761, 0.761, 0.761, 0.869, 0.761, 0.869, 0.869, 0.869, 0.761, 0.282, 0.282, 0.869, 0.282, 0.869, 0.869, 0.869, 0.869, 0.282, 0.869, 0.282, 0.761, 0.282, 0.761, 0.761, 0.761, 0.282, 0.761, 0.282, 0.761, 0.282, 0.869, 0.282, 0.282, 0.761, 0.282, 0.282, 0.761, 0.761, 0.282, 0.282, 0.869, 0.282, 0.869, 0.761, 0.761, 0.761, 0.282, 0.282, 0.869, 0.282, 0.761, 0.869, 0.761, 0.869, 0.869, 0.282, 0.869, 0.761, 0.282, 0.761, 0.282, 0.869, 0.869, 0.282, 0.282, 0.869, 0.282, 0.761, 0.282, 0.869, 0.869, 0.761, 0.282, 0.869, 0.282, 0.869, 0.869, 0.761, 0.869, 0.761, 0.869, 0.761, 0.761, 0.869, 0.282, 0.869, 0.869, 0.282, 0.761, 0.282, 0.282, 0.869, 0.869, 0.869, 0.869, 0.869, 0.761, 0.761, 0.761, 0.761, 0.869, 0.282, 0.869, 0.869, 0.282, 0.761, 0.761, 0.282, 0.869, 0.869, 0.761, 0.761, 0.761, 0.761, 0.761, 0.282, 0.761, 0.869, 0.869, 0.282, 0.869, 0.869, 0.761, 0.282, 0.761, 0.282, 0.869, 0.282, 0.869, 0.761, 0.761, 0.282, 0.282, 0.761, 0.282, 0.869, 0.282, 0.282, 0.282, 0.869, 0.282, 0.869, 0.761, 0.869, 0.282, 0.869, 0.282, 0.761, 0.761, 0.761, 0.869, 0.869, 0.761, 0.761, 0.282, 0.761, 0.869, 0.869, 0.761, 0.282, 0.761, 0.761, 0.761, 0.282, 0.282, 0.282, 0.282, 0.869, 0.869, 0.761, 0.282, 0.761, 0.761 ]