3
[ 1.643, 1.643, 1.446, 1.643, 1.446, 1.643, 1.643, 5.453, 1.446, 5.453, 1.643, 1.446, 1.643, 1.643, 5.453, 5.453, 5.453, 1.643, 1.643, 1.643, 1.643, 1.643, 1.643, 1.446, 1.446, 1.446, 1.446, 1.446, 1.446, 5.453, 1.643, 1.446, 1.446, 1.446, 5.453, 1.446, 1.643, 1.643, 1.446, 1.643, 5.453, 1.643, 5.453, 1.643, 5.453, 5.453, 1.643, 5.453, 1.446, 1.446 ]
3
[ 0.737, 0.242, 0.242, 0.856, 0.737, 0.856, 0.856, 0.856, 0.856, 0.737, 0.242, 0.737, 0.242, 0.737, 0.737, 0.242, 0.242, 0.856, 0.242, 0.856, 0.856, 0.737, 0.242, 0.242, 0.242, 0.856, 0.242, 0.856, 0.856, 0.737, 0.856, 0.737, 0.856, 0.242, 0.737, 0.242, 0.242, 0.737, 0.856, 0.737, 0.856, 0.737, 0.242, 0.737, 0.242, 0.737, 0.242, 0.737, 0.242, 0.242 ]