7
[ 1.650, 3.008, 3.008, 3.008, 1.650, 3.008, 3.008, 3.008, 3.008, 10.833, 1.650, 3.008, 3.008, 3.008, 3.008, 1.650, 3.008, 1.650, 3.008, 3.008, 1.650, 3.008, 3.008, 3.008, 3.008, 3.008, 3.008, 10.833, 3.008, 1.650, 1.650, 1.650, 0.657, 1.650, 1.650, 3.091, 3.008, 3.008, 1.650, 1.650, 3.008, 3.008, 1.650, 3.008, 3.091, 2.838, 3.008, 1.650, 3.008, 3.008, 3.008, 3.008, 3.008, 3.008, 3.008, 3.008, 3.008, 3.008, 0.657, 3.008, 3.008, 3.008, 1.650, 3.008, 3.008, 3.008, 1.650, 3.008, 3.008, 3.008, 3.008, 2.920, 3.008, 3.008, 3.008, 3.008, 3.008, 3.008, 3.008, 1.650, 3.008, 3.008, 1.650, 0.657, 0.657, 3.008, 3.008, 3.008, 3.008, 3.008, 1.650, 3.008, 3.008, 3.008, 3.008, 3.008, 3.008, 3.008, 3.008, 3.008, 3.008, 3.008, 1.650, 3.008, 3.008, 1.650, 3.008, 1.650, 3.008, 1.650, 3.008, 1.650, 3.008, 1.650, 3.008, 3.008, 3.008, 1.650, 3.008, 0.657, 3.008, 3.008, 1.650, 3.008, 3.008, 1.650, 1.650, 1.650, 3.008, 1.650, 1.650, 3.008, 1.650, 3.008, 3.008, 3.008, 3.008, 3.008, 3.008, 3.008, 3.008, 3.008, 1.650, 1.650, 3.008, 3.008, 0.657, 1.650, 3.008, 3.008, 1.650, 3.008, 3.008, 3.008, 3.008, 3.008, 3.008, 3.008, 3.008, 1.650, 3.008, 3.008, 1.650, 3.008, 3.008, 3.008, 3.008, 3.008, 3.008, 1.650, 1.650, 3.008, 3.008, 3.008, 3.008, 3.008, 3.008, 1.650, 3.008, 3.008, 1.650, 1.650, 3.008, 1.650, 3.008, 3.008, 1.650, 3.008, 1.650, 3.008, 3.008, 1.650, 3.008, 1.650, 3.008, 1.650, 1.650, 3.008, 1.650, 3.008 ]
5
[ 0.759, 0.421, 0.421, 0.421, 0.759, 0.759, 0.759, 0.333, 0.421, 0.333, 0.421, 0.759, 0.421, 0.421, 0.210, 0.759, 0.421, 0.759, 0.421, 0.759, 0.421, 0.759, 0.421, 0.421, 0.210, 0.421, 0.421, 0.421, 0.421, 0.421, 0.421, 0.759, 0.759, 0.759, 0.759, 0.759, 0.759, 0.210, 0.759, 0.210, 0.759, 0.421, 0.759, 0.759, 0.421, 0.210, 0.759, 0.759, 0.421, 0.421, 0.421, 0.421, 0.759, 0.759, 0.759, 0.421, 0.421, 0.759, 0.421, 0.421, 0.759, 0.759, 0.421, 0.421, 0.421, 0.210, 0.333, 0.421, 0.759, 0.421, 0.759, 0.759, 0.421, 0.759, 0.421, 0.421, 0.759, 0.759, 0.759, 0.421, 0.210, 0.759, 0.540, 0.421, 0.421, 0.421, 0.759, 0.210, 0.421, 0.421, 0.759, 0.759, 0.421, 0.210, 0.333, 0.421, 0.333, 0.759, 0.759, 0.759, 0.421, 0.759, 0.421, 0.333, 0.759, 0.759, 0.759, 0.210, 0.210, 0.421, 0.421, 0.210, 0.421, 0.759, 0.759, 0.759, 0.210, 0.421, 0.421, 0.421, 0.421, 0.759, 0.759, 0.759, 0.759, 0.759, 0.759, 0.759, 0.759, 0.421, 0.210, 0.759, 0.421, 0.333, 0.759, 0.333, 0.421, 0.759, 0.421, 0.421, 0.759, 0.759, 0.759, 0.759, 0.759, 0.759, 0.759, 0.421, 0.421, 0.210, 0.421, 0.759, 0.421, 0.421, 0.759, 0.421, 0.421, 0.421, 0.421, 0.759, 0.421, 0.759, 0.759, 0.421, 0.210, 0.333, 0.333, 0.759, 0.759, 0.421, 0.421, 0.421, 0.333, 0.421, 0.540, 0.759, 0.421, 0.421, 0.333, 0.759, 0.421, 0.210, 0.759, 0.421, 0.421, 0.421, 0.421, 0.333, 0.421, 0.759, 0.421, 0.333, 0.759, 0.210, 0.210, 0.421, 0.759, 0.759, 0.759, 0.421 ]