rate_constant_pi_constant_tree_unrooted_run_1	rate_constant_pi_constant_tree_unrooted_run_2	rate_constant_pi_constant_tree_unrooted_run_3	rate_constant_pi_constant_tree_unrooted_run_4	rate_DPP_pi_DPP_tree_unrooted_run_1	rate_DPP_pi_DPP_tree_unrooted_run_2	rate_DPP_pi_DPP_tree_unrooted_run_3	rate_DPP_pi_DPP_tree_unrooted_run_4	rate_discrete_gamma_pi_discrete_beta_tree_unrooted_run_1	rate_discrete_gamma_pi_discrete_beta_tree_unrooted_run_2	rate_discrete_gamma_pi_discrete_beta_tree_unrooted_run_3	rate_discrete_gamma_pi_discrete_beta_tree_unrooted_run_4
1	1	1	1	1	1	1	1	1	1	1	1
0.138953682105965	0.127957347550816	0.138953682105965	0.124958347217594	0.15461512829057	0.180273242252582	0.183272242585805	0.174941686104632	0.150616461179607	0.146284571809397	0.129956681106298	0.128957014328557
0.992335888037321	0.990003332222593	0.988670443185605	0.989003665444852	0.975341552815728	0.973675441519493	0.978007330889703	0.97834055314895	0.989336887704099	0.992669110296568	0.990336554481839	0.992002665778074
1	1	1	1	1	1	1	1	1	1	1	1
0.968343885371543	0.968343885371543	0.970343218927024	0.968010663112296	0.931689436854382	0.93302232589137	0.938687104298567	0.93402199266911	0.970009996667777	0.972009330223259	0.967010996334555	0.969010329890037
0.823392202599134	0.833055648117294	0.826057980673109	0.842385871376208	0.775408197267577	0.760079973342219	0.753082305898034	0.768410529823392	0.813062312562479	0.810396534488504	0.8323892035988	0.831722759080307
0.0349883372209264	0.0353215594801733	0.0316561146284572	0.0306564478507164	0.060646451182939	0.0476507830723092	0.0553148950349883	0.0493168943685438	0.0316561146284572	0.040653115628124	0.0356547817394202	0.0373208930356548
0.0183272242585805	0.0169943352215928	0.0166611129623459	0.0186604465178274	0.0366544485171609	0.0339886704431856	0.0326557814061979	0.0329890036654449	0.0156614461846051	0.016327890703099	0.0189936687770743	0.0179940019993336
0.00499833388870377	0.00666444518493835	0.00799733422192602	0.00633122292569144	0.0149950016661113	0.0169943352215928	0.0153282239253582	0.0126624458513829	0.00766411196267911	0.00533155614795068	0.00499833388870377	0.00533155614795068
0.0133288903698767	0.0146617794068644	0.0129956681106298	0.0133288903698767	0.0316561146284572	0.0329890036654449	0.0286571142952349	0.0329890036654449	0.0143285571476175	0.0116627790736421	0.0139953348883705	0.0129956681106298
0.00166611129623459	0.00299900033322226	0.00299900033322226	0.00466511162945685	0.00699766744418527	0.0056647784071976	0.00433188937020993	0.00599800066644452	0.00199933355548151	0.00199933355548151	0.00399866711096301	0.00266577807397534
0.00233255581472842	0.00199933355548151	0.00233255581472842	0.000666444518493835	0.00599800066644452	0.00866377874041986	0.00499833388870377	0.00533155614795068	0.00233255581472842	0.000999666777740753	0.00133288903698767	0.00166611129623459
0.000999666777740753	0.000999666777740753	0.00133288903698767	0.000666444518493835	0.00266577807397534	0.00333222259246918	0.00233255581472842	0.00166611129623459	0.00233255581472842	0.00166611129623459	0.000333222259246918	0.000333222259246918
0.000333222259246918	0.000999666777740753	0	0.000333222259246918	0.00166611129623459	0.00233255581472842	0.00199933355548151	0.00233255581472842	0.000999666777740753	0	0.000666444518493835	0
0	0	0	0.000333222259246918	0.00166611129623459	0.00133288903698767	0.00133288903698767	0.000999666777740753	0	0	0.000333222259246918	0
