5
[ 1.035, 1.035, 1.035, 1.035, 1.035, 1.035, 1.548, 1.035, 1.035, 2.340, 1.183, 1.035, 1.035, 1.035, 1.035, 2.340, 1.035, 1.035, 1.035, 2.340, 1.183, 2.340, 1.035, 1.183, 1.183, 2.340, 2.340, 2.340, 1.035, 1.548, 1.035, 1.035, 1.035, 1.035, 2.340, 1.035, 2.340, 1.035, 1.035, 1.035, 1.035, 4.517, 1.548, 1.035, 1.183, 1.035, 2.340, 2.340, 1.548, 1.035 ]
4
[ 0.973, 0.523, 0.199, 0.199, 0.523, 0.523, 0.523, 0.199, 0.199, 0.199, 0.523, 0.523, 0.523, 0.523, 0.523, 0.523, 0.523, 0.523, 0.523, 0.199, 0.523, 0.523, 0.203, 0.199, 0.199, 0.199, 0.199, 0.523, 0.523, 0.199, 0.523, 0.199, 0.199, 0.199, 0.199, 0.523, 0.199, 0.523, 0.523, 0.199, 0.199, 0.523, 0.199, 0.199, 0.523, 0.199, 0.523, 0.199, 0.523, 0.199 ]