3
[ 1.212, 3.029, 1.212, 3.029, 3.029, 1.212, 1.212, 3.029, 1.212, 3.290, 3.029, 3.290, 3.029, 3.290, 1.212, 3.029, 3.029, 1.212, 3.290, 1.212, 3.290, 3.290, 3.290, 1.212, 3.029, 3.290, 3.029, 1.212, 3.029, 3.029, 3.290, 3.290, 3.290, 3.290, 3.029, 3.290, 3.290, 3.290, 1.212, 1.212, 3.029, 1.212, 3.029, 1.212, 3.029, 1.212, 1.212, 3.290, 3.029, 3.029 ]
3
[ 0.222, 0.222, 0.683, 0.222, 0.222, 0.683, 0.821, 0.821, 0.683, 0.683, 0.683, 0.821, 0.683, 0.683, 0.683, 0.683, 0.683, 0.683, 0.683, 0.821, 0.821, 0.222, 0.821, 0.683, 0.683, 0.222, 0.222, 0.222, 0.683, 0.821, 0.222, 0.821, 0.683, 0.222, 0.222, 0.821, 0.683, 0.821, 0.821, 0.683, 0.222, 0.821, 0.821, 0.222, 0.821, 0.222, 0.683, 0.222, 0.222, 0.683 ]