pars_sum	pars_var	pars_disp	obs_disp	sim_disp
-1	0.0571596362294034	0.0320063947296089	0.2713529856387	0.239346590909091
-5	0.0115782216335105	0.00619259967086042	0.243650793650794	0.237458193979933
7	0.101882613510521	0.045306039841559	0.276346604215457	0.231040564373898
4	0.121620363683054	0.0642857142857145	0.243650793650794	0.179365079365079
-12	-0.0855540632878584	-0.0400371496116177	0.243650793650794	0.283687943262411
-4	0.107105208970407	0.0703265373258244	0.276346604215457	0.206020066889632
4	0.105634417262324	0.0553391053391053	0.243650793650794	0.188311688311688
-4	0.0636269481008415	0.0388884102355234	0.276346604215457	0.237458193979933
5	0.0960434913923287	0.043788464680573	0.276346604215457	0.232558139534884
7	0.0636958003237075	0.0351360379662268	0.243650793650794	0.208514755684567
7	0.21232256115977	0.129921108952752	0.276346604215457	0.146425495262705
-5	0.0151453219456575	0.00748361976931611	0.274193548387097	0.266709928617781
-15	0.0204468764249883	0.0258818600754083	0.274193548387097	0.248311688311688
10	0.243128964059197	0.145392117260084	0.274193548387097	0.128801431127012
-9	0.0587533618098407	0.0398649314798386	0.243650793650794	0.203785862170955
5	0.169863082653781	0.0937021956003531	0.299851190476191	0.206148994875838
-6	0.104568695365331	0.068936977673705	0.274193548387097	0.205256570713392
9	0.184561562468539	0.0945960744002359	0.259018759018759	0.164422684618523
-9	0.142244527697274	0.101140219681253	0.2713529856387	0.170212765957447
-7	0.107083531086853	0.0694834034595605	0.274193548387097	0.204710144927536
-6	-0.0751334589296856	-0.0513626754730574	0.276346604215457	0.327709279688514
10	0.282653780328199	0.163487554112554	0.299851190476191	0.136363636363636
5	0.165005537098561	0.0961373054969116	0.303854875283447	0.207717569786535
5	0.262018986972196	0.155429088177	0.303854875283447	0.148425787106447
-11	0.0204208194905871	0.0165267308124452	0.2713529856387	0.254826254826255
-9	0.0212014914822936	0.0203408436385341	0.299851190476191	0.279510346837657
11	0.277167019027484	0.169915473520787	0.274193548387097	0.10427807486631
4	0.0287929125138433	0.00470521541950156	0.243650793650794	0.238945578231292
-11	0.0272235405790228	0.0214500214500218	0.303854875283447	0.282404853833425
-6	0.108746554039726	0.0698123220919575	0.303854875283447	0.234042553191489
12	0.214542311536072	0.133894696089818	0.243650793650794	0.109756097560976
-2	0.130058492966707	0.0767518727058315	0.276346604215457	0.199594731509625
-10	0.0626472632595843	0.052324709151124	0.303854875283447	0.251530166132323
1	0.144107984178548	0.0821437056647321	0.276346604215457	0.194202898550725
6	0.200166112956811	0.122858232122433	0.276346604215457	0.153488372093023
3	0.156146179401993	0.0998594079512613	0.274193548387097	0.174334140435835
-5	0.0738213890207247	0.0430097680097681	0.243650793650794	0.200641025641026
4	0.0826537803281994	0.027123917748918	0.299851190476191	0.272727272727273
-1	0.0207520824305452	0.000519652305366325	0.2713529856387	0.270833333333334
2	0.169065585165288	0.094954609985381	0.276346604215457	0.181391994230076
-4	0.0201486872312764	0.00745028314522239	0.276346604215457	0.268896321070234
-3	0.069177364382063	0.0392542129111089	0.276346604215457	0.237092391304348
-4	0.0653377630121816	0.0325630252100841	0.267857142857143	0.235294117647059
2	0.12848155102958	0.0684385958390645	0.2713529856387	0.202914389799635
-8	0.00959490566443622	0.0151873372069724	0.274193548387097	0.259006211180124
4	0.180536259606027	0.102005876824279	0.303854875283447	0.201848998459168
-7	-0.040823663472804	-0.0164638533008832	0.276346604215457	0.29281045751634
-4	0.105897009966777	0.0548520923520921	0.259018759018759	0.204166666666667
-11	-0.0335053368205273	-0.00734133904695472	0.276346604215457	0.283687943262411
-5	0.169985761746559	0.108133864574146	0.276346604215457	0.168212739641311
-1	0.0492550085573341	0.0302787381926569	0.259018759018759	0.228740020826102
-6	-0.0842545051847379	-0.0428762633731578	0.2713529856387	0.314229249011858
-17	0.0358139534883724	0.0438712522045857	0.267857142857143	0.223985890652557
-8	0.0142975794969151	0.00896942110177409	0.243650793650794	0.23468137254902
-10	0.00949111708018213	0.0177310812906741	0.276346604215457	0.258615522924783
-11	-0.0599193165638348	-0.0306045841760128	0.303854875283447	0.33445945945946
2	0.0690878888553308	0.0355109715784839	0.276346604215457	0.240835632636973
-11	0.00409349786426233	0.0118432819137047	0.243650793650794	0.231807511737089
-10	-0.0681854137003639	-0.0478943958535795	0.243650793650794	0.291545189504373
-9	0.0602357221958549	0.0406881930854533	0.267857142857143	0.22716894977169
4	0.132512836001208	0.0760202068266358	0.276346604215457	0.200326397388821
-15	0.00227477037326579	0.00836438923395455	0.271221532091097	0.262857142857143
1	0.191636624961712	0.107561120993811	0.303854875283447	0.196293754289636
-1	0.175933943592281	0.107020296107461	0.274193548387097	0.167173252279635
3	0.150480684353283	0.0847757229894032	0.276346604215457	0.191570881226053
-4	-0.042316856270345	-0.0243526964838444	0.276346604215457	0.300699300699301
-18	-0.0747160259452618	-0.0221786150357579	0.243650793650794	0.265829408686552
-6	-0.10188261351052	-0.050922849760059	0.243650793650794	0.294573643410853
-2	-0.0352461491996376	-0.0288482009793486	0.276346604215457	0.305194805194805
15	0.285314534208465	0.16515731292517	0.299851190476191	0.13469387755102
-5	0.0675584929667067	0.0403698150471781	0.276346604215457	0.235976789168279
-8	0.00313768918420082	0.0170873449561974	0.276346604215457	0.259259259259259
-17	-0.145116279069768	-0.0679757401068877	0.276346604215457	0.344322344322344
-4	-0.0877714017248903	-0.0558212279523757	0.276346604215457	0.332167832167832
-6	0.0786141433317514	0.0413003911241917	0.274193548387097	0.232893157262905
-15	0.0604468764249883	0.0523753665689148	0.274193548387097	0.221818181818182
-9	0.0553665677057563	0.0443463802720234	0.274193548387097	0.229847168115073
-2	0.109417882420916	0.0699973978662504	0.276346604215457	0.206349206349206
-11	0.0569134630596422	0.0470245986154072	0.274193548387097	0.22716894977169
-2	0.169030241982988	0.0999268883767364	0.303854875283447	0.20392798690671
-6	0.0155097664993757	0.00767400448251518	0.243650793650794	0.235976789168279
12	0.269102990033223	0.168474884098839	0.276346604215457	0.107871720116618
-6	-0.0742217072703486	-0.0500080729624342	0.2713529856387	0.321361058601134
1	0.175601457300143	0.110420678289531	0.276346604215457	0.165925925925926
9	0.222591362126246	0.136236714105567	0.276346604215457	0.14010989010989
-3	0.141509254864737	0.0737992166563597	0.303854875283447	0.230055658627087
-1	0.144971307762006	0.0974595264462375	0.303854875283447	0.206395348837209
-10	-0.0412278221531062	-0.0177473826409994	0.243650793650794	0.261398176291793
8	0.179591378175807	0.101770451770452	0.243650793650794	0.141880341880342
-2	0.0649734379764713	0.0375458987480844	0.276346604215457	0.238800705467372
10	0.0561331773082079	0.0201116748144696	0.2713529856387	0.25124131082423
-13	-0.074285478664499	-0.0261260812359522	0.276346604215457	0.302472685451409
-2	0.0649734379764715	0.0375458987480846	0.276346604215457	0.238800705467372
-8	0.103682170542635	0.0700268817204298	0.274193548387097	0.204166666666667
-6	0.0558483746746125	0.0395388169292965	0.274193548387097	0.2346547314578
-8	-0.0273690871697514	-0.0210550887021474	0.243650793650794	0.264705882352941
-12	-0.0430008717984967	-0.0116683552853765	0.243650793650794	0.25531914893617
1	0.115430833392239	0.0550700084707758	0.276346604215457	0.221276595744681
-11	0.0152467963929754	0.0190565620857267	0.274193548387097	0.25513698630137
-11	-0.0792398354690712	-0.0456684551754973	0.243650793650794	0.289319248826291
8	0.191583610188261	0.110314024599739	0.2713529856387	0.161038961038961
0	0.163464779238288	0.102150537634409	0.274193548387097	0.172043010752688
1	0.170711156049882	0.104794641283272	0.274193548387097	0.169398907103825
3	-0.0567539097317882	-0.0408947750948881	0.276346604215457	0.317241379310345
-2	0.160261355149809	0.0978348083938146	0.303854875283447	0.206020066889632
-6	0.0123701138050474	0.00948766603415591	0.274193548387097	0.264705882352941
-17	0.00205980066445233	0.0219563687543986	0.322448979591837	0.300492610837438
-1	0.0981576562971911	0.067794466180948	0.276346604215457	0.208552138034509
-6	0.0676317038443284	0.0370534687304873	0.2713529856387	0.234299516908213
-6	-0.123481907876202	-0.0863887320409056	0.243650793650794	0.330039525691699
4	0.237936347440898	0.142272954379492	0.303854875283447	0.161581920903955
-5	-0.0411815686840964	-0.026092796092796	0.243650793650794	0.26974358974359
-1	0.0651307236747077	0.0301076007326009	0.299851190476191	0.26974358974359
2	0.178923716436355	0.108267622461171	0.274193548387097	0.165925925925926
-6	0.0603538620878294	0.0417250706205609	0.303854875283447	0.262129804662886
7	0.228390214436726	0.13998296785182	0.276346604215457	0.136363636363636
-16	-0.00798141255943013	0.0311612183982452	0.274193548387097	0.243032329988852
7	0.06553911205074	0.0118708781673031	0.253731343283582	0.241860465116279
-6	0.062015503875969	0.038899430740038	0.274193548387097	0.235294117647059
-7	0.0654168644201866	0.0398940314788842	0.274193548387097	0.234299516908213
-12	0.0566963549397988	0.0545270734014729	0.274193548387097	0.219666474985624
-1	0.0516460283902141	0.034786214117932	0.276346604215457	0.241560390097525
-3	-0.0198741372934086	-0.0248102139406485	0.243650793650794	0.268461007591442
-12	0.098580129726309	0.0776845393780877	0.274193548387097	0.196509009009009
-4	0.125870115488056	0.075705578574431	0.276346604215457	0.200641025641026
3	0.139977851605759	0.0857560568086884	0.243650793650794	0.157894736842105
-3	0.0596594283146352	0.0374577153265674	0.276346604215457	0.238888888888889
-9	0.0108209043142248	0.0149484279236636	0.276346604215457	0.261398176291793
-11	-0.0242050308495493	-0.00792629364057945	0.2713529856387	0.279279279279279
4	0.179024463908185	0.111923919596934	0.276346604215457	0.164422684618523
-10	-0.0288933076403764	-0.00321520971567762	0.2713529856387	0.274568195354378
-3	-0.0908084163898117	-0.0542284097101372	0.2713529856387	0.325581395348837
-9	0.0713051732320838	0.0442176870748301	0.303854875283447	0.259637188208617
1	0.0246417665022313	0.000721119176962493	0.274193548387097	0.273472429210134
-12	-0.156348679006486	-0.101020408163265	0.243650793650794	0.344671201814059
-3	0.0645386997601787	0.0341988354410716	0.2713529856387	0.237154150197628
4	0.206036239908838	0.126249138328517	0.276346604215457	0.15009746588694
-4	-0.14192528968479	-0.0668341275757157	0.2713529856387	0.338187113214416
-6	0.0168756012182648	0.0121094436514371	0.303854875283447	0.29174543163201
6	0.231157012855699	0.141801149670002	0.276346604215457	0.134545454545454
0	0.0745758903493992	0.0362007168458783	0.274193548387097	0.237992831541218
4	0.117147351019949	0.0545142455409925	0.276346604215457	0.221832358674464
-10	0.00132536933625493	0.0114319486659911	0.243650793650794	0.232218844984803
8	0.137509115954947	0.0736515429670428	0.274193548387097	0.200542005420054
-4	-0.0338372895501307	-0.0248327523380827	0.2713529856387	0.296185737976783
-4	0.00761070184730428	0.00476190476190461	0.243650793650794	0.238888888888889
-12	-0.0756152658985413	-0.0311439233275336	0.276346604215457	0.30749052754299
-17	-0.132632401797929	-0.0666470143613	0.2713529856387	0.338
-5	-0.07537830010562	-0.0566836545097416	0.243650793650794	0.300334448160535
-2	0.162609371782618	0.105194085236851	0.276346604215457	0.171152518978606
2	0.0844222960502032	0.0453749315818283	0.243650793650794	0.198275862068965
4	0.161591795464394	0.0903816919347549	0.276346604215457	0.185964912280702
-1	0.115698075657631	0.0713286830685035	0.276346604215457	0.205017921146953
-4	0.195413991597543	0.128643973271766	0.303854875283447	0.175210902011681
-1	0.187015503875969	0.11215651135006	0.274193548387097	0.162037037037037
-3	0.110560645315287	0.0724982746721879	0.243650793650794	0.171152518978606
-5	0.0963744041600464	0.0702859981548507	0.276346604215457	0.206060606060606
4	-0.039984920242219	-0.073165360321131	0.28504359490275	0.358208955223881
6	0.160273834692439	0.0972252983880891	0.243650793650794	0.146425495262705
0	0.134857290376512	0.0781997759902248	0.276346604215457	0.198146828225232
-2	0.0192049047458556	0.00565796210957528	0.243650793650794	0.237992831541218
-13	-0.0851108008765106	-0.0358595531868628	0.243650793650794	0.279510346837657
4	0.124031007751938	0.0778344671201815	0.243650793650794	0.165816326530612
-13	-0.0856260131285408	-0.0245379430310937	0.243650793650794	0.268188736681887
3	0.165433403805497	0.102731191272394	0.274193548387097	0.171462357114702
-10	-0.0688577756684068	-0.0417285131554354	0.276346604215457	0.318075117370892
4	0.132512836001208	0.0760202068266359	0.276346604215457	0.200326397388821
6	0.160273834692439	0.0972252983880892	0.243650793650794	0.146425495262705
-13	0.049781773174386	0.0409110676233964	0.243650793650794	0.202739726027397
-7	-0.0639337130200919	-0.0517472162994553	0.243650793650794	0.295398009950249
9	0.244437732809826	0.130726637703382	0.326739926739927	0.196013289036545
-10	0.0150282156405364	0.0198228195063771	0.2713529856387	0.251530166132323
4	0.0104934770277938	-0.00478304918634032	0.276346604215457	0.281129653401797
7	0.126975737440854	0.0668188498157785	0.243650793650794	0.176831943835015
-7	-0.0316685157809871	-0.0168457721252753	0.2713529856387	0.288198757763975
-2	0.0724996235182757	0.0371011570827491	0.274193548387097	0.237092391304348
-2	0.0864317523149784	0.0473570393611574	0.243650793650794	0.196293754289636
-9	0.0713051732320839	0.0442176870748301	0.303854875283447	0.259637188208617
0	0.203251067869008	0.124707259953161	0.276346604215457	0.151639344262295
-22	-0.143159403296202	-0.0568370112272551	0.243650793650794	0.300487804878049
0	0.0564028994261553	0.0342573933881597	0.276346604215457	0.242089210827297
3	0.165433403805497	0.102731191272394	0.274193548387097	0.171462357114702
3	0.160777207288835	0.0977095747859868	0.2713529856387	0.173643410852713
1	0.0931718121167923	0.0679583587603431	0.243650793650794	0.175692434890451
2	0.10077519379845	0.0621414321648515	0.2713529856387	0.209211553473849
-3	0.0766431634504368	0.0388416662267038	0.274193548387097	0.235351882160393
2	0.165384744454512	0.0974465295308387	0.303854875283447	0.206408345752608
4	0.105634417262324	0.0553391053391053	0.243650793650794	0.188311688311688
6	0.193117948224116	0.118547912992357	0.243650793650794	0.125102880658436
-4	0.113433943592281	0.0691645348474449	0.274193548387097	0.205029013539652
-9	0.11359520552407	0.0734894613583138	0.276346604215457	0.202857142857143
-3	0.112655625251628	0.0711835607371959	0.276346604215457	0.205163043478261
2	0.103078305808336	0.0468937364459752	0.253731343283582	0.206837606837607
-12	0.0686794865096614	0.0679128462979397	0.303854875283447	0.235942028985507
-2	0.152912192851526	0.0970172684458401	0.303854875283447	0.206837606837607
-4	0.0704036191418678	0.0345195258954648	0.299851190476191	0.265331664580726
-6	0.0534833383670593	0.0519394365992661	0.2713529856387	0.219413549039434
4	0.0675526024363234	0.0311722019174745	0.274193548387097	0.243021346469622
-1	0.0206862792302637	-0.00134539072039025	0.299851190476191	0.301196581196581
5	0.12624584717608	0.0609628466771325	0.293197278911565	0.232234432234432
6	0.263126406684267	0.151425403369744	0.299851190476191	0.148425787106447
0	0.0340555635803362	0.00640124902419992	0.276346604215457	0.269945355191257
6	0.153654485049834	0.085648929796852	0.276346604215457	0.190697674418605
-7	0.147563676633444	0.0963529856386998	0.2713529856387	0.175
4	0.105909594281687	0.0464991789072805	0.321067821067821	0.27456864216054
-7	0.0953488372093023	0.0741935483870968	0.274193548387097	0.2
-10	0.0160971365290301	0.0160916965352448	0.274193548387097	0.258101851851852
-5	0.032154722354058	0.0115995115995116	0.243650793650794	0.232051282051282
-3	0.0596594283146352	0.0374577153265675	0.276346604215457	0.238888888888889
-23	-0.124134984942098	-0.0430877727435057	0.293197278911565	0.33628505165507
2	0.112812510486929	0.0603791369920402	0.267857142857143	0.207478005865103
4	0.132512836001208	0.0760202068266358	0.276346604215457	0.200326397388821
6	0.0536612376090539	0.0239845645860684	0.2713529856387	0.247368421052632
-1	0.0512684989429175	0.033883470867717	0.274193548387097	0.24031007751938
4	0.181790987590957	0.110886818495514	0.243650793650794	0.13276397515528
-2	0.0503624282694054	0.036591905694896	0.303854875283447	0.267262969588551
1	0.168854221837033	0.0988369541364935	0.303854875283447	0.205017921146953
-8	0.146385314446756	0.106059406820495	0.303854875283447	0.197795468462952
0	0.122944452469225	0.0734322144158212	0.276346604215457	0.202914389799635
-2	0.0951374207188158	0.0677981995498873	0.274193548387097	0.206395348837209
6	0.107149609702077	0.0542666656654252	0.299851190476191	0.245584524810765
-5	0.10247986206939	0.0701542458491853	0.276346604215457	0.206192358366271
-11	0.0673007822624351	0.0572979989868289	0.299851190476191	0.242553191489362
1	0.119237003867945	0.0610504850088186	0.299851190476191	0.238800705467372
-3	0.110560645315287	0.0724982746721879	0.243650793650794	0.171152518978606
-11	-0.0375731688024045	-0.0169125866308964	0.243650793650794	0.26056338028169
-12	-0.0392738490745134	-0.0144510582010581	0.243650793650794	0.258101851851852
-2	0.0573928175921535	0.00900780806300908	0.241545893719807	0.232538085656798
-5	0.0365448504983391	0.0429181929181931	0.243650793650794	0.200732600732601
4	0.237936347440898	0.142272954379492	0.303854875283447	0.161581920903955
10	0.302048726467331	0.173251554646903	0.326739926739927	0.153488372093023
-14	-0.0817908558772346	-0.0356284856284856	0.243650793650794	0.279279279279279
6	0.206459948320413	0.122407834101382	0.274193548387097	0.151785714285714
0	0.0667740528205643	0.0364062167340855	0.276346604215457	0.239940387481371
-12	-0.0533016927701305	-0.0288276494808444	0.299851190476191	0.328678839957035
2	0.0389677505956578	0.0101084739015775	0.243650793650794	0.233542319749216
8	0.24253162857814	0.149416930115971	0.276346604215457	0.126929674099485
-8	0.0291694352159468	0.0134066456233241	0.276346604215457	0.262939958592133
0	0.0346638419439229	0.0095767195767196	0.243650793650794	0.234074074074074
-3	0.110427468106619	0.0681734814974644	0.274193548387097	0.206020066889632
6	0.154273633343401	0.0741898035131117	0.303854875283447	0.229665071770335
0	-0.0440591183873676	-0.0589060308555401	0.274193548387097	0.333099579242637
-20	-0.113248648296528	-0.0392776548370351	0.303854875283447	0.343132530120482
-6	-0.142328601630927	-0.0745732152916588	0.276346604215457	0.350919819507115
-14	0.00742883199791544	0.0144616044616044	0.243650793650794	0.229189189189189
5	0.149894291754757	0.0804136440808766	0.274193548387097	0.19377990430622
-3	0.0573691559535849	0.0373015873015875	0.243650793650794	0.206349206349206
-2	0.119131110913053	0.0727579223659054	0.276346604215457	0.203588681849551
-4	0.0682197050022382	0.0354050656641047	0.2713529856387	0.235947919974595
-10	-0.00229781906954218	0.0138371290545203	0.243650793650794	0.229813664596273
1	0.179687812134083	0.102592603193685	0.303854875283447	0.201262272089762
-2	0.109417882420916	0.0699973978662504	0.276346604215457	0.206349206349206
-5	0.0747706059167856	0.039740812068689	0.274193548387097	0.234452736318408
-2	0.125845291110012	0.0720658888126287	0.274193548387097	0.202127659574468
-8	0.114978642619839	0.0713167896266491	0.303854875283447	0.232538085656798
-7	-0.0402256636578861	-0.0230591349669869	0.243650793650794	0.266709928617781
-2	-0.148893930799773	-0.0817426991643017	0.2713529856387	0.353095684803002
-5	0.149160522587367	0.0992512947207872	0.303854875283447	0.20460358056266
-8	0.0992495464291602	0.071154034709285	0.274193548387097	0.203039513677812
-9	0.105961082107262	0.0703993546532654	0.274193548387097	0.203794193733831
-3	0.133523176712545	0.07842993754879	0.276346604215457	0.197916666666667
2	0.0714789086882112	0.039961940402999	0.243650793650794	0.203688853247795
-1	0.0830534050851154	0.0421250053374761	0.276346604215457	0.234221598877981
3	0.157606006496999	0.0848051917179737	0.274193548387097	0.189388356669123
0	0.184355929407884	0.110844200411805	0.274193548387097	0.163349347975292
1	0.150206382764522	0.0958090996672071	0.2713529856387	0.175543885971493
-14	-0.0263407688656858	-0.00256496041039372	0.276346604215457	0.27891156462585
-6	0.0185743149313164	0.00770821228069812	0.2713529856387	0.263644773358002
-4	0.0940467800932914	0.0700528979217501	0.276346604215457	0.206293706293707
-1	0.0712536312131866	0.0383537726742382	0.276346604215457	0.237992831541218
-1	0.0712536312131866	0.0383537726742382	0.276346604215457	0.237992831541218
1	0.144017577342664	0.0750592313490638	0.2713529856387	0.196293754289636
0	0.123552730832812	0.0777248677248677	0.243650793650794	0.165925925925926
-9	-0.0448510105589038	-0.0184790110120923	0.243650793650794	0.262129804662886
-3	0.0117145746063844	0.00218550106609799	0.267857142857143	0.265671641791045
-4	-0.0654555736198486	-0.0543540799404338	0.303854875283447	0.358208955223881
-1	-0.0413772274237389	-0.0312302900080991	0.276346604215457	0.307576894223556
-7	0.116108210726151	0.0734654517544722	0.276346604215457	0.202881152460984
-9	0.00354168139299271	0.00960824045930433	0.243650793650794	0.234042553191489
-1	0.0589852008456658	0.0339338081273564	0.274193548387097	0.24025974025974
-13	0.0416864420186678	0.0372704637410519	0.278011204481793	0.240740740740741
-5	0.003262875760348	0.00536019536019539	0.243650793650794	0.238290598290598
-23	-0.13389969941465	-0.041817610578368	0.243650793650794	0.285468404229162
-4	0.0108671577832348	0.00660301447186701	0.276346604215457	0.26974358974359
2	0.127380113426625	0.0744976057562887	0.276346604215457	0.201848998459168
-7	0.0193996203132422	0.00919805733238616	0.243650793650794	0.234452736318408
5	0.14811738648948	0.0901624215577704	0.243650793650794	0.153488372093023
-12	-0.0182770352294687	0.0134200926747515	0.303854875283447	0.290434782608695
5	0.176683781334944	0.100166022035652	0.303854875283447	0.203688853247795
-15	-0.00579766790437086	0.00320128051220503	0.303854875283447	0.300653594771242
-3	0.14253162857814	0.10092046785182	0.276346604215457	0.175426136363636
2	0.109559045605557	0.0617656644561498	0.303854875283447	0.242089210827297
2	0.06553911205074	0.0323330832708178	0.274193548387097	0.241860465116279
-2	0.117961200356915	0.0753478483492508	0.243650793650794	0.168302945301543
-7	-0.040225663657886	-0.0230591349669869	0.243650793650794	0.266709928617781
-5	0.0465720326185441	0.0408094141328119	0.276346604215457	0.235537190082645
8	0.26583912398081	0.161472131317854	0.274193548387097	0.112721417069243
-11	-0.0533102328587962	-0.0443911837035282	0.243650793650794	0.288041977354322
-3	0.0256991035124976	0.00732486508502178	0.276346604215457	0.269021739130435
-7	0.0541293331991005	0.0505737648594791	0.2713529856387	0.220779220779221
2	0.190908504184325	0.114048620850865	0.274193548387097	0.160144927536232
-2	-0.0509413067552604	-0.0256576420890938	0.274193548387097	0.299851190476191
2	0.0673579650323833	0.027387934645999	0.267857142857143	0.240469208211144
9	0.280679354869112	0.130262024586605	0.322448979591837	0.192186955005232
0	0.0504892085483377	0.0069152956690951	0.2713529856387	0.264437689969605
2	0.127380113426625	0.0744976057562887	0.276346604215457	0.201848998459168
-9	0.00354168139299271	0.00960824045930433	0.243650793650794	0.234042553191489
-7	0.0237501977535203	0.0103046594982081	0.274193548387097	0.263888888888889
-14	-0.0226103464641671	-0.000779598766501521	0.274193548387097	0.274973147153598
-9	-0.0317322871751367	-0.0142309033833272	0.276346604215457	0.290577507598784
-10	-0.1578426521524	-0.094600777854038	0.274193548387097	0.368794326241135
-6	0.0482131457234056	0.0181962481962482	0.243650793650794	0.225454545454546
-12	-0.0718111997934727	-0.0225162048443954	0.274193548387097	0.296709753231492
6	0.232180610087587	0.139432190664924	0.303854875283447	0.164422684618523
-12	0.0477329536465751	0.0407029478458051	0.243650793650794	0.202947845804989
-6	0.0605362124196969	0.0408449792960663	0.299851190476191	0.259006211180124
-4	0.134263565891473	0.082936507936508	0.243650793650794	0.160714285714286
3	0.0945233061512132	0.0498708893445736	0.243650793650794	0.19377990430622
-5	0.0642303433001107	0.0360588679916411	0.2713529856387	0.235294117647059
-2	0.0649734379764715	0.0375458987480847	0.276346604215457	0.238800705467372
3	0.208862840792794	0.12792081710901	0.276346604215457	0.148425787106447
-3	0.0152149838701909	0.00551327088212311	0.276346604215457	0.270833333333334
-4	0.00891640659082554	0.0104126878023939	0.299851190476191	0.289438502673797
-9	-0.0773616160746942	-0.0387274558994924	0.274193548387097	0.312921004286589
1	0.1579840248816	0.0891125616622652	0.276346604215457	0.187234042553191
-12	0.0520443085695437	0.0527966187884674	0.276346604215457	0.223549985426989
-1	0.0147253263532334	0.00371040616942259	0.243650793650794	0.239940387481371
-7	0.0480652254160848	0.0436668656533651	0.276346604215457	0.232679738562092
4	0.196702481091397	0.0918296604638401	0.321067821067821	0.229238160603981
-13	-0.0851108008765105	-0.0358595531868627	0.243650793650794	0.279510346837656
-9	0.0586932447397562	0.0430132708821232	0.276346604215457	0.233333333333333
3	0.0199335548172757	0.00221386800334158	0.243650793650794	0.241436925647452
-7	0.0106338799745527	0.0077028736761984	0.243650793650794	0.235947919974595
3	0.170290949360717	0.100898440184154	0.2713529856387	0.170454545454546
0	0.0217960334239407	0.00501443001443019	0.243650793650794	0.238636363636364
-1	0.109575168119152	0.0615605921855923	0.299851190476191	0.238290598290598
-10	0.108889323171129	0.0729663225253157	0.276346604215457	0.203380281690141
-5	-0.0114499288087325	-0.0233774065181626	0.2713529856387	0.294730392156863
0	-0.0363435014597803	-0.0323181985972682	0.243650793650794	0.275968992248062
-8	-0.0709632195282859	-0.045563290518678	0.274193548387097	0.319756838905775
3	0.201084267366564	0.119440416478475	0.274193548387097	0.154753131908622
-10	0.0144755576649266	0.0157832239337666	0.276346604215457	0.26056338028169
-2	0.05176598100893	0.00950933564915324	0.293197278911565	0.283687943262411
5	0.0893234672304442	0.0379634382279783	0.274193548387097	0.236230110159118
-16	-0.0749241091785554	-0.0347702589807854	0.243650793650794	0.278421052631579
8	0.123397617697107	0.0677120669056151	0.274193548387097	0.206481481481482
-2	-0.0559518431213459	-0.0564894588036243	0.243650793650794	0.300140252454418
-25	-0.0317322871751373	0.0398300282629578	0.276346604215457	0.236516575952499
8	0.24253162857814	0.149416930115971	0.276346604215457	0.126929674099485
5	0.0753045404208192	0.0327566227396446	0.274193548387097	0.241436925647452
2	0.14743024331476	0.0799906498363722	0.274193548387097	0.194202898550725
-4	0.0708807521029193	0.0382167592188182	0.274193548387097	0.235976789168279
-11	0.0321724969057395	0.0182511904761908	0.299851190476191	0.2816
-5	0.106783534789472	0.0660964149253082	0.2713529856387	0.205256570713392
-4	0.070474305506468	0.0415231340763257	0.243650793650794	0.202127659574468
-3	0.0152149838701909	0.00551327088212311	0.276346604215457	0.270833333333334
-23	-0.298453520943261	-0.148638362975712	0.243650793650794	0.392289156626506
-16	-0.00747033697199784	0.0173655960274407	0.303854875283447	0.286489279256006
-10	0.0145849532291891	0.0247776431729467	0.2713529856387	0.246575342465753
-2	0.00211416490486221	0.00384471117779422	0.274193548387097	0.270348837209303
6	0.176991349286597	0.0948284690220175	0.274193548387097	0.179365079365079
-10	0.0136180984021513	0.00672677364406671	0.227994227994228	0.221267454350161
-5	0.058623582815223	0.0379832953046829	0.274193548387097	0.236210253082414
-3	0.0670823844457218	0.0400621118012424	0.243650793650794	0.203588681849551
2	0.172925995474024	0.101954078534875	0.2713529856387	0.169398907103825
1	0.0256857857916307	-0.00987756205147527	0.259018759018759	0.268896321070234
-6	0.0553013236790104	0.0401363511330428	0.276346604215457	0.236210253082414
-6	0.0771207087486159	0.0445165945165947	0.243650793650794	0.199134199134199
4	0.0682956971126841	0.0149306378162101	0.253731343283582	0.238800705467372
6	0.274044888914841	0.162741221583981	0.303854875283447	0.141113653699466
8	0.145220538584123	0.080764459714766	0.276346604215457	0.195582144500691
-9	0.0108209043142244	0.0149484279236633	0.276346604215457	0.261398176291793
-11	0.00409349786426227	0.0118432819137047	0.243650793650794	0.231807511737089
0	0.189230343300111	0.109315948601663	0.2713529856387	0.162037037037037
3	0.181138555860497	0.105427059712774	0.2713529856387	0.165925925925926
5	0.190361453188723	0.107091945830363	0.276346604215457	0.169254658385093
-7	0.0214238590042655	0.013277367684663	0.303854875283447	0.290577507598784
-16	-0.055089384591046	-0.0151362936173064	0.2713529856387	0.286489279256006
-18	0.0458602045469353	0.0513431013431015	0.243650793650794	0.192307692307692
-4	0.00959490566443633	-0.00162689309118835	0.253731343283582	0.25535823637477
12	0.14083133666977	0.085993135993136	0.243650793650794	0.157657657657658
-1	0.109640971319434	0.0644085411942552	0.2713529856387	0.206944444444445
-5	0.105682261717802	0.0692001438256465	0.303854875283447	0.2346547314578
8	0.161683277962348	0.0894643041256093	0.276346604215457	0.186882300089847
-3	0.101813600398029	0.0697530864197532	0.243650793650794	0.17389770723104
-6	0.0504311356020585	0.0374584352845224	0.243650793650794	0.206192358366271
-3	0.0542736333434009	0.0373259496636121	0.303854875283447	0.266528925619835
4	0.206036239908838	0.126249138328517	0.276346604215457	0.15009746588694
4	0.254800782262435	0.146659701114489	0.299851190476191	0.153191489361702
-3	0.0691773643820632	0.039254212911109	0.276346604215457	0.237092391304348
-7	-0.227165341118829	-0.133412754073313	0.276346604215457	0.40975935828877
1	0.223166073003648	0.135551929981904	0.303854875283447	0.168302945301543
3	0.139868714590656	0.0697808012093727	0.303854875283447	0.234074074074074
-12	-0.0890076556406179	-0.0304232804232802	0.243650793650794	0.274074074074074
-13	-0.0430008717984965	-0.00292454881495965	0.243650793650794	0.246575342465753
-3	0.119196354939799	0.0702655614803863	0.274193548387097	0.20392798690671
-11	-0.09733828415087	-0.068773448773449	0.259018759018759	0.327792207792208
-9	0.106312292358804	0.0722649715623953	0.276346604215457	0.204081632653061
-4	0.0708807521029193	0.0382167592188182	0.274193548387097	0.235976789168279
-7	-0.0352865649124498	-0.0130914588057446	0.2713529856387	0.284444444444445
-4	-0.0698278838243985	-0.057300293305728	0.243650793650794	0.300951086956522
2	0.0364710225175341	0.00516016353749055	0.276346604215457	0.271186440677966
-2	-0.0248655849262516	-0.0287946973661254	0.303854875283447	0.332649572649572
-15	-0.0259326056003794	0.00137345706185854	0.276346604215457	0.274973147153598
-4	0.0552522188518144	0.0371565113500598	0.274193548387097	0.237037037037037
6	0.206459948320413	0.122407834101383	0.274193548387097	0.151785714285714
1	0.175601457300143	0.110420678289531	0.276346604215457	0.165925925925926
-17	0.00666429362442661	0.0339046884185774	0.299851190476191	0.265946502057613
-11	-0.0469786701333718	-0.00705343170131903	0.243650793650794	0.250704225352113
4	0.181790987590957	0.110886818495514	0.243650793650794	0.13276397515528
-11	-0.0718588830881189	-0.046375075851937	0.243650793650794	0.290025869502731
-14	-0.214611520374918	-0.101093951093951	0.243650793650794	0.344744744744745
2	0.069087888855331	0.035510971578484	0.276346604215457	0.240835632636973
-2	0.0832920996206499	0.0401509951956075	0.274193548387097	0.234042553191489
1	0.0046181758205513	-0.0231599886331341	0.241545893719807	0.264705882352941
-5	0.0718834045246006	0.0366716130896804	0.2713529856387	0.23468137254902
-4	0.0279211140171063	0.00960824045930442	0.243650793650794	0.234042553191489
-3	0.0799698404844373	0.0423040510239674	0.276346604215457	0.234042553191489
-9	-0.137799926172019	-0.0748677248677248	0.243650793650794	0.318518518518519
-8	-0.0212387280493588	-0.0171316566541083	0.276346604215457	0.293478260869565
-7	0.0105199750446398	0.0120637437242108	0.274193548387097	0.262129804662886
-9	0.0170265780730893	0.0138466042154564	0.276346604215457	0.2625
-7	-0.0319193115148089	-0.0227829948534935	0.243650793650794	0.266433788504287
-4	0.105802121205602	0.0680011900208254	0.274193548387097	0.206192358366271
-9	0.0170265780730894	0.0138466042154565	0.276346604215457	0.2625
-4	0.0649792089888473	0.0371449466656663	0.303854875283447	0.266709928617781
-4	0.070474305506468	0.0415231340763257	0.243650793650794	0.202127659574468
-7	0.0654168644201865	0.0398940314788841	0.274193548387097	0.234299516908213
-6	-0.123481907876202	-0.0863887320409053	0.243650793650794	0.330039525691699
-10	0.09780889099826	0.0732949610229686	0.276346604215457	0.203051643192488
-4	0.10431668310893	0.0656424080916527	0.2713529856387	0.205710577547047
-8	-0.0690357538364181	-0.0510795985060689	0.243650793650794	0.294730392156863
5	0.214399939353148	0.122927198532253	0.2713529856387	0.148425787106447
-4	0.113433943592281	0.0691645348474449	0.274193548387097	0.205029013539652
-3	0.0691773643820632	0.039254212911109	0.276346604215457	0.237092391304348
-5	0.0738213890207247	0.0430097680097681	0.243650793650794	0.200641025641026
8	0.231712473572939	0.13782991202346	0.274193548387097	0.136363636363636
-5	0.0477073202047925	0.0368131868131868	0.243650793650794	0.206837606837607
-5	0.0747706059167856	0.039740812068689	0.274193548387097	0.234452736318408
-5	0.129169435215947	0.0772124050812576	0.276346604215457	0.199134199134199
5	0.182346723044397	0.109770863768574	0.274193548387097	0.164422684618523
-4	0.0729908242366714	0.0331757703081232	0.267857142857143	0.23468137254902
2	0.045590383103022	0.00604540023894856	0.274193548387097	0.268148148148148
-5	0.210080683436165	0.130985727624383	0.303854875283447	0.172869147659064
0	0.074575890349399	0.0362007168458783	0.274193548387097	0.237992831541219
-4	0.0606068987842973	0.038487750172533	0.243650793650794	0.205163043478261
2	0.0714789086882114	0.0399619404029992	0.243650793650794	0.203688853247795
-15	-0.0375731688024046	-0.00804988662131514	0.243650793650794	0.251700680272109
-2	0.189634551495017	0.113479262672811	0.274193548387097	0.160714285714286
-6	0.132418734935835	0.0787346639169492	0.276346604215457	0.197611940298507
-12	-0.131807532298034	-0.0643202208419601	0.243650793650794	0.307971014492754
-8	-0.027524975848825	-0.0160308920957918	0.2713529856387	0.287383877734492
5	0.176079734219269	0.110530277684844	0.276346604215457	0.165816326530612
-8	0.028001898433792	0.0118028778331609	0.274193548387097	0.262390670553936
-6	0.11311501344724	0.0723665047129692	0.276346604215457	0.203980099502487
-1	0.00475687103594069	0.00139915931363788	0.274193548387097	0.272794389073459
0	0.0705105365368259	0.032552280171328	0.2713529856387	0.238800705467372
-12	-0.0338996994146495	-0.0159863945578231	0.243650793650794	0.259637188208617
-16	0.00365132099351367	0.0223833393006325	0.243650793650794	0.221267454350161
-4	0.0636269481008415	0.0388884102355234	0.276346604215457	0.237458193979933
1	0.164753850800363	0.105892058760911	0.276346604215457	0.170454545454545
-6	0.142804896413743	0.0996411187195778	0.274193548387097	0.174552429667519
5	0.135835095137421	0.0738671509982761	0.274193548387097	0.200326397388821
0	0.122944452469225	0.0734322144158211	0.276346604215457	0.202914389799636
-4	0.0606068987842972	0.038487750172533	0.243650793650794	0.205163043478261
0	0.112705124333031	0.0731962481962483	0.243650793650794	0.170454545454545
7	0.16992140021068	0.100621278321627	0.2713529856387	0.170731707317073
-1	0.0395751442155503	0.00916567854925737	0.276346604215457	0.267180925666199
-4	0.0606068987842973	0.038487750172533	0.243650793650794	0.205163043478261
-7	-0.0191029900332227	-0.0203136810279668	0.2713529856387	0.291666666666667
0	0.0301314459049545	0.00322580645161291	0.274193548387097	0.270967741935484
-10	0.0618224964404369	0.0438085185586589	0.276346604215457	0.232538085656798
-5	0.0586932447397562	0.0559868875086265	0.267857142857143	0.211870255348516
-18	0.00555687391235582	0.0379083732258337	0.303854875283447	0.265946502057613
-2	0.0724996235182757	0.0371011570827491	0.274193548387097	0.237092391304348
-7	0.0106338799745528	0.00770287367619843	0.243650793650794	0.235947919974595
-16	0.112633704644649	0.0891713309796494	0.303854875283447	0.214683544303797
5	0.203137689184201	0.124560889929742	0.276346604215457	0.151785714285714
6	0.138427464008859	0.0780782059470584	0.276346604215457	0.198268398268398
0	0.109490251350716	0.0667155425219941	0.274193548387097	0.207478005865103
-4	0.104085159653862	0.0704170979986199	0.243650793650794	0.173233695652174
0	0.0667740528205644	0.0364062167340855	0.276346604215457	0.239940387481371
-5	0.025005301477345	0.00942203941855141	0.276346604215457	0.266924564796905
-3	0.0670823844457218	0.0400621118012424	0.243650793650794	0.203588681849551
-2	0.00866472029262738	0.00318158543965003	0.243650793650794	0.240469208211144
-1	0.122333510561465	0.0667624839790991	0.303854875283447	0.237092391304348
3	0.109543068997063	0.0576858813700918	0.243650793650794	0.185964912280702
8	0.152823920265781	0.0810718552654036	0.274193548387097	0.193121693121693
-16	0.0170265780730894	0.0377102405790928	0.276346604215457	0.238636363636364
-1	0.133380752102919	0.0745988168774716	0.274193548387097	0.199594731509625
-5	-0.0718111997934732	-0.0535157313014173	0.274193548387097	0.327709279688514
-2	-0.0367898251619183	-0.0298096169063912	0.243650793650794	0.273460410557185
-4	0.0450283566562635	0.0362644300144299	0.243650793650794	0.207386363636364
9	-0.0125492622432644	-0.0255076611984504	0.299851190476191	0.325358851674641
-2	0.0589126669965363	0.0196887900920927	0.253731343283582	0.234042553191489
4	0.0905063928319745	0.047637504614249	0.243650793650794	0.196013289036545
-11	0.0173601613697995	0.0298723745928716	0.2713529856387	0.241480611045828
-15	-0.123481907876202	-0.0467839889579018	0.243650793650794	0.290434782608695
5	0.0387596899224809	0.00815295815295833	0.243650793650794	0.235497835497835
0	0.134857290376512	0.0781997759902248	0.276346604215457	0.198146828225232
-6	0.0661933625503642	0.040210101925445	0.303854875283447	0.263644773358002
-18	-0.0741397954530648	-0.027118437118437	0.243650793650794	0.270769230769231
2	0.23149169742548	0.139207690679028	0.303854875283447	0.164647184604419
-12	0.0608289827558931	0.0468631897203326	0.2713529856387	0.224489795918367
-7	0.0105199750446398	0.0120637437242108	0.274193548387097	0.262129804662886
-9	0.0100458788166429	0.00935127674258107	0.243650793650794	0.234299516908213
0	0.0952380952380955	0.0650037792894937	0.2713529856387	0.206349206349206
0	0.119020334793843	0.0691756272401435	0.274193548387097	0.205017921146953
-14	-0.00634788799240621	0.0116229256854257	0.259018759018759	0.247395833333333
1	0.151313802476593	0.095302737248938	0.303854875283447	0.208552138034509
-4	0.0552522188518145	0.0371565113500598	0.274193548387097	0.237037037037037
3	0.228757603479545	0.137928949357521	0.303854875283447	0.165925925925926
-11	0.0544415440594841	0.0466012338450862	0.276346604215457	0.22974537037037
-10	0.0438785608256166	0.040611279972982	0.243650793650794	0.203039513677812
-1	0.181033670271671	0.112997256240165	0.276346604215457	0.163349347975292
-6	0.11311501344724	0.0723665047129693	0.276346604215457	0.203980099502487
-8	-0.0231173864894797	-0.0204451345755695	0.271221532091097	0.291666666666667
-7	0.0163594755071746	0.0105487750290949	0.274193548387097	0.263644773358002
-2	0.0589126669965363	0.0196887900920927	0.253731343283582	0.234042553191489
-6	0.0626826064418839	0.0403986842408614	0.276346604215457	0.235947919974595
7	0.0771670190274842	0.0150949796472185	0.253731343283582	0.238636363636364
3	0.165433403805497	0.102731191272394	0.274193548387097	0.171462357114702
4	0.163961632670623	0.0798312938538226	0.303854875283447	0.224023581429624
-10	0.00132536933625527	0.0114319486659914	0.243650793650794	0.232218844984802
-7	-0.079731009356894	-0.0422978080120936	0.2713529856387	0.313650793650794
0	0.147788989420607	0.0841596492102246	0.276346604215457	0.192186955005232
7	0.218581160441625	0.129565449213543	0.274193548387097	0.144628099173554
2	0.169961641549104	0.0948332693292374	0.299851190476191	0.205017921146953
-2	0.0864317523149785	0.0473570393611574	0.243650793650794	0.196293754289636
-5	-0.07537830010562	-0.0566836545097416	0.243650793650794	0.300334448160535
-6	-0.0715867742445815	-0.064576555259785	0.241545893719807	0.306122448979592
5	0.0722658887718446	0.0392162038503502	0.243650793650794	0.204434589800443
-1	0.160142520102075	0.104303593462769	0.276346604215457	0.172043010752688
-6	0.062682606441884	0.0403986842408615	0.276346604215457	0.235947919974595
7	0.170240612101077	0.0797473670608001	0.284292821606255	0.204545454545455
-4	0.1107728964916	0.0658909341937967	0.2713529856387	0.205462051444903
-1	0.126531665954681	0.075084332125695	0.276346604215457	0.201262272089762
-2	-0.0330648275918592	-0.0393800998660335	0.278011204481793	0.317391304347826
-6	0.0558483746746124	0.0395388169292964	0.274193548387097	0.2346547314578
3	0.193123343608467	0.111208058102468	0.2713529856387	0.160144927536232
0	0.0791082863883672	0.0436507936507936	0.243650793650794	0.2
5	0.181643679318098	0.0980021920170226	0.299851190476191	0.201848998459168
-20	-0.0866919791172281	-0.023303608628217	0.253731343283582	0.277034951911799
-6	0.0118230628094448	0.00963667559767589	0.276346604215457	0.266709928617781
-7	-0.16544529507118	-0.0974149659863943	0.303854875283447	0.401269841269841
1	0.120785932413839	0.0764705163010248	0.243650793650794	0.167180277349769
-1	0.126531665954681	0.075084332125695	0.276346604215457	0.201262272089762
-8	-0.0268608185481021	-0.0158308004052685	0.267857142857143	0.283687943262411
-14	0.054441544059484	0.0557910486599009	0.276346604215457	0.220555555555556
3	0.184313159035101	0.103854875283447	0.303854875283447	0.2
2	0.12551719710466	0.0618583589349722	0.299851190476191	0.237992831541218
0	0.184355929407884	0.110844200411805	0.274193548387097	0.163349347975292
-1	0.0106338799745528	-0.0155051184524503	0.243650793650794	0.259155912103244
-13	-0.0864791326680619	-0.030917401703584	0.243650793650794	0.274568195354378
2	0.0714789086882112	0.039961940402999	0.243650793650794	0.203688853247795
7	0.0788563865705103	0.0325084042629283	0.274193548387097	0.241685144124168
-6	0.107004429678848	0.063690476190476	0.267857142857143	0.204166666666667
-3	0.0780097664993757	0.0440560621411686	0.243650793650794	0.199594731509625
4	0.139793281653747	0.0759176863181314	0.274193548387097	0.198275862068965
-13	-0.0751334589296853	-0.0203631490160355	0.276346604215457	0.296709753231492
5	0.159468438538206	0.0908116424535917	0.299851190476191	0.209039548022599
-5	0.102101843684788	0.0684829708400495	0.274193548387097	0.205710577547047
-9	0.00354168139299271	0.00960824045930433	0.243650793650794	0.234042553191489
-8	0.000477389071068868	0.00899606219299343	0.243650793650794	0.2346547314578
-7	0.0701827242524915	0.0413548752834466	0.303854875283447	0.2625
-10	0.0284480303749406	0.0184201534495076	0.303854875283447	0.285434721833939
-6	-0.0282438126381065	-0.0192132505175979	0.271221532091097	0.290434782608695
-3	0.0596594283146352	0.0374577153265675	0.276346604215457	0.238888888888889
-2	-0.0367898251619184	-0.0298096169063913	0.243650793650794	0.273460410557185
1	-0.029472465518977	-0.0318714767473142	0.243650793650794	0.275522270398108
2	0.0896979233575406	0.0336355439791623	0.267857142857143	0.234221598877981
0	0.203255055867839	0.11487546270155	0.321067821067821	0.206192358366271
-6	0.0495145007784036	0.0411890586101498	0.276346604215457	0.235157545605307
-5	-0.0282194273058059	-0.035647837278272	0.271221532091097	0.30686936936937
-9	0.105961082107262	0.0703993546532654	0.274193548387097	0.203794193733831
-11	0.0425487735915741	0.0425719803454295	0.243650793650794	0.201078813305364
-8	-0.0751467766505524	-0.0415680186478892	0.2713529856387	0.312921004286589
5	0.135835095137421	0.073867150998276	0.274193548387097	0.200326397388821
-10	0.065080683436165	0.0487178889820768	0.303854875283447	0.25513698630137
4	0.166064808127498	0.100793650793651	0.243650793650794	0.142857142857143
-1	0.13848047878231	0.0800528499258204	0.276346604215457	0.196293754289636
1	0.0440131809955975	0.0322903096825787	0.274193548387097	0.241903238704518
3	0.0656362848476089	0.0122113502935418	0.267449445531637	0.255238095238095
-1	0.109640971319434	0.0644085411942553	0.2713529856387	0.206944444444445
-5	0.15266487594543	0.102265366304432	0.276346604215457	0.174081237911025
-10	-0.159328090249072	-0.0871937683815504	0.2713529856387	0.35854675402025
2	0.14743024331476	0.0799906498363721	0.274193548387097	0.194202898550725
-6	-0.0453471593006475	-0.0174118761101877	0.276346604215457	0.293758480325644
0	0.141802737918522	0.0778997940974605	0.274193548387097	0.196293754289636
-9	0.06593102357222	0.0457530234315952	0.303854875283447	0.258101851851852
-11	-0.0264198702736912	-0.00891147444395368	0.274193548387097	0.28310502283105
-6	0.105235797931246	0.0708845527705534	0.276346604215457	0.205462051444903
-6	-0.065644070592116	-0.0512132100609631	0.274193548387097	0.32540675844806
-1	0.0238512526682396	0.00294134380155897	0.274193548387097	0.271252204585538
-10	0.102638822971049	0.0725524104816253	0.276346604215457	0.203794193733831
-4	-0.0780811144815186	-0.0557727815792329	0.274193548387097	0.32996632996633
-14	-0.0412278221531068	-0.00361775149009197	0.243650793650794	0.247268545140886
0	0.0791082863883672	0.0436507936507936	0.243650793650794	0.2
1	0.0788580028745787	0.0236668768583661	0.259018759018759	0.235351882160393
-1	0.0828085639091812	0.0455039654255619	0.243650793650794	0.198146828225232
-9	-0.0171302009175764	-0.0166288737717309	0.2713529856387	0.287981859410431
0	0.119020334793843	0.0691756272401435	0.274193548387097	0.205017921146953
3	0.159468438538206	0.103932811112008	0.276346604215457	0.172413793103448
-5	0.0642303433001108	0.0360588679916412	0.2713529856387	0.235294117647059
1	0.132731474794165	0.082068872746839	0.243650793650794	0.161581920903955
-6	0.0553013236790104	0.0401363511330428	0.276346604215457	0.236210253082414
2	0.140335756817051	0.0801130825582063	0.276346604215457	0.19623352165725
1	0.075331386959294	0.0418017951916257	0.243650793650794	0.201848998459168
1	0.0882870303497202	0.0474172719935433	0.243650793650794	0.19623352165725
-8	0.0310478395293715	0.00146708970238374	0.259018759018759	0.257551669316375
3	0.159468438538206	0.103932811112008	0.276346604215457	0.172413793103448
-10	0.0497509073977889	0.0497697517965956	0.276346604215457	0.226576852418861
7	0.141749723145072	0.0759251501186985	0.274193548387097	0.198268398268398
6	0.245182724252492	0.145960138441342	0.303854875283447	0.157894736842105
0	0.0791082863883673	0.0436507936507937	0.243650793650794	0.2
-6	0.147788989420607	0.101370421300245	0.276346604215457	0.174976182915211
-5	0.0738213890207247	0.0430097680097681	0.243650793650794	0.200641025641026
-10	0.0688893231711289	0.0442339281591186	0.276346604215457	0.232112676056338
-15	-0.062202183198861	-0.0229175038259962	0.274193548387097	0.297111052213093
12	0.256158334008589	0.151894090969721	0.303854875283447	0.151960784313726
5	0.173669090150385	0.0969815248503774	0.276346604215457	0.179365079365079
-3	0.112655625251628	0.0711835607371959	0.276346604215457	0.205163043478261
-9	-0.0316207878500234	-0.020238095238095	0.243650793650794	0.263888888888889
-2	-0.000402698077116903	0.00209040355326912	0.243650793650794	0.241560390097525
-5	0.0550564825030757	0.0376307267611614	0.243650793650794	0.206020066889632
-6	0.0194623123866072	0.00886188380637082	0.274193548387097	0.265331664580726
6	0.152109131178899	0.0775730813324798	0.2713529856387	0.19377990430622
-8	-0.0359086732169363	-0.0216808709299321	0.243650793650794	0.265331664580726
-9	0.0587533618098406	0.0398649314798386	0.243650793650794	0.203785862170955
-8	0.0559642461635819	0.0389939309056957	0.243650793650794	0.204656862745098
4	0.132512836001208	0.0760202068266359	0.276346604215457	0.200326397388821
4	0.121136615322662	0.0652039907628625	0.2713529856387	0.206148994875838
-8	0.0530731665340014	0.0443798837908233	0.274193548387097	0.229813664596273
9	0.154944796805262	0.0700769103081947	0.274193548387097	0.204116638078902
-2	-0.0647886631364457	-0.0621823828345563	0.267857142857143	0.330039525691699
-1	-0.0301956441491328	-0.0301050086877694	0.276346604215457	0.306451612903226
-15	-0.0103425090966618	0.0141651597347801	0.267857142857143	0.253691983122363
-14	-0.0123682961556714	0.00674382307035382	0.303854875283447	0.297111052213093
10	0.236987818383167	0.145627649967091	0.276346604215457	0.130718954248366
-7	-0.0698985701889989	-0.041851197766308	0.299851190476191	0.341702388242499
6	0.142142353770261	0.0662212183951314	0.241545893719807	0.175324675324675
-6	-0.00011876675172906	0.00661375661375679	0.243650793650794	0.237037037037037
-7	0.0663463059642462	0.041665231666437	0.276346604215457	0.23468137254902
0	0.0672505788784861	0.0391053391053393	0.243650793650794	0.204545454545454
5	0.0824775999194602	0.0259343093230135	0.293197278911565	0.267262969588551
-7	0.0701819332384117	0.0423105560632214	0.243650793650794	0.201340237587572
-7	0.200284765068818	0.128927761580823	0.303854875283447	0.174927113702624
-21	-0.0529206315800024	-0.00581504093040663	0.276346604215457	0.282161645145863
-4	0.177955833496189	0.104188806534222	0.2713529856387	0.167164179104478
12	0.190174166918353	0.0819979154452479	0.278011204481793	0.196013289036545
-1	0.0256665135128765	-0.00741502948552819	0.259018759018759	0.266433788504287
2	0.117765696835464	0.0649446398860919	0.2713529856387	0.206408345752608
-10	0.00949111708018197	0.017731081290674	0.276346604215457	0.258615522924783
-10	0.00664451827242496	0.0103174603174601	0.243650793650794	0.233333333333334
8	0.209302325581395	0.128098625778799	0.276346604215457	0.148247978436658
-7	0.00904785466883468	0.0116407218625157	0.276346604215457	0.264705882352941
-3	0.0899778516057589	0.0492063492063494	0.243650793650794	0.194444444444444
6	0.259192386088241	0.153757409396507	0.303854875283447	0.15009746588694
-3	0.145798970751091	0.0768075310932453	0.2713529856387	0.194545454545455
-21	0.00462250016285598	0.0327815570672715	0.2713529856387	0.238571428571429
-4	-0.0875868317728785	-0.0467803400429941	0.267857142857143	0.314637482900137
-10	-0.0457760799391074	-0.0153554175293306	0.243650793650794	0.259006211180124
-22	-0.0657536717728237	-0.0136423675161122	0.243650793650794	0.257293161166906
-16	0.0201294149525222	0.044514606426012	0.276346604215457	0.231831997789445
3	0.150480684353283	0.0847757229894032	0.276346604215457	0.191570881226053
-7	-0.0256684068976429	-0.0259275907159204	0.271221532091097	0.297149122807018
-2	0.0744829394873496	0.042388521561032	0.243650793650794	0.201262272089762
3	0.0852478271082921	0.0376758288185297	0.274193548387097	0.236517719568567
-3	0.0061679922145037	0.00503978603363836	0.276346604215457	0.271306818181818
-3	0.0521091311788985	0.0358157955560552	0.2713529856387	0.235537190082645
-5	0.10247986206939	0.0701542458491854	0.276346604215457	0.206192358366271
-12	0.0608289827558931	0.0468631897203326	0.2713529856387	0.224489795918367
-2	0.162609371782618	0.105194085236851	0.276346604215457	0.171152518978606
-9	-0.107202183198861	-0.0726374375283962	0.274193548387097	0.346830985915493
5	0.111376711773762	0.06495092964512	0.274193548387097	0.209242618741977
6	0.176991349286597	0.0948284690220174	0.274193548387097	0.179365079365079
-8	-0.070963219528286	-0.0455632905186781	0.274193548387097	0.319756838905775
-10	-0.0457760799391074	-0.0153554175293307	0.243650793650794	0.259006211180124
-7	-0.0914231145778162	-0.052534944325989	0.243650793650794	0.296185737976783
-13	-0.0259326056003795	-0.00605824961796853	0.276346604215457	0.282404853833425
-7	0.0589126669965363	0.0401509951956074	0.274193548387097	0.234042553191489
1	0.115550857411322	0.0677852026344886	0.274193548387097	0.206408345752608
2	0.129876841504749	0.0806413892620791	0.243650793650794	0.163009404388715
-6	-0.000118766751728949	0.00661375661375688	0.243650793650794	0.237037037037037
0	0.133336543245542	0.0671655328798186	0.293197278911565	0.226031746031746
-12	-0.0392738490745134	-0.0144510582010581	0.243650793650794	0.258101851851852
-6	0.0443256776927153	0.0375901875901877	0.243650793650794	0.206060606060606
-12	-0.020546590729315	-0.00242794486215542	0.267857142857143	0.270285087719298
-7	0.0106338799745528	0.00770287367619849	0.243650793650794	0.235947919974595
-14	-0.0860894261508567	-0.0615314173006482	0.267857142857143	0.329388560157791
-4	0.0829378262933083	0.0389295021491185	0.303854875283447	0.264925373134328
1	0.132731474794165	0.082068872746839	0.243650793650794	0.161581920903955
-7	0.146385314446756	0.103233757271024	0.303854875283447	0.200621118012422
-1	0.151033064388546	0.0787509448223734	0.2713529856387	0.192602040816327
-2	0.087505301477345	0.0443303934758416	0.276346604215457	0.232016210739615
10	0.18202198633282	0.110967866821525	0.243650793650794	0.132682926829268
-4	0.0108077744073701	0.00618008037362888	0.274193548387097	0.268013468013468
-3	0.0022148394241418	0.00778709416583179	0.2713529856387	0.263565891472868
-13	-0.0634292311679745	-0.0198004298148276	0.2713529856387	0.291153415453528
-18	-0.114954121183357	-0.0421398046398045	0.243650793650794	0.285790598290598
3	0.139977851605759	0.0857560568086885	0.243650793650794	0.157894736842105
0	-0.0283329389239081	-0.0434782608695656	0.253731343283582	0.297209604153148
6	0.206459948320413	0.122407834101383	0.274193548387097	0.151785714285714
-1	0.0601798718077787	0.0372424478981855	0.243650793650794	0.206408345752608
-6	-0.027043424989986	-0.0232737711461115	0.243650793650794	0.266924564796905
1	0.131157012855698	0.0763466042154566	0.276346604215457	0.2
-4	0.145538806814166	0.0832140083008905	0.284292821606255	0.201078813305364
-3	0.110560645315287	0.0724982746721879	0.243650793650794	0.171152518978606
-19	-0.123252649897168	-0.0462179451726492	0.2713529856387	0.317570930811349
-9	0.119707811568277	0.0723156141147965	0.274193548387097	0.2018779342723
-8	0.0491977097617871	0.038394222937402	0.243650793650794	0.205256570713392
-3	0.16174954642916	0.101689456734069	0.274193548387097	0.172504091653028
0	0.0612000402698077	0.0310932453789597	0.2713529856387	0.24025974025974
2	0.110805486491221	0.0523230227858324	0.276346604215457	0.224023581429624
0	0.067250578878486	0.0391053391053392	0.243650793650794	0.204545454545455
11	0.0882975551580201	0.0333690134449147	0.274193548387097	0.240824534942182
-13	0.0586141433317512	0.0497037524687294	0.274193548387097	0.224489795918367
12	0.194855900386247	0.11969246031746	0.243650793650794	0.123958333333333
5	0.104439746300211	0.0445284766167617	0.274193548387097	0.229665071770335
0	0.134857290376512	0.0781997759902249	0.276346604215457	0.198146828225232
4	0.193491902996453	0.107621353626196	0.303854875283447	0.19623352165725
-3	0.035456575010014	0.0116345829111787	0.243650793650794	0.232016210739615
2	0.0582905466626394	0.0262967527596183	0.267857142857143	0.241560390097525
-8	0.0566963549397985	0.0419747034022941	0.274193548387097	0.232218844984803
-4	0.0623238603360369	0.0370393981894684	0.274193548387097	0.237154150197628
-5	0.0216771518107491	0.00602132105797415	0.2713529856387	0.265331664580726
0	0.0346638419439229	0.0095767195767196	0.243650793650794	0.234074074074074
0	0.135537518580782	0.0835058661145619	0.243650793650794	0.160144927536232
0	0.159399425425715	0.0974552784076595	0.2713529856387	0.17389770723104
2	0.0819255679720796	0.0398288846468896	0.276346604215457	0.236517719568567
4	0.220888742735439	0.13523295051599	0.276346604215457	0.141113653699466
1	0.0882870303497202	0.0474172719935433	0.243650793650794	0.19623352165725
-8	0.0519144937749586	0.0534143276078758	0.274193548387097	0.220779220779221
-6	-0.0365253861370717	-0.0244651483781916	0.243650793650794	0.268115942028985
9	0.265478707339173	0.157429380020742	0.303854875283447	0.146425495262704
-7	0.0237501977535201	0.010304659498208	0.274193548387097	0.263888888888889
-6	0.00695287473249329	0.00649664345316533	0.243650793650794	0.237154150197628
-2	0.0438785608256167	0.0144126330468128	0.243650793650794	0.229238160603981
0	0.0566797543541732	0.0358988556662977	0.243650793650794	0.207751937984496
-5	0.00839231547017177	0.00852190659605195	0.274193548387097	0.265671641791045
-14	-0.0230908791027546	0.00991583282158714	0.274193548387097	0.26427771556551
-7	0.0654168644201866	0.0398940314788842	0.274193548387097	0.234299516908213
-4	-0.03653813886372	-0.0196675261013495	0.299851190476191	0.31951871657754
-9	0.14731038382696	0.105273314999759	0.303854875283447	0.198581560283688
-20	0.024967754543678	0.0452354931043455	0.276346604215457	0.231111111111111
-6	0.0155097664993757	0.00767400448251518	0.243650793650794	0.235976789168279
-8	0.0670384432842908	0.0417493386243388	0.299851190476191	0.258101851851852
6	0.206459948320413	0.122407834101383	0.274193548387097	0.151785714285714
-8	0.0941542376475578	0.0734480534908189	0.276346604215457	0.202898550724638
-5	0.0747706059167856	0.039740812068689	0.274193548387097	0.234452736318408
-9	0.00354168139299271	0.00960824045930433	0.243650793650794	0.234042553191489
-7	0.0159505318380607	0.0156561175194716	0.303854875283447	0.288198757763975
-1	-0.00332225913621254	0.0021530558283599	0.276346604215457	0.274193548387097
-6	0.104568695365331	0.068936977673705	0.274193548387097	0.205256570713392
-4	0.00443974630021127	0.00766462276726199	0.274193548387097	0.266528925619835
4	0.0860012080942316	0.0401164940563381	0.276346604215457	0.236230110159119
-10	0.0282900136798904	0.0141935483870967	0.274193548387097	0.26
-13	-0.0255695301376363	-0.000806451612903103	0.274193548387097	0.275
-5	0.0381808114366254	0.0393574126132266	0.243650793650794	0.204293381037567
-7	0.0106338799745527	0.00770287367619835	0.243650793650794	0.235947919974595
3	0.0945233061512131	0.0498708893445735	0.243650793650794	0.19377990430622
-4	-0.090279875163596	-0.0490218841981622	0.2713529856387	0.320374869836862
2	0.051914493774959	0.0159691055213445	0.253731343283582	0.237762237762238
-4	0.166271159626642	0.0998747757809595	0.303854875283447	0.203980099502487
1	0.086712568411254	0.0422725301413826	0.276346604215457	0.234074074074074
0	0.154944796805262	0.0997067448680352	0.274193548387097	0.174486803519062
0	0.11222859827511	0.0699382584628485	0.276346604215457	0.206408345752608
-15	-0.0573682961556712	-0.0144376126518981	0.2713529856387	0.285790598290598
2	0.220545043093072	0.134455968179622	0.303854875283447	0.169398907103825
-1	0.0152589013054127	0.00288619365827175	0.276346604215457	0.273460410557185
-3	0.122523031973799	0.0742189446409886	0.276346604215457	0.202127659574468
-4	0.0215009481192817	0.00664527113029934	0.303854875283447	0.297209604153148
-8	-0.0295159751183997	-0.0169003893090577	0.276346604215457	0.293246993524514
5	0.179108286388367	0.109105339105339	0.243650793650794	0.134545454545454
1	0.0132135306553911	-0.00144503338949487	0.274193548387097	0.275638581776592
10	0.0941293250141804	0.0366935483870968	0.274193548387097	0.2375
2	0.131656154204183	0.0674250027880008	0.303854875283447	0.236429872495446
3	0.097912108689193	0.0615968880777242	0.2713529856387	0.209756097560976
-13	0.0713881831802488	0.0515395021645021	0.299851190476191	0.248311688311689
-7	0.0229597507742201	0.0141885759664196	0.267449445531637	0.253260869565217
-6	-0.00279371790999694	0.0170616337191012	0.276346604215457	0.259284970496355
4	0.0905063928319742	0.0476375046142488	0.243650793650794	0.196013289036545
-16	-0.118856560975185	-0.0401020667611059	0.243650793650794	0.2837528604119
6	0.138427464008859	0.0780782059470583	0.276346604215457	0.198268398268398
-2	0.109417882420916	0.0699973978662503	0.276346604215457	0.206349206349206
1	0.120785932413839	0.0764705163010248	0.243650793650794	0.167180277349769
5	0.0960434913923288	0.0437884646805731	0.276346604215457	0.232558139534884
-3	0.155636008248792	0.0976625169171755	0.303854875283447	0.206192358366271
-8	0.0265432684701791	0.0100710080589358	0.2713529856387	0.261281977579764
4	0.0860012080942316	0.0401164940563381	0.276346604215457	0.236230110159119
5	0.163210174838082	0.0990226944772399	0.243650793650794	0.144628099173554
-7	0.0225636766334441	0.00885298563869996	0.2713529856387	0.2625
10	0.172958824121615	0.0966740494647473	0.243650793650794	0.146976744186046
-11	0.0979197591951179	0.0786237436654413	0.274193548387097	0.195569804721655
2	-0.0994246819544612	-0.0721479150275377	0.274193548387097	0.346341463414634
4	0.206036239908838	0.126249138328517	0.276346604215457	0.15009746588694
-16	-0.0228753827112243	0.00154140941026165	0.276346604215457	0.274805194805195
2	0.188013436555915	0.105708047058215	0.303854875283447	0.198146828225232
-9	-0.0883292714284689	-0.0480946379812164	0.243650793650794	0.29174543163201
1	-0.000601858539168665	-0.0218859295130479	0.243650793650794	0.265536723163842
10	0.170772222672393	0.0941371350619414	0.276346604215457	0.182209469153515
-8	-0.0212387280493589	-0.0171316566541083	0.276346604215457	0.293478260869565
1	0.052048726467331	0.032695810564663	0.276346604215457	0.243650793650794
-1	0.00211416490486221	-0.000714621148702688	0.253731343283582	0.254445964432285
2	0.220545043093072	0.134455968179622	0.303854875283447	0.169398907103825
-7	-0.127182185397017	-0.0840584860377204	0.243650793650794	0.327709279688514
0	0.105886103560523	0.0605045995670999	0.299851190476191	0.239346590909091
-7	0.0246796392975795	0.0116407218625155	0.276346604215457	0.264705882352941
-1	0.0482743691241959	0.00975585841749188	0.274193548387097	0.264437689969605
-7	0.0663463059642462	0.041665231666437	0.276346604215457	0.23468137254902
-17	-0.0837288403733589	-0.0201034580498867	0.303854875283447	0.323958333333334
-1	0.175679178153201	0.101727215708979	0.303854875283447	0.202127659574468
-12	-0.0264198702736908	-0.00508573089218245	0.274193548387097	0.279279279279279
0	0.0346638419439229	0.0095767195767196	0.243650793650794	0.234074074074074
11	0.206459948320413	0.101945628997868	0.253731343283582	0.151785714285714
-5	0.0155233403302593	0.00823066218647139	0.276346604215457	0.268115942028985
-17	-0.131347887992407	-0.0526053476946335	0.2713529856387	0.323958333333334
6	0.186046511627907	0.115307643176496	0.276346604215457	0.161038961038961
-8	0.0640594842588197	0.0407696411898092	0.243650793650794	0.202881152460984
-4	0.0623238603360369	0.0370393981894684	0.274193548387097	0.237154150197628
-5	0.0586235828152229	0.0379832953046829	0.274193548387097	0.236210253082414
-6	0.0558483746746125	0.0395388169292965	0.274193548387097	0.2346547314578
-2	0.119131110913053	0.0727579223659054	0.276346604215457	0.203588681849551
-16	-0.163568247685022	-0.0743783216907518	0.243650793650794	0.318029115341545
-8	0.0555904078603238	0.0423040510239673	0.276346604215457	0.234042553191489
0	-0.0194103391272246	-0.0348710317460316	0.299851190476191	0.334722222222222
9	0.157415660535343	0.0868531708195843	0.276346604215457	0.189493433395872
-2	-0.0124735822517807	-0.0235301320154056	0.243650793650794	0.267180925666199
-8	0.0439556499406341	0.0390472130881341	0.243650793650794	0.20460358056266
-6	-0.0722930067623286	-0.0537591842594081	0.253731343283582	0.30749052754299
-3	0.0743929808439951	0.0334174019719033	0.299851190476191	0.266433788504287
-6	0.0225312787163364	0.00927368287740676	0.299851190476191	0.290577507598784
-3	0.0305424000376994	0.00442842084179473	0.2713529856387	0.266924564796905
4	0.19202657807309	0.118451867373351	0.276346604215457	0.157894736842105
10	0.232987602301272	0.13970393188722	0.303854875283447	0.164150943396226
-9	0.0933792121499763	0.0685300207039338	0.243650793650794	0.17512077294686
2	0.0984319578859521	0.0520799124247402	0.243650793650794	0.191570881226053
-4	0.0964995907361932	0.0686507936507935	0.243650793650794	0.175
-11	-0.00253422568892747	0.0217415604739548	0.243650793650794	0.221909233176839
1	0.0438425859052757	0.0127656712402477	0.243650793650794	0.230885122410546
-2	0.00949025135071624	0.00288673020527846	0.274193548387097	0.271306818181818
-10	-0.176210862547803	-0.102933057280883	0.243650793650794	0.346583850931677
-3	0.156448439841053	0.0950793650793651	0.243650793650794	0.148571428571429
4	0.106312292358804	0.0562003968253969	0.299851190476191	0.243650793650794
-2	0.0535121025154248	0.0124747983870968	0.274193548387097	0.26171875
-4	0.0108671577832347	0.00660301447186695	0.276346604215457	0.26974358974359
-5	0.161169118810315	0.0991980125383488	0.303854875283447	0.204656862745098
-5	0.155256709314106	0.094521081755124	0.326739926739927	0.232218844984803
-7	-0.0264175561367542	-0.0195267348773489	0.267857142857143	0.287383877734492
-16	-0.12101505619566	-0.0475026218027338	0.243650793650794	0.291153415453527
0	0.162574028600318	0.0975056689342406	0.303854875283447	0.206349206349206
-3	0.0129247115091402	0.0048500881834215	0.243650793650794	0.238800705467372
-6	0.0236401710610025	0.0106078817589325	0.303854875283447	0.293246993524514
-1	0.122453370049265	0.0706048665375454	0.274193548387097	0.203588681849551
2	0.243498327089371	0.145152398827221	0.303854875283447	0.158702476456226
4	0.125943823618242	0.0633116883116883	0.267857142857143	0.204545454545455
1	0.0436355465678016	0.00886615515771538	0.241545893719807	0.232679738562092
1	0.124409777392589	0.0658620437422285	0.303854875283447	0.237992831541218
0	0.12880899622289	0.0678300305629502	0.303854875283447	0.236024844720497
2	0.190908504184325	0.114048620850865	0.274193548387097	0.160144927536232
16	0.191570159746414	0.101424669668561	0.274193548387097	0.172768878718535
-12	0.0569245372567629	0.0468246584508492	0.276346604215457	0.229521945764607
-2	0.113265167091297	0.0626970402785623	0.299851190476191	0.237154150197628
6	0.176991349286597	0.0948284690220175	0.274193548387097	0.179365079365079
-6	0.0626826064418838	0.0403986842408614	0.276346604215457	0.235947919974595
-9	0.0100458788166429	0.00935127674258107	0.243650793650794	0.234299516908213
-5	-0.0034564918285851	0.00588855588855572	0.243650793650794	0.237762237762238
1	0.186570768832026	0.108003637663408	0.2713529856387	0.163349347975292
-1	0.0264512815574498	0.00722092115534764	0.243650793650794	0.236429872495446
1	0.223166073003648	0.135551929981904	0.303854875283447	0.168302945301543
0	0.0667740528205643	0.0364062167340855	0.276346604215457	0.239940387481371
-9	-0.0815647015857307	-0.0495961998737206	0.243650793650794	0.293246993524514
-12	-0.109085259536769	-0.0529023335102362	0.2713529856387	0.324255319148936
-4	0.0582262025133614	0.038183233492402	0.303854875283447	0.265671641791045
5	0.14811738648948	0.0901624215577704	0.243650793650794	0.153488372093023
-1	0.126286824778747	0.0790036090463745	0.243650793650794	0.164647184604419
-4	0.0283275606135576	0.00726898359019151	0.274193548387097	0.266924564796905
10	0.164368095508198	0.0996507936507937	0.243650793650794	0.144
-1	-0.041377227423739	-0.0312302900080992	0.276346604215457	0.307576894223556
6	0.0821381303514034	0.0431087882307397	0.243650793650794	0.200542005420054
12	0.213180424226936	0.130349743932882	0.276346604215457	0.145996860282575
-5	0.003262875760348	0.00536019536019539	0.243650793650794	0.238290598290598
-1	0.170009926824246	0.108043658913914	0.276346604215457	0.168302945301543
-18	-0.114954121183357	-0.0421398046398044	0.243650793650794	0.285790598290598
1	0.0589111943639405	0.00917041872037466	0.2713529856387	0.262182566918325
-10	-0.0224591197191392	-0.00363565225954343	0.303854875283447	0.30749052754299
-5	0.110111684456068	0.0713175906758048	0.276346604215457	0.205029013539652
-8	0.0291694352159469	0.0134066456233242	0.276346604215457	0.262939958592132
-13	-0.0519084198974757	-0.036180554092982	0.2713529856387	0.307533539731682
6	0.0919158361018825	0.0368437697659709	0.278011204481793	0.241167434715822
-3	0.0234709463674888	0.00529722731686239	0.274193548387097	0.268896321070234
9	0.22179603342394	0.139372718784484	0.243650793650794	0.10427807486631
-14	-0.108197262081478	-0.0438355669544487	0.274193548387097	0.318029115341545
11	0.0653917834859415	0.00306030271187097	0.2713529856387	0.268292682926829
-1	0.181033670271671	0.112997256240165	0.276346604215457	0.163349347975292
-3	0.158201974505785	0.0972717477276748	0.2713529856387	0.174081237911025
2	0.0487365347830463	0.011482278861958	0.278011204481793	0.266528925619835
-7	0.0586932447397565	0.0410524865683979	0.276346604215457	0.235294117647059
-2	0.0839238590042647	0.0370790978693714	0.303854875283447	0.266775777414075
-10	-0.0124853662395187	-0.010132262364405	0.299851190476191	0.309983452840596
5	0.0723010839289909	0.0246425291879837	0.243650793650794	0.21900826446281
-7	0.122407660738714	0.0724544179523143	0.274193548387097	0.201739130434782
1	0.121235174217985	0.0663350644917468	0.2713529856387	0.205017921146953
6	0.091538306654586	0.0351228754795814	0.2713529856387	0.236230110159119
-8	-0.0338372895501307	-0.00814623188868652	0.2713529856387	0.279499217527386
9	0.223231504740297	0.135336356764928	0.303854875283447	0.168518518518518
-3	0.156133886121193	0.103112908563283	0.276346604215457	0.173233695652174
5	0.0863787375415284	0.0453823953823955	0.243650793650794	0.198268398268398
-4	0.0996966632962589	0.0681329423264908	0.274193548387097	0.206060606060606
3	0.0258985200845668	-0.00132872201101103	0.274193548387097	0.275522270398108
-3	0.124604492959975	0.0687014704871847	0.2713529856387	0.202651515151515
-1	0.0516460283902143	0.0347862141179321	0.276346604215457	0.241560390097525
-14	-0.114622358097123	-0.0479087149334795	0.276346604215457	0.324255319148936
-4	0.070474305506468	0.0415231340763257	0.243650793650794	0.202127659574468
-2	0.184491411606701	0.0954986249819076	0.322448979591837	0.226950354609929
0	-0.0649001971747291	-0.0330158730158729	0.243650793650794	0.276666666666667
2	0.115599516762308	0.0701976093396192	0.276346604215457	0.206148994875837
-8	0.0688182249644042	0.0409573967835981	0.274193548387097	0.233236151603499
-20	-0.0835683988382544	-0.0358759300239508	0.2713529856387	0.307228915662651
-5	0.10247986206939	0.0701542458491853	0.276346604215457	0.206192358366271
-2	0.0541293331991005	0.033590747876462	0.2713529856387	0.237762237762238
-7	0.0467308580812445	0.0379402161037465	0.243650793650794	0.205710577547047
7	0.226194317840726	0.142748414651614	0.243650793650794	0.10090237899918
-1	-0.0205931917762047	-0.0295101553166067	0.274193548387097	0.303703703703703
-1	0.0682956971126839	0.0353928429197246	0.274193548387097	0.238800705467372
-4	0.0173601613697993	0.00464305702091933	0.2713529856387	0.266709928617781
-4	0.122389653535833	0.0715420332355815	0.274193548387097	0.202651515151515
-2	0.109417882420916	0.0699973978662504	0.276346604215457	0.206349206349206
-6	0.147121886854692	0.0989745246073722	0.274193548387097	0.175219023779725
-7	0.0370194589463694	0.0123096857790736	0.303854875283447	0.291545189504373
-4	0.158391944110648	0.0983928238385437	0.303854875283447	0.205462051444903
-10	-0.0412278221531063	-0.0177473826409994	0.243650793650794	0.261398176291793
-2	-0.177137400292102	-0.124338300333401	0.241545893719807	0.365884194053208
-12	-0.170660446266582	-0.0967747382640999	0.243650793650794	0.340425531914894
-10	-0.0892543408086727	-0.0445479641131817	0.243650793650794	0.288198757763975
-3	0.101813600398029	0.0697530864197532	0.243650793650794	0.173897707231041
-13	-0.0259326056003793	-0.00605824961796836	0.276346604215457	0.282404853833425
-9	0.0127348144687817	0.0201452561701009	0.2713529856387	0.251207729468599
-19	-0.148940588110553	-0.0534135747844338	0.243650793650794	0.297064368435228
-8	0.0586932447397563	0.0373728438743918	0.247899159663866	0.210526315789474
-1	0.0651965268749896	0.0324640967498108	0.2713529856387	0.238888888888889
-6	0.0735840847967097	0.0399659863945581	0.303854875283447	0.263888888888889
-6	0.0521091311788985	0.0460565429509529	0.2713529856387	0.225296442687747
4	0.161591795464394	0.0903816919347546	0.276346604215457	0.185964912280702
0	0.183214639146109	0.104260143773822	0.303854875283447	0.199594731509625
5	0.157683143729655	0.0880349159037683	0.276346604215457	0.188311688311688
0	0.0667740528205643	0.0364062167340855	0.276346604215457	0.239940387481371
-12	-0.15163845102613	-0.0801363760634277	0.2713529856387	0.351489361702128
-19	-0.0182298321833207	0.00967993754878987	0.276346604215457	0.266666666666667
-7	0.00325259721167931	0.00744054056837981	0.243650793650794	0.236210253082414
4	0.180536259606027	0.102005876824279	0.303854875283447	0.201848998459168
1	0.0170391623879999	0.00281516101382101	0.243650793650794	0.240835632636973
1	0.0818222671609934	0.0377636758916507	0.274193548387097	0.236429872495446
-2	0.164375250347542	0.0948221769365388	0.299851190476191	0.205029013539652
-8	-0.0261937159821871	-0.0160558907589711	0.253731343283582	0.269787234042553
-12	-0.0680865369403578	-0.0326758209822727	0.274193548387097	0.30686936936937
-13	0.0432091441227652	0.0444498804087844	0.243650793650794	0.199200913242009
0	-0.0236585120306049	-0.029076479076479	0.243650793650794	0.272727272727273
1	0.0867125684112539	0.0422725301413825	0.276346604215457	0.234074074074074
-7	0.120370008468504	0.0764866145463162	0.243650793650794	0.167164179104478
2	0.162111144669284	0.104884247100754	0.276346604215457	0.171462357114702
0	0.149176146850566	0.0924310064935066	0.267857142857143	0.175426136363636
-5	0.125552918841955	0.0728533107995243	0.274193548387097	0.201340237587572
-16	0.0326337046446487	0.0375257613593962	0.303854875283447	0.266329113924051
-5	0.0638253693362549	0.0397228067440832	0.243650793650794	0.20392798690671
7	0.233288029799658	0.135428505857668	0.299851190476191	0.164422684618523
4	0.205980066445183	0.129520734847611	0.303854875283447	0.174334140435835
-30	-0.0671339045626015	0.00390720390720384	0.243650793650794	0.23974358974359
-11	-0.0658716975162158	-0.0355163837306695	0.2713529856387	0.306869369369369
4	0.173361522198732	0.105789378379078	0.274193548387097	0.168404170008019
-3	0.0670823844457218	0.0400621118012424	0.243650793650794	0.203588681849551
0	0.0672505788784861	0.0391053391053393	0.243650793650794	0.204545454545454
-6	0.00695287473249329	0.00649664345316533	0.243650793650794	0.237154150197628
-13	-0.0230185097294733	-0.00471801623875362	0.274193548387097	0.27891156462585
-2	0.0541192657471727	0.036172787785691	0.243650793650794	0.207478005865103
2	0.0196641270797416	-0.0210665293785496	0.278011204481793	0.299077733860342
0	0.202811883094997	0.12485119047619	0.299851190476191	0.175
-6	0.0504311356020585	0.0374584352845224	0.243650793650794	0.206192358366271
-3	0.0498338870431896	0.0402889838105787	0.303854875283447	0.263565891472868
-8	-0.0430008717984962	-0.0210550887021471	0.243650793650794	0.264705882352941
1	0.131157012855698	0.0763466042154565	0.276346604215457	0.2
-1	0.0264512815574498	0.00722092115534764	0.243650793650794	0.236429872495446
6	-0.0107487237663078	-0.0192194763885493	0.253731343283582	0.272950819672131
-2	0.101117487163999	0.0685543964232488	0.276346604215457	0.207792207792208
-8	0.0566963549397985	0.0419747034022941	0.274193548387097	0.232218844984803
-5	0.0212721778468931	0.00829891149040068	0.243650793650794	0.235351882160393
1	0.126266711605438	0.0712791585874612	0.274193548387097	0.202914389799636
2	0.129876841504749	0.0806413892620791	0.243650793650794	0.163009404388715
-12	-0.0208036703053314	-0.0075585789871504	0.2713529856387	0.27891156462585
-7	0.0663463059642462	0.0416652316664371	0.276346604215457	0.23468137254902
-4	0.0606068987842973	0.038487750172533	0.243650793650794	0.205163043478261
-2	0.0562938353636028	0.0346241060526775	0.303854875283447	0.269230769230769
-7	0.105897009966777	0.0671863189720331	0.2713529856387	0.204166666666667
-11	0.0985801297263088	0.0749926351450874	0.274193548387097	0.199200913242009
-4	0.0188455994664718	0.00607760635811144	0.274193548387097	0.268115942028985
4	0.0746249874156853	0.0305173530017273	0.2713529856387	0.240835632636973
2	0.103951982445195	0.0459326788218795	0.274193548387097	0.228260869565217
0	0.0566797543541732	0.0358988556662977	0.243650793650794	0.207751937984496
7	0.126975737440854	0.0668188498157784	0.243650793650794	0.176831943835015
11	0.252491694352159	0.156346604215457	0.276346604215457	0.12
