3
[ 2.125, 2.125, 2.841, 2.125, 2.841, 2.125, 2.125, 2.841, 2.841, 2.125, 1.827, 2.841, 1.827, 1.827, 2.125, 1.827, 1.827, 1.827, 2.841, 2.125, 1.827, 2.125, 1.827, 2.125, 1.827, 1.827, 2.841, 2.841, 2.125, 1.827, 1.827, 1.827, 2.841, 2.841, 2.841, 1.827, 2.125, 2.841, 2.841, 1.827, 2.841, 2.841, 2.125, 1.827, 1.827, 1.827, 2.125, 2.841, 2.841, 2.125, 1.827, 2.841, 2.841, 2.125, 2.841, 2.125, 2.125, 2.841, 1.827, 2.125, 2.125, 2.841, 1.827, 1.827, 1.827, 1.827, 1.827, 2.125, 2.841, 1.827, 2.841, 2.125, 2.841, 1.827, 2.125, 2.841, 2.841, 1.827, 2.841, 1.827, 1.827, 2.841, 2.841, 1.827, 2.841, 1.827, 2.841, 2.841, 2.125, 1.827, 2.841, 2.125, 2.841, 2.125, 2.125, 2.841, 2.125, 2.841, 1.827, 2.125 ]
3
[ 0.235, 0.840, 0.235, 0.840, 0.840, 0.235, 0.840, 0.253, 0.235, 0.235, 0.235, 0.840, 0.235, 0.253, 0.235, 0.253, 0.235, 0.840, 0.253, 0.840, 0.840, 0.840, 0.840, 0.253, 0.253, 0.235, 0.253, 0.235, 0.840, 0.253, 0.235, 0.235, 0.840, 0.253, 0.840, 0.253, 0.253, 0.253, 0.235, 0.840, 0.235, 0.235, 0.235, 0.840, 0.840, 0.235, 0.253, 0.253, 0.235, 0.840, 0.840, 0.253, 0.253, 0.840, 0.840, 0.235, 0.235, 0.840, 0.253, 0.840, 0.253, 0.840, 0.253, 0.253, 0.840, 0.840, 0.253, 0.235, 0.235, 0.840, 0.253, 0.253, 0.253, 0.840, 0.235, 0.235, 0.840, 0.253, 0.840, 0.840, 0.235, 0.253, 0.235, 0.235, 0.840, 0.840, 0.840, 0.235, 0.235, 0.840, 0.253, 0.253, 0.235, 0.840, 0.253, 0.253, 0.840, 0.253, 0.840, 0.235 ]