pars_sum	pars_var	pars_disp	obs_disp	sim_disp
3	-0.305517362947293	-0.152082715578712	0.571991358495361	0.724074074074073
5	-0.439573417944651	-0.224938545607399	0.448928121059268	0.673866666666667
-16	-0.775251189846643	-0.275325699712096	0.508959207014869	0.784284906726965
3	-0.212321523003702	-0.119294813222252	0.463344262295082	0.582639075517334
-14	-0.719196192490747	-0.232024873371557	0.715604128718883	0.94762900209044
-7	-0.618984664198837	-0.263103112973691	0.483476450689565	0.746579563663256
4	0.544685351665786	0.240980501738699	0.731246895181322	0.490266393442623
1	-0.641195134849286	-0.317259907060798	0.537909836065574	0.855169743126372
7	-0.429772607086196	-0.243801055848846	0.512131147540984	0.75593220338983
14	0.199881687565542	0.0517491152513125	0.617315573770492	0.56556645851918
-13	-0.272078265468005	-0.0832207010812691	0.394979508196721	0.478200209277991
5	-0.375092543627711	-0.194924590163935	0.511475409836065	0.7064
10	-0.570597567424642	-0.311135195044789	0.440897325280414	0.752032520325203
8	0.0327868852459019	-0.0146857923497266	0.474385245901639	0.489071038251366
13	0.256213643574827	0.0781372561908138	0.524717244884992	0.446579988694178
1	-0.24755890973299	-0.105521854225015	0.503033432296373	0.608555286521388
0	-0.524590163934427	-0.258131667967734	0.499609679937548	0.757741347905282
9	-0.0576414595452133	-0.0611447145279814	0.512131147540984	0.573275862068965
-4	-0.58170280274987	-0.263047699113274	0.467343221441582	0.730390920554856
15	-0.232945531464834	-0.181014612842935	0.47320773183264	0.654222344675575
8	0.057112638815442	0.00524758301807504	0.47960655737705	0.474358974358975
1	-0.498554556671952	-0.237178207915266	0.503033432296373	0.740211640211639
6	-0.167107350608143	-0.109034869658694	0.490266393442623	0.599301263101317
-8	-0.658910629296668	-0.272801418948314	0.503033432296373	0.775834851244687
0	-0.0983606557377049	-0.0491803278688525	0.459016393442623	0.508196721311475
-19	-0.40269698572184	-0.110102003642987	0.479606557377049	0.589708561020037
-11	-0.520218579234972	-0.187702894150981	0.491803278688525	0.679506172839506
3	-0.238480521769788	-0.118405801418581	0.542749054224464	0.661154855643045
-21	-0.543892120571126	-0.159457861150842	0.474385245901639	0.633843107052481
22	0.315855360061189	0.0965672282704798	0.469448584202683	0.372881355932204
1	-0.413273400317293	-0.200931817525486	0.498185458640971	0.699117276166456
-2	-0.185087255420411	-0.0769728982858126	0.503547834597504	0.580520732883317
10	0.21893178212586	0.058183224722855	0.653360030033788	0.595176805310933
12	0.00634584875727229	-0.0520706048727393	0.540475282755115	0.592545887627854
19	-0.256518238339801	-0.203756825290409	0.458504098360656	0.662260923651065
-4	-0.355244138903578	-0.143264566295647	0.430169017664252	0.5734335839599
2	-0.383571302661731	-0.188562363073204	0.499609679937548	0.688172043010752
13	-0.180204477348845	-0.134017004610133	0.521359339475889	0.655376344086021
-1	-0.76599682707562	-0.353319961602963	0.500248385494288	0.853568347097251
-15	0.303631235677772	0.200435304049242	0.583064412030463	0.382629107981221
8	-0.352194606028557	-0.216735689366976	0.467343221441582	0.684078910808558
10	0.00528820729772628	-0.036077729924979	0.458504098360656	0.494581828285635
22	0.222104706504494	0.0201298398019707	0.527112232030264	0.506982392228294
3	-0.351401374933897	-0.1851098688326	0.574022698612863	0.759132567445463
-10	-0.613432046536225	-0.239725478852657	0.519039628243191	0.758765107095849
9	-0.300951877313589	-0.180991699958671	0.458504098360656	0.639495798319327
-14	-0.359598096245373	-0.110902940411137	0.483476450689565	0.594379391100702
7	-0.284241142252777	-0.173652994006363	0.508959207014869	0.682612201021231
-9	-0.693283976731886	-0.260065341366179	0.529220372919534	0.789285714285713
-18	-0.157588577472238	-0.00136612021857963	0.531876138433515	0.533242258652095
4	-0.137493389740876	-0.0849876731477944	0.524717244884992	0.609704918032786
6	-0.427163758152654	-0.222982788970926	0.467150544362407	0.690133333333333
-1	-0.592543627710206	-0.270785263650445	0.487027236349555	0.7578125
0	0.0655737704918034	0.0317622950819672	0.52202868852459	0.490266393442623
-4	-0.940243257535697	-0.428663348629413	0.535045824190009	0.963709172819423
4	0.0306716023268113	-0.000377801635251362	0.487027236349555	0.487405037984806
-1	-0.0980786180151597	-0.0369173835842009	0.47087831534053	0.507795698924731
-2	-1.106204829896	-0.507302485016288	0.503033432296373	1.01033591731266
-13	-0.831958399435924	-0.308484358913439	0.544655737704918	0.853140096618357
-4	0.0126916975145419	0.0217803030303027	0.52202868852459	0.500248385494288
12	0.254891591750396	0.0809400550556719	0.548009367681499	0.467069312625827
15	0.2567424643046	0.0715305469403824	0.531876138433515	0.460345591493133
3	-0.15309360126917	-0.0874498484105806	0.508959207014869	0.596409055425449
-13	-0.789793759915387	-0.295359397457306	0.540475282755115	0.835834680212421
0	-0.209518773135908	-0.0903152585119803	0.495838587641866	0.586153846153846
5	-0.276485104882778	-0.143064177335508	0.454048683556881	0.597112860892389
-4	-0.548915917503968	-0.247410876919074	0.467343221441582	0.714754098360656
3	0.0987132028908875	0.0448229352742863	0.487027236349555	0.442204301075269
-7	-0.455050237969328	-0.180738732076092	0.596409055425449	0.77714778750154
15	-0.243363299841354	-0.194418461524277	0.535045824190009	0.729464285714286
5	-0.33439097479288	-0.180831091412314	0.499609679937548	0.680440771349862
-6	-0.305693636523885	-0.10945466458967	0.464564943253467	0.574019607843137
-4	-0.741406663141196	-0.331936164927968	0.537909836065574	0.869846000993542
1	-0.478847170809097	-0.231728001694214	0.436115630083844	0.667843631778058
-7	-0.484928609201482	-0.177802118905386	0.574022698612862	0.751824817518249
17	0.342393795170105	0.109125943450621	0.574022698612863	0.464896755162242
7	0.0756975503948238	0.0237423781321587	0.583064412030464	0.559322033898305
-29	-0.961131676361712	-0.273598051189377	0.583064412030463	0.85666246321984
10	-0.000948740241464519	-0.0258670457566474	0.503033432296373	0.528900478053021
-1	0.0177154944473813	0.0125824435879936	0.499609679937548	0.487027236349555
-4	-0.649391856160761	-0.296230779006227	0.512131147540984	0.808361926547211
10	-0.341723955579059	-0.203648613910651	0.374983864721828	0.578632478632479
-22	-0.622598272518948	-0.163366839844766	0.567058216083645	0.730425055928411
-28	-0.881015335801162	-0.273552437999159	0.426741803278689	0.700294241277847
-16	-0.624449145073155	-0.195051608986036	0.553790983606557	0.748842592592593
13	0.375198307773664	0.146527763385445	0.515742909185532	0.369215145800087
-6	-0.141723955579059	-0.0421993516026425	0.52202868852459	0.564228040127233
-5	-1.02353252247488	-0.467197982345524	0.544655737704918	1.01185372005044
5	-0.287942887361185	-0.160151324085751	0.433291298865069	0.59344262295082
0	-0.339326634937423	-0.149486669978473	0.454048683556881	0.603535353535354
4	-0.152106469240261	-0.0831624655474642	0.487027236349555	0.570189701897019
-9	-0.313326282390271	-0.108439587128112	0.531876138433515	0.640315725561627
-3	-0.72897937599154	-0.333421974721562	0.506147540983607	0.839569515705169
7	-0.211263881544156	-0.137562927584871	0.487027236349555	0.624590163934426
-11	-0.223426758328927	-0.0646302630027128	0.442622950819672	0.507253213822385
20	-0.0676185439802566	-0.119610149767253	0.490266393442623	0.609876543209876
4	0.113467301251543	0.0480369182160909	0.519039628243191	0.4710027100271
-12	-1.03120042305658	-0.41704284469787	0.531876138433515	0.948918983131385
19	0.573382689934779	0.209097325264732	0.684394944312351	0.475297619047619
1	-0.19746166049709	-0.0916773722956756	0.471021040402737	0.562698412698412
-2	-0.517186673717611	-0.235171385991059	0.511475409836065	0.746646795827124
-4	-0.0549973558963506	-0.0106694834838797	0.503033432296373	0.513702915780253
-14	-0.907104340255187	-0.317509219629061	0.451209992193598	0.76871921182266
18	0.0475938656795352	-0.0689921758569297	0.585553278688525	0.654545454545455
11	-0.0965097831834996	-0.0879284649776446	0.423248882265276	0.511177347242921
19	-0.163105940419531	-0.170707908031756	0.479606557377049	0.650314465408805
35	-0.0680592279217338	-0.202261080752884	0.489738919247116	0.692
1	-0.233192314472061	-0.107363872036488	0.553790983606557	0.661154855643045
-27	-0.754909219108056	-0.205193413862525	0.512131147540983	0.717324561403509
0	-0.19672131147541	-0.0952868852459018	0.474385245901639	0.569672131147541
-13	-0.278952934955049	-0.0797986317284103	0.471021040402737	0.550819672131147
0	-0.655737704918033	-0.320123918936362	0.535045824190009	0.855169743126372
-5	-0.130354309888948	-0.0423356033526443	0.490266393442623	0.532601996795267
0	-0.295081967213115	-0.142930327868853	0.537909836065574	0.680840163934427
8	-0.0740349021681664	-0.0680875695119185	0.464564943253467	0.532652512765386
1	-0.799312533051296	-0.379412998580096	0.537909836065574	0.91732283464567
8	-0.168164992067689	-0.112524405318915	0.398652941924006	0.511177347242921
29	0.337740172748104	0.0869488238087184	0.451209992193598	0.36426116838488
-2	-0.778424114225277	-0.356082924116699	0.451633087223126	0.807716011339825
-17	-0.825224748810153	-0.303569352400883	0.491803278688525	0.795372631089408
0	-0.557377049180328	-0.269979508196721	0.569672131147541	0.839651639344263
-3	-1.34923320994183	-0.601493489989486	0.571991358495362	1.17348484848485
-9	-0.371637581526528	-0.12214265849665	0.524717244884992	0.646859903381642
6	0.1544156530936	0.0501891551071875	0.558385876418663	0.508196721311475
-10	-0.263899171514192	-0.0755921767614158	0.483476450689565	0.559068627450981
12	-0.160920148069804	-0.129243000145075	0.479606557377049	0.608849557522124
8	-0.184029613960867	-0.128089673532296	0.447081967213115	0.575171640745411
11	-0.504970914859861	-0.303088713273066	0.556233320625238	0.859322033898304
-29	-0.864886303543098	-0.263322989909129	0.414410979794129	0.677733969703258
-5	-0.807844174158294	-0.348170878789183	0.471021040402737	0.819191919191919
14	0.20095187731359	0.0427400468384074	0.548009367681499	0.505269320843091
-8	-0.383324519654504	-0.139691688236986	0.47960655737705	0.619298245614035
-10	0.156530936012691	0.109205548549811	0.558385876418663	0.449180327868852
-4	-0.155473294553147	-0.0587761964811147	0.499609679937548	0.558385876418663
-4	-0.479111581173981	-0.206330725285643	0.617315573770492	0.823646299056135
-2	-0.158646218931781	-0.0673865069356869	0.537909836065574	0.605296343001261
14	0.108355367530406	0.00272464642380743	0.529220372919534	0.526495726495727
14	-0.156530936012694	-0.139731269295996	0.464564943253467	0.604296212549463
9	-0.212409659791998	-0.131700246110208	0.451633087223126	0.583333333333333
-22	-0.633527234267582	-0.181379021880646	0.540475282755115	0.721854304635761
10	0.275761337528048	0.116455343875715	0.528393442622951	0.411938098747236
15	-0.242993125330512	-0.204028287447675	0.519039628243191	0.723067915690866
3	-0.129825489159176	-0.0741623889164876	0.580085003035823	0.65424739195231
14	-0.363642080984264	-0.238572491150839	0.519039628243191	0.75761211939403
-10	-0.98572184029614	-0.40250778579803	0.436115630083844	0.838623415881874
14	-0.0950643398554546	-0.0932721210437238	0.438648782911078	0.531920903954802
-7	-0.356689582231625	-0.141679334949396	0.467343221441582	0.609022556390978
-18	-0.555261766261239	-0.166081834945187	0.556233320625238	0.722315155570426
12	0.0708619777895293	-0.00995316159250592	0.459016393442623	0.468969555035129
-27	-0.563458487572711	-0.138861087144089	0.512131147540984	0.650992234685073
-11	-0.0383395029085156	0.0240592906621378	0.515742909185532	0.491683618523394
-7	0.00396615547329349	0.0272950134900087	0.483476450689565	0.456181437199556
4	-0.372280233159151	-0.173559890373588	0.469448584202683	0.643008474576272
9	0.00925436277101932	-0.0321386512146578	0.495838587641866	0.527977238856523
-13	-0.782919090428346	-0.292949673277542	0.511475409836065	0.804425083113608
-16	-0.382866208355366	-0.11023834437856	0.512131147540984	0.622369491919544
-2	-0.387096774193549	-0.175676318028325	0.493201169144745	0.66887748717307
-6	-0.323462013044246	-0.120058902845789	0.483476450689565	0.603535353535354
-1	-0.244050766790057	-0.114282141474119	0.503033432296373	0.617315573770492
15	-0.331923144720608	-0.236961090703073	0.542749054224464	0.779710144927537
-6	-0.439978847170808	-0.182409683690315	0.503033432296373	0.685443115986688
12	0.385386920500618	0.152507301677031	0.585553278688525	0.433045977011494
1	-0.476203067160232	-0.239935467083008	0.467343221441582	0.70727868852459
-18	-0.462189317821258	-0.140019717986931	0.479606557377049	0.61962627536398
6	-0.34690639873083	-0.188741506535151	0.41032910144213	0.599070607977282
22	0.0814383923849823	-0.0607118001855856	0.52202868852459	0.582740488710176
-13	-0.989582231623482	-0.378501695131016	0.515742909185532	0.894244604316547
6	-0.337387625594925	-0.19344262295082	0.511475409836065	0.704918032786885
18	0.231856668668417	0.0593810753173606	0.535045824190009	0.475664748872648
9	-0.164198836594393	-0.126131365635563	0.592647789369101	0.718779155004664
-6	-0.192280886329505	-0.0371581359736085	0.52202868852459	0.559186824498199
5	-0.393954264476095	-0.192297005578473	0.495838587641866	0.688135593220339
18	0.248228450555262	0.0528260059612522	0.585553278688525	0.532727272727273
14	0.131147540983606	0.0173122112804253	0.436115630083844	0.418803418803419
-2	-0.713907985193021	-0.327570789865873	0.511475409836065	0.839046199701938
3	-0.0499735589635111	-0.0377690193763762	0.515742909185532	0.553511928561908
9	-0.253040719196193	-0.161885506445864	0.433291298865069	0.595176805310933
20	0.34690639873083	0.10864153889208	0.499609679937548	0.390968141045468
-1	-0.372554204124801	-0.170489562206559	0.423248882265276	0.593738444471835
-2	0.132011281508901	0.077850064325474	0.542749054224464	0.46489898989899
-7	-0.443945002644104	-0.175379187130437	0.524717244884992	0.700096432015429
-8	-0.496774193548389	-0.182582025188002	0.524717244884992	0.707299270072993
-8	-0.265468006345848	-0.0892637054247998	0.551052020136827	0.640315725561627
3	-0.0171866737176094	-0.0212422967321007	0.515742909185532	0.536985205917632
-3	-0.190974792878547	-0.0709417691256826	0.512131147540984	0.583072916666666
2	-0.98434690639873	-0.480160371756809	0.519039628243191	0.9992
3	-0.638551031200423	-0.337102929320075	0.512131147540983	0.849234076861058
8	-0.865150713907984	-0.468494536027828	0.498185458640971	0.966679994668798
8	-0.356689582231622	-0.210280054644808	0.585553278688525	0.795833333333333
7	0.141988365943945	0.0411471451576952	0.540475282755115	0.49932813759742
18	0.0582760444209409	-0.0480305486705125	0.551052020136827	0.59908256880734
4	0.0676890534108926	0.0177536919116646	0.512131147540983	0.494377455629319
-6	-0.731676361713378	-0.293954513056437	0.500248385494288	0.794202898550724
8	0.168164992067689	0.0537980004187035	0.503033432296373	0.449235431877669
-9	-0.600775603737	-0.217823824168912	0.574022698612863	0.791846522781775
9	-0.501057641459546	-0.297972096360975	0.455014844455918	0.752986940816894
35	0.391574123038955	0.106777283688413	0.417654476670869	0.310877192982456
-8	-0.877013925612551	-0.365456674473068	0.451209992193598	0.816666666666667
-9	-0.204918032786885	-0.0510321797207041	0.595142683667274	0.646174863387978
-22	-0.498149127445797	-0.0964455736931465	0.715604128718883	0.81204970241203
-5	-0.624801692226336	-0.275625755424387	0.471021040402737	0.746646795827124
22	-0.0526705446853528	-0.1259420112552	0.549057988744801	0.675
-20	-0.978318350079323	-0.342429592265658	0.464564943253467	0.806994535519125
7	0.159157412303897	0.0563521767601506	0.585553278688525	0.529201101928374
-4	0.0433632998413533	0.038326581971647	0.583064412030463	0.544737830058816
11	0.1409307244844	0.0272303710094913	0.512131147540984	0.484900776531493
-5	-0.215494447382338	-0.0775191721284683	0.532601996795267	0.610121168923735
-4	-0.214701216287678	-0.0814617558000985	0.619265472105731	0.70072722790583
4	-0.327868852459017	-0.183002521083683	0.499609679937548	0.682612201021231
8	-0.114225277630884	-0.0949689089881296	0.491803278688525	0.586772187676654
32	0.215547329455315	-0.00978478080181044	0.474681238615665	0.484466019417475
15	0.0499610106750081	-0.0250911757640644	0.540475282755115	0.565566458519179
4	-0.354697690816147	-0.180665497521922	0.493201169144745	0.673866666666667
6	-0.21501850872554	-0.127364650778343	0.512131147540984	0.639495798319327
1	-0.298554556671954	-0.14035281108987	0.503033432296373	0.643386243386243
5	0.184294024325754	0.0738797814207655	0.512131147540984	0.438251366120218
2	-0.29402432575357	-0.157484547164741	0.491803278688525	0.649287825853265
-20	-0.749920676890536	-0.230940570367815	0.535045824190009	0.765986394557824
0	-0.229508196721312	-0.109457755359395	0.464564943253467	0.574022698612862
-3	-0.2200775603737	-0.0786131794101698	0.617315573770492	0.695928753180662
-5	-0.472325048475234	-0.196539096919889	0.406996256615464	0.603535353535354
0	-0.655737704918033	-0.320123918936363	0.583064412030463	0.903188330966826
33	0.525824078970563	0.157299755536382	0.553790983606558	0.396491228070176
0	-0.0655737704918036	-0.0322664584959668	0.499609679937548	0.531876138433515
-9	-0.247752511898467	-0.0793997744817422	0.515742909185532	0.595142683667274
20	0.245126035607261	0.0526875310481863	0.511475409836065	0.458787878787879
-5	-0.193283976731888	-0.0686749250317228	0.556233320625238	0.624908245656961
-5	-0.321787414066632	-0.125944607911821	0.589659520807062	0.715604128718883
1	-0.677154944473824	-0.319224167588043	0.47320773183264	0.792431899420683
11	0.0193038110635717	-0.00986051837052354	0.498185458640971	0.508045977011494
8	3.33066907387547e-16	-0.0305669398907102	0.458504098360656	0.489071038251366
14	0.0846113167636176	-0.0107302533532039	0.459016393442623	0.469746646795827
-16	-0.589053410893708	-0.162644499939582	0.65424739195231	0.816891891891892
25	0.0580645161290336	-0.0924637911825554	0.569672131147541	0.662135922330097
-4	-0.179799048122688	-0.0674559108618327	0.527112232030264	0.594568142892097
8	0.199894235854045	0.0686334973155678	0.459623557984214	0.390990060668646
18	-0.097303014278161	-0.136438546274613	0.483476450689565	0.619914996964178
3	-0.120306716023267	-0.0698158536511562	0.445927055534376	0.515742909185532
-22	-0.106821787414064	0.0526577247888734	0.669647292598113	0.616989567809239
19	0.0742993125330508	-0.0433836280100829	0.498185458640971	0.541569086651054
18	0.225277630883129	0.0525580976400643	0.448928121059268	0.396370023419204
3	0.0795875198307774	0.0264618562024009	0.551052020136827	0.524590163934426
10	-0.180856689582234	-0.135562195483056	0.451209992193598	0.586772187676654
10	-0.255790586991009	-0.166039057636016	0.524717244884992	0.690756302521008
9	-0.0610787942887363	-0.0643572379582769	0.451633087223126	0.515990325181403
-1	-0.113960867265998	-0.0522695810564667	0.479606557377049	0.531876138433515
11	-0.0520888418826031	-0.0801996460627131	0.574022698612862	0.654222344675575
7	0.13689405958047	0.0491367972584981	0.512131147540984	0.462994350282486
21	-0.158103356069637	-0.157318135572329	0.486749661037841	0.64406779661017
1	-0.0843469063987305	-0.0454473249459905	0.587749396365485	0.633196721311475
-1	-0.0769434161819138	-0.0310557406484155	0.609022556390978	0.640078297039393
-3	-0.697778952934955	-0.320809047671059	0.519039628243191	0.83984867591425
13	0.0140137493389745	-0.0423638805287386	0.519039628243191	0.56140350877193
18	0.215988013396792	0.0395485593641334	0.553790983606558	0.514242424242424
5	-0.472184029613961	-0.243524610660862	0.477443131274622	0.720967741935484
8	-0.151771549444737	-0.0990437158469939	0.442622950819672	0.541666666666666
39	0.466155473294553	0.107696932174038	0.515742909185532	0.408045977011494
10	-0.0433632998413547	-0.0608266944941162	0.467150544362407	0.527977238856523
5	-0.219447008876422	-0.112429856020248	0.467343221441582	0.57977307746183
3	-0.538850696280625	-0.265045678541674	0.571991358495362	0.837037037037036
4	-0.157429931253305	-0.0856086415046385	0.571991358495362	0.6576
28	-0.433174687114401	-0.389549853617682	0.529220372919534	0.918770226537216
-4	-0.118455843469064	-0.0383755588673623	0.569672131147541	0.608047690014904
3	-0.5382161114049	-0.271739558144996	0.612542284673432	0.884281842818428
12	-0.282390269698573	-0.201649943470888	0.490266393442623	0.691916336913511
-13	-0.384188260179801	-0.129165052033316	0.451209992193598	0.580375044226914
-2	-0.218931782125859	-0.0922031855595272	0.563170220633551	0.655373406193078
-10	-0.590816146659616	-0.197705257066776	0.639590780229261	0.837296037296037
16	-0.0453199365415131	-0.0885721382442697	0.499609679937548	0.588181818181818
1	-0.297461660497091	-0.140090070708374	0.471021040402737	0.611111111111111
7	0.0315000881367893	-0.00474434548140446	0.503033432296373	0.507777777777777
21	0.0936012691697505	-0.0256396400496017	0.451633087223125	0.477272727272727
2	0.162876784769963	0.072599531615925	0.548009367681499	0.475409836065574
9	-0.16007403490217	-0.111289257190897	0.467343221441582	0.578632478632479
-14	-0.398730830248546	-0.112227960772125	0.579398091509665	0.69162605228179
5	-0.131693989071037	-0.0807319649171139	0.524590163934426	0.60532212885154
11	0.374140666314118	0.14765119162419	0.511475409836065	0.363824218211875
4	-0.33632998413538	-0.179250985808364	0.433291298865069	0.612542284673433
-11	-0.726864093072451	-0.284945041795587	0.548009367681499	0.832954409477086
8	-0.0994182971972508	-0.0853724686595954	0.595467695274831	0.680840163934427
6	-0.0253833950290856	-0.0405811835472532	0.610200364298725	0.650781547845978
10	-0.347533663771598	-0.200199032552145	0.508959207014868	0.709158239567014
-17	-0.249867794817558	-0.0355145764981833	0.612542284673432	0.648056861171616
-1	-0.211263881544157	-0.0985260423389699	0.487027236349555	0.585553278688525
-4	-0.542570068746696	-0.239516060452313	0.445927055534375	0.685443115986688
-1	-0.470753375340223	-0.194714653724684	0.527112232030264	0.721826885754949
17	0.101269169751455	-0.017296870000564	0.488377783215072	0.505674653215636
1	0.0806451612903238	0.0351820776501305	0.567058216083646	0.531876138433515
1	-0.282654680063458	-0.137711743893698	0.51564828614009	0.653360030033788
-13	-0.23400317292438	-0.0452315424195291	0.639344262295082	0.684575804714611
12	-0.0327868852459021	-0.0660610853442197	0.480201765447667	0.546262850791886
2	-0.792173453199367	-0.391945145018916	0.527112232030264	0.91905737704918
-6	-0.486532698748456	-0.192705916074554	0.503033432296373	0.695739348370927
18	-0.0835536753040711	-0.124720566318926	0.474385245901639	0.599105812220566
-4	-0.634584875727127	-0.276394611495865	0.438648782911078	0.715043394406943
-10	-0.968799576943416	-0.399731230696127	0.490266393442623	0.88999762413875
8	-0.239555790586991	-0.137903379278471	0.47320773183264	0.611111111111111
5	-0.375797637934074	-0.192993374159686	0.482668001501689	0.675661375661375
0	-0.163934426229507	-0.0813114754098353	0.528393442622951	0.609704918032786
22	0.00657500440684078	-0.0755936413313456	0.438648782911079	0.514242424242424
-9	-0.462982548915918	-0.182007547503412	0.398652941924006	0.580660489427418
-17	-0.38475233562489	-0.0901183245508211	0.540475282755115	0.630593607305936
-9	-0.760373699982372	-0.306711850583149	0.479606557377049	0.786318407960199
9	-0.266790058170282	-0.179807442102525	0.499609679937548	0.679417122040073
10	-0.234796404019037	-0.169146700294241	0.574022698612862	0.743169398907104
18	-0.31835007932311	-0.244829659842602	0.454048683556881	0.698878343399483
-4	-0.606028556319409	-0.267467203704053	0.433291298865069	0.700758502569122
-2	-0.358540454785827	-0.167482638440686	0.479606557377049	0.647089195817736
5	-0.00675127798343067	-0.0182565294092338	0.6150768039241	0.633333333333333
-12	-0.670544685351667	-0.259217775967598	0.483476450689565	0.742694226657163
-5	-0.450290851401375	-0.185252526739641	0.544737830058816	0.729990356798457
-8	-0.246412832716377	-0.072352717287878	0.531876138433515	0.604228855721393
-17	-0.381015335801164	-0.0942936844576191	0.596409055425449	0.690702739883068
10	-0.0794465009695047	-0.0747504544964231	0.564228040127233	0.638978494623656
10	-0.0398554556671958	-0.0519509273466313	0.451209992193598	0.50316091954023
15	0.289970033491979	0.0960577289519135	0.535045824190009	0.438988095238096
10	-0.31200423056584	-0.212612273098425	0.531876138433515	0.74448841153194
20	0.349074563722899	0.109113418974682	0.502033772956983	0.3929203539823
7	-0.495016536851634	-0.259678432110407	0.503033432296373	0.76271186440678
23	-0.305922792173454	-0.243216916132098	0.448087431693989	0.691304347826087
18	0.384644629481906	0.133546049668187	0.563170220633552	0.429624170965365
1	-0.362347964040191	-0.168916694465625	0.445927055534375	0.61484375
25	0.0690111052353258	-0.0724071314235245	0.489738919247116	0.562146050670641
-20	-0.57429931253305	-0.157488432765006	0.591290201476661	0.748778634241667
-5	-0.113625947470475	-0.0243579582585969	0.531876138433515	0.556234096692112
-7	-0.148863035430989	-0.0368011482137652	0.603507434235608	0.640308582449373
-2	-0.408161466596158	-0.178775736729118	0.499609679937548	0.678385416666667
16	-0.0277278335977442	-0.0780786494925841	0.506147540983607	0.584226190476191
4	-0.131147540983607	-0.0835583539157848	0.515742909185532	0.599301263101316
-4	-0.435483870967742	-0.178913709241578	0.548009367681499	0.726923076923077
-6	-0.380750925436277	-0.158236015517457	0.47960655737705	0.637842572894506
1	-0.382019049497021	-0.160230978906225	0.592647789369101	0.752878768275327
-7	-0.0906927551560024	-0.00899529716847558	0.631082999870918	0.640078297039393
2	0.0795875198307767	0.0390706079772811	0.599070607977281	0.56
-4	-0.118455843469064	-0.0383755588673621	0.569672131147541	0.608047690014903
-1	0.15097831835008	0.0759566050268093	0.589659520807062	0.513702915780252
9	0.145161290322581	0.0344643537933665	0.540475282755115	0.506010928961748
8	-0.118455843469063	-0.100012890570267	0.544655737704918	0.644668628275185
-2	-0.630442446677242	-0.274224229074751	0.482668001501689	0.75689223057644
2	-0.299312533051296	-0.153888026672991	0.493201169144745	0.647089195817736
19	0.107086197778953	-0.0410282996942986	0.591290201476661	0.63231850117096
-7	-0.91776837652036	-0.405639344262295	0.47960655737705	0.885245901639345
-5	-0.788736118455844	-0.350200077449336	0.535045824190009	0.885245901639345
4	0.0592279217345328	0.0120818401321646	0.540475282755115	0.52839344262295
8	-0.335018986755581	-0.19080970767742	0.508196721311475	0.699006428988896
-5	-0.77581526529173	-0.323035303422489	0.617315573770492	0.940350877192981
3	-0.205658381808567	-0.105890938011384	0.6150768039241	0.720967741935484
-2	0.104706504494976	0.0592507656384751	0.635023509975855	0.57577274433738
15	-0.0603736999823735	-0.0900904123199209	0.479606557377049	0.56969696969697
11	0.40692755156002	0.151724649506713	0.652206809583859	0.500482160077146
15	0.0836241847347088	-0.0266795742205576	0.638847491306508	0.665527065527065
19	0.0489864269346032	-0.058824523073049	0.551052020136827	0.609876543209876
1	-0.64013749338974	-0.32111787665886	0.451209992193598	0.772327868852458
2	-0.616798871849108	-0.298357945181714	0.490266393442623	0.788624338624337
5	-0.568270756213646	-0.29913312387232	0.515742909185532	0.814876033057852
16	0.287678476996298	0.0813138145990145	0.540475282755115	0.459161468156101
8	-0.830583465538515	-0.427903706552569	0.407848981619474	0.835752688172043
-5	-0.63008989952406	-0.282058007566204	0.479606557377049	0.761664564943253
13	-0.32178741406663	-0.220620588026566	0.484848484848486	0.705469072875052
1	-0.332504847523355	-0.159507491627005	0.495868852459017	0.655376344086021
9	0.149920676890534	0.0362265807962528	0.553790983606558	0.517564402810305
7	-0.367407015688348	-0.206201181819486	0.471021040402737	0.677222222222222
-9	-0.387890005288207	-0.133768346532706	0.591290201476661	0.725058548009367
15	-0.0173453199365412	-0.0709397214565499	0.537909836065574	0.608849557522124
10	0.0414771725718324	-0.0189015293498257	0.603507434235608	0.622408963585434
13	0.0379205569709313	-0.0141328539226978	0.592647789369101	0.606780643291799
-9	-0.36409307244844	-0.120576596947428	0.565573770491803	0.686150367439231
17	-0.130883130618719	-0.144090967764647	0.455014844455919	0.599105812220566
3	0.0732416710735057	0.0245275935427354	0.467150544362407	0.442622950819672
3	-0.135924554909219	-0.0701191256830601	0.506147540983607	0.576266666666667
-1	-0.603648863035431	-0.28446386502048	0.445927055534375	0.730390920554855
-5	-0.302221047065044	-0.12631525851198	0.463344262295082	0.589659520807062
12	0.0856689582231641	-0.00422255340288041	0.484848484848486	0.489071038251366
3	-0.181121099947118	-0.103088923160894	0.483476450689565	0.586565373850459
-7	-0.400511193372113	-0.151955024172453	0.467343221441582	0.619298245614035
8	-0.0613432046536224	-0.0679297922860895	0.535045824190009	0.602975616476099
3	-0.551295610787943	-0.278030014209961	0.561847988077497	0.839878002287458
3	0.209148598625068	0.0896844262295092	0.585553278688525	0.495868852459016
8	-0.242887361184558	-0.151162673392181	0.47960655737705	0.630769230769231
-8	-0.187979934689146	-0.0333782732956631	0.564142596929482	0.597520870225145
-15	-0.61497219956559	-0.198359544317866	0.47960655737705	0.677966101694915
-11	-0.0679534637757799	0.0220665128904504	0.551052020136827	0.528985507246377
-4	-0.034937422880311	0.00828639484377158	0.531876138433515	0.523589743589744
-6	-0.272871496562665	-0.102168460973819	0.537909836065574	0.640078297039393
22	-0.0190375462718159	-0.0957200704003023	0.420598172944562	0.516318243344865
-20	-0.32258064516129	-0.0588818831441782	0.558385876418663	0.617267759562841
7	-0.377824784064868	-0.208389122983285	0.527112232030265	0.73550135501355
-16	-0.242199894235854	-0.0399454127727199	0.574022698612863	0.613968111385582
-5	-0.392649391856161	-0.166996641193147	0.426741803278689	0.593738444471835
7	-0.32758681473647	-0.188228767250161	0.447081967213115	0.635310734463276
0	-0.280292614137141	-0.127638997311128	0.499609679937548	0.627248677248677
4	-0.78820729772607	-0.388609659921135	0.464564943253467	0.853174603174602
-6	-0.0433632998413531	0.00259970638610263	0.506147540983607	0.503547834597504
9	-0.252196846794362	-0.149726504547289	0.483476450689565	0.633202955236854
-2	-0.665500123989041	-0.290084253499988	0.512131147540984	0.802215401040971
9	0.0610787942887355	-0.00358293800916776	0.467343221441582	0.470926159450749
-7	-0.416076150185089	-0.151298312791672	0.511475409836065	0.662773722627738
-11	0.0446853516657855	0.0610170106929544	0.524717244884992	0.463700234192037
0	-0.440824960338447	-0.197734951820799	0.467150544362407	0.664885496183206
7	-0.120306716023268	-0.0921503555141673	0.540475282755115	0.632625638269282
9	-0.238762559492332	-0.166260094120633	0.535045824190009	0.701305918310642
-13	-0.666173100652212	-0.228773543535965	0.540475282755115	0.76924882629108
32	-0.108937070333157	-0.201144252600246	0.398652941924006	0.599797194524252
-28	-1.17609730301428	-0.37942675493905	0.490266393442623	0.869693148381673
-1	-0.40851401374934	-0.195752170322973	0.467343221441582	0.663095391764554
5	-0.335166578529878	-0.178978959597263	0.471021040402737	0.65
22	0.0588224925083742	-0.0644524352488719	0.519039628243191	0.583492063492063
-1	-0.327287149656268	-0.145657407578152	0.483476450689565	0.629133858267717
-5	0.00343733474352192	0.0211694102874874	0.524717244884992	0.503547834597504
1	-0.183765203595981	-0.0921902524955959	0.591290201476661	0.683480453972257
10	-0.0602855631940764	-0.0745693248124474	0.506147540983607	0.580716865796054
6	0.0719196192490731	0.0108290398126456	0.52839344262295	0.517564402810305
-4	-0.703521438153369	-0.289047670709175	0.461685093404499	0.750732764113674
6	-0.0423056583818091	-0.0489281210592688	0.574022698612862	0.622950819672131
13	0.0123744050766796	-0.0478540646181087	0.567058216083645	0.614912280701754
-27	-0.711528291909041	-0.178103044496487	0.578454332552693	0.75655737704918
0	-0.0124272871496556	0.0024974385245905	0.52202868852459	0.51953125
-19	-0.890128679710912	-0.30199951546475	0.499609679937548	0.801609195402299
-1	-0.286867618543977	-0.118714819836475	0.546448087431694	0.66516290726817
8	-0.249603384452669	-0.165062070898136	0.479606557377049	0.644668628275185
-1	0.0510312004230562	0.0297736220472439	0.647089195817736	0.617315573770492
7	0.134584875727128	0.0382930797146787	0.513702915780252	0.475409836065574
6	-0.632469592808039	-0.336443883984868	0.41765447667087	0.754098360655738
8	-0.459016393442622	-0.270901639344262	0.506147540983607	0.777049180327868
-5	-0.92891484193638	-0.387567492202857	0.503033432296373	0.89060092449923
-8	0.144896879957694	0.0977682626768064	0.57577274433738	0.478004481660573
-1	0.178847170809095	0.095129463828625	0.529220372919534	0.434090909090909
11	0.302749867794818	0.105064030367497	0.560255287198098	0.455191256830601
5	-0.302926141371408	-0.163633234370294	0.503033432296373	0.666666666666667
3	-0.568023973206417	-0.288273224043716	0.52839344262295	0.816666666666667
-18	-0.462189317821259	-0.144113722343231	0.447081967213115	0.591195689556346
23	0.119777895293496	-0.0186027345572976	0.406996256615464	0.425598991172762
-2	-0.54343380927199	-0.245338496622348	0.495868852459017	0.741207349081365
13	0.0870216338469166	0.00758400582287344	0.490266393442623	0.48268238761975
-4	0.00451260356072591	0.0267987249544626	0.537909836065574	0.511111111111111
5	-0.11872025383395	-0.0791266826602688	0.474385245901639	0.553511928561908
-2	-0.042041248016923	-0.00378834081446822	0.515742909185532	0.51953125
17	-0.124554909219109	-0.149387782385226	0.580275826177465	0.729663608562692
0	-0.229508196721312	-0.110306265090863	0.571991358495362	0.682297623586225
-2	-0.162823902696986	-0.0582323108748358	0.51564828614009	0.573880597014926
23	0.328733937443794	0.0764040887087298	0.608047690014903	0.531643601306174
-5	-0.0240613432046533	0.0084874896022733	0.529220372919534	0.520732883317261
9	-0.140930724484399	-0.106157083435282	0.503547834597504	0.609704918032786
-1	-0.0945884011986604	-0.0293354643831197	0.635023509975855	0.664358974358974
17	-0.19381279746166	-0.171460896442545	0.47320773183264	0.644668628275186
-1	-0.548069804336329	-0.242137385191742	0.392449080973672	0.634586466165413
-19	-1.09985898113873	-0.388426545481581	0.474385245901639	0.862811791383221
16	0.346254186497444	0.125045634249197	0.519039628243191	0.393993993993994
-16	-0.317292437863564	-0.08140448785025	0.512131147540983	0.593535635391233
-2	-1.46744227040367	-0.661776656858624	0.527112232030264	1.18888888888889
22	0.146589106292967	-0.0197939220538197	0.553790983606558	0.573584905660377
4	-0.184117750749163	-0.0998568826437682	0.483476450689565	0.583333333333333
14	0.0655737704918042	-0.0267202312002707	0.513702915780253	0.540423146980523
9	-0.145161290322581	-0.110307032649125	0.458504098360656	0.568811131009781
-11	-0.364093072448439	-0.118193282127708	0.51564828614009	0.633841568267798
-5	0.0965097831835003	0.0655972399873262	0.535045824190009	0.469448584202683
21	0.220377225453904	0.0126910577429911	0.637842572894506	0.625151515151515
-1	-0.474087784241142	-0.227637528915443	0.483476450689565	0.711113979605008
-5	0.162083553675303	0.0957907459779149	0.519039628243191	0.423248882265276
15	0.329120394852811	0.117725688526028	0.498185458640971	0.380459770114942
18	-0.390508564206901	-0.270610006609023	0.477443131274622	0.748053137883645
11	-0.0468358893001941	-0.0618526397753029	0.513702915780252	0.575555555555555
9	-0.185511656463714	-0.116209529102	0.499609679937548	0.615819209039548
-6	-0.085668958223162	-0.0155995494931798	0.544655737704918	0.560255287198098
3	0.0171866737176106	-0.0030593926363876	0.47960655737705	0.482665950013437
-10	-0.59227921734532	-0.227303588877913	0.467150544362407	0.69445413324032
19	0.225542041248017	0.0337688744093627	0.540475282755115	0.506706408345752
-14	-1.28080380750926	-0.497169679136893	0.558385876418663	1.05555555555556
-1	-0.14516129032258	-0.0653513788283135	0.569672131147541	0.635023509975855
16	0.444068394147717	0.170752099718151	0.583064412030464	0.412312312312313
17	0.121893178212587	-0.00873711135901756	0.507253213822385	0.515990325181403
-3	-0.22376167812445	-0.0872040642076505	0.495868852459016	0.583072916666667
-6	-0.213643574828134	-0.0776382087857504	0.499609679937548	0.577247888723299
10	-0.0602855631940766	-0.0732234648513473	0.490266393442623	0.56348985829397
-12	-0.887361184558432	-0.352312646370022	0.474385245901639	0.826697892271662
-9	-0.427040366649039	-0.154970557050811	0.479606557377049	0.634577114427861
21	-0.373065397496916	-0.284427518837481	0.451633087223126	0.736060606060606
-3	-0.235589635113698	-0.100162894672998	0.461685093404499	0.561847988077497
1	-0.412744579587521	-0.20185342678671	0.448928121059268	0.650781547845978
-3	-0.992860920148071	-0.460432326160996	0.567058216083645	1.02749054224464
-9	-0.805129561078796	-0.338606991066008	0.467343221441582	0.80595021250759
18	0.31912568306011	0.104464377770904	0.524590163934426	0.420125786163522
6	-0.357606204829897	-0.190050373564388	0.448928121059268	0.638978494623656
0	0.032786885245901	0.015758037870123	0.571991358495362	0.556233320625239
1	-0.413802221047065	-0.19884112050299	0.392449080973672	0.591290201476661
16	0.153798695575534	0.0271989305740514	0.444565877352763	0.417366946778711
0	-0.295081967213114	-0.144055763521363	0.4390086485091	0.583064412030463
5	-0.528779051528651	-0.261525050996551	0.506147540983607	0.767672591980158
19	0.0861272695222973	-0.0236038623702591	0.47320773183264	0.496811594202899
13	0.133443475987182	0.0359280031979288	0.551052020136827	0.515124016938898
6	-0.32973735237088	-0.181262796783685	0.605296343001261	0.786559139784946
4	-0.0698043363299841	-0.0507172131147541	0.490266393442623	0.540983606557377
17	0.0190199189141553	-0.0582026009058823	0.532601996795267	0.590804597701149
8	-0.0983606557377041	-0.0898565573770488	0.585553278688525	0.675409836065574
21	0.339767318878899	0.0777029412179997	0.603507434235608	0.525804493017608
-5	-0.531729243786356	-0.236398486759142	0.447081967213115	0.683480453972257
14	0.229508196721311	0.0657213724414324	0.467150544362407	0.401429171920975
5	-0.243557200775603	-0.12968332760599	0.513702915780252	0.643386243386243
4	-0.394218226687819	-0.200467049647377	0.63656998738966	0.837037037037037
-12	-0.237969328397674	-0.0613354159837229	0.519039628243191	0.580375044226914
-11	-0.30019390093425	-0.083617376587727	0.519039628243191	0.602657004830918
5	0.0203595980962463	-0.00946448087431645	0.479606557377049	0.489071038251366
-2	-0.719196192490747	-0.343038595585388	0.512131147540983	0.855169743126372
2	-0.430460074034901	-0.216423862000094	0.398652941924006	0.615076803924099
21	0.137383741600863	-0.00770251993397786	0.551035060428384	0.558737580362362
1	-0.282654680063458	-0.137946856880657	0.546448087431695	0.684394944312352
-9	-0.711880839062224	-0.272243079653783	0.553790983606558	0.826034063260341
-10	-0.553146483342148	-0.216619981325864	0.483476450689565	0.700096432015429
12	0.163934426229507	0.0404813302840527	0.448928121059268	0.408446790775215
-8	-1.35483870967742	-0.567260495151376	0.502033772956983	1.06929426810836
-8	-0.318843645337563	-0.105218949011873	0.544655737704918	0.649874686716791
23	0.0989423585404544	-0.0332560272238771	0.451209992193598	0.484466019417475
9	-1.53134144191786	-0.820317396418807	0.487027236349555	1.30734463276836
-4	0.0782654680063444	0.0516176105315443	0.490266393442623	0.438648782911079
-14	-0.410364886303542	-0.137100265527591	0.426741803278689	0.56384206880628
13	-0.498959985898114	-0.313260349428793	0.540475282755115	0.853735632183908
9	0.266790058170281	0.0908173334345406	0.606807658615943	0.515990325181403
11	-0.138815441565308	-0.116667542384755	0.458504098360656	0.575171640745411
-7	-0.513220518244315	-0.209456587735276	0.506147540983607	0.715604128718883
5	-0.225013220518246	-0.131721599497848	0.529220372919534	0.660941972417383
-10	-0.529472942005994	-0.197564517610323	0.451209992193598	0.648774509803922
-5	-0.660232681121102	-0.292175920132372	0.531876138433515	0.824052058565887
-10	-0.6409307244844	-0.253578641007365	0.474385245901639	0.727963886909005
-10	-0.785104882778072	-0.302789657084026	0.506147540983607	0.808937198067633
-10	-1.72818614489688	-0.754727754280206	0.374983864721828	1.12971161900203
14	-0.027851225101356	-0.0569771064352886	0.423248882265276	0.480225988700565
14	0.131147540983607	-0.00311247589435504	0.606807658615943	0.609920134510298
9	-0.55654856337035	-0.321542867910307	0.479606557377049	0.801149425287356
0	-0.138462894412128	-0.0551545550933855	0.488377783215072	0.543532338308458
-2	-0.132346201304425	-0.0396930090861641	0.654874892148404	0.694567901234568
-13	-0.55869910100476	-0.179376361343574	0.558385876418663	0.737762237762237
-6	-0.246430460074036	-0.0937714380337338	0.483476450689565	0.577247888723299
-9	-0.441979701649502	-0.141767306838964	0.577180327868852	0.718947634707817
-13	-0.850079323109465	-0.335207412687099	0.495868852459017	0.831076265146116
-7	-0.186938127974617	-0.0509164779140783	0.493201169144745	0.544117647058823
-3	0.113150008813677	0.0717359862994623	0.467343221441582	0.395607235142119
11	-0.195275868147365	-0.146447531042792	0.567058216083645	0.713505747126437
4	-0.256337035078442	-0.133391383911552	0.540475282755115	0.673866666666667
7	-0.761237440507667	-0.426494026118366	0.447081967213115	0.873575993331481
12	-0.15464480874317	-0.125209797033568	0.459016393442623	0.584226190476191
27	0.342190483019476	0.0879052101613921	0.515742909185532	0.42783769902414
-5	0.0827956989247299	0.0673678015973092	0.52839344262295	0.461025641025641
5	-0.214436805922792	-0.12959220597291	0.503033432296373	0.632625638269282
3	-0.338304248193195	-0.167840753448835	0.556233320625239	0.724074074074074
0	-0.212427287149656	-0.0928150614754095	0.52202868852459	0.61484375
15	0.0654354405494967	-0.0139157202459995	0.503033432296373	0.516949152542373
-6	-0.852551634713346	-0.35565434843012	0.491803278688525	0.847457627118644
1	-0.280539397144367	-0.140566509616625	0.458504098360656	0.599070607977281
9	-0.0653093601269188	-0.0784262295081977	0.560918032786885	0.639344262295082
-1	-0.900317292437865	-0.43597214282641	0.451209992193598	0.887182135020008
30	0.205482108231978	-0.0306356720532217	0.561847988077497	0.592483660130719
8	0.0449497620306722	-0.00375683060109255	0.537909836065574	0.541666666666667
7	-0.327604442094131	-0.203513996700171	0.47087831534053	0.674392312040701
13	0.190639873083024	0.0377912454371362	0.571991358495362	0.534200113058226
-11	-0.491538868323638	-0.183291147765475	0.471021040402737	0.654312188168211
5	-0.0912215758857744	-0.0663303909205546	0.527112232030265	0.593442622950819
10	0.00528820729772694	-0.04146116976938	0.52202868852459	0.56348985829397
0	-0.360655737704919	-0.170692028532099	0.498185458640971	0.66887748717307
-11	-0.643839238498148	-0.245139153640869	0.508959207014868	0.754098360655737
7	-0.0108408249603393	-0.036934992576266	0.531876138433515	0.568811131009781
8	-0.447382337387624	-0.249140884999383	0.425613213361272	0.674754098360655
-3	-0.0388683236382885	-0.00525653022793793	0.571991358495361	0.577247888723299
-2	-0.13844526705447	-0.0506843859538531	0.471021040402737	0.52170542635659
9	-0.215494447382337	-0.144783326979286	0.445927055534375	0.590710382513661
-18	0.0116340560549961	0.0689819706213144	0.527112232030264	0.45813026140895
-26	-0.749867794817556	-0.21912257824143	0.490266393442623	0.709388971684053
13	-0.0496830063309102	-0.0649652077267838	0.506147540983607	0.57111274871039
-10	-0.607263068893092	-0.216242762734435	0.499609679937548	0.715852442671984
4	-0.432575356953993	-0.227818528402593	0.414410979794129	0.642229508196721
0	-0.459016393442623	-0.224086743255454	0.583064412030463	0.807151155285917
6	0.240084611316764	0.08344292879863	0.700758502569122	0.617315573770492
0	-0.032786885245903	-0.016133229247984	0.612542284673432	0.628675513921416
1	-0.0182443151771541	-0.0132672324770875	0.553790983606558	0.567058216083645
-3	-0.40269698572184	-0.180447021675884	0.503033432296373	0.683480453972257
-15	-0.368270756213644	-0.102869544515865	0.467343221441582	0.570212765957447
21	0.274193548387096	0.0645712429928973	0.477443131274622	0.412871888281725
-6	-0.180856689582233	-0.0637049653443101	0.467343221441582	0.531048186785892
-6	-0.148140313766966	-0.0308135534187128	0.603507434235608	0.634320987654321
-12	-0.481226864093073	-0.169532706960553	0.480201765447666	0.649734472408219
7	0.276837652035961	0.108894458745428	0.569672131147541	0.460777672402113
11	-0.205859005040229	-0.129951922672123	0.500248385494287	0.63020030816641
-21	-0.882866208355365	-0.289388394461325	0.567058216083645	0.85644661054497
1	-0.213379164463247	-0.110819672131147	0.512131147540984	0.622950819672131
6	-0.115018508725542	-0.0761041465766634	0.512131147540983	0.588235294117647
15	0.0805250562432214	-0.0134994885586902	0.587749396365485	0.601248884924175
5	-1.04058211229491	-0.452003274263845	0.429508196721311	0.881511470985156
12	-0.485457429931253	-0.306219472060112	0.477443131274622	0.783662603334734
3	-0.148334214701216	-0.0861687071203264	0.467343221441582	0.553511928561908
17	0.357747223691168	0.117959458777089	0.513702915780252	0.395743457003164
6	-0.786885245901638	-0.428934900953394	0.519039628243191	0.947974529196585
-6	-0.472518949409485	-0.175376465190006	0.591290201476661	0.766666666666667
15	-0.532748642842845	-0.317507766079037	0.451633087223126	0.769140853302163
-6	-0.50872554204125	-0.216237314597971	0.499609679937548	0.71584699453552
19	0.346641988365943	0.103393431262283	0.527112232030264	0.423718800767981
6	0.19043058555692	0.0838712209243226	0.603507434235608	0.519636213311286
-7	-0.461061166931076	-0.170080955272211	0.569672131147541	0.739753086419753
1	-0.246166049709148	-0.126688524590164	0.447081967213115	0.573770491803279
17	0.0961924907456381	-0.00968185057992571	0.469448584202683	0.479130434782609
-23	-1.13088313061872	-0.390957497899956	0.515742909185532	0.906700407085488
19	-0.147805393971442	-0.176163771878241	0.519039628243191	0.695203400121432
-14	-1.04812268640931	-0.415820973198021	0.483476450689565	0.899297423887587
12	-0.0124272871496551	-0.0512471735443748	0.52202868852459	0.573275862068965
2	-0.215018508725542	-0.106576569372251	0.447081967213115	0.553658536585366
8	-0.139608672659968	-0.109614867798152	0.589659520807062	0.699274388605213
20	0.172483694694165	0.00050989489650688	0.583064412030463	0.582554517133956
-9	-0.238233738762558	-0.0703900921383266	0.569672131147541	0.640062223285868
14	-0.248898290146307	-0.185050164919017	0.447081967213115	0.632132132132132
3	-0.347927291631188	-0.161860206646549	0.414410979794129	0.576271186440678
8	-0.930988894764675	-0.486297084219747	0.513702915780252	1
15	0.16737176097303	0.0157647263412055	0.571991358495361	0.556226632154156
-5	-0.299576943416182	-0.123331207926378	0.483476450689565	0.606807658615943
-6	-0.280380750925435	-0.0924530859490824	0.571991358495362	0.664444444444444
-7	-0.221840296139608	-0.0813815265996078	0.406996256615464	0.488377783215072
2	-0.19672131147541	-0.107752099160336	0.52839344262295	0.636145541783287
3	-0.277895293495503	-0.151819403386186	0.430819672131148	0.582639075517334
6	-0.626123744050766	-0.34464861596345	0.537909836065574	0.882558452029024
-20	-0.604970914859863	-0.192524590163935	0.479606557377049	0.672131147540984
3	0.085933368588048	0.0334532853525253	0.437824870051979	0.404371584699454
14	-0.483835713026618	-0.30531083764549	0.495838587641866	0.801149425287357
3	0.115547329455315	0.0445278151034668	0.577180327868852	0.532652512765386
2	0.0447558610964214	0.021900150395802	0.635023509975855	0.613123359580053
-5	-0.130354309888948	-0.041141532108961	0.52202868852459	0.563170220633551
7	-0.132205182443152	-0.0886256141800986	0.499609679937548	0.588235294117647
8	0.21681649920677	0.0708317182033045	0.591290201476661	0.520458483273357
-6	0.244614842235148	0.14650683763753	0.567058216083645	0.420551378446116
-5	-0.316499206768907	-0.124413937145779	0.51564828614009	0.640062223285869
7	-0.210611669310771	-0.124838953307566	0.511475409836065	0.636314363143632
12	0.131182795698924	0.0222783735294519	0.548009367681499	0.525730994152047
0	-0.327868852459016	-0.157580378701232	0.414410979794129	0.571991358495361
-14	-0.257006874669489	-0.0647884041961007	0.467150544362407	0.531938948558508
9	-0.196456901110524	-0.139690220463539	0.447081967213115	0.586772187676654
11	-0.0185616076150179	-0.0471616312152823	0.51564828614009	0.562809917355372
-18	-0.321523003701746	-0.0638823835545151	0.596409055425449	0.660291438979964
7	-0.0801163405605487	-0.0744718385611628	0.567058216083646	0.641530054644809
-7	0.167900581702802	0.109659394387608	0.596409055425449	0.486749661037841
2	-0.166049709148597	-0.0901530915192971	0.487027236349555	0.577180327868852
-9	-0.341353781068218	-0.120209720650878	0.535045824190009	0.655255544840887
-13	-0.272078265468005	-0.0685785083129863	0.553790983606558	0.622369491919544
23	0.0261766261237446	-0.100416102672081	0.546448087431695	0.646864190103775
1	-0.477260708619778	-0.236978830515038	0.506147540983606	0.743126371498645
6	-0.206114601726287	-0.111375734882265	0.515742909185532	0.627118644067797
-8	-0.597567424643047	-0.247622154644421	0.483476450689565	0.731098605333986
-4	-0.0335272342675832	0.0113086868396237	0.583064412030464	0.57175572519084
-4	-0.604089546976909	-0.261770661244547	0.512131147540984	0.77390180878553
-26	-0.815441565309359	-0.240159942516499	0.52202868852459	0.76218863104109
1	0.112374405076679	0.0497164506290507	0.603507434235608	0.553790983606557
11	0.0249074563722891	-0.0254993800799012	0.511475409836065	0.536974789915966
13	0.0730125154239377	-0.00558014695523879	0.47320773183264	0.478787878787879
-5	-0.286356425171866	-0.111088209529838	0.529220372919534	0.640308582449373
-3	-0.245037898818967	-0.09218601358377	0.527112232030265	0.619298245614035
10	0.0240789705623128	-0.0238709880032661	0.531876138433515	0.555747126436781
18	0.173453199365416	0.0104844824430677	0.531048186785892	0.520563704342824
-12	-0.61872025383395	-0.238133478259694	0.398652941924006	0.636786420183699
2	-0.135378106821788	-0.0718717823253414	0.367136866183759	0.4390086485091
21	-0.0894849823875816	-0.129114348341912	0.483476450689565	0.612590799031477
-10	-1.0174510840825	-0.43415664845173	0.447081967213115	0.881238615664845
-8	-0.31835007932311	-0.113376098835828	0.511475409836065	0.624851508671894
-9	-0.306610259122157	-0.089602844403189	0.571991358495362	0.66159420289855
-13	-0.665520888418825	-0.245974305313335	0.506147540983607	0.752121846296942
13	-0.571148198274909	-0.325150518550548	0.467150544362407	0.792301062912955
-1	-0.385774722369115	-0.164802841679459	0.51564828614009	0.680451127819548
13	0.00766790058170308	-0.0568437357754784	0.535045824190009	0.591889559965488
-4	-0.320994182971973	-0.123564397432761	0.495838587641866	0.619402985074627
8	-0.168164992067688	-0.117733674036311	0.477443131274622	0.595176805310933
13	0.244050766790057	0.0764267407238533	0.499609679937548	0.423182939213695
19	0.142505235922762	0.0175757458271334	0.445927055534375	0.428351309707242
-5	-0.463511369645692	-0.200302721514085	0.499609679937548	0.699912401451634
13	0.302749867794818	0.110940511210905	0.471021040402737	0.360080529191832
-5	-0.815564956812974	-0.356803699033207	0.479606557377049	0.836410256410257
5	-0.507332980786181	-0.258731567885667	0.480201765447667	0.738933333333334
18	-0.191433104177685	-0.192015881684201	0.524717244884992	0.716733126569193
13	0.112903225806451	-0.00295445805383454	0.564142596929482	0.567097054983317
5	-0.419090428344791	-0.229578814627995	0.542749054224464	0.772327868852459
-4	-0.230794993830424	-0.0842439213931944	0.503033432296373	0.587277353689567
12	-0.12585933368588	-0.118852459016393	0.459016393442623	0.577868852459016
9	-0.177948175568483	-0.129791465766635	0.490266393442623	0.620057859209258
-1	-0.029772607086199	-0.00215456674473125	0.512131147540983	0.514285714285714
6	0.0560549973558959	0.00100882723833529	0.558385876418663	0.557377049180328
4	-0.588912392032437	-0.28957426185824	0.451633087223125	0.741207349081366
30	0.498970144036425	0.172522570202481	0.515742909185532	0.343220338983051
20	-0.0793231094658914	-0.125442485479603	0.418943533697632	0.544386019177235
0	-0.852459016393444	-0.403453885621325	0.420598172944562	0.824052058565887
-5	-0.622157588577472	-0.270403210896093	0.52202868852459	0.792431899420683
-13	0.0098713202890881	0.0618521576181675	0.531876138433515	0.470023980815348
-9	0.112603560726246	0.0890716165033097	0.467343221441582	0.378271604938272
8	-0.346412832716375	-0.203529199027948	0.483476450689565	0.687005649717514
0	-0.180839062224573	-0.0792306357880128	0.515742909185532	0.594973544973545
22	0.00423056583818093	-0.0892345807456918	0.445927055534375	0.535161636280067
10	-0.186144896879957	-0.138899094107561	0.471021040402737	0.609920134510298
-3	-0.366737176097304	-0.162120634480528	0.445927055534375	0.608047690014903
24	0.338445267054468	0.0892336244021982	0.480201765447667	0.390968141045469
6	0.243257535695398	0.0921491802308141	0.563170220633551	0.471021040402737
-5	-0.29693283976732	-0.122839339568396	0.4390086485091	0.561847988077497
13	-0.118191433104178	-0.120404522884856	0.529220372919534	0.64962489580439
8	-0.522457253657678	-0.285973308799359	0.461685093404499	0.747658402203857
11	0.234567248369469	0.0824275489234502	0.52202868852459	0.43960113960114
6	-0.0951877313590701	-0.0757741347905286	0.531876138433515	0.607650273224044
27	0.338709677419354	0.0927293204855458	0.420598172944562	0.327868852459016
-9	-0.266261237440508	-0.0864316221607078	0.508959207014869	0.595390829175576
4	-0.583818085668959	-0.320001971200316	0.47087831534053	0.790880286540846
-20	-0.736118455843469	-0.248601469756925	0.479606557377049	0.728208027133974
-12	-0.264410364886303	-0.0737119437939107	0.506147540983607	0.579859484777517
6	-0.309152632003514	-0.157943392082137	0.477443131274622	0.635386523356759
10	-0.336329984135379	-0.211697790449038	0.479606557377049	0.691304347826087
2	0.0920148069804323	0.0367409459673134	0.482668001501689	0.445927055534376
3	-0.0827604442094123	-0.054689235416944	0.531876138433515	0.586565373850459
11	-0.164339855455667	-0.123123919947691	0.490266393442623	0.613390313390314
16	0.192684646571479	0.0405534843150185	0.503547834597504	0.462994350282486
25	0.26218931782126	0.032145367973669	0.547886108714409	0.51574074074074
21	0.0335801163405585	-0.0794405173710343	0.511475409836065	0.5909159272071
2	-0.369491973576891	-0.172315724557635	0.479606557377049	0.651922281934684
10	-0.676890534108936	-0.384497829940705	0.532601996795267	0.917099826735972
7	0.120923673541335	0.0404637004264202	0.482668001501689	0.442204301075269
-1	-0.242464304600742	-0.110610975809325	0.542749054224464	0.653360030033788
-4	-0.544685351665785	-0.239536761053155	0.537909836065574	0.777446597118729
5	0.0203595980962459	-0.0108196721311472	0.512131147540984	0.522950819672131
7	-0.367618543980257	-0.201439224585648	0.394979508196722	0.596418732782369
-3	0.0826546800634593	0.0592838818671009	0.537909836065574	0.478625954198473
0	-0.229508196721312	-0.110306265090863	0.477443131274622	0.587749396365485
9	-0.0892495525937609	-0.065067604563359	0.490266393442623	0.555333998005982
6	-0.06486867618544	-0.0500431318566722	0.591290201476661	0.641333333333333
19	0.0113696456901122	-0.0820778502356352	0.533887937362369	0.615965787598004
8	-0.447734884540806	-0.250667015224832	0.423002452562282	0.673669467787114
11	-0.160849638639167	-0.125873716039876	0.535045824190009	0.660919540229885
18	-0.0645161290322573	-0.139127417815942	0.612542284673432	0.751669702489374
-11	-0.721047065044949	-0.286403526002585	0.471021040402737	0.757424566405322
-1	-0.752018332451964	-0.329477075365192	0.547886108714409	0.877363184079601
-6	-0.718773135906926	-0.301159410725082	0.471021040402737	0.772180451127819
9	0.135871672836243	0.0424899669564093	0.471021040402737	0.428531073446328
10	-0.0549973558963499	-0.0694021065777868	0.471021040402737	0.540423146980523
0	0.0655737704918036	0.0317622950819673	0.569672131147541	0.537909836065574
1	-0.378900052882073	-0.189210339486253	0.537909836065574	0.727120175551826
-22	-0.361713379164463	-0.0786015456946743	0.487027236349555	0.565628782044229
1	0.0483870967741944	0.0192287275565969	0.596409055425449	0.577180327868852
-6	-0.184029613960866	-0.067365786509823	0.430819672131148	0.498185458640971
10	0.119478230213291	0.0259290150731999	0.535045824190009	0.509116809116809
0	-0.0327868852459012	-0.0153999006458021	0.531048186785892	0.546448087431694
13	-0.163141195134849	-0.136194761225944	0.426741803278689	0.562936564504633
9	0.014013749338974	-0.0285677976871267	0.477443131274622	0.506010928961749
24	0.0414242904988543	-0.068283394604725	0.456181437199557	0.524464831804282
-12	-0.178741406663142	-0.0312482322460945	0.564142596929482	0.595390829175577
6	-0.23573065397497	-0.127896697353397	0.518717885979936	0.646614583333333
6	-0.285563194077207	-0.173381494859683	0.459016393442623	0.632397888302306
6	-0.546166049709148	-0.294934839509574	0.447081967213115	0.742016806722689
3	-0.146747752511898	-0.0871701155603328	0.512131147540984	0.599301263101317
-20	-0.649391856160763	-0.201097813592974	0.535045824190009	0.736143637782983
-16	-1.03014278159704	-0.391668774028506	0.515742909185532	0.907411683214038
-2	-0.22316234796404	-0.097607870870233	0.524717244884992	0.622325115755225
-23	-0.188524590163934	-0.00273110954293748	0.490266393442623	0.49299750298556
0	-0.524590163934426	-0.25609913514909	0.487027236349555	0.743126371498645
4	-0.155244138903578	-0.083574126318465	0.508959207014868	0.592533333333333
18	0.178741406663142	0.0257172131147545	0.458504098360656	0.432786885245902
10	-0.158646218931782	-0.123558627396499	0.474385245901639	0.597943873298138
-23	-0.420958928256654	-0.092534515152819	0.471021040402737	0.563555555555556
8	0.175568482284506	0.0569081720695184	0.471465549118699	0.41455737704918
-6	0.0158646218931764	0.0323610815414086	0.548009367681499	0.51564828614009
-2	-0.0622774546095528	-0.0129356941077022	0.500248385494288	0.51318407960199
-5	-0.478653269874847	-0.196930673992369	0.483476450689565	0.680407124681934
-1	-0.959527586814738	-0.450102343764407	0.451209992193598	0.901312335958006
8	-0.418773135906926	-0.242225290787542	0.551052020136827	0.793277310924369
11	0.438603913273401	0.188120985654069	0.551052020136827	0.362931034482758
-16	-0.595452141723956	-0.205466406576514	0.471021040402737	0.67648744697925
-16	-0.439978847170809	-0.139445049165668	0.467343221441582	0.60678827060725
14	0.32180504142429	0.116311447783542	0.524717244884992	0.40840579710145
-7	-0.374669487043893	-0.144223635644002	0.495838587641866	0.640062223285868
1	-0.163070685704215	-0.0730282087125405	0.480201765447667	0.553229974160207
16	0.237969328397672	0.0611426985793796	0.482668001501689	0.421525302922309
4	0.133262823902698	0.0513534751388705	0.512131147540984	0.460777672402113
1	0.0489159175039655	0.0204590163934423	0.495868852459016	0.475409836065574
3	-0.115547329455314	-0.0712159580612197	0.531876138433515	0.603092096494735
8	-0.00423056583818071	-0.0358179234552575	0.508959207014868	0.544777130470126
4	-0.0327868852459023	-0.0325138744918377	0.483476450689565	0.515990325181403
2	-0.383659439450027	-0.183964185185964	0.493201169144745	0.677165354330709
22	0.310946589106294	0.057048407052274	0.601434426229509	0.544386019177235
9	-0.365150713907986	-0.229448147480935	0.467343221441582	0.696791368922516
-15	-0.556054997355895	-0.187956446566321	0.519039628243191	0.706996074809512
19	0.305059051648158	0.0797428811350077	0.585553278688525	0.505810397553517
0	-0.295081967213115	-0.14182234083111	0.508959207014868	0.650781547845978
2	-0.236911686938126	-0.119974015055981	0.454048683556881	0.574022698612862
17	0.177299847329157	0.0377021534057723	0.503033432296373	0.465331278890601
6	-0.747752511898468	-0.416227028516325	0.52839344262295	0.944620471139276
19	-0.462982548915918	-0.335255721530979	0.430169017664252	0.765424739195231
6	-0.0271637581526534	-0.0277827889709258	0.467150544362407	0.494933333333333
-10	-0.164992067689053	-0.040247723132969	0.479606557377049	0.519854280510018
-1	-0.615055107900342	-0.278177271464295	0.426229508196721	0.704406779661017
1	-0.281068217874141	-0.13987244249587	0.477443131274622	0.617315573770492
9	0.421734531993654	0.181328689525411	0.548009367681499	0.366680678156088
4	-0.364886303543099	-0.19672131147541	0.442622950819672	0.639344262295082
8	0.146042658205536	0.0492030965391624	0.506147540983607	0.456944444444444
4	0.0612907707338066	0.0303566815633285	0.583064412030464	0.552707730467135
10	0.23474352194606	0.0753436317780579	0.667843631778058	0.5925
-3	-0.311704565485635	-0.122762454686528	0.527112232030264	0.649874686716792
-1	-0.274795716850858	-0.110544635657692	0.483476450689565	0.594021086347257
-2	0.138551031200421	0.0728266269249865	0.511475409836065	0.438648782911079
7	-0.760734911429995	-0.398876637107294	0.479606557377049	0.878483194484343
-4	-0.551431401195673	-0.227629328560259	0.463344262295082	0.690973590855341
-5	-0.0425700687466952	-0.000127080950565683	0.524590163934426	0.524717244884992
13	-0.516922263352724	-0.333020818471893	0.455014844455919	0.788035662927812
-30	-0.617662612374405	-0.13171500630517	0.574022698612862	0.705737704918033
-12	-0.0835713026617313	0.020422790166197	0.564142596929482	0.543719806763285
-8	-0.0173769894265736	0.0415585708183567	0.548009367681499	0.506450796863142
5	-0.000511193372114027	-0.0121158358118122	0.483476450689565	0.495592286501377
8	-0.0832540102238672	-0.0670343883003052	0.487027236349555	0.55406162464986
21	0.234743521946059	0.0399562687275117	0.527112232030264	0.487155963302753
-21	-1.02406134320465	-0.35477241070298	0.438648782911079	0.793421193614058
14	-0.370832399680916	-0.241751180883579	0.537909836065574	0.779661016949153
-4	-0.369363652388508	-0.147139454352569	0.564142596929482	0.711282051282051
-6	-0.233738762559491	-0.0777835472145979	0.652206809583859	0.729990356798457
16	-0.253833950290852	-0.206162367445986	0.498185458640971	0.704347826086957
-37	-1.07800105764146	-0.273037279790985	0.574022698612863	0.847059978403848
11	0.0243610082848584	-0.0269493926195949	0.527112232030265	0.55406162464986
2	0.163934426229509	0.0748351326136218	0.479606557377049	0.404771424763428
0	-0.131147540983606	-0.0620698285571264	0.637842572894507	0.699912401451633
-2	-0.0728714965626656	-0.0186719940602165	0.503033432296373	0.52170542635659
0	-0.622950819672131	-0.301741803278688	0.458504098360656	0.760245901639344
0	-0.163934426229508	-0.0800309797340903	0.583064412030463	0.663095391764553
0	-0.360655737704918	-0.172005044136192	0.574022698612862	0.746027742749054
4	-0.098360655737705	-0.066896166331802	0.515742909185532	0.582639075517334
9	-0.0406663141195145	-0.0443289944035105	0.41765447667087	0.46198347107438
21	-0.0286444561960183	-0.091173532939213	0.433291298865069	0.524464831804282
5	0.00713907985193152	-0.0187944514501884	0.558385876418663	0.577180327868852
2	-0.372289793759915	-0.18002561925186	0.520732883317261	0.700758502569121
-11	-0.294817556848228	-0.0961849654751817	0.455014844455918	0.5511998099311
-6	-0.14806980433633	-0.0431717644832399	0.580275826177466	0.623447590660706
14	-0.00988894764674886	-0.0547307817688569	0.477443131274622	0.532173913043479
-2	-0.0306716023268108	-0.00690848070220706	0.512131147540984	0.519039628243191
11	-0.210206240084611	-0.159361665923566	0.524717244884992	0.684078910808558
20	0.0766104383834212	-0.0271808303810411	0.482668001501689	0.50984883188273
6	-0.416358187907634	-0.227634660421546	0.483476450689565	0.711111111111111
2	-0.136435748281333	-0.0733448928121063	0.464564943253467	0.537909836065574
15	-0.34172395557906	-0.242437049364732	0.487027236349555	0.729464285714287
15	0.206557655213212	0.0639793983496555	0.567058216083645	0.50307881773399
10	-0.0433632998413538	-0.0646739979170782	0.513702915780252	0.578376913697331
-2	-0.33844526705447	-0.145258029364706	0.471021040402737	0.616279069767443
3	-0.0351665785298771	-0.0211601160907233	0.503033432296373	0.524193548387096
16	-0.364040190375462	-0.242008657625569	0.440897325280414	0.682905982905983
1	-0.381015335801162	-0.184029002324584	0.484848484848486	0.66887748717307
-15	-0.369363652388508	-0.0994446935849102	0.499609679937548	0.599054373522459
7	0.290112546197122	0.135452578635309	0.479606557377049	0.344153978741741
-20	-0.461713379164465	-0.112644409511691	0.531876138433515	0.644520547945206
7	0.0864974440331392	0.0223050663178871	0.513702915780252	0.491397849462365
18	-0.373065397496917	-0.262704428913206	0.436115630083844	0.69882005899705
19	0.228186144896881	0.0255507343857848	0.592647789369101	0.567097054983317
-3	-0.229243786356424	-0.0937710718454761	0.486749661037841	0.580520732883317
-12	-0.93283976731888	-0.374254714953219	0.515742909185532	0.88999762413875
1	-0.511634056054999	-0.248200379272837	0.544737830058816	0.792938209331653
-4	-0.22316234796404	-0.0903677722709367	0.544655737704918	0.635023509975855
-13	-0.388489335448617	-0.118202206384775	0.483476450689565	0.60167865707434
-5	-0.711669310770316	-0.297743668777617	0.583064412030463	0.880808080808081
-1	-0.227287149656268	-0.0976259115151597	0.483476450689565	0.581102362204725
3	-0.113960867265996	-0.0705079279763501	0.512131147540984	0.582639075517334
0	-0.426229508196722	-0.206454918032787	0.52202868852459	0.728483606557377
4	-0.240084611316764	-0.132408802422411	0.482668001501689	0.6150768039241
7	-0.197778952934955	-0.120892072676065	0.467343221441582	0.588235294117647
3	0.0156002115282914	-0.00432208069153311	0.499609679937548	0.503931760629082
5	-0.0124272871496559	-0.0264043715846993	0.479606557377049	0.506010928961749
-3	-0.329190904283446	-0.141094000110393	0.454048683556881	0.595142683667274
-9	-0.139873083024854	-0.0248332236448486	0.585553278688525	0.610386502333374
9	-0.0898818967036826	-0.0761405690597317	0.479606557377049	0.555747126436781
5	0.0150713907985198	-0.0123009012478651	0.487027236349555	0.49932813759742
2	-0.956107879428876	-0.471350882723835	0.527112232030264	0.998463114754099
-5	-0.201692226335272	-0.0649213900000566	0.508959207014869	0.573880597014925
-3	-0.176361713379165	-0.0711352459016397	0.609704918032787	0.680840163934426
-11	-0.414331041776836	-0.141023546284697	0.540475282755115	0.681498829039812
0	-0.196721311475409	-0.0917046715148525	0.609022556390978	0.70072722790583
-10	-1.31210865025231	-0.511212239626053	0.467150544362407	0.97836278398846
-3	-0.237176097303014	-0.0999327368289326	0.537909836065574	0.637842572894506
-10	-0.411422527763089	-0.148164647184605	0.506147540983607	0.654312188168211
-5	0.0309360126916973	0.0329785527926743	0.487027236349555	0.454048683556881
-1	-0.372025383395029	-0.167814324163725	0.578454332552693	0.746268656716418
-6	-0.00423056583818093	0.022706030709888	0.558385876418663	0.535679845708775
2	-0.417133791644632	-0.203366567703627	0.503033432296373	0.7064
-29	-2.08223162347964	-0.704297172804506	0.517317884876125	1.22161505768063
-8	-0.368059227921734	-0.134689549908537	0.596409055425449	0.731098605333986
4	-0.428344791115811	-0.229149285167822	0.406996256615464	0.636145541783287
7	0.280136208684013	0.126532969397818	0.596409055425449	0.469876086027631
-2	-0.588048651507138	-0.279526010068413	0.479606557377049	0.759132567445463
5	-0.227145832026219	-0.115909274886068	0.567058216083646	0.682967490969714
-5	-0.730283800458313	-0.304736506157272	0.480201765447666	0.784938271604938
7	-0.105499735589635	-0.0858127257571545	0.512131147540984	0.597943873298138
25	0.253569539925965	0.0319907869007041	0.499609679937548	0.467618893036844
5	-0.244579587519831	-0.143966813117335	0.451209992193598	0.595176805310933
4	-0.19672131147541	-0.114766895739753	0.451209992193598	0.565976887933351
4	-0.264410364886302	-0.148597778736274	0.471021040402737	0.619618819139011
-5	-0.475603736999824	-0.192926163663223	0.503033432296373	0.695959595959596
3	-0.377842411422528	-0.202249259026548	0.483476450689565	0.685725709716113
-7	-0.585668958223162	-0.229345716069336	0.534911961141469	0.764257677210805
9	-0.341212762206946	-0.196736249344298	0.433291298865069	0.630027548209366
-1	-0.604177683765204	-0.28621012835176	0.537909836065574	0.824119964417334
-6	-0.216816499206769	-0.0813935677637344	0.463344262295082	0.544737830058816
9	-0.0468006345848757	-0.0638646852183496	0.52202868852459	0.58589337374294
7	-0.317028027498678	-0.189411031876486	0.493201169144745	0.68261220102123
12	-0.400846113167639	-0.273990988399963	0.531876138433515	0.805867126833478
7	-0.149391856160761	-0.101235435577835	0.426741803278689	0.527977238856523
-13	-1.37421222143547	-0.531849898162685	0.499609679937548	1.03145957810023
7	-0.151676839743418	-0.0895950946826097	0.495868852459016	0.585463947141626
15	-0.0282919090428336	-0.072854406090246	0.456181437199557	0.529035843289803
7	0.156795346377579	0.0558621839399837	0.447081967213115	0.391219783273131
3	-0.449762030671604	-0.23165096166258	0.511475409836065	0.743126371498645
6	-0.560549973558963	-0.312886320881483	0.569672131147541	0.882558452029024
11	-0.288218352170705	-0.179966800745705	0.519039628243191	0.699006428988896
26	0.180856689582232	0.0103282859884037	0.389563258665999	0.379234972677595
6	-0.056478053939716	-0.0485595597122648	0.615076803924099	0.663636363636364
5	-0.367724308126213	-0.197635499125813	0.499609679937548	0.697245179063361
-3	-0.273135906927552	-0.120406174923903	0.467343221441582	0.587749396365485
-15	-0.260303190551736	-0.0514266616003407	0.503033432296373	0.554460093896714
11	-0.511316763617135	-0.293366912776874	0.451633087223126	0.745
14	0.0218050414242894	-0.0428189869990667	0.524717244884992	0.567536231884058
-10	-0.159703860391327	-0.02895256463241	0.596409055425449	0.625361620057859
4	-0.59439450026441	-0.310963114754098	0.426741803278689	0.737704918032787
8	-0.148069804336329	-0.109289617486338	0.546448087431694	0.655737704918033
3	-0.061078794288735	-0.041067991542538	0.517317884876125	0.558385876418663
17	-0.43414463993881	-0.278524886688989	0.469448584202683	0.747973470891672
-9	-0.495153223565686	-0.174841335997213	0.467343221441582	0.642184557438795
-13	-0.85536753040719	-0.328318110467353	0.493201169144745	0.821519279612098
1	-0.464163581879078	-0.215139577244039	0.511475409836065	0.726614987080104
-12	0.017979904812268	0.0501193587437347	0.483476450689565	0.43335709194583
5	0.290111052353252	0.128507434235608	0.603507434235608	0.475
9	-0.30363721105325	-0.176153582713545	0.603507434235608	0.779661016949153
5	-0.124008461131676	-0.081967213114754	0.511475409836065	0.593442622950819
5	-0.408514013749339	-0.227966271185347	0.451209992193598	0.679176263378946
11	-0.616922263352724	-0.345427448855169	0.469448584202683	0.814876033057852
-4	-0.680063458487573	-0.308468944534519	0.515742909185532	0.82421185372005
17	0.0776308831306173	-0.0273763568695145	0.515742909185532	0.543119266055046
-3	-0.250326106116694	-0.0924521617239881	0.603507434235608	0.695959595959596
9	-0.0420412480169221	-0.064118860663395	0.551052020136827	0.615170880800222
18	0.154415653093601	0.00204179779452052	0.518717885979937	0.516676088185416
-3	-0.309095716552089	-0.140054214534659	0.459016393442623	0.599070607977282
14	0.128556319407721	0.0141339516824852	0.52202868852459	0.507894736842105
-9	-1.08325401022387	-0.443705469796025	0.519039628243191	0.962745098039216
1	-0.0531464833421453	-0.029089543918726	0.51564828614009	0.544737830058816
3	0.0515600211528295	0.0150386126541121	0.459016393442623	0.443977780788511
16	0.156530936012691	0.0182816631185214	0.477443131274622	0.4591614681561
-11	-0.273664727657323	-0.0833365477338472	0.512131147540984	0.595467695274831
7	0.0656090252071218	0.0100809722796223	0.564142596929482	0.55406162464986
-8	-0.49497620306716	-0.195615985160325	0.535045824190009	0.730661809350334
6	-0.121716904635995	-0.0771857923497267	0.506147540983607	0.583333333333333
-1	0.039150361360833	0.0313999908566762	0.535045824190009	0.503645833333333
4	-0.307144905843022	-0.149418412269418	0.519039628243191	0.668458040512609
-8	-0.831306187202537	-0.36063404412671	0.447081967213115	0.807716011339824
11	-0.0297020976555613	-0.0618489322526035	0.599070607977281	0.660919540229885
-4	-0.155473294553147	-0.0582797894273308	0.515742909185532	0.574022698612862
5	-0.0610787942887361	-0.0535185416927376	0.591290201476661	0.644808743169399
-1	-0.212850343733473	-0.101901639344262	0.459016393442623	0.560918032786885
-3	-0.279287854750574	-0.110688181856692	0.477443131274622	0.588131313131313
1	-0.431200423056583	-0.201197042985131	0.508959207014869	0.71015625
12	0.00687466948704474	-0.0472460298800944	0.605296343001261	0.652542372881355
6	-0.19710911334391	-0.113611379468569	0.560255287198098	0.673866666666667
11	0.0885774722369133	-0.00445393981710707	0.549057988744801	0.553511928561908
-18	-0.723426758328925	-0.237138599105811	0.51564828614009	0.752786885245901
8	-0.0671954873964373	-0.0567408618175398	0.500248385494288	0.556989247311828
-17	-0.592543627710207	-0.188436263425664	0.553790983606558	0.742227247032222
-3	-0.724219989423585	-0.323586049230758	0.513702915780253	0.837288965011011
3	-0.410629296668429	-0.217988994878239	0.451209992193598	0.669198987071837
2	-0.525647805393972	-0.270361696591205	0.467343221441582	0.737704918032787
12	-0.0856689582231627	-0.10472018089316	0.569672131147541	0.674392312040701
8	-0.0782103451675648	-0.0524856689488781	0.467150544362407	0.519636213311286
-5	-0.657728401258414	-0.264300928258327	0.503033432296373	0.7673343605547
21	0.230301427815969	0.029443409650959	0.527112232030264	0.497668822379305
-14	-0.301427815970386	-0.0828682627668358	0.512131147540984	0.59499941030782
-14	-0.712850343733473	-0.263505342264724	0.503033432296373	0.766538774561097
0	-0.229508196721312	-0.112043371627727	0.519039628243191	0.631082999870918
2	-0.270756213643575	-0.136275490377803	0.532601996795267	0.66887748717307
2	-0.590163934426228	-0.305015060642409	0.463344262295082	0.768359322937491
-1	-0.0557905869910102	-0.0148645610330704	0.477443131274622	0.492307692307692
2	-0.429402432575355	-0.21806693989071	0.426741803278689	0.644808743169399
9	-0.351401374933898	-0.211122111867269	0.417654476670869	0.628776588538138
-2	-0.469628062753394	-0.198724317576777	0.589659520807062	0.788383838383838
-4	-0.134620130442448	-0.0342870637603793	0.615076803924099	0.649363867684479
25	0.150308478759035	-0.0375075680870189	0.564142596929482	0.601650165016501
12	-0.124801692226335	-0.121567592402514	0.540475282755115	0.662042875157629
-7	-0.199559316058521	-0.0571518961337761	0.456181437199557	0.513333333333333
1	0.111845584346905	0.0502751791352625	0.448928121059268	0.398652941924006
-15	-0.302696985721841	-0.0706030860198982	0.499609679937548	0.570212765957447
-12	-0.434690639873083	-0.153227102066894	0.471021040402737	0.624248142469631
-3	-0.368323638286622	-0.162366255787762	0.52202868852459	0.684394944312352
12	-0.0528820729772608	-0.0888390333521765	0.585553278688525	0.674392312040701
-17	-0.905658381808567	-0.310753535418729	0.551052020136827	0.861805555555556
0	-0.360655737704916	-0.178885245901638	0.479606557377049	0.658491803278688
-3	-0.502644103648864	-0.230712440014766	0.467343221441582	0.698055661456348
-3	-0.282020095187733	-0.108918194526277	0.556233320625238	0.665151515151516
1	-0.0838180856689583	-0.0447794307473861	0.490266393442623	0.535045824190009
10	-0.474881015335799	-0.286123801845381	0.546448087431695	0.832571889277076
-1	0.0515600211528293	0.029196848392426	0.569672131147541	0.540475282755115
22	-0.276044420941301	-0.241660895747463	0.507253213822385	0.748914109569848
3	-0.0875198307773657	-0.0540578157810331	0.461685093404499	0.515742909185532
14	-0.331041776837653	-0.243956267398971	0.503033432296373	0.746989699695344
-23	-0.90137493389741	-0.305418899873736	0.451209992193598	0.756628892067334
7	-0.208972325048477	-0.122155923955205	0.464564943253467	0.586720867208672
14	-0.290128679710913	-0.209678311215197	0.483476450689565	0.693154761904762
-2	-1.07731359069276	-0.50125467923067	0.512131147540984	1.01338582677165
-8	-0.0401903754627189	0.0131582524535787	0.531876138433515	0.518717885979936
12	-0.171337916446326	-0.147472506402619	0.515742909185532	0.663215415588151
-12	-1.31826194253482	-0.515519895328255	0.511475409836065	1.02699530516432
14	0.0584699453551911	-0.0140735221063091	0.426229508196721	0.44030303030303
0	-0.104477348845408	-0.0408069353712148	0.440897325280415	0.481704260651629
-3	-0.251845046563113	-0.09028249762433	0.445927055534376	0.536209553158706
2	-0.197778952934956	-0.106167056986729	0.451209992193598	0.557377049180328
-1	-0.491115811739821	-0.220586319735672	0.490266393442623	0.710852713178295
-28	-0.695928080380751	-0.191262830815386	0.495868852459017	0.687131683274403
