3
[ 1.666, 1.368, 1.476, 1.476, 1.476, 1.666, 1.666, 1.476, 1.368, 1.368, 1.368, 1.476, 1.476, 1.368, 1.666, 1.476, 1.476, 1.666, 1.666, 1.368, 1.476, 1.368, 1.368, 1.666, 1.666, 1.476, 1.476, 1.476, 1.666, 1.476, 1.666, 1.368, 1.368, 1.476, 1.476, 1.666, 1.666, 1.476, 1.476, 1.476, 1.368, 1.368, 1.666, 1.666, 1.368, 1.476, 1.368, 1.666, 1.476, 1.368 ]
3
[ 0.581, 0.039, 0.063, 0.039, 0.063, 0.063, 0.039, 0.063, 0.039, 0.063, 0.063, 0.581, 0.063, 0.063, 0.581, 0.063, 0.581, 0.581, 0.581, 0.581, 0.063, 0.039, 0.581, 0.581, 0.063, 0.039, 0.581, 0.581, 0.063, 0.063, 0.063, 0.063, 0.039, 0.581, 0.039, 0.581, 0.581, 0.581, 0.581, 0.039, 0.039, 0.581, 0.039, 0.581, 0.581, 0.063, 0.581, 0.063, 0.039, 0.581 ]