3
[ 0.967, 2.561, 2.561, 0.967, 2.561, 3.680, 0.967, 3.680, 2.561, 2.561, 0.967, 2.561, 2.561, 2.561, 3.680, 3.680, 2.561, 3.680, 0.967, 2.561, 2.561, 3.680, 2.561, 2.561, 3.680, 2.561, 0.967, 3.680, 2.561, 0.967, 3.680, 3.680, 3.680, 2.561, 0.967, 0.967, 0.967, 0.967, 3.680, 3.680, 0.967, 2.561, 0.967, 3.680, 2.561, 2.561, 3.680, 2.561, 0.967, 3.680, 3.680, 3.680, 0.967, 2.561, 3.680, 0.967, 0.967, 2.561, 2.561, 0.967, 2.561, 3.680, 3.680, 2.561, 3.680, 2.561, 3.680, 3.680, 3.680, 3.680, 2.561, 0.967, 2.561, 0.967, 3.680, 3.680, 3.680, 2.561, 3.680, 0.967, 2.561, 3.680, 0.967, 2.561, 2.561, 2.561, 3.680, 0.967, 2.561, 3.680, 3.680, 0.967, 3.680, 0.967, 0.967, 3.680, 2.561, 2.561, 2.561, 3.680 ]
3
[ 0.595, 0.618, 0.012, 0.595, 0.595, 0.618, 0.595, 0.618, 0.595, 0.595, 0.618, 0.012, 0.618, 0.012, 0.012, 0.595, 0.595, 0.012, 0.618, 0.595, 0.618, 0.618, 0.012, 0.618, 0.595, 0.012, 0.618, 0.012, 0.595, 0.595, 0.595, 0.618, 0.595, 0.618, 0.595, 0.012, 0.618, 0.595, 0.618, 0.012, 0.618, 0.012, 0.012, 0.595, 0.618, 0.618, 0.618, 0.618, 0.618, 0.618, 0.618, 0.012, 0.618, 0.012, 0.618, 0.595, 0.618, 0.618, 0.595, 0.618, 0.618, 0.595, 0.595, 0.595, 0.618, 0.618, 0.012, 0.595, 0.595, 0.012, 0.595, 0.618, 0.595, 0.012, 0.012, 0.012, 0.618, 0.595, 0.618, 0.012, 0.618, 0.012, 0.595, 0.012, 0.618, 0.618, 0.618, 0.595, 0.595, 0.012, 0.012, 0.012, 0.595, 0.595, 0.012, 0.595, 0.595, 0.595, 0.012, 0.618 ]