3
[ 2.483, 1.052, 1.052, 1.052, 1.052, 1.052, 1.052, 1.052, 1.052, 1.052, 1.052, 1.052, 1.052, 1.052, 1.052, 1.052, 1.052, 1.052, 1.052, 1.052, 1.052, 1.052, 1.052, 4.272, 1.052, 1.052, 1.052, 1.052, 1.052, 1.052, 1.052, 1.052, 1.052, 1.052, 1.052, 1.052, 1.052, 1.052, 1.052, 1.052, 1.052, 1.052, 1.052, 1.052, 1.052, 1.052, 1.052, 1.052, 1.052, 1.052 ]
4
[ 0.662, 0.662, 0.926, 0.926, 0.249, 0.926, 0.662, 0.382, 0.662, 0.382, 0.662, 0.662, 0.382, 0.382, 0.662, 0.662, 0.382, 0.662, 0.382, 0.382, 0.926, 0.926, 0.662, 0.382, 0.382, 0.382, 0.382, 0.662, 0.662, 0.926, 0.926, 0.662, 0.382, 0.382, 0.926, 0.662, 0.662, 0.926, 0.662, 0.382, 0.382, 0.662, 0.926, 0.662, 0.382, 0.926, 0.382, 0.382, 0.382, 0.662 ]