3
[ 2.662, 2.662, 8.288, 2.662, 2.662, 2.662, 2.662, 2.662, 2.662, 2.662, 2.662, 2.662, 2.662, 2.662, 2.662, 2.662, 2.662, 2.662, 2.662, 2.662, 2.662, 2.662, 2.662, 2.662, 2.662, 2.662, 2.662, 2.662, 2.662, 2.662, 2.662, 2.662, 2.662, 2.662, 2.662, 2.662, 2.662, 2.662, 2.662, 2.662, 2.662, 2.662, 2.662, 2.662, 2.662, 2.662, 2.662, 2.662, 2.662, 2.662, 2.662, 2.662, 2.662, 2.662, 2.662, 2.662, 2.662, 2.662, 2.662, 2.662, 2.662, 6.387, 2.662, 2.662, 2.662, 2.662, 2.662, 2.662, 2.662, 2.662, 8.288, 2.662, 2.662, 2.662, 2.662, 2.662, 2.662, 2.662, 2.662, 2.662, 2.662, 2.662, 2.662, 2.662, 2.662, 2.662, 2.662, 2.662, 2.662, 2.662, 2.662, 2.662, 2.662, 2.662, 2.662, 2.662, 2.662, 2.662, 2.662, 2.662, 2.662, 2.662, 2.662, 2.662, 2.662, 2.662, 2.662, 2.662, 2.662, 2.662, 2.662, 2.662, 2.662, 2.662, 2.662, 2.662, 2.662, 2.662, 2.662, 2.662, 2.662, 2.662, 2.662, 2.662, 2.662, 2.662, 2.662, 2.662, 2.662, 2.662, 2.662, 2.662, 2.662, 2.662, 2.662, 2.662, 2.662, 2.662, 2.662, 2.662, 2.662, 2.662, 2.662, 2.662, 2.662, 2.662, 2.662, 2.662, 2.662, 2.662, 2.662, 2.662, 2.662, 2.662, 2.662, 2.662, 2.662, 2.662, 2.662, 2.662, 2.662, 2.662, 2.662, 2.662, 2.662, 2.662, 2.662, 2.662, 2.662, 2.662, 2.662, 2.662, 2.662, 2.662, 2.662, 2.662, 2.662, 2.662, 2.662, 2.662, 2.662, 2.662, 2.662, 2.662, 2.662, 2.662, 2.662, 2.662, 2.662, 2.662, 2.662, 2.662, 2.662, 2.662, 2.662, 2.662, 2.662, 2.662, 2.662, 2.662 ]
2
[ 0.447, 0.447, 0.447, 0.447, 0.447, 0.447, 0.447, 0.447, 0.447, 0.447, 0.447, 0.447, 0.447, 0.447, 0.447, 0.447, 0.447, 0.447, 0.447, 0.447, 0.447, 0.447, 0.447, 0.447, 0.447, 0.447, 0.447, 0.447, 0.447, 0.447, 0.447, 0.447, 0.447, 0.447, 0.447, 0.186, 0.447, 0.447, 0.447, 0.447, 0.186, 0.447, 0.447, 0.447, 0.447, 0.447, 0.447, 0.447, 0.447, 0.447, 0.447, 0.447, 0.447, 0.447, 0.447, 0.447, 0.447, 0.447, 0.447, 0.447, 0.447, 0.447, 0.447, 0.447, 0.447, 0.447, 0.447, 0.447, 0.447, 0.447, 0.447, 0.447, 0.447, 0.447, 0.447, 0.447, 0.447, 0.447, 0.447, 0.447, 0.447, 0.447, 0.447, 0.447, 0.447, 0.447, 0.447, 0.186, 0.447, 0.447, 0.447, 0.447, 0.447, 0.447, 0.447, 0.447, 0.447, 0.447, 0.447, 0.447, 0.447, 0.447, 0.447, 0.447, 0.447, 0.447, 0.186, 0.447, 0.447, 0.447, 0.447, 0.447, 0.447, 0.447, 0.447, 0.447, 0.447, 0.447, 0.447, 0.447, 0.447, 0.447, 0.447, 0.447, 0.447, 0.447, 0.447, 0.447, 0.447, 0.447, 0.447, 0.447, 0.447, 0.447, 0.447, 0.447, 0.447, 0.447, 0.447, 0.447, 0.447, 0.447, 0.447, 0.447, 0.447, 0.447, 0.447, 0.447, 0.447, 0.447, 0.447, 0.447, 0.447, 0.447, 0.447, 0.447, 0.447, 0.447, 0.447, 0.447, 0.447, 0.447, 0.447, 0.447, 0.447, 0.447, 0.447, 0.447, 0.447, 0.447, 0.447, 0.186, 0.447, 0.447, 0.447, 0.447, 0.447, 0.447, 0.447, 0.447, 0.447, 0.447, 0.447, 0.447, 0.447, 0.447, 0.447, 0.447, 0.447, 0.447, 0.447, 0.447, 0.447, 0.447, 0.447, 0.447, 0.447, 0.447, 0.447, 0.186 ]