3
[ 3.598, 2.946, 3.598, 2.946, 5.338, 2.946, 5.338, 2.946, 3.598, 5.338, 2.946, 2.946, 3.598, 2.946, 2.946, 5.338, 3.598, 3.598, 5.338, 5.338, 3.598, 3.598, 2.946, 2.946, 2.946, 3.598, 3.598, 5.338, 5.338, 2.946, 5.338, 3.598, 5.338, 5.338, 3.598, 2.946, 5.338, 2.946, 2.946, 2.946, 2.946, 2.946, 2.946, 2.946, 3.598, 2.946, 3.598, 5.338, 3.598, 3.598 ]
3
[ 0.073, 0.073, 0.525, 0.525, 0.073, 0.525, 0.073, 0.073, 0.525, 0.525, 0.073, 0.073, 0.456, 0.525, 0.525, 0.525, 0.073, 0.525, 0.456, 0.073, 0.456, 0.456, 0.456, 0.073, 0.073, 0.073, 0.073, 0.073, 0.525, 0.525, 0.073, 0.073, 0.525, 0.456, 0.456, 0.073, 0.525, 0.525, 0.073, 0.525, 0.073, 0.073, 0.073, 0.525, 0.456, 0.525, 0.073, 0.525, 0.073, 0.525 ]