3
[ 3.336, 3.336, 1.327, 3.336, 1.327, 1.327, 3.336, 1.327, 1.038, 1.327, 1.327, 1.327, 3.336, 3.336, 1.327, 3.336, 1.038, 1.327, 1.327, 3.336, 3.336, 1.038, 1.327, 1.038, 1.327, 3.336, 1.038, 3.336, 1.038, 3.336, 1.327, 1.327, 1.327, 1.038, 1.327, 3.336, 1.038, 1.038, 1.327, 3.336, 1.327, 3.336, 3.336, 3.336, 1.038, 1.038, 1.038, 1.327, 1.327, 1.327, 1.327, 1.327, 1.038, 3.336, 1.038, 1.038, 1.327, 3.336, 1.327, 1.038, 1.038, 1.327, 1.327, 1.327, 1.038, 1.038, 1.327, 3.336, 3.336, 3.336, 1.327, 1.327, 1.327, 3.336, 1.327, 1.327, 3.336, 1.327, 1.327, 1.038, 1.327, 1.038, 1.038, 1.327, 1.327, 3.336, 1.327, 1.327, 1.038, 1.327, 1.038, 1.327, 1.327, 1.038, 1.327, 1.327, 3.336, 1.327, 3.336, 1.327, 1.327, 3.336, 3.336, 3.336, 3.336, 3.336, 1.038, 1.327, 1.327, 3.336, 1.038, 3.336, 3.336, 1.327, 3.336, 1.327, 3.336, 3.336, 1.038, 1.327, 3.336, 3.336, 1.327, 1.327, 1.327, 1.038, 3.336, 3.336, 1.038, 3.336, 1.327, 1.327, 1.038, 1.327, 3.336, 1.327, 3.336, 1.038, 1.038, 3.336, 3.336, 3.336, 1.038, 3.336, 1.327, 3.336, 1.327, 3.336, 1.327, 1.038, 1.327, 1.038, 1.038, 1.327, 1.327, 3.336, 1.038, 1.327, 1.327, 3.336, 1.038, 1.038, 1.038, 1.327, 1.038, 3.336, 1.327, 1.038, 3.336, 1.327, 1.327, 3.336, 1.327, 1.327, 1.327, 1.327, 1.327, 1.038, 1.327, 1.038, 1.038, 1.327, 1.038, 1.038, 3.336, 3.336, 1.327, 3.336, 1.038, 1.327, 1.038, 1.327, 1.038, 1.038, 1.327, 1.038, 3.336, 3.336, 1.327, 3.336 ]
3
[ 0.284, 0.531, 0.531, 0.526, 0.531, 0.526, 0.531, 0.284, 0.284, 0.284, 0.531, 0.284, 0.284, 0.531, 0.284, 0.531, 0.284, 0.284, 0.284, 0.531, 0.526, 0.531, 0.531, 0.526, 0.526, 0.531, 0.531, 0.531, 0.284, 0.284, 0.284, 0.526, 0.284, 0.526, 0.284, 0.531, 0.284, 0.284, 0.526, 0.531, 0.284, 0.526, 0.531, 0.284, 0.284, 0.531, 0.531, 0.284, 0.526, 0.284, 0.526, 0.526, 0.284, 0.531, 0.526, 0.526, 0.526, 0.526, 0.284, 0.284, 0.526, 0.284, 0.526, 0.526, 0.526, 0.526, 0.526, 0.526, 0.526, 0.284, 0.284, 0.531, 0.531, 0.284, 0.531, 0.531, 0.526, 0.284, 0.284, 0.526, 0.284, 0.531, 0.531, 0.284, 0.284, 0.531, 0.531, 0.526, 0.526, 0.531, 0.284, 0.531, 0.526, 0.284, 0.284, 0.284, 0.526, 0.284, 0.531, 0.526, 0.526, 0.284, 0.526, 0.526, 0.526, 0.531, 0.526, 0.526, 0.531, 0.526, 0.531, 0.284, 0.531, 0.531, 0.531, 0.531, 0.284, 0.531, 0.526, 0.284, 0.284, 0.284, 0.531, 0.284, 0.531, 0.531, 0.531, 0.284, 0.531, 0.526, 0.531, 0.531, 0.531, 0.526, 0.284, 0.526, 0.284, 0.531, 0.531, 0.531, 0.284, 0.284, 0.526, 0.531, 0.526, 0.526, 0.526, 0.531, 0.526, 0.284, 0.531, 0.526, 0.284, 0.284, 0.531, 0.531, 0.531, 0.526, 0.531, 0.526, 0.526, 0.531, 0.526, 0.531, 0.284, 0.284, 0.531, 0.284, 0.284, 0.526, 0.284, 0.531, 0.284, 0.526, 0.531, 0.284, 0.284, 0.526, 0.526, 0.531, 0.526, 0.526, 0.284, 0.531, 0.531, 0.526, 0.531, 0.526, 0.284, 0.526, 0.526, 0.531, 0.531, 0.284, 0.526, 0.526, 0.531, 0.284, 0.531, 0.531 ]