3
[ 0.809, 1.694, 2.247, 0.809, 2.247, 2.247, 2.247, 1.694, 0.809, 2.247, 0.809, 0.809, 0.809, 1.694, 2.247, 0.809, 2.247, 1.694, 2.247, 1.694, 1.694, 1.694, 2.247, 2.247, 0.809, 1.694, 2.247, 0.809, 0.809, 2.247, 1.694, 1.694, 0.809, 2.247, 1.694, 2.247, 2.247, 0.809, 1.694, 2.247, 1.694, 2.247, 1.694, 1.694, 0.809, 1.694, 1.694, 2.247, 0.809, 0.809, 0.809, 1.694, 0.809, 0.809, 1.694, 1.694, 2.247, 0.809, 0.809, 0.809, 1.694, 0.809, 0.809, 2.247, 1.694, 2.247, 0.809, 0.809, 0.809, 0.809, 2.247, 0.809, 1.694, 1.694, 2.247, 0.809, 1.694, 0.809, 2.247, 1.694, 0.809, 2.247, 1.694, 2.247, 2.247, 2.247, 1.694, 0.809, 2.247, 0.809, 0.809, 1.694, 0.809, 1.694, 1.694, 1.694, 1.694, 2.247, 1.694, 2.247 ]
3
[ 0.646, 0.309, 0.646, 0.603, 0.603, 0.603, 0.646, 0.603, 0.603, 0.646, 0.646, 0.603, 0.646, 0.309, 0.646, 0.603, 0.309, 0.646, 0.646, 0.309, 0.603, 0.646, 0.309, 0.603, 0.309, 0.603, 0.309, 0.309, 0.646, 0.309, 0.309, 0.309, 0.309, 0.309, 0.646, 0.309, 0.309, 0.603, 0.646, 0.309, 0.309, 0.309, 0.646, 0.603, 0.309, 0.603, 0.646, 0.646, 0.309, 0.309, 0.603, 0.309, 0.646, 0.309, 0.603, 0.603, 0.603, 0.646, 0.646, 0.646, 0.646, 0.603, 0.603, 0.309, 0.646, 0.309, 0.309, 0.309, 0.646, 0.646, 0.646, 0.603, 0.309, 0.603, 0.603, 0.309, 0.603, 0.603, 0.646, 0.603, 0.309, 0.646, 0.309, 0.309, 0.646, 0.646, 0.646, 0.309, 0.646, 0.603, 0.309, 0.603, 0.309, 0.603, 0.309, 0.603, 0.309, 0.603, 0.646, 0.646 ]