3
[ 2.666, 2.725, 2.666, 2.725, 2.666, 3.457, 3.457, 2.666, 2.725, 3.457, 3.457, 2.725, 2.725, 2.666, 2.725, 2.666, 2.666, 2.725, 2.666, 2.666, 2.666, 2.725, 3.457, 3.457, 3.457, 3.457, 3.457, 3.457, 3.457, 3.457, 3.457, 3.457, 3.457, 2.725, 2.666, 2.666, 2.725, 3.457, 3.457, 2.666, 2.725, 2.725, 2.666, 3.457, 3.457, 3.457, 2.666, 3.457, 2.666, 2.666, 3.457, 3.457, 3.457, 3.457, 2.725, 2.666, 2.725, 2.725, 2.666, 3.457, 2.725, 2.725, 3.457, 3.457, 2.725, 2.725, 2.666, 3.457, 3.457, 2.666, 3.457, 2.725, 2.725, 3.457, 2.725, 2.666, 3.457, 3.457, 3.457, 2.725, 3.457, 2.725, 3.457, 3.457, 3.457, 2.725, 3.457, 2.725, 2.725, 2.725, 2.666, 2.725, 2.666, 2.666, 2.725, 3.457, 2.725, 3.457, 2.666, 2.725, 3.457, 2.725, 3.457, 2.666, 2.666, 2.725, 2.725, 3.457, 2.725, 2.725, 2.725, 3.457, 3.457, 2.725, 2.666, 3.457, 3.457, 2.666, 2.666, 2.666, 2.666, 2.666, 2.666, 2.666, 3.457, 2.666, 2.666, 2.666, 2.666, 2.666, 3.457, 2.666, 2.666, 3.457, 2.725, 2.666, 2.666, 2.725, 2.666, 2.725, 2.666, 2.666, 2.666, 2.725, 2.666, 2.725, 3.457, 2.725, 2.725, 2.666, 2.666, 3.457, 2.666, 2.725, 2.666, 2.725, 3.457, 3.457, 3.457, 2.666, 2.725, 2.725, 2.725, 2.666, 3.457, 2.725, 2.666, 2.725, 2.725, 3.457, 2.725, 2.666, 3.457, 2.725, 2.666, 2.725, 2.666, 2.666, 3.457, 2.725, 2.725, 3.457, 2.725, 2.725, 2.725, 3.457, 2.666, 3.457, 2.725, 2.666, 3.457, 2.725, 2.666, 3.457, 2.725, 3.457, 2.666, 2.725, 2.666, 2.725 ]
3
[ 0.218, 0.459, 0.218, 0.459, 0.218, 0.218, 0.459, 0.218, 0.218, 0.218, 0.459, 0.459, 0.218, 0.159, 0.159, 0.459, 0.459, 0.218, 0.459, 0.459, 0.218, 0.159, 0.218, 0.459, 0.159, 0.218, 0.218, 0.159, 0.218, 0.218, 0.218, 0.159, 0.459, 0.459, 0.459, 0.459, 0.459, 0.459, 0.218, 0.218, 0.218, 0.159, 0.218, 0.218, 0.218, 0.459, 0.218, 0.159, 0.159, 0.218, 0.159, 0.218, 0.218, 0.218, 0.459, 0.218, 0.218, 0.459, 0.218, 0.459, 0.218, 0.218, 0.159, 0.459, 0.459, 0.159, 0.459, 0.459, 0.459, 0.459, 0.459, 0.459, 0.459, 0.159, 0.218, 0.218, 0.459, 0.459, 0.459, 0.159, 0.459, 0.459, 0.159, 0.218, 0.459, 0.218, 0.159, 0.159, 0.218, 0.218, 0.459, 0.218, 0.218, 0.218, 0.218, 0.218, 0.459, 0.459, 0.159, 0.159, 0.459, 0.218, 0.218, 0.159, 0.459, 0.459, 0.159, 0.159, 0.459, 0.159, 0.218, 0.218, 0.459, 0.459, 0.218, 0.218, 0.159, 0.459, 0.459, 0.159, 0.159, 0.459, 0.159, 0.218, 0.459, 0.218, 0.218, 0.459, 0.459, 0.218, 0.459, 0.459, 0.459, 0.218, 0.459, 0.459, 0.459, 0.159, 0.218, 0.459, 0.218, 0.459, 0.159, 0.218, 0.459, 0.159, 0.159, 0.459, 0.459, 0.218, 0.159, 0.159, 0.459, 0.218, 0.159, 0.459, 0.159, 0.218, 0.459, 0.459, 0.459, 0.218, 0.159, 0.459, 0.159, 0.459, 0.159, 0.459, 0.159, 0.159, 0.159, 0.218, 0.159, 0.459, 0.159, 0.218, 0.159, 0.159, 0.459, 0.218, 0.159, 0.218, 0.218, 0.159, 0.459, 0.159, 0.159, 0.218, 0.159, 0.459, 0.459, 0.459, 0.159, 0.218, 0.459, 0.218, 0.218, 0.159, 0.459, 0.159 ]