5
[ 4.772, 1.318, 1.318, 1.318, 1.318, 1.318, 0.402, 1.318, 1.318, 1.318, 5.739, 4.772, 4.772, 1.318, 1.318, 1.318, 4.772, 1.318, 1.318, 1.318, 4.772, 1.318, 1.318, 1.318, 5.739, 4.772, 4.772, 1.318, 5.739, 4.772, 1.318, 4.772, 1.318, 1.318, 4.772, 4.772, 4.772, 4.772, 4.772, 4.772, 1.318, 1.318, 1.318, 1.318, 1.318, 1.318, 4.772, 4.772, 1.318, 4.772, 1.318, 1.318, 4.772, 1.318, 4.772, 5.739, 1.318, 1.318, 1.318, 4.772, 1.318, 1.318, 1.318, 1.318, 1.318, 5.739, 1.318, 1.318, 1.318, 1.318, 1.318, 5.739, 1.318, 1.318, 1.318, 1.318, 1.318, 1.318, 1.318, 1.318, 1.318, 1.318, 1.318, 1.318, 4.772, 1.318, 1.318, 1.318, 1.318, 1.318, 1.318, 5.739, 1.318, 1.318, 1.318, 1.318, 4.772, 1.318, 3.103, 1.318 ]
9
[ 0.691, 0.526, 0.526, 0.125, 0.526, 0.829, 0.397, 0.526, 0.526, 0.691, 0.526, 0.691, 0.691, 0.945, 0.691, 0.106, 0.691, 0.691, 0.526, 0.526, 0.397, 0.526, 0.691, 0.691, 0.691, 0.526, 0.691, 0.526, 0.477, 0.691, 0.526, 0.526, 0.526, 0.106, 0.691, 0.691, 0.526, 0.526, 0.829, 0.691, 0.477, 0.526, 0.526, 0.829, 0.526, 0.526, 0.691, 0.691, 0.945, 0.691, 0.397, 0.691, 0.691, 0.397, 0.691, 0.275, 0.526, 0.691, 0.691, 0.691, 0.526, 0.526, 0.526, 0.397, 0.397, 0.526, 0.526, 0.691, 0.526, 0.691, 0.106, 0.691, 0.526, 0.526, 0.945, 0.526, 0.691, 0.691, 0.829, 0.945, 0.526, 0.106, 0.526, 0.691, 0.691, 0.526, 0.691, 0.397, 0.526, 0.526, 0.691, 0.691, 0.106, 0.526, 0.526, 0.691, 0.691, 0.691, 0.526, 0.526 ]