2
[ 6.297, 4.794, 4.794, 4.794, 6.297, 4.794, 6.297, 4.794, 6.297, 4.794, 6.297, 4.794, 6.297, 4.794, 4.794, 6.297, 6.297, 4.794, 6.297, 6.297, 6.297, 6.297, 4.794, 4.794, 4.794, 4.794, 4.794, 4.794, 6.297, 4.794, 4.794, 6.297, 6.297, 6.297, 4.794, 4.794, 4.794, 6.297, 4.794, 4.794, 6.297, 4.794, 4.794, 4.794, 4.794, 6.297, 6.297, 6.297, 6.297, 6.297 ]
3
[ 0.130, 0.341, 0.341, 0.130, 0.130, 0.130, 0.341, 0.130, 0.403, 0.403, 0.403, 0.130, 0.130, 0.130, 0.130, 0.130, 0.130, 0.341, 0.130, 0.130, 0.130, 0.341, 0.130, 0.130, 0.130, 0.130, 0.130, 0.403, 0.341, 0.130, 0.130, 0.130, 0.130, 0.130, 0.341, 0.341, 0.130, 0.341, 0.403, 0.403, 0.341, 0.341, 0.130, 0.130, 0.341, 0.130, 0.403, 0.130, 0.130, 0.130 ]