3
[ 4.419, 2.389, 2.470, 2.470, 2.470, 2.470, 4.419, 2.470, 2.470, 4.419, 2.470, 2.470, 4.419, 2.470, 4.419, 2.470, 4.419, 4.419, 2.470, 4.419, 2.389, 2.470, 4.419, 4.419, 4.419, 2.470, 2.470, 2.470, 4.419, 4.419, 4.419, 2.389, 4.419, 4.419, 4.419, 2.389, 4.419, 4.419, 2.470, 2.389, 2.470, 4.419, 2.470, 2.470, 2.389, 2.389, 2.389, 4.419, 2.389, 2.389, 2.470, 2.470, 2.389, 2.389, 2.470, 2.389, 4.419, 2.470, 2.389, 2.470, 4.419, 2.389, 4.419, 2.389, 2.389, 2.470, 4.419, 2.470, 2.470, 2.389, 2.389, 2.470, 4.419, 4.419, 4.419, 2.470, 4.419, 2.470, 2.470, 2.470, 2.470, 2.389, 2.389, 4.419, 2.470, 2.470, 4.419, 2.389, 2.389, 4.419, 4.419, 2.389, 2.389, 2.470, 2.470, 4.419, 2.470, 2.389, 4.419, 2.470 ]
3
[ 0.805, 0.541, 0.626, 0.805, 0.626, 0.626, 0.626, 0.541, 0.541, 0.626, 0.626, 0.805, 0.541, 0.541, 0.805, 0.626, 0.805, 0.541, 0.541, 0.805, 0.626, 0.541, 0.626, 0.541, 0.541, 0.626, 0.626, 0.805, 0.805, 0.626, 0.626, 0.541, 0.541, 0.541, 0.805, 0.805, 0.541, 0.626, 0.626, 0.541, 0.805, 0.805, 0.541, 0.805, 0.541, 0.626, 0.626, 0.805, 0.541, 0.805, 0.541, 0.805, 0.541, 0.626, 0.626, 0.805, 0.626, 0.626, 0.805, 0.626, 0.541, 0.805, 0.626, 0.805, 0.805, 0.805, 0.541, 0.541, 0.805, 0.805, 0.626, 0.805, 0.805, 0.805, 0.541, 0.805, 0.626, 0.541, 0.805, 0.626, 0.626, 0.541, 0.541, 0.626, 0.626, 0.805, 0.626, 0.626, 0.626, 0.626, 0.805, 0.626, 0.805, 0.626, 0.805, 0.541, 0.541, 0.626, 0.626, 0.805 ]