pars_sum	pars_var	pars_disp	obs_disp	sim_disp
1	-0.971428571428571	-0.440576230492197	0.408163265306122	0.848739495798319
3	0.285714285714286	0.0988072648414206	0.407563025210084	0.308755760368664
-7	-0.942857142857142	-0.276588276588277	0.281853281853282	0.558441558441558
11	0.980952380952381	0.285714285714286	0.714285714285714	0.428571428571428
-6	-0.371428571428571	-0.0509490509490508	0.597402597402597	0.648351648351648
0	0.428571428571428	0.183673469387755	0.714285714285714	0.530612244897959
0	-0.571428571428571	-0.238095238095238	0.404761904761905	0.642857142857143
2	-0.2	-0.115283613445378	0.34453781512605	0.459821428571429
1	0.961904761904761	0.330512692882031	0.877551020408163	0.547038327526132
5	0.190476190476191	-0.016233766233766	0.662337662337662	0.678571428571428
9	1.11428571428571	0.340336134453781	0.911764705882353	0.571428571428571
0	0	0	0.516129032258065	0.516129032258065
6	0.628571428571429	0.171129655000623	0.687258687258687	0.516129032258065
1	-0.542857142857143	-0.249699879951981	0.346938775510204	0.596638655462185
-7	-0.657142857142858	-0.105475605475606	0.745173745173745	0.850649350649351
7	-0.104761904761905	-0.196545284780579	0.533613445378151	0.73015873015873
-3	-0.371428571428573	-0.0695507727863647	0.790697674418605	0.860248447204969
3	-0.0571428571428573	-0.0627705627705628	0.404761904761905	0.467532467532468
1	-0.114285714285714	-0.0588235294117648	0.285714285714286	0.34453781512605
10	0.714285714285714	0.216326530612245	0.530612244897959	0.314285714285714
2	0.209523809523809	0.0705009276437847	0.408163265306123	0.337662337662338
3	1.57142857142857	0.582417582417582	0.868131868131868	0.285714285714286
4	1.06666666666667	0.436974789915966	0.722689075630252	0.285714285714286
-4	0.371428571428571	0.196152145068554	0.470588235294118	0.274436090225564
-3	-0.142857142857143	-0.0283882783882783	0.345238095238095	0.373626373626374
2	-0.790476190476191	-0.387755102040816	0.469387755102041	0.857142857142857
-2	-0.295238095238095	-0.101503759398496	0.285714285714286	0.387218045112782
-7	-1.15238095238095	-0.336101882613511	0.404761904761905	0.740863787375415
-2	0.257142857142857	0.139547710976282	0.653061224489796	0.513513513513513
-3	-0.938461538461539	-0.288045288045288	0.532467532467532	0.82051282051282
8	0.0571428571428569	-0.112102250033285	0.513513513513513	0.625615763546798
2	0.676190476190476	0.288646837033934	0.597402597402597	0.308755760368664
-2	0.257142857142857	0.136238279095422	0.591836734693878	0.455598455598456
6	-0.142857142857143	-0.128994360902256	0.330827067669173	0.459821428571429
2	0.657142857142857	0.258928571428571	0.785714285714286	0.526785714285714
2	-0.466666666666666	-0.255969836614998	0.467532467532468	0.723502304147465
5	0.0476190476190477	-0.057977736549165	0.467532467532468	0.525510204081633
6	0	-0.09375	0.5	0.59375
-4	-0.0952380952380952	-0.00912600912600908	0.272727272727273	0.281853281853282
5	0.666666666666666	0.248015873015873	0.660714285714286	0.412698412698413
5	0.571428571428571	0.163265306122449	0.571428571428571	0.408163265306122
-11	-0.476190476190476	-0.070945945945946	0.33976833976834	0.410714285714286
5	0.190476190476191	-0.00463821892393301	0.597402597402598	0.602040816326531
-1	0.552380952380953	0.255102040816327	0.89795918367347	0.642857142857143
-14	-0.228571428571429	0.0857919254658384	0.526785714285714	0.440993788819876
-6	-1.2	-0.387755102040816	0.285714285714286	0.673469387755102
11	0.704761904761905	0.101255886970173	0.703296703296703	0.602040816326531
1	-0.685714285714286	-0.319927971188475	0.591836734693878	0.911764705882353
1	0.457142857142857	0.184273709483793	0.591836734693878	0.407563025210084
16	0.821611721611722	0.142164142164142	0.629343629343629	0.487179487179487
-3	-0.2	-0.0480354303883715	0.407563025210084	0.455598455598456
-1	-0.323809523809524	-0.127196333078686	0.532467532467532	0.659663865546218
8	0.342857142857143	0.0197044334975369	0.571428571428571	0.551724137931034
6	0.726373626373627	0.246864246864247	0.922077922077922	0.675213675213675
-8	-1.44761904761905	-0.432432432432432	0.281853281853282	0.714285714285714
-2	0.0761904761904759	0.066790352504638	0.597402597402597	0.530612244897959
7	0.761904761904762	0.224548440065682	0.702380952380952	0.477832512315271
-2	-0.476190476190476	-0.175770308123249	0.407563025210084	0.583333333333333
-10	-0.523809523809523	-0.041208791208791	0.571428571428572	0.612637362637362
3	-0.114285714285715	-0.111170784103115	0.725563909774436	0.836734693877551
4	0.20952380952381	0.050420168067227	0.407563025210084	0.357142857142857
3	-1.42857142857143	-0.718487394957983	0.281512605042017	1
8	0.428571428571429	0.0830639948287009	0.533613445378151	0.450549450549451
-9	0.0285714285714285	0.118274582560297	0.530612244897959	0.412337662337662
3	-0.142857142857143	-0.0963675792897802	0.281512605042017	0.377880184331797
0	-1.28571428571429	-0.521235521235521	0.281853281853282	0.803088803088803
4	0.20952380952381	0.0420168067226892	0.470588235294118	0.428571428571429
7	-0.104761904761905	-0.163865546218487	0.407563025210084	0.571428571428572
5	0.714285714285714	0.299539170506912	0.585253456221198	0.285714285714286
-1	-1.59047619047619	-0.64795918367347	0.530612244897959	1.17857142857143
0	0.285714285714285	0.112781954887218	0.725563909774436	0.612781954887218
11	1.15238095238095	0.441964285714285	0.727678571428571	0.285714285714286
4	-2.22044604925031e-16	-0.0752551020408164	0.526785714285714	0.602040816326531
-3	0.2	0.109756097560975	0.5	0.390243902439024
1	-0.523809523809524	-0.260146103896104	0.467532467532468	0.727678571428572
-2	-0.276190476190476	-0.0858330858330859	0.397683397683398	0.483516483516484
3	0.914285714285714	0.332500567794685	0.803088803088803	0.470588235294118
-1	0.533333333333333	0.256684491978609	0.727272727272727	0.470588235294118
-2	0.0952380952380952	0.0588235294117647	0.34453781512605	0.285714285714286
-1	0.4	0.188475390156062	0.596638655462185	0.408163265306122
4	-0.504761904761905	-0.315126050420168	0.470588235294118	0.785714285714286
1	0.00952380952380905	-0.0102960102960106	0.513513513513513	0.523809523809524
7	0.0476190476190474	-0.0587027914614122	0.345238095238095	0.403940886699507
5	-0.666666666666668	-0.435867895545315	0.702380952380952	1.13824884792627
-8	-2.6	-0.78547698149027	0.653061224489796	1.43853820598007
2	-0.161904761904762	-0.116071428571429	0.526785714285714	0.642857142857143
7	0.257142857142858	-0.0255102040816324	0.653061224489796	0.678571428571428
0	-0.428571428571428	-0.189075630252101	0.407563025210084	0.596638655462185
5	1.19047619047619	0.473098330241188	0.922077922077922	0.448979591836735
6	-1.02857142857143	-0.595238095238095	0.404761904761905	1
5	0.285714285714286	0.0557809330628805	0.533613445378151	0.477832512315271
7	-0.0285714285714285	-0.13265306122449	0.469387755102041	0.60204081632653
10	0.380952380952381	0.0643500643500644	0.397683397683398	0.333333333333333
1	0.323809523809524	0.127196333078686	0.659663865546218	0.532467532467532
1	0.323809523809524	0.127196333078686	0.659663865546218	0.532467532467532
5	-4.44089209850063e-16	-0.104591836734694	0.732142857142857	0.836734693877551
-3	-0.4	-0.126275510204081	0.526785714285714	0.653061224489796
8	0.780952380952381	0.276643990929705	0.530612244897959	0.253968253968254
6	0.857142857142857	0.3001443001443	0.792207792207792	0.492063492063492
3	-0.228571428571429	-0.172721674876847	0.526785714285714	0.699507389162562
-11	-0.571428571428572	-0.064576411960133	0.526785714285714	0.591362126245847
8	-0.371428571428571	-0.365730262281986	0.629343629343629	0.995073891625616
-7	0.40952380952381	0.205513784461153	0.443609022556391	0.238095238095238
-2	0.0571428571428568	0.0522584033613444	0.459821428571429	0.407563025210084
0	-0.285714285714285	-0.112781954887218	0.387218045112782	0.5
1	-0.247619047619048	-0.130634071810542	0.596638655462185	0.727272727272727
1	0.628571428571428	0.284994239631336	0.59375	0.308755760368664
0	0.285714285714286	0.115830115830116	0.397683397683398	0.281853281853282
1	0.0571428571428569	0.0106566820276497	0.526785714285714	0.516129032258065
8	0.723809523809523	0.254464285714285	0.59375	0.339285714285714
5	0.391208791208791	0.135864135864136	0.597402597402597	0.461538461538462
-1	-1.28571428571429	-0.497053444421865	0.397683397683398	0.894736842105263
-2	0.361904761904762	0.185528756957328	0.532467532467532	0.346938775510204
2	0.514285714285715	0.188025210084034	0.848739495798319	0.660714285714286
-3	-0.371428571428571	-0.121212121212121	0.402597402597403	0.523809523809524
3	-0.0857142857142856	-0.084975369458128	0.392857142857143	0.477832512315271
-5	-0.904761904761905	-0.275785990071704	0.397683397683398	0.673469387755102
-3	-1.2	-0.39010989010989	0.538461538461539	0.928571428571429
-7	-0.352380952380952	-0.038961038961039	0.532467532467532	0.571428571428571
8	0.761904761904762	0.201347040056717	0.648351648351648	0.447004608294931
-16	-0.323809523809524	0.0535382984362577	0.467532467532468	0.41399416909621
6	1.08571428571429	0.413265306122449	0.785714285714286	0.372448979591837
-5	-0.761904761904762	-0.240788623141564	0.407563025210084	0.648351648351648
10	1.19047619047619	0.354300871542251	0.758241758241758	0.403940886699507
2	0.0476190476190473	-0.00280112044817937	0.404761904761905	0.407563025210084
1	-0.257142857142857	-0.127250900360144	0.469387755102041	0.596638655462185
-1	-0.447619047619048	-0.17687074829932	0.346938775510204	0.523809523809524
9	0.171428571428571	-0.0635792778649923	0.469387755102041	0.532967032967033
0	0.428571428571428	0.200892857142857	0.727678571428571	0.526785714285714
9	0.742857142857143	0.244897959183673	0.530612244897959	0.285714285714286
5	0.571428571428571	0.178571428571428	0.571428571428571	0.392857142857143
-1	-0.457142857142857	-0.171668667466987	0.848739495798319	1.02040816326531
3	0.514285714285714	0.16991341991342	0.702380952380953	0.532467532467533
-1	-0.171428571428571	-0.0636254501800719	0.34453781512605	0.408163265306122
2	0.552380952380952	0.21875	0.861607142857143	0.642857142857143
-3	-0.285714285714286	-0.0879120879120879	0.285714285714286	0.373626373626374
-3	-1.28571428571429	-0.458791208791209	0.464285714285714	0.923076923076923
-1	0.257142857142857	0.123649459783914	0.470588235294118	0.346938775510204
-1	0.523809523809523	0.262175324675325	0.794642857142857	0.532467532467532
9	0.742857142857143	0.181318681318681	0.714285714285714	0.532967032967033
4	0.428571428571428	0.144770408163265	0.59375	0.448979591836735
-1	0.819047619047619	0.378915202444614	0.597402597402597	0.218487394957983
-8	-1.23809523809524	-0.326839826839827	0.523809523809524	0.850649350649351
7	0.476190476190476	0.134236453201971	0.464285714285714	0.330049261083744
-1	-0.752380952380952	-0.320091673032849	0.402597402597403	0.722689075630252
1	0.161904761904762	0.0544217687074831	0.523809523809524	0.469387755102041
-2	-0.476190476190476	-0.182773109243697	0.281512605042017	0.464285714285714
4	0.676190476190476	0.249440214957456	0.727272727272727	0.477832512315271
0	-0.285714285714286	-0.122448979591837	0.469387755102041	0.591836734693878
-14	-2.11428571428571	-0.530612244897959	0.408163265306122	0.938775510204082
12	0.914285714285714	0.23747680890538	0.727272727272727	0.489795918367347
3	0.2	0.0558805418719211	0.459821428571429	0.403940886699507
2	0.171428571428571	0.0474351902923332	0.455598455598456	0.408163265306122
-5	0.190476190476191	0.16260162601626	0.761904761904762	0.599303135888502
1	1.04761904761905	0.466314935064935	0.792207792207792	0.325892857142857
-11	-1.90476190476191	-0.464285714285715	0.571428571428571	1.03571428571429
-1	0.838095238095238	0.374149659863946	0.89795918367347	0.523809523809524
2	-0.971428571428572	-0.445670159955874	0.513513513513513	0.959183673469388
-8	-2.0952380952381	-0.651515151515152	0.345238095238095	0.996753246753247
4	-0.295238095238095	-0.196428571428571	0.464285714285714	0.660714285714286
1	-1.11428571428571	-0.505402160864346	0.469387755102041	0.974789915966387
8	-0.0761904761904759	-0.18140589569161	0.469387755102041	0.650793650793651
-3	-0.0857142857142856	-0.00216450216450215	0.402597402597403	0.404761904761905
7	-0.161904761904762	-0.146718146718147	0.281853281853282	0.428571428571429
-4	-0.276190476190476	-0.0788690476190477	0.325892857142857	0.404761904761905
-1	0.809523809523809	0.387987012987013	0.660714285714286	0.272727272727273
-5	-1.19047619047619	-0.405623787976729	0.407563025210084	0.813186813186813
2	-0.057142857142857	-0.0522584033613445	0.407563025210084	0.459821428571429
-5	-0.428571428571429	-0.102557915057915	0.526785714285714	0.629343629343629
-7	0.438095238095238	0.275068681318681	0.59375	0.318681318681319
-10	0.142857142857143	0.211869169382938	0.654377880184332	0.442508710801394
-3	-0.142857142857143	0.00366300366300354	0.761904761904762	0.758241758241758
0	-0.142857142857143	-0.064935064935065	0.337662337662338	0.402597402597403
-1	-0.304761904761905	-0.107142857142857	0.714285714285714	0.821428571428571
-2	0.0476190476190477	0.0517287590458323	0.703296703296703	0.651567944250871
2	-0.323809523809524	-0.203602848764139	0.727272727272727	0.930875576036866
-10	-0.190476190476191	0.136054421768707	0.897959183673469	0.761904761904762
-2	-0.19047619047619	-0.0567226890756302	0.407563025210084	0.464285714285714
-6	-1.45714285714286	-0.406593406593407	0.593406593406593	1
7	0.342857142857142	0.052995391705069	0.5	0.447004608294931
-10	-0.857142857142858	-0.113636363636364	0.785714285714286	0.89935064935065
-14	-0.4	-0.00583090379008755	0.408163265306122	0.41399416909621
8	-0.0761904761904764	-0.145124716553288	0.346938775510204	0.492063492063492
7	0.466666666666666	0.0392156862745098	0.848739495798319	0.80952380952381
5	0.0476190476190474	-0.0518433179723503	0.464285714285714	0.516129032258065
-13	0.314285714285714	0.227799227799228	0.513513513513513	0.285714285714286
6	-2.22044604925031e-16	-0.161616161616162	0.727272727272727	0.888888888888889
7	0.19047619047619	-0.0135467980295567	0.464285714285714	0.477832512315271
7	0.323809523809524	0.00887021475256755	0.659663865546218	0.650793650793651
5	-0.571428571428572	-0.398435236163431	0.596638655462185	0.995073891625616
-5	0.142857142857143	0.119897959183673	0.530612244897959	0.410714285714286
5	0.380952380952381	0.0816326530612246	0.653061224489796	0.571428571428571
1	0.466666666666667	0.195951107715814	0.533613445378151	0.337662337662338
7	0.466666666666667	0.120915032679739	0.533613445378151	0.412698412698413
-8	0.180952380952381	0.214285714285714	0.785714285714286	0.571428571428572
6	-0.0285714285714286	-0.0833333333333333	0.345238095238095	0.428571428571429
0	1.31062271062271	0.630837912087912	0.861607142857143	0.230769230769231
-4	-0.057142857142857	0.0203449800973021	0.407563025210084	0.387218045112782
4	0.523809523809523	0.154791154791155	0.687258687258687	0.532467532467532
0	0.142857142857143	0.0669642857142856	0.59375	0.526785714285714
-8	-0.752380952380952	-0.171365220145708	0.532467532467532	0.70383275261324
-8	-0.0285714285714287	0.100142382534409	0.591836734693878	0.491694352159468
-2	-0.923809523809524	-0.37291280148423	0.402597402597403	0.775510204081633
-7	-2	-0.662123385939742	0.407563025210084	1.06968641114983
-5	0.0476190476190477	0.0888585099111414	0.532467532467532	0.443609022556391
-3	-0.0571428571428572	0.0252100840336136	0.596638655462185	0.571428571428571
3	-0.085714285714286	-0.0849753694581282	0.392857142857143	0.477832512315271
-7	-0.152380952380952	0.0418050941306757	0.583333333333333	0.541528239202658
4	-0.361904761904762	-0.252100840336134	0.533613445378151	0.785714285714286
5	0.619047619047619	0.176651305683564	0.761904761904762	0.585253456221198
1	0.0285714285714287	-0.00840336134453779	0.714285714285714	0.722689075630252
9	0.742857142857143	0.244897959183673	0.530612244897959	0.285714285714286
-3	-0.742857142857142	-0.261009667024704	0.408163265306122	0.669172932330827
11	0.7007326007326	0.244734432234432	0.526785714285714	0.282051282051282
2	0.228571428571429	0.0659138655462185	0.659663865546219	0.59375
-7	-1.58095238095238	-0.475913621262459	0.464285714285714	0.940199335548173
3	-0.828571428571429	-0.340116279069767	0.39202657807309	0.732142857142857
0	-0.142857142857143	-0.0630252100840336	0.659663865546218	0.722689075630252
5	0.857142857142857	0.297015357867285	0.848739495798319	0.551724137931034
6	0.542857142857143	0.130952380952381	0.702380952380952	0.571428571428571
-8	-1.03809523809524	-0.301235350015838	0.402597402597403	0.70383275261324
5	0.0476190476190477	-0.057977736549165	0.467532467532468	0.525510204081633
-5	-0.0476190476190477	0.0518433179723502	0.516129032258065	0.464285714285714
3	0.885714285714286	0.37012987012987	0.727272727272727	0.357142857142857
-3	0.0571428571428574	0.0735930735930737	0.597402597402597	0.523809523809524
3	-0.257142857142857	-0.194805194805195	0.662337662337662	0.857142857142857
7	0.342857142857142	0.0275284986660197	0.612781954887218	0.585253456221198
-20	-0.523809523809524	0.0771869639794169	0.597402597402597	0.520215633423181
0	0.142857142857143	0.0669642857142857	0.660714285714286	0.59375
5	0.285714285714286	0.0666473485946104	0.470588235294118	0.403940886699507
-18	-3.05714285714286	-0.762605042016807	0.34453781512605	1.10714285714286
-14	0.457142857142857	0.309037900874636	0.591836734693878	0.282798833819242
6	0.228571428571429	0.00810324129651863	0.533613445378151	0.525510204081633
8	0.2	0.0256956463853016	0.281853281853282	0.25615763546798
-7	-0.219047619047619	-0.0204081632653063	0.346938775510204	0.36734693877551
-9	-1.2	-0.333300762165331	0.407563025210084	0.740863787375415
-3	0.371428571428571	0.204065409947763	0.659663865546218	0.455598455598456
-4	0.2	0.134570110179866	0.629343629343629	0.494773519163763
1	0.571428571428571	0.216622637675269	0.556390977443609	0.33976833976834
-10	0.714285714285714	0.436401833460657	0.848739495798319	0.412337662337662
-3	-0.0571428571428569	0.0200999318646379	0.533613445378151	0.513513513513514
-6	-0.371428571428571	-0.070929070929071	0.467532467532468	0.538461538461539
7	0.611721611721611	0.207221350078493	0.591836734693877	0.384615384615385
-11	0.628571428571428	0.393279116157741	0.894736842105263	0.501457725947522
1	-0.257142857142857	-0.127250900360144	0.469387755102041	0.596638655462185
9	0.742857142857143	0.244897959183673	0.530612244897959	0.285714285714286
2	-0.180952380952381	-0.105152911604524	0.272727272727273	0.377880184331797
10	0.857142857142857	0.204081632653061	0.775510204081632	0.571428571428571
0	0.285714285714286	0.126050420168067	0.407563025210084	0.281512605042017
1	0.771428571428571	0.349798387096774	0.727678571428571	0.377880184331797
11	0.761904761904762	0.285714285714286	0.467532467532468	0.181818181818182
5	-0.523809523809524	-0.318740399385561	0.404761904761905	0.723502304147466
4	0.285714285714286	0.0778061224489796	0.526785714285714	0.448979591836735
0	0.285714285714286	0.12987012987013	0.597402597402597	0.467532467532468
5	0.476190476190476	0.145929339477727	0.523809523809524	0.377880184331797
-2	0.504761904761905	0.239332096474954	0.402597402597403	0.163265306122449
5	0.619047619047619	0.195852534562212	0.642857142857143	0.447004608294931
9	0.257142857142857	-0.0151260504201679	0.470588235294118	0.485714285714286
8	0.361904761904762	0.12987012987013	0.272727272727273	0.142857142857143
12	1.68571428571429	0.566326530612245	0.785714285714286	0.219387755102041
9	0.8	0.170634920634921	0.821428571428572	0.650793650793651
10	0.619047619047619	0.0875211744776961	0.727272727272727	0.639751552795031
-4	-0.733333333333333	-0.233908948194663	0.469387755102041	0.703296703296703
13	1.10622710622711	0.38732695875553	0.653061224489796	0.265734265734266
8	-0.638095238095238	-0.490909090909091	0.337662337662338	0.828571428571428
-4	-0.304761904761905	-0.0690737833594978	0.469387755102041	0.538461538461539
-2	0.476190476190476	0.203162690967569	0.593406593406593	0.390243902439025
-8	-0.247619047619047	0.0132052821128453	0.533613445378151	0.520408163265306
-2	-0.190476190476191	-0.0357142857142859	0.785714285714286	0.821428571428572
-13	0.228571428571429	0.220543536563562	0.533613445378151	0.31306990881459
9	0.457142857142857	0.101255886970173	0.469387755102041	0.368131868131868
-5	-0.666666666666667	-0.180023228803716	0.523809523809524	0.70383275261324
4	0.352380952380952	0.0966386554621849	0.596638655462185	0.5
-9	-1.57142857142857	-0.394976803711406	0.556390977443609	0.951367781155015
2	0.0857142857142861	-0.00105042016806711	0.659663865546218	0.660714285714286
-3	1.22857142857143	0.561776061776062	0.785714285714286	0.223938223938224
10	0.484615384615385	0.158450245406767	0.402597402597403	0.244147157190635
-1	-0.152380952380953	-0.0508365508365509	0.404761904761905	0.455598455598456
14	1.4	0.544117647058823	0.722689075630252	0.178571428571429
3	-0.285714285714285	-0.177690431011114	0.407563025210084	0.585253456221198
-2	-1.27619047619048	-0.47044847044847	0.397683397683398	0.868131868131868
3	0.285714285714285	0.0787545787545785	0.483516483516483	0.404761904761905
-1	-1.3047619047619	-0.530612244897959	0.469387755102041	1
-7	-1.73333333333333	-0.535087719298246	0.274436090225564	0.809523809523809
0	-0.142857142857143	-0.0630252100840337	0.533613445378151	0.596638655462185
-7	-0.561904761904762	-0.133585164835165	0.459821428571428	0.593406593406593
3	-0.971428571428572	-0.5	0.142857142857143	0.642857142857143
5	0.619047619047619	0.195852534562212	0.642857142857143	0.447004608294931
5	-0.77032967032967	-0.391823230532907	0.523809523809524	0.915632754342431
-1	-0.333333333333334	-0.135551948051948	0.526785714285714	0.662337662337662
5	-0.142857142857144	-0.135204081632653	0.517857142857143	0.653061224489796
-7	0.704761904761905	0.369878183831672	0.761904761904762	0.39202657807309
8	0.504761904761905	0.153246753246753	0.467532467532468	0.314285714285714
-6	-0.828571428571429	-0.2344449975112	0.469387755102041	0.70383275261324
2	0.209523809523809	0.0630797773654915	0.530612244897959	0.467532467532468
8	1.29523809523809	0.522321428571428	0.861607142857143	0.339285714285714
11	0.0476190476190477	-0.136363636363636	0.337662337662338	0.474025974025974
3	-0.114285714285714	-0.103896103896104	0.467532467532468	0.571428571428571
1	-0.247619047619048	-0.124904507257448	0.407563025210084	0.532467532467532
-9	-0.771428571428571	-0.183799101035763	0.407563025210084	0.591362126245847
2	-0.504761904761904	-0.246753246753247	0.285714285714286	0.532467532467532
3	0.457142857142857	0.168831168831169	0.597402597402597	0.428571428571429
8	1.07619047619048	0.433766233766234	0.662337662337662	0.228571428571429
0	-0.285714285714286	-0.126050420168067	0.533613445378151	0.659663865546218
5	0.380952380952381	0.112244897959184	0.469387755102041	0.357142857142857
11	1.33333333333333	0.512987012987013	0.792207792207792	0.279220779220779
0	0	0	0.59375	0.59375
-1	-0.961904761904762	-0.335490293678447	0.337979094076655	0.673469387755102
-19	0.161904761904762	0.307359307359307	0.761904761904762	0.454545454545454
8	0.438095238095238	0.142857142857143	0.392857142857143	0.25
-4	0.0857142857142856	0.103272888102609	0.659663865546218	0.556390977443609
-2	-0.352380952380952	-0.128014842300556	0.402597402597403	0.530612244897959
-6	-1.62857142857143	-0.587744426454104	0.447004608294931	1.03474903474903
6	-0.314285714285714	-0.262672811059908	0.308755760368664	0.571428571428571
3	0.685714285714285	0.271683673469388	0.530612244897959	0.258928571428572
4	0.133333333333334	-0.00297619047619035	0.523809523809524	0.526785714285714
0	0.285714285714286	0.12987012987013	0.662337662337662	0.532467532467532
11	0.190476190476191	-0.038961038961039	0.337662337662338	0.376623376623377
-10	-0.761904761904763	-0.133928571428572	0.5	0.633928571428572
-8	-0.180952380952381	-0.012987012987013	0.272727272727273	0.285714285714286
-6	-0.514285714285714	-0.085914085914086	0.727272727272727	0.813186813186813
-12	-0.342857142857143	0.0244346800985962	0.516129032258065	0.491694352159468
3	0.8	0.29978354978355	0.702380952380952	0.402597402597403
-2	0.0761904761904764	0.0667903525046383	0.597402597402597	0.530612244897959
3	0.742857142857143	0.311688311688312	0.597402597402597	0.285714285714286
-2	-0.0666666666666665	-0.00556586270871978	0.402597402597403	0.408163265306122
2	1.14285714285714	0.531701890989989	0.861751152073733	0.330049261083744
6	1.11428571428571	0.494930875576037	0.723502304147465	0.228571428571429
8	0.123809523809524	-0.0263157894736841	0.330827067669173	0.357142857142857
7	0.476190476190477	0.0767651888341546	0.702380952380953	0.625615763546798
-16	-1.86666666666667	-0.413919413919414	0.404761904761905	0.818681318681319
-13	0.39047619047619	0.351214003387916	0.792207792207792	0.440993788819876
-1	0.133333333333333	0.0714285714285715	0.642857142857143	0.571428571428571
-14	-0.523809523809523	-0.00856590218292341	0.532467532467532	0.541033434650456
-12	-1.68571428571429	-0.41991341991342	0.532467532467532	0.952380952380952
4	-0.285714285714286	-0.209183673469388	0.392857142857143	0.602040816326531
-1	-1.18095238095238	-0.511077158135982	0.337662337662338	0.848739495798319
-12	-0.228571428571429	0.102272727272727	0.660714285714286	0.558441558441559
7	0.885714285714285	0.327678571428571	0.727678571428571	0.4
10	0.666666666666667	0.168067226890756	0.596638655462185	0.428571428571429
-3	0.0857142857142859	0.0780149897796958	0.533613445378151	0.455598455598456
8	0.409523809523809	0.0413533834586466	0.612781954887218	0.571428571428571
2	0.495238095238095	0.181818181818182	0.714285714285714	0.532467532467532
-10	-0.285714285714286	-0.00657192146553848	0.397683397683398	0.404255319148936
8	-0.219047619047619	-0.206349206349206	0.285714285714286	0.492063492063492
-3	-1.37142857142857	-0.543290043290043	0.337662337662338	0.880952380952381
-22	-0.514285714285714	0.0607290098815523	0.513513513513514	0.452784503631961
6	-0.257142857142857	-0.217452498240676	0.408163265306122	0.625615763546798
-4	0.123809523809524	0.102040816326531	0.530612244897959	0.428571428571429
-9	-0.228571428571429	0.0614111498257839	0.660714285714286	0.599303135888502
2	0.619047619047619	0.238795518207283	0.583333333333333	0.34453781512605
1	0.866666666666667	0.346846846846847	0.513513513513514	0.166666666666667
-1	-0.885714285714285	-0.362545018007203	0.596638655462185	0.959183673469387
-3	0.0857142857142856	0.0882352941176471	0.659663865546218	0.571428571428571
0	0.142857142857143	0.0612244897959183	0.346938775510204	0.285714285714286
-12	-0.571428571428571	-0.063573255389112	0.470588235294118	0.53416149068323
-2	-0.6	-0.221180364037507	0.408163265306122	0.629343629343629
-6	-1.14285714285714	-0.389097744360902	0.392857142857143	0.781954887218045
0	-0.714285714285715	-0.274725274725275	0.428571428571428	0.703296703296703
6	0.542857142857143	0.218433179723502	0.447004608294931	0.228571428571429
2	0.98095238095238	0.450892857142857	0.59375	0.142857142857143
6	0.628571428571428	0.210164835164835	0.660714285714286	0.450549450549451
-4	-0.514285714285714	-0.138054430737357	0.513513513513514	0.651567944250871
8	-0.0761904761904764	-0.18140589569161	0.469387755102041	0.650793650793651
8	0.828571428571428	0.21875	0.678571428571428	0.459821428571429
-4	-0.2	-0.0227775320654579	0.533613445378151	0.556390977443609
9	-0.542857142857143	-0.412087912087912	0.285714285714286	0.697802197802198
2	0.00952380952380927	-0.0332080200501255	0.669172932330827	0.702380952380952
-4	-0.628571428571429	-0.178681999115436	0.659663865546218	0.838345864661654
3	0.228571428571429	0.0670995670995672	0.404761904761905	0.337662337662338
13	1.25714285714286	0.471243042671614	0.653061224489796	0.181818181818182
3	-0.085714285714286	-0.091902709359606	0.459821428571428	0.551724137931034
10	0.857142857142857	0.253061224489796	0.653061224489796	0.4
0	-0.142857142857143	-0.0630252100840336	0.407563025210084	0.470588235294118
8	0.619047619047619	0.160581354129741	0.538461538461538	0.377880184331797
0	-0.142857142857143	-0.0595238095238096	0.702380952380952	0.761904761904762
-4	-0.41904761904762	-0.101190476190476	0.660714285714286	0.761904761904762
13	0.419047619047619	0.0445134575569358	0.404761904761905	0.360248447204969
-8	-1.37142857142857	-0.370055573716901	0.443609022556391	0.813664596273292
-2	0.419047619047619	0.196115288220551	0.583333333333333	0.387218045112782
9	0.457142857142857	0.122448979591837	0.408163265306123	0.285714285714286
3	-0.428571428571429	-0.246814854974248	0.407563025210084	0.654377880184332
5	-0.0476190476190479	-0.124007936507937	0.526785714285714	0.650793650793651
4	0.676190476190476	0.240483654276758	0.792207792207792	0.551724137931034
1	-0.533333333333333	-0.254774637127578	0.407563025210084	0.662337662337662
-8	-0.523809523809523	-0.0833333333333331	0.523809523809524	0.607142857142857
3	-0.828571428571428	-0.383458646616541	0.330827067669173	0.714285714285714
-9	-0.971428571428572	-0.185064935064935	0.714285714285714	0.899350649350649
8	0.342857142857143	0.0516575688989483	0.455598455598456	0.403940886699507
0	0.428571428571428	0.183673469387755	0.653061224489796	0.469387755102041
-4	0.114285714285715	0.107965766951942	0.516129032258065	0.408163265306122
-7	-1.02857142857143	-0.251139817629179	0.517857142857143	0.768996960486322
1	0.447619047619047	0.173469387755102	0.642857142857143	0.469387755102041
3	0.0857142857142856	-0.014069264069264	0.583333333333333	0.597402597402597
-2	0.504761904761905	0.25417439703154	0.662337662337662	0.408163265306123
-9	-1.57142857142857	-0.448968165093585	0.274436090225564	0.723404255319149
-9	-0.2	0.0287277701778386	0.470588235294118	0.441860465116279
7	-0.171428571428571	-0.209183673469387	0.469387755102041	0.678571428571428
2	-0.647619047619048	-0.326530612244898	0.530612244897959	0.857142857142857
0	0.285714285714285	0.126050420168067	0.659663865546218	0.533613445378151
3	0	-0.0402930402930403	0.483516483516483	0.523809523809524
0	-4.44089209850063e-16	-2.22044604925031e-16	0.660714285714286	0.660714285714286
-1	-1.02857142857143	-0.427370948379351	0.470588235294118	0.897959183673469
4	-0.580952380952381	-0.31547619047619	0.345238095238095	0.660714285714286
11	0.590476190476191	0.0976190476190478	0.583333333333333	0.485714285714286
8	0.647619047619048	0.176623376623377	0.662337662337662	0.485714285714286
-10	-0.38095238095238	-0.0392630625188763	0.402597402597403	0.441860465116279
0	-0.285714285714286	-0.126050420168067	0.533613445378151	0.659663865546218
-9	0.942857142857143	0.532929450850107	0.974789915966386	0.441860465116279
-7	0.428571428571429	0.247899159663866	0.533613445378151	0.285714285714286
4	-0.295238095238095	-0.174107142857143	0.285714285714286	0.459821428571429
3	0.485714285714285	0.182881773399015	0.660714285714286	0.477832512315271
-2	-0.0666666666666664	-0.00185528756957321	0.467532467532468	0.469387755102041
7	-0.304761904761905	-0.272200772200772	0.513513513513513	0.785714285714286
6	0.199999999999999	-0.0216346153846158	0.59375	0.615384615384616
-5	0.142857142857143	0.096938775510204	0.346938775510204	0.25
4	-0.285714285714286	-0.228316326530612	0.526785714285714	0.755102040816327
9	0.6	0.183673469387755	0.469387755102041	0.285714285714286
1	0.171428571428572	0.0582232893157264	0.591836734693878	0.533613445378151
10	0.190476190476191	-0.0225861095426312	0.337662337662338	0.360248447204969
10	0.285714285714286	-0.089795918367347	0.653061224489796	0.742857142857143
4	0.904761904761905	0.280880773361976	0.724489795918367	0.443609022556391
0	0.142857142857143	0.0612244897959183	0.530612244897959	0.469387755102041
5	0.476190476190476	0.160018552875696	0.532467532467532	0.372448979591837
1	-0.380952380952381	-0.193181818181818	0.467532467532468	0.660714285714286
0	0.714285714285714	0.306122448979592	0.530612244897959	0.224489795918367
0	1.42857142857143	0.630252100840336	0.974789915966386	0.34453781512605
3	0.371428571428572	0.128867676102699	0.654377880184332	0.525510204081633
3	0.114285714285714	-0.00765306122448983	0.653061224489796	0.660714285714286
-9	-0.2	0.0814930623412154	0.722689075630252	0.641196013289037
-3	0.571428571428571	0.255494505494505	0.464285714285714	0.208791208791209
0	0.571428571428571	0.244897959183673	0.714285714285714	0.469387755102041
10	0.0476190476190474	-0.105311355311355	0.345238095238095	0.450549450549451
-1	-0.733333333333334	-0.292517006802721	0.469387755102041	0.761904761904762
7	0.4	0.096938775510204	0.469387755102041	0.372448979591837
6	0.8	0.273709483793517	0.722689075630252	0.448979591836735
4	0.676190476190476	0.258396775638155	0.662337662337662	0.403940886699507
12	0.8	0.131868131868132	0.703296703296703	0.571428571428572
-5	-2.22044604925031e-16	0.058673469387755	0.469387755102041	0.410714285714286
15	1	0.231171267756633	0.599303135888502	0.368131868131868
-1	-0.733333333333333	-0.295918367346939	0.346938775510204	0.642857142857143
10	0.428571428571429	0.0711600429645543	0.443609022556391	0.372448979591837
-2	1.08571428571429	0.418766712584069	0.860627177700348	0.441860465116279
-6	3.33066907387547e-16	0.0554907066534974	0.397683397683398	0.3421926910299
3	-1.34285714285714	-0.652597402597402	0.464285714285714	1.11688311688312
0	-0.142857142857143	-0.0563909774436093	0.669172932330827	0.725563909774436
-1	0.704761904761905	0.2998712998713	0.523809523809524	0.223938223938224
2	-0.361904761904762	-0.196660482374768	0.530612244897959	0.727272727272727
-5	-1.23809523809524	-0.389082462253194	0.523809523809524	0.912891986062718
0	-1.00915750915751	-0.376452119309262	0.408163265306122	0.784615384615385
3	0.0857142857142856	-0.0194805194805194	0.642857142857143	0.662337662337662
-8	0.0571428571428572	0.0957829355998693	0.443609022556391	0.347826086956522
2	0.695238095238095	0.3125	0.526785714285714	0.214285714285714
2	-0.361904761904762	-0.181818181818182	0.285714285714286	0.467532467532468
9	0.885714285714285	0.263736263736264	0.714285714285714	0.450549450549451
11	0.342857142857143	-0.0929610929610931	0.687258687258687	0.78021978021978
-4	-0.952380952380952	-0.335556335556335	0.467532467532468	0.803088803088803
9	0.628571428571429	0.168831168831169	0.597402597402597	0.428571428571429
2	0.123809523809523	0.0223214285714284	0.59375	0.571428571428571
2	0.923809523809523	0.369202226345083	0.836734693877551	0.467532467532468
0	0.714285714285714	0.324675324675325	0.792207792207792	0.467532467532468
-14	0.428571428571428	0.288606130711394	0.612781954887218	0.324175824175824
9	0.485714285714286	0.0795454545454549	0.597402597402598	0.517857142857143
0	-0.428571428571428	-0.1890756302521	0.533613445378151	0.722689075630252
9	0.485714285714286	0.113559761472647	0.443609022556391	0.330049261083744
0	-0.571428571428571	-0.244897959183673	0.469387755102041	0.714285714285714
2	-0.361904761904762	-0.196660482374768	0.530612244897959	0.727272727272727
7	1.32380952380952	0.515406162464986	0.848739495798319	0.333333333333333
10	1.23809523809524	0.472689075630252	0.722689075630252	0.25
6	0.628571428571429	0.20475775314485	0.513513513513514	0.308755760368663
1	-0.657142857142857	-0.330645161290323	0.392857142857143	0.723502304147465
0	0.142857142857143	0.0649350649350651	0.467532467532468	0.402597402597403
8	1.36190476190476	0.542857142857143	0.857142857142857	0.314285714285714
12	0.457142857142857	0.107142857142857	0.392857142857143	0.285714285714286
4	0.304761904761905	0.0627943485086344	0.593406593406593	0.530612244897959
-9	-0.6	-0.119047619047619	0.404761904761905	0.523809523809524
-5	-0.190476190476192	-5.55111512312578e-16	0.571428571428571	0.571428571428572
0	0.571428571428571	0.25974025974026	0.597402597402597	0.337662337662338
0	-0.142857142857143	-0.0630252100840335	0.533613445378151	0.596638655462185
-3	-1.25714285714286	-0.499362244897959	0.459821428571429	0.959183673469388
2	0.0857142857142861	0.00682773109243717	0.533613445378151	0.526785714285714
-10	-1.57142857142857	-0.371466768525592	0.722689075630252	1.09415584415584
-1	0.666666666666666	0.32913961038961	0.861607142857143	0.532467532467532
0	-0.416483516483516	-0.158508158508158	0.272727272727273	0.431235431235431
-8	-0.0380952380952384	0.127969591384225	0.727272727272727	0.599303135888502
0	-0.714285714285714	-0.324675324675325	0.597402597402597	0.922077922077922
2	0.209523809523809	0.0630797773654915	0.530612244897959	0.467532467532468
0	0.714285714285714	0.315126050420168	0.722689075630252	0.407563025210084
11	-0.476190476190476	-0.445279866332498	0.443609022556391	0.888888888888889
-7	-1.57142857142857	-0.451526952244313	0.722689075630252	1.17421602787456
1	0.276190476190476	0.0977443609022555	0.428571428571428	0.330827067669173
-3	-0.228571428571429	-0.0454545454545455	0.597402597402597	0.642857142857143
-1	-0.0190476190476188	0.00510204081632659	0.469387755102041	0.464285714285714
4	0.0285714285714286	-0.0388413429888084	0.408163265306122	0.447004608294931
0	0.857142857142857	0.36734693877551	0.836734693877551	0.469387755102041
6	1	0.37950937950938	0.792207792207792	0.412698412698413
-4	-1.16190476190476	-0.398744113029827	0.469387755102041	0.868131868131868
-3	0.6	0.313775510204082	0.660714285714286	0.346938775510204
2	0.923809523809524	0.38404452690167	0.591836734693878	0.207792207792208
5	0.428571428571429	0.147997164126196	0.516129032258065	0.368131868131868
-4	0.440659340659341	0.277722277722278	0.662337662337662	0.384615384615385
3	0.8	0.29978354978355	0.702380952380952	0.402597402597403
-2	0.466666666666667	0.251780477586929	0.654377880184332	0.402597402597403
8	1.4952380952381	0.582766439909297	0.836734693877551	0.253968253968254
-9	-0.857142857142857	-0.178107606679035	0.597402597402597	0.775510204081633
-2	-0.19047619047619	-0.0462184873949578	0.596638655462185	0.642857142857143
2	0.123809523809524	0.03125	0.459821428571429	0.428571428571429
10	0.476190476190476	0.0503663003663004	0.583333333333333	0.532967032967033
1	-0.952380952380952	-0.461038961038961	0.467532467532468	0.928571428571428
4	-0.828571428571429	-0.445687952600395	0.346938775510204	0.792626728110599
-4	-0.123809523809523	0.00595238095238115	0.523809523809524	0.517857142857143
-8	-0.114285714285715	0.0892857142857142	0.660714285714286	0.571428571428571
-7	-0.580952380952381	-0.127076411960133	0.464285714285714	0.591362126245847
5	-0.142857142857143	-0.13329469718922	0.34453781512605	0.477832512315271
3	-1.34285714285714	-0.641774891774892	0.345238095238095	0.987012987012987
1	-0.99047619047619	-0.423745173745174	0.397683397683398	0.821428571428572
15	0.714285714285714	0.176377676377676	0.455598455598456	0.279220779220779
6	0.8	0.300720288115246	0.596638655462185	0.295918367346939
9	1.05714285714286	0.363636363636364	0.792207792207792	0.428571428571429
-2	-1.78095238095238	-0.736549165120594	0.467532467532468	1.20408163265306
-5	-0.0476190476190472	0.050096961861668	0.533613445378151	0.483516483516483
-5	-0.666666666666666	-0.216318234610917	0.226190476190476	0.442508710801394
2	0.209523809523809	0.0519480519480519	0.714285714285714	0.662337662337662
8	0.485714285714286	0.0935960591133005	0.571428571428571	0.477832512315271
10	0.904761904761905	0.330321852060982	0.597402597402597	0.267080745341615
6	1.05714285714286	0.426510989010989	0.794642857142857	0.368131868131868
0	-0.285714285714285	-0.126050420168067	0.659663865546218	0.785714285714285
6	1.05714285714286	0.367293560841948	0.745173745173745	0.377880184331797
-1	0.419047619047619	0.180823680823681	0.404761904761905	0.223938223938224
-6	0.0285714285714285	0.159780985564958	1.02040816326531	0.860627177700348
12	0.514285714285714	0.128342245989305	0.407563025210084	0.279220779220779
0	-0.142857142857143	-0.0669642857142858	0.660714285714286	0.727678571428571
3	0.2	0.0420258620689654	0.59375	0.551724137931034
-7	-1.63809523809524	-0.50974025974026	0.597402597402597	1.10714285714286
8	0.511721611721612	0.178336390117596	0.516129032258065	0.337792642140468
0	0.142857142857143	0.0563909774436091	0.612781954887218	0.556390977443609
9	0.657142857142857	0.236908253037285	0.516129032258065	0.279220779220779
-2	-1.59047619047619	-0.50609080841639	0.541528239202658	1.04761904761905
-11	-2.22044604925031e-16	0.186150332225914	0.727678571428571	0.541528239202658
0	0.714285714285714	0.274725274725275	0.648351648351648	0.373626373626374
-5	-0.238095238095238	-0.0304878048780487	0.464285714285714	0.494773519163763
7	-0.0952380952380953	-0.204433497536946	0.642857142857143	0.847290640394089
2	-0.0571428571428567	-0.0640756302521007	0.596638655462185	0.660714285714286
13	0.325274725274725	0.0453546453546454	0.337662337662338	0.292307692307692
9	0.4	0.0932773109243699	0.407563025210084	0.314285714285714
2	-0.133333333333333	-0.0833333333333333	0.5	0.583333333333333
1	-0.104761904761905	-0.0676088617265088	0.659663865546218	0.727272727272727
6	-0.24065934065934	-0.163170163170163	0.272727272727273	0.435897435897436
1	-0.39047619047619	-0.187929717341482	0.34453781512605	0.532467532467532
1	-1.25714285714286	-0.566626650660264	0.408163265306123	0.974789915966386
9	0.685714285714285	0.219327731092437	0.533613445378151	0.314285714285714
0	0.714285714285714	0.289575289575289	0.571428571428571	0.281853281853282
-6	0.0285714285714284	0.0701841712294673	0.408163265306122	0.337979094076655
3	0.628571428571428	0.256773399014778	0.660714285714286	0.403940886699507
-19	-0.342857142857143	0.16204217536071	0.722689075630252	0.560646900269542
6	0.428571428571429	0.117716165413534	0.443609022556391	0.325892857142857
-4	-0.914285714285714	-0.318000884564352	0.407563025210084	0.725563909774436
4	0.352380952380953	0.105042016806723	0.533613445378151	0.428571428571429
5	-0.238095238095239	-0.199692780337942	0.523809523809524	0.723502304147466
4	-0.0095238095238096	-0.0550595238095238	0.404761904761905	0.459821428571429
7	0.542857142857143	0.142857142857143	0.591836734693878	0.448979591836735
-1	-0.866666666666667	-0.330759330759331	0.761904761904762	1.09266409266409
4	0.285714285714285	0.0682397959183672	0.59375	0.525510204081633
-5	-0.142857142857143	-0.00482625482625493	0.392857142857143	0.397683397683398
5	-0.238095238095238	-0.187847866419295	0.337662337662338	0.525510204081633
-1	-0.609523809523809	-0.253246753246753	0.532467532467532	0.785714285714286
-2	0.199999999999999	0.127100840336134	0.660714285714286	0.533613445378151
2	-0.466666666666666	-0.255969836614998	0.467532467532468	0.723502304147465
-9	0.628571428571428	0.419098432055749	0.861607142857143	0.442508710801394
5	-0.809523809523809	-0.493970315398887	0.337662337662338	0.831632653061224
16	0.96043956043956	0.194688644688645	0.702380952380952	0.507692307692308
0	1.28571428571429	0.470383275261324	0.860627177700348	0.390243902439024
-11	-1.11428571428571	-0.28039041703638	0.346938775510204	0.627329192546584
0	0.428571428571429	0.183673469387755	0.89795918367347	0.714285714285714
13	1.34285714285714	0.562265037593985	0.727678571428571	0.165413533834587
3	-0.285714285714286	-0.168498168498169	0.593406593406593	0.761904761904762
-5	-0.904761904761905	-0.275785990071704	0.397683397683398	0.673469387755102
7	0.685714285714285	0.173469387755102	0.775510204081632	0.60204081632653
1	-1.38095238095238	-0.655844155844156	0.272727272727273	0.928571428571428
8	0.21904761904762	-0.018181818181818	0.467532467532468	0.485714285714286
3	-0.0571428571428569	-0.0790043290043289	0.583333333333333	0.662337662337662
6	0.6	0.200562983814215	0.530612244897959	0.330049261083744
4	-0.0761904761904764	-0.109243697478992	0.533613445378151	0.642857142857143
10	0.619047619047619	0.155677655677656	0.523809523809524	0.368131868131868
-1	0.38095238095238	0.193181818181818	0.660714285714286	0.467532467532468
-5	-1.28571428571429	-0.440999034749035	0.59375	1.03474903474903
12	-0.114285714285714	-0.265306122448979	0.520408163265306	0.785714285714286
17	0.885347985347986	0.321266968325792	0.470588235294118	0.149321266968326
-2	-0.495238095238095	-0.166975881261595	0.792207792207792	0.959183673469388
0	0.142857142857143	0.0595238095238096	0.523809523809524	0.464285714285714
-4	-0.019047619047619	0.0596546310832026	0.653061224489796	0.593406593406593
-3	-0.771428571428571	-0.2592550533727	0.659663865546218	0.918918918918919
4	-0.0380952380952388	-0.0931482310792661	0.532467532467532	0.625615763546798
0	-0.285714285714286	-0.122448979591837	0.469387755102041	0.591836734693878
-4	-0.266666666666667	-0.0654761904761905	0.345238095238095	0.410714285714286
-1	-1.58095238095238	-0.628378378378378	0.464285714285714	1.09266409266409
4	0.199999999999999	0.029411764705882	0.5	0.470588235294118
4	0.104761904761905	-0.0282131661442006	0.597402597402597	0.625615763546798
3	0.0571428571428574	-0.0200999318646377	0.513513513513514	0.533613445378151
13	1.21904761904762	0.483766233766234	0.662337662337662	0.178571428571429
-1	-0.171428571428571	-0.0618247298919567	0.407563025210084	0.469387755102041
8	0.438095238095238	0.0982142857142858	0.526785714285714	0.428571428571429
6	0.285714285714286	0.025974025974026	0.597402597402597	0.571428571428572
3	0.2	0.0489532019704432	0.526785714285714	0.477832512315271
2	0.333333333333333	0.112745098039216	0.583333333333333	0.470588235294118
6	1.34285714285714	0.471914310623988	0.918918918918919	0.447004608294931
-3	2.22044604925031e-16	0.0265567765567767	0.345238095238095	0.318681318681319
3	0.314285714285715	0.0909090909090909	0.662337662337662	0.571428571428571
5	0.666666666666667	0.224489795918367	0.653061224489796	0.428571428571429
8	0.780952380952381	0.240362811791383	0.653061224489796	0.412698412698413
7	0.752380952380952	0.197945845004669	0.848739495798319	0.650793650793651
-4	0.409523809523809	0.237048665620094	0.775510204081633	0.538461538461539
1	0.0476190476190479	0.0117694805194806	0.337662337662338	0.325892857142857
6	-0.285714285714285	-0.195958646616541	0.330827067669173	0.526785714285714
5	0.809523809523809	0.327380952380952	0.660714285714286	0.333333333333333
4	0.133333333333334	-0.0104166666666663	0.583333333333333	0.59375
-13	-0.895238095238095	-0.159796725014116	0.467532467532468	0.627329192546584
-6	-0.228571428571429	-0.0259740259740259	0.402597402597403	0.428571428571429
-1	0.238095238095238	0.124188311688312	0.526785714285714	0.402597402597403
2	0.628571428571428	0.198687302487643	0.641196013289037	0.442508710801394
3	-0.285714285714285	-0.177690431011114	0.407563025210084	0.585253456221198
10	0.761904761904762	0.238095238095238	0.523809523809524	0.285714285714286
7	0.247619047619048	0.0169830169830169	0.467532467532468	0.450549450549451
-7	-0.342857142857143	-0.0402619451855446	0.516129032258065	0.556390977443609
-6	0.371428571428571	0.198979591836735	0.464285714285714	0.26530612244898
11	1.37142857142857	0.548776032151991	0.722689075630252	0.173913043478261
5	-0.532234432234432	-0.295354746673205	0.407563025210084	0.702917771883289
2	-0.0190476190476191	-0.0357142857142858	0.392857142857143	0.428571428571429
0	-0.142857142857143	-0.0579150579150579	0.745173745173745	0.803088803088803
5	0.919413919413919	0.365567765567765	0.714285714285714	0.348717948717949
4	0.819047619047619	0.314375279892521	0.792207792207792	0.477832512315271
7	-0.390476190476191	-0.387955182072829	0.659663865546218	1.04761904761905
0	0.571428571428571	0.252100840336134	0.848739495798319	0.596638655462185
1	0.438095238095238	0.16988416988417	0.455598455598456	0.285714285714286
3	-1.11428571428571	-0.597402597402597	0.402597402597403	1
10	0.190476190476191	-0.0225861095426312	0.337662337662338	0.360248447204969
1	-0.704761904761905	-0.304697554697555	0.397683397683398	0.702380952380952
13	0.809523809523809	0.247899159663865	0.533613445378151	0.285714285714286
-4	-0.019047619047619	0.0659340659340659	0.714285714285714	0.648351648351648
-5	1.04761904761905	0.38970907511941	0.520408163265306	0.130699088145897
1	-0.0915750915750921	-0.0193000277033893	0.469387755102041	0.48868778280543
4	0.0571428571428567	-0.040247678018576	0.556390977443609	0.596638655462185
5	0.428571428571429	0.147997164126196	0.516129032258065	0.368131868131868
8	0.485714285714286	0.0616429237118893	0.687258687258687	0.625615763546798
5	-0.809523809523809	-0.551948051948052	0.662337662337662	1.21428571428571
-9	0.285714285714285	0.230055658627087	0.597402597402597	0.36734693877551
2	-0.790476190476191	-0.395176252319109	0.591836734693878	0.987012987012987
4	-0.273626373626374	-0.161114747321644	0.467532467532468	0.628647214854111
-3	-0.114285714285715	0.00191326530612224	0.59375	0.591836734693878
10	0.904761904761905	0.302089215132693	0.662337662337662	0.360248447204969
-5	-0.285714285714286	-0.0355936293436294	0.59375	0.629343629343629
4	-0.542857142857143	-0.299539170506913	0.285714285714286	0.585253456221198
6	0.285714285714286	0.025974025974026	0.597402597402597	0.571428571428572
-2	-0.6	-0.214561500275786	0.530612244897959	0.745173745173745
5	-0.0476190476190476	-0.0714285714285714	0.285714285714286	0.357142857142857
6	0.8	0.273709483793517	0.722689075630252	0.448979591836735
5	0.476190476190476	0.148423005565863	0.597402597402597	0.448979591836735
3	0.142857142857143	0.0174844131200869	0.533613445378151	0.516129032258065
-4	-1.05714285714286	-0.361123396727112	0.533613445378151	0.894736842105263
2	0.619047619047619	0.231792717086835	0.702380952380952	0.470588235294118
3	0.714285714285714	0.263486039577121	0.848739495798319	0.585253456221198
-4	-0.133333333333334	0.0476190476190473	0.928571428571428	0.880952380952381
0	0.142857142857143	0.0630252100840335	0.722689075630252	0.659663865546218
-1	-0.6	-0.245498199279712	0.407563025210084	0.653061224489796
-1	0.390476190476191	0.189839572192513	0.597402597402597	0.407563025210084
3	0.171428571428571	0.0324675324675323	0.532467532467532	0.5
8	0.638095238095238	0.179138321995465	0.591836734693878	0.412698412698413
-13	0.104761904761905	0.184641445511011	0.532467532467532	0.347826086956522
-5	-0.714285714285714	-0.197586990732646	0.443609022556391	0.641196013289037
1	0.6	0.241896758703481	0.775510204081633	0.533613445378151
6	1.22857142857143	0.462785114045618	0.911764705882353	0.448979591836735
-1	0.371428571428572	0.201036866359447	0.861751152073733	0.660714285714286
7	0.847619047619048	0.243475274725275	0.703296703296703	0.459821428571428
-1	0.390476190476191	0.189839572192513	0.597402597402597	0.407563025210084
-3	0.171428571428571	0.141581632653061	0.794642857142857	0.653061224489796
6	4.44089209850063e-16	-0.0831766917293231	0.443609022556391	0.526785714285714
-11	0	0.151889534883721	0.59375	0.441860465116279
-16	-0.257142857142857	0.14030612244898	0.732142857142857	0.591836734693877
2	-0.647619047619048	-0.322820037105752	0.469387755102041	0.792207792207792
-1	0.085714285714286	0.0563076036866361	0.516129032258065	0.459821428571429
7	-0.59047619047619	-0.388030888030888	0.397683397683398	0.785714285714286
2	-0.323809523809524	-0.186845412651864	0.467532467532468	0.654377880184332
-8	-0.247619047619047	0.00120048019207691	0.470588235294118	0.469387755102041
4	-0.266666666666667	-0.156985871271586	0.373626373626374	0.530612244897959
7	0.895238095238095	0.309990662931839	0.722689075630252	0.412698412698413
3	-0.114285714285714	-0.0844155844155843	0.272727272727273	0.357142857142857
-1	0.123809523809524	0.0680272108843539	0.591836734693878	0.523809523809524
3	0.171428571428572	0.038961038961039	0.467532467532468	0.428571428571429
5	0.428571428571428	0.0714285714285714	0.785714285714286	0.714285714285714
3	-0.142857142857143	-0.10856600704798	0.407563025210084	0.516129032258065
-6	-0.314285714285714	-0.0378151260504201	0.533613445378151	0.571428571428571
3	0.142857142857143	0.0296828408782869	0.407563025210084	0.377880184331797
4	-0.180952380952381	-0.15808329601433	0.467532467532468	0.625615763546798
3	0.771428571428571	0.344519704433497	0.526785714285714	0.182266009852217
-1	0.266666666666666	0.125850340136054	0.530612244897959	0.404761904761905
-14	-0.0857142857142863	0.152756211180124	0.59375	0.440993788819876
0	0.142857142857143	0.0649350649350648	0.532467532467532	0.467532467532468
-8	0.342857142857143	0.228179143510951	0.669172932330827	0.440993788819876
-7	0.866666666666666	0.463942307692308	0.727678571428571	0.263736263736264
5	-2.22044604925031e-16	-0.0646966252841407	0.491694352159468	0.556390977443609
7	0.533333333333333	0.129370629370629	0.662337662337662	0.532967032967033
10	0.649084249084249	0.145765998707175	0.722689075630252	0.576923076923077
-4	-0.161904761904762	-0.00156985871271575	0.591836734693878	0.593406593406593
-5	-1.14285714285714	-0.385204081632653	0.346938775510204	0.732142857142857
2	0.228571428571429	0.073792016806723	0.533613445378151	0.459821428571428
0	-0.285714285714286	-0.112781954887218	0.556390977443609	0.669172932330827
8	0.0571428571428565	-0.12807881773399	0.571428571428571	0.699507389162562
4	0.6	0.206056616194865	0.653061224489796	0.447004608294931
-2	-1.27619047619048	-0.464508464508465	0.513513513513513	0.978021978021978
6	2.22044604925031e-16	-0.103896103896104	0.467532467532468	0.571428571428572
9	0.0857142857142855	-0.0873015873015874	0.404761904761905	0.492063492063492
9	0.342857142857143	0.0389610389610391	0.467532467532468	0.428571428571429
7	1.27619047619048	0.40831043956044	0.868131868131868	0.459821428571429
3	0.485714285714285	0.189809113300492	0.59375	0.403940886699507
5	0.380952380952381	0.102040816326531	0.530612244897959	0.428571428571429
2	-0.361904761904762	-0.185528756957329	0.346938775510204	0.532467532467533
0	-0.142857142857143	-0.0649350649350648	0.597402597402597	0.662337662337662
9	0.514285714285714	0.111111111111111	0.523809523809524	0.412698412698413
-7	0.428571428571428	0.269419963107194	0.659663865546218	0.390243902439025
6	0.228571428571428	-0.0189075630252102	0.659663865546218	0.678571428571429
6	0.428571428571428	0.0909090909090907	0.662337662337662	0.571428571428572
9	0.828571428571428	0.259663865546218	0.659663865546218	0.4
-2	0.342857142857142	0.190126050420168	0.660714285714286	0.470588235294118
1	-0.257142857142857	-0.129051620648259	0.530612244897959	0.659663865546218
-3	0.0857142857142859	0.0780149897796958	0.533613445378151	0.455598455598456
5	-0.666666666666666	-0.405844155844156	0.272727272727273	0.678571428571428
4	0.885714285714286	0.336405529953917	0.714285714285714	0.377880184331797
-1	-0.619047619047619	-0.267451298701299	0.459821428571428	0.727272727272727
5	0.904761904761904	0.28765352294764	0.758241758241758	0.470588235294118
6	1	0.37950937950938	0.792207792207792	0.412698412698413
-5	-0.285714285714286	-0.0408163265306124	0.530612244897959	0.571428571428572
-4	0.19047619047619	0.155844155844156	0.727272727272727	0.571428571428571
0	-0.142857142857143	-0.0612244897959184	0.408163265306122	0.469387755102041
-1	0.380952380952381	0.195211038961039	0.727678571428571	0.532467532467532
-7	0.504761904761905	0.316558441558442	0.727272727272727	0.410714285714286
3	0.171428571428571	0.0194805194805194	0.662337662337662	0.642857142857143
6	-0.392673992673993	-0.289782333051564	0.526785714285714	0.816568047337278
-2	0.323809523809524	0.186845412651864	0.654377880184332	0.467532467532468
7	0.542857142857143	0.173469387755102	0.469387755102041	0.295918367346939
2	-0.485714285714285	-0.253151260504202	0.407563025210084	0.660714285714286
8	0.857142857142857	0.29153199741435	0.659663865546218	0.368131868131868
-8	-0.59047619047619	-0.136422136422136	0.33976833976834	0.476190476190476
7	0.828571428571429	0.26530612244898	0.714285714285714	0.448979591836735
-4	-0.514285714285715	-0.132404181184669	0.571428571428571	0.70383275261324
2	0.266666666666666	0.0982142857142856	0.526785714285714	0.428571428571429
5	0.619047619047619	0.205453149001536	0.583333333333333	0.377880184331797
4	1.32380952380952	0.607782898105479	0.861751152073733	0.253968253968254
-6	-0.8	-0.235764235764236	0.467532467532468	0.703296703296703
8	0.695238095238095	0.184210526315789	0.612781954887218	0.428571428571429
14	0.980952380952381	0.346938775510204	0.530612244897959	0.183673469387755
1	0.876190476190476	0.35374149659864	0.761904761904762	0.408163265306122
-7	-0.133333333333333	0.0432692307692308	0.526785714285714	0.483516483516483
-10	0.142857142857143	0.204140310523289	0.745173745173745	0.541033434650456
0	1.14285714285714	0.476190476190476	0.821428571428572	0.345238095238095
6	0.651282051282051	0.242471470836855	0.727678571428571	0.485207100591716
4	0.885714285714286	0.320605661619487	0.836734693877551	0.516129032258065
11	-0.695238095238095	-0.595238095238095	0.404761904761905	1
-14	-1.33882783882784	-0.205651491365777	0.530612244897959	0.736263736263736
3	0	-0.0577392247221468	0.596638655462185	0.654377880184332
2	0.514285714285714	0.203781512605042	0.596638655462185	0.392857142857143
-5	-1.61904761904762	-0.562378797672915	0.470588235294118	1.03296703296703
9	0.577655677655678	0.196742081447964	0.470588235294118	0.273846153846154
9	0.771428571428571	0.258116883116883	0.597402597402597	0.339285714285714
1	0.752380952380952	0.318181818181818	0.785714285714286	0.467532467532468
0	0.428571428571428	0.200892857142857	0.459821428571428	0.258928571428571
4	0.171428571428572	0.0144832126398947	0.530612244897959	0.516129032258065
-8	-0.257142857142858	0.0223214285714284	0.59375	0.571428571428571
-1	-0.0285714285714285	0.00120048019207691	0.470588235294118	0.469387755102041
-8	-1.88571428571429	-0.536307546274323	0.653061224489796	1.18936877076412
-6	-1.2	-0.326488249684929	0.442508710801394	0.768996960486322
6	-0.4	-0.266009852216749	0.285714285714286	0.551724137931034
8	0.428571428571429	0.0248868778280543	0.722689075630252	0.697802197802198
6	0.457142857142857	0.139338494018297	0.469387755102041	0.330049261083744
4	-0.752380952380952	-0.426780116435289	0.272727272727273	0.699507389162562
-9	-0.142857142857142	0.0491651205936922	0.467532467532468	0.418367346938775
2	-0.295238095238095	-0.151767151767152	0.593406593406593	0.745173745173745
-2	-0.0285714285714289	0.0170987313844455	0.530612244897959	0.513513513513514
7	0.390476190476191	0.0994005994005994	0.467532467532468	0.368131868131868
11	0.18021978021978	-0.0549450549450549	0.483516483516484	0.538461538461538
1	-0.247619047619047	-0.12681436210848	0.470588235294118	0.597402597402597
5	-1.14285714285714	-0.639669660967836	0.281512605042017	0.921182266009852
-7	-0.0666666666666667	0.0795454545454545	0.597402597402597	0.517857142857143
8	0.0476190476190474	-0.087557603686636	0.428571428571428	0.516129032258065
-1	-0.171428571428571	-0.0618247298919567	0.407563025210084	0.469387755102041
-6	0.314285714285714	0.219512195121951	0.714285714285714	0.494773519163763
4	-0.685714285714286	-0.392363396971692	0.469387755102041	0.861751152073733
-2	0.2	0.134978991596639	0.794642857142857	0.659663865546218
4	0.390476190476191	0.137483206448724	0.467532467532468	0.330049261083744
6	-0.342857142857143	-0.271008403361344	0.407563025210084	0.678571428571429
-10	-0.80952380952381	-0.173663545756569	0.467532467532468	0.641196013289037
6	1.37142857142857	0.552821128451381	0.848739495798319	0.295918367346939
-3	-0.914285714285714	-0.295918367346939	0.428571428571428	0.724489795918367
-7	-0.504761904761904	-0.0408163265306122	0.836734693877551	0.877551020408163
4	-0.371428571428572	-0.202786377708979	0.330827067669173	0.533613445378151
6	0.857142857142857	0.343434343434343	0.597402597402597	0.253968253968254
4	0.533333333333333	0.175548589341693	0.727272727272727	0.551724137931034
5	0.0476190476190474	-0.0806451612903226	0.642857142857143	0.723502304147466
10	-0.238095238095238	-0.233042819249716	0.318681318681319	0.551724137931034
9	0.457142857142857	0.101255886970173	0.469387755102041	0.368131868131868
-3	-0.742857142857142	-0.246509129967776	0.591836734693878	0.838345864661654
-2	-0.8	-0.329831932773109	0.392857142857143	0.722689075630252
-2	-0.495238095238095	-0.192949907235621	0.337662337662338	0.530612244897959
-2	0.685714285714285	0.316602316602316	0.714285714285714	0.397683397683398
3	-0.114285714285714	-0.12987012987013	0.727272727272727	0.857142857142857
-1	-0.752380952380952	-0.322001527883881	0.337662337662338	0.659663865546218
1	0.019047619047619	-0.00510204081632654	0.464285714285714	0.469387755102041
5	-0.142857142857144	-0.198493190379601	0.722689075630252	0.921182266009853
-10	-0.809523809523809	-0.218967079432196	0.272727272727273	0.491694352159468
0	0.142857142857143	0.0595238095238094	0.583333333333333	0.523809523809524
1	-0.257142857142857	-0.127250900360144	0.469387755102041	0.596638655462185
5	1	0.392639814546508	0.722689075630252	0.330049261083744
3	0.228571428571428	0.0616883116883116	0.464285714285714	0.402597402597403
6	0.171428571428571	0.00422237860661506	0.408163265306122	0.403940886699507
2	-0.238095238095238	-0.135854341736694	0.523809523809524	0.659663865546218
3	0.514285714285715	0.205398288347597	0.654377880184332	0.448979591836735
10	0.428571428571428	0.0693877551020408	0.469387755102041	0.4
5	0.142857142857143	-0.00422297297297275	0.455598455598456	0.459821428571428
-3	-0.542857142857143	-0.176020408163265	0.660714285714286	0.836734693877551
7	-0.380952380952381	-0.309113300492611	0.464285714285714	0.773399014778325
5	0.190476190476191	0.0185528756957329	0.467532467532468	0.448979591836735
-1	-0.171428571428571	-0.0600240096038414	0.470588235294118	0.530612244897959
2	0.942857142857143	0.384978991596639	0.911764705882353	0.526785714285714
0	0.142857142857143	0.0595238095238095	0.404761904761905	0.345238095238095
9	-0.0285714285714286	-0.163865546218487	0.407563025210084	0.571428571428571
-3	-1.14285714285714	-0.39010989010989	0.642857142857143	1.03296703296703
1	-0.104761904761905	-0.0599694423223834	0.407563025210084	0.467532467532468
6	0.742857142857143	0.249120337790288	0.653061224489796	0.403940886699507
5	0.0952380952380953	-0.0204081632653061	0.408163265306122	0.428571428571429
4	0.495238095238096	0.184873949579832	0.470588235294118	0.285714285714286
1	0.342857142857143	0.148905529953917	0.526785714285714	0.377880184331797
12	0.782051282051281	0.124360111937751	0.836734693877551	0.7123745819398
1	0.695238095238095	0.247252747252747	0.785714285714286	0.538461538461538
-2	0.0952380952380956	0.0693277310924372	0.533613445378151	0.464285714285714
6	0.342857142857142	0.0916895604395602	0.459821428571428	0.368131868131868
0	0.142857142857143	0.0612244897959183	0.408163265306122	0.346938775510204
8	0.0857142857142857	-0.123622520536966	0.516129032258065	0.639751552795031
11	0.8	0.266532700036536	0.533613445378151	0.267080745341615
1	0.619047619047619	0.265422077922078	0.792207792207792	0.526785714285714
-5	-0.666666666666667	-0.187282229965157	0.464285714285714	0.651567944250871
0	1.42857142857143	0.630252100840336	0.848739495798319	0.218487394957983
-11	-0.361904761904762	-0.0364145658263305	0.34453781512605	0.380952380952381
-3	0.457142857142857	0.252551020408163	0.660714285714286	0.408163265306122
-5	-0.0952380952380951	0.0217770034843206	0.464285714285714	0.442508710801394
-2	-0.314285714285715	-0.108659680088252	0.346938775510204	0.455598455598456
-5	-0.380952380952381	-0.0803144224196856	0.532467532467532	0.612781954887218
-10	-0.0952380952380949	0.0828157349896482	0.523809523809524	0.440993788819876
-4	0.238095238095237	0.154135338345864	0.725563909774436	0.571428571428572
1	-0.4	-0.192076830732293	0.530612244897959	0.722689075630252
-14	0.152380952380952	0.201680672268907	0.571428571428571	0.369747899159664
-4	-0.238095238095238	-0.038961038961039	0.532467532467532	0.571428571428571
8	0.428571428571429	0.0830639948287009	0.533613445378151	0.450549450549451
3	-0.371428571428571	-0.246613300492611	0.526785714285714	0.773399014778325
5	-0.285714285714286	-0.207186322804984	0.34453781512605	0.551724137931035
7	1.39047619047619	0.571428571428571	0.857142857142857	0.285714285714286
-1	0.304761904761905	0.126373626373626	0.483516483516484	0.357142857142857
1	0.180952380952381	0.0565317035905271	0.848739495798319	0.792207792207792
7	0.578021978021978	0.212940905248598	0.532467532467532	0.319526627218935
-2	-1.11428571428571	-0.395676691729323	0.443609022556391	0.839285714285714
7	0.0380952380952381	-0.084500466853408	0.407563025210084	0.492063492063492
-1	0.38095238095238	0.191152597402597	0.59375	0.402597402597403
1	0.0190476190476194	-0.00680272108843516	0.523809523809524	0.530612244897959
-4	-0.628571428571429	-0.211853162317559	0.34453781512605	0.556390977443609
5	-0.476190476190476	-0.295918367346939	0.346938775510204	0.642857142857143
5	0.523809523809524	0.173469387755102	0.530612244897959	0.357142857142857
6	-0.171428571428571	-0.142857142857143	0.285714285714286	0.428571428571429
7	0.676190476190476	0.229270729270729	0.597402597402597	0.368131868131868
5	0.0952380952380951	-0.0408163265306123	0.530612244897959	0.571428571428571
7	0.819047619047619	0.294205794205794	0.662337662337662	0.368131868131868
-2	0.133333333333334	0.0864661654135339	0.642857142857143	0.556390977443609
-15	-1.57142857142857	-0.385714285714286	0.285714285714286	0.671428571428571
-4	-0.304761904761905	-0.0753532182103611	0.408163265306122	0.483516483516484
7	0.685714285714285	0.25	0.469387755102041	0.219387755102041
-1	0.533333333333333	0.254774637127578	0.662337662337662	0.407563025210084
-3	2.22044604925031e-16	0.063838438601247	0.723502304147466	0.659663865546218
-3	-0.657142857142857	-0.234848484848485	0.467532467532468	0.702380952380952
-7	0.438095238095238	0.287087912087912	0.660714285714286	0.373626373626374
4	0.238095238095237	0.0389610389610388	0.571428571428571	0.532467532467533
-5	-1.61904761904762	-0.544677330391616	0.281853281853282	0.826530612244898
9	0.228571428571429	-0.00793650793650791	0.404761904761905	0.412698412698413
-8	-1.39047619047619	-0.406962785114046	0.470588235294118	0.877551020408164
-4	-0.2	-0.0227775320654579	0.533613445378151	0.556390977443609
6	-0.542857142857142	-0.359243697478991	0.678571428571429	1.03781512605042
-11	-0.285714285714286	0.0864825581395346	0.727678571428571	0.641196013289037
-12	-1.57142857142857	-0.422542930215564	0.34453781512605	0.767080745341615
-2	-1.37142857142857	-0.57405462184874	0.526785714285714	1.10084033613445
3	0.8	0.29978354978355	0.702380952380953	0.402597402597403
-1	0.285714285714286	0.124771387929283	0.455598455598456	0.330827067669173
4	0.276190476190476	0.0714285714285715	0.464285714285714	0.392857142857143
6	0.942857142857143	0.336734693877551	0.785714285714286	0.448979591836735
-3	-0.4	-0.107142857142857	0.571428571428571	0.678571428571429
4	0.428571428571428	0.154336734693877	0.526785714285714	0.372448979591837
2	0.209523809523809	0.0593692022263449	0.591836734693878	0.532467532467533
11	0.733333333333334	0.183333333333333	0.583333333333333	0.4
2	-0.199999999999999	-0.127100840336134	0.533613445378151	0.660714285714286
2	-0.4	-0.207391064533922	0.629343629343629	0.836734693877551
-8	0.257142857142857	0.211200759373517	0.653061224489796	0.441860465116279
10	0.428571428571428	0.0693877551020406	0.469387755102041	0.4
1	-1.26666666666667	-0.556122448979592	0.464285714285714	1.02040816326531
-3	0.2	0.126260773885934	0.725563909774436	0.599303135888502
3	-0.857142857142857	-0.448088912984548	0.34453781512605	0.792626728110599
0	-0.284981684981684	-0.0817711700064638	0.533613445378151	0.615384615384615
5	-0.0952380952380952	-0.11136712749616	0.404761904761905	0.516129032258065
-1	0.542857142857143	0.251500600240096	0.659663865546218	0.408163265306122
6	0.314285714285714	0.0781140042223786	0.408163265306122	0.330049261083744
-6	0.142857142857142	0.160714285714285	0.660714285714286	0.5
-7	-0.209523809523809	-0.0194805194805195	0.337662337662338	0.357142857142857
11	1.43809523809524	0.610969387755102	0.794642857142857	0.183673469387755
-5	-0.238095238095238	-0.0239234449760765	0.532467532467532	0.556390977443609
-6	0.314285714285714	0.192633150821304	0.530612244897959	0.337979094076655
-6	0.257142857142857	0.214285714285714	0.785714285714286	0.571428571428572
1	-0.666666666666666	-0.325081168831169	0.402597402597403	0.727678571428572
-7	-1.22857142857143	-0.355563355563355	0.397683397683398	0.753246753246753
-4	0.19047619047619	0.148824148824149	0.662337662337662	0.513513513513514
0	0.285714285714286	0.12987012987013	0.597402597402597	0.467532467532468
1	0.923809523809524	0.43778801843318	0.723502304147466	0.285714285714286
10	1.14285714285714	0.351020408163265	0.836734693877551	0.485714285714286
7	0.114285714285714	-0.0561224489795919	0.469387755102041	0.525510204081633
2	0.00952380952380971	-0.0206766917293232	0.443609022556391	0.464285714285714
3	0.0285714285714287	-0.0324675324675324	0.467532467532468	0.5
10	0.330769230769231	0.0648047604569343	0.402597402597403	0.337792642140468
12	0.942857142857143	0.351795263559969	0.533613445378151	0.181818181818182
-10	-0.238095238095238	0.0558743581999398	0.597402597402597	0.541528239202658
-6	-0.657142857142858	-0.140859140859141	0.727272727272727	0.868131868131868
3	0.742857142857143	0.298701298701299	0.727272727272727	0.428571428571429
-19	-1.48571428571429	-0.274377675598541	0.407563025210084	0.681940700808625
13	0.580952380952381	0.116312741312741	0.455598455598456	0.339285714285714
9	0.657142857142857	0.111111111111111	0.761904761904762	0.650793650793651
-6	0.571428571428571	0.340460526315789	0.727678571428571	0.387218045112782
-1	-0.323809523809523	-0.119556913674561	0.792207792207792	0.911764705882353
1	-0.266666666666666	-0.125850340136054	0.404761904761905	0.530612244897959
1	1.59047619047619	0.653061224489796	1	0.346938775510204
6	0.4	0.0833333333333334	0.583333333333333	0.5
4	0.104761904761905	-0.0371697268248993	0.662337662337662	0.699507389162562
2	0.990476190476191	0.360558360558361	0.758241758241758	0.397683397683398
0	0.428571428571428	0.183673469387755	0.469387755102041	0.285714285714286
2	-1.05714285714286	-0.5328256302521	0.596638655462185	1.12946428571429
0	-1.28571428571429	-0.551020408163265	0.408163265306122	0.959183673469388
11	0.447619047619048	0.0119047619047621	0.583333333333333	0.571428571428571
-5	-0.619047619047619	-0.161603102779573	0.596638655462185	0.758241758241758
4	-0.504761904761905	-0.289915966386555	0.281512605042017	0.571428571428571
-8	-0.542857142857143	-0.0312500000000003	0.861607142857143	0.892857142857143
3	-0.371428571428572	-0.193845105609812	0.33976833976834	0.533613445378151
-1	-0.857142857142857	-0.324832351148141	0.513513513513513	0.838345864661654
7	0.4	0.127551020408163	0.346938775510204	0.219387755102041
-1	0.228205128205128	0.165907009657009	0.727678571428571	0.561771561771562
2	0.39047619047619	0.150397989107667	0.597402597402597	0.447004608294931
12	1.22857142857143	0.477845683728037	0.659663865546219	0.181818181818182
1	0.914285714285714	0.421082949308756	0.660714285714286	0.23963133640553
6	0.228571428571429	0.0351140456182474	0.407563025210084	0.372448979591837
2	-0.342857142857143	-0.186186974789916	0.407563025210084	0.59375
0	-0.714285714285714	-0.324675324675325	0.402597402597403	0.727272727272727
-1	-0.2	-0.0754608294930876	0.585253456221198	0.660714285714286
1	-0.266666666666667	-0.124149659863946	0.345238095238095	0.469387755102041
1	-0.136630036630037	-0.0326438267614738	0.659663865546218	0.692307692307692
-5	0.619047619047619	0.326655052264808	0.821428571428572	0.494773519163763
-4	-0.952380952380953	-0.328536328536329	0.532467532467532	0.861003861003861
7	0.685714285714285	0.23469387755102	0.530612244897959	0.295918367346939
-3	0.371428571428571	0.214285714285714	0.785714285714286	0.571428571428571
1	-0.266666666666666	-0.129251700680272	0.523809523809524	0.653061224489796
4	0.314285714285714	0.0915075707702436	0.469387755102041	0.377880184331797
-8	-2.7959706959707	-0.888301111626174	0.447004608294931	1.3353057199211
5	0.238095238095237	0.0239234449760763	0.556390977443609	0.532467532467532
9	-0.228571428571428	-0.220897070261861	0.330827067669173	0.551724137931034
2	-0.895238095238095	-0.471721826560536	0.597402597402597	1.06912442396313
12	0.228571428571429	0.0022918258212376	0.281512605042017	0.279220779220779
8	1.11022302462516e-16	-0.1060116354234	0.34453781512605	0.450549450549451
5	0.0952380952380952	-0.0204081632653061	0.408163265306122	0.428571428571429
8	0.013919413919414	-0.0715430402930403	0.325892857142857	0.397435897435897
10	-0.142857142857143	-0.224489795918367	0.346938775510204	0.571428571428571
3	0.0571428571428572	-0.0318657635467979	0.59375	0.625615763546798
1	0.0380952380952386	0.00114591291061916	0.533613445378151	0.532467532467532
1	0.180952380952381	0.0679908326967152	0.470588235294118	0.402597402597403
7	0.0380952380952382	-0.084500466853408	0.407563025210084	0.492063492063492
2	0.19047619047619	0.0497198879551819	0.583333333333333	0.533613445378151
-7	0.428571428571429	0.301701168272187	0.848739495798319	0.547038327526132
11	0.476190476190476	0.090909090909091	0.467532467532468	0.376623376623377
-9	-0.971428571428571	-0.247680890538033	0.408163265306123	0.655844155844156
8	0.2	-0.0382106244175209	0.513513513513514	0.551724137931034
0	-0.571428571428571	-0.276497695852535	0.654377880184332	0.930875576036866
-14	-0.504761904761905	-0.0506912442396314	0.377880184331797	0.428571428571429
1	-0.847619047619047	-0.362612612612613	0.33976833976834	0.702380952380952
-1	-1.38901098901099	-0.527942645589704	0.467532467532468	0.995475113122172
-10	-1.61904761904762	-0.48469387755102	0.392857142857143	0.877551020408163
8	0.352380952380952	0.056689342403628	0.469387755102041	0.412698412698413
2	-1.0952380952381	-0.503501400560224	0.345238095238095	0.848739495798319
3	-0.114285714285714	-0.0974025974025973	0.402597402597403	0.5
1	-0.828571428571429	-0.382953181272509	0.591836734693878	0.974789915966387
3	0.857142857142857	0.357007319056655	0.596638655462185	0.23963133640553
-7	-0.0857142857142859	0.0524745524745524	0.513513513513514	0.461038961038961
-2	-0.485714285714287	-0.134267887529374	0.75609756097561	0.890365448504984
9	-0.18058608058608	-0.210898513251454	0.407563025210084	0.618461538461539
-8	-0.447619047619048	-0.0888030888030888	0.33976833976834	0.428571428571429
9	0.2	-0.0746753246753247	0.532467532467532	0.607142857142857
-14	-0.676190476190476	-0.0740546218487393	0.470588235294118	0.544642857142857
3	-0.171428571428571	-0.112882653061225	0.346938775510204	0.459821428571429
-8	-0.247619047619048	0.00120048019207675	0.470588235294118	0.469387755102041
6	-0.571428571428571	-0.329887218045113	0.330827067669173	0.660714285714286
6	0.685714285714285	0.178571428571428	0.821428571428571	0.642857142857143
-6	-0.628571428571429	-0.175170068027211	0.345238095238095	0.520408163265306
-1	0.238095238095237	0.132305194805195	0.794642857142857	0.662337662337662
