3
[ 1.847, 1.847, 1.847, 1.217, 1.847, 1.847, 1.217, 1.217, 1.847, 1.847, 1.217, 1.217, 1.217, 1.847, 1.847, 1.217, 1.217, 1.165, 1.165, 1.847, 1.217, 1.217, 1.847, 1.217, 1.165, 1.217, 1.217, 1.165, 1.165, 1.217, 1.165, 1.847, 1.847, 1.217, 1.217, 1.847, 1.165, 1.217, 1.165, 1.165, 1.217, 1.847, 1.847, 1.165, 1.165, 1.847, 1.217, 1.165, 1.847, 1.165, 1.165, 1.165, 1.217, 1.217, 1.217, 1.847, 1.847, 1.165, 1.847, 1.165, 1.217, 1.217, 1.217, 1.217, 1.847, 1.165, 1.217, 1.217, 1.847, 1.217, 1.165, 1.217, 1.165, 1.217, 1.217, 1.165, 1.847, 1.217, 1.165, 1.217, 1.165, 1.165, 1.847, 1.165, 1.847, 1.847, 1.847, 1.847, 1.847, 1.847, 1.217, 1.217, 1.217, 1.217, 1.217, 1.847, 1.217, 1.217, 1.165, 1.217 ]
3
[ 0.312, 0.312, 0.312, 0.454, 0.312, 0.104, 0.312, 0.312, 0.312, 0.312, 0.312, 0.454, 0.104, 0.454, 0.454, 0.454, 0.454, 0.312, 0.104, 0.454, 0.312, 0.104, 0.104, 0.104, 0.312, 0.312, 0.454, 0.312, 0.104, 0.312, 0.312, 0.104, 0.312, 0.454, 0.454, 0.312, 0.312, 0.104, 0.454, 0.104, 0.312, 0.104, 0.454, 0.104, 0.312, 0.454, 0.312, 0.104, 0.312, 0.312, 0.312, 0.104, 0.104, 0.104, 0.104, 0.454, 0.104, 0.312, 0.104, 0.312, 0.312, 0.104, 0.454, 0.104, 0.454, 0.104, 0.454, 0.104, 0.454, 0.104, 0.454, 0.312, 0.454, 0.104, 0.104, 0.312, 0.312, 0.312, 0.454, 0.312, 0.454, 0.454, 0.454, 0.312, 0.312, 0.454, 0.312, 0.454, 0.312, 0.104, 0.312, 0.312, 0.312, 0.454, 0.454, 0.312, 0.454, 0.312, 0.104, 0.104 ]