3
[ 1.236, 1.028, 1.236, 1.028, 1.236, 1.028, 1.236, 1.028, 1.028, 1.554, 1.028, 1.236, 1.554, 1.028, 1.554, 1.554, 1.028, 1.236, 1.554, 1.236, 1.554, 1.554, 1.554, 1.028, 1.028, 1.236, 1.236, 1.236, 1.028, 1.236, 1.554, 1.236, 1.554, 1.236, 1.028, 1.028, 1.554, 1.554, 1.236, 1.554, 1.028, 1.554, 1.554, 1.236, 1.554, 1.236, 1.554, 1.236, 1.236, 1.028, 1.554, 1.236, 1.028, 1.554, 1.236, 1.236, 1.028, 1.028, 1.028, 1.028, 1.554, 1.236, 1.554, 1.554, 1.554, 1.028, 1.028, 1.236, 1.028, 1.554, 1.554, 1.554, 1.028, 1.554, 1.028, 1.554, 1.028, 1.236, 1.554, 1.554, 1.028, 1.236, 1.554, 1.236, 1.028, 1.236, 1.028, 1.028, 1.028, 1.236, 1.554, 1.028, 1.554, 1.028, 1.554, 1.554, 1.236, 1.236, 1.554, 1.236, 1.554, 1.028, 1.028, 1.236, 1.554, 1.028, 1.236, 1.028, 1.554, 1.028, 1.554, 1.554, 1.236, 1.554, 1.028, 1.236, 1.554, 1.028, 1.554, 1.028, 1.554, 1.554, 1.554, 1.028, 1.554, 1.028, 1.028, 1.554, 1.236, 1.236, 1.236, 1.554, 1.554, 1.028, 1.554, 1.028, 1.554, 1.554, 1.236, 1.236, 1.554, 1.236, 1.236, 1.028, 1.554, 1.554, 1.028, 1.554, 1.028, 1.028, 1.554, 1.554, 1.028, 1.554, 1.236, 1.554, 1.236, 1.554, 1.236, 1.554, 1.028, 1.236, 1.236, 1.554, 1.554, 1.236, 1.028, 1.236, 1.028, 1.236, 1.554, 1.028, 1.028, 1.028, 1.554, 1.028, 1.554, 1.236, 1.028, 1.236, 1.236, 1.028, 1.554, 1.236, 1.554, 1.554, 1.236, 1.236, 1.028, 1.028, 1.554, 1.236, 1.236, 1.028, 1.236, 1.554, 1.554, 1.236, 1.028, 1.028 ]
3
[ 0.040, 0.632, 0.632, 0.040, 0.632, 0.392, 0.392, 0.392, 0.392, 0.392, 0.632, 0.040, 0.392, 0.632, 0.040, 0.040, 0.392, 0.040, 0.040, 0.040, 0.040, 0.632, 0.632, 0.632, 0.040, 0.632, 0.040, 0.632, 0.632, 0.392, 0.392, 0.392, 0.040, 0.392, 0.040, 0.392, 0.632, 0.040, 0.632, 0.392, 0.632, 0.040, 0.632, 0.632, 0.040, 0.040, 0.392, 0.632, 0.040, 0.392, 0.040, 0.040, 0.632, 0.040, 0.040, 0.040, 0.632, 0.040, 0.040, 0.632, 0.632, 0.632, 0.632, 0.632, 0.040, 0.392, 0.632, 0.392, 0.392, 0.632, 0.392, 0.632, 0.392, 0.392, 0.632, 0.040, 0.040, 0.040, 0.040, 0.632, 0.392, 0.632, 0.040, 0.392, 0.392, 0.632, 0.632, 0.632, 0.040, 0.392, 0.392, 0.040, 0.040, 0.392, 0.632, 0.392, 0.632, 0.632, 0.632, 0.040, 0.040, 0.392, 0.632, 0.632, 0.632, 0.040, 0.040, 0.392, 0.040, 0.632, 0.392, 0.632, 0.040, 0.392, 0.632, 0.040, 0.632, 0.040, 0.392, 0.632, 0.632, 0.040, 0.040, 0.632, 0.632, 0.392, 0.040, 0.392, 0.040, 0.040, 0.632, 0.040, 0.392, 0.632, 0.392, 0.632, 0.040, 0.392, 0.040, 0.632, 0.392, 0.392, 0.632, 0.392, 0.040, 0.632, 0.392, 0.392, 0.392, 0.392, 0.632, 0.392, 0.040, 0.040, 0.392, 0.392, 0.040, 0.040, 0.392, 0.632, 0.392, 0.040, 0.392, 0.392, 0.632, 0.040, 0.632, 0.392, 0.392, 0.392, 0.632, 0.040, 0.040, 0.392, 0.040, 0.632, 0.392, 0.392, 0.632, 0.632, 0.392, 0.040, 0.040, 0.632, 0.392, 0.632, 0.040, 0.392, 0.632, 0.040, 0.040, 0.392, 0.632, 0.040, 0.392, 0.392, 0.392, 0.392, 0.040, 0.392 ]