5
[ 4.314, 4.314, 1.997, 4.314, 4.314, 3.675, 3.675, 3.675, 3.675, 4.314, 4.314, 4.314, 4.314, 4.314, 4.314, 4.314, 3.675, 3.675, 4.314, 3.675, 4.314, 1.697, 3.675, 2.136, 4.314, 4.314, 1.697, 2.136, 3.675, 4.314, 4.314, 4.314, 1.697, 4.314, 4.314, 4.314, 4.314, 4.314, 4.314, 1.697, 3.675, 4.314, 3.675, 3.675, 2.136, 4.314, 1.697, 4.314, 3.675, 4.314, 1.697, 4.314, 4.314, 3.675, 1.697, 4.314, 4.314, 4.314, 1.697, 4.314, 3.675, 4.314, 4.314, 1.697, 1.697, 4.314, 4.314, 1.697, 4.314, 3.675, 3.675, 4.314, 3.675, 1.697, 4.314, 4.314, 1.697, 4.314, 4.314, 3.675, 1.697, 4.314, 4.314, 1.697, 1.697, 1.697, 4.314, 3.675, 4.314, 1.697, 4.314, 3.675, 4.314, 4.314, 4.314, 4.314, 1.697, 3.675, 1.697, 3.675, 3.675, 4.314, 4.314, 1.697, 4.314, 1.697, 3.675, 1.697, 4.314, 1.697, 4.314, 4.314, 3.675, 4.314, 1.697, 1.697, 1.697, 1.697, 1.697, 3.675, 4.314, 1.697, 4.314, 3.675, 4.314, 1.697, 1.697, 3.675, 4.314, 3.675, 1.697, 1.697, 1.697, 4.314, 1.997, 4.314, 1.697, 4.314, 2.136, 4.314, 1.697, 3.675, 4.314, 2.136, 4.314, 4.314, 4.314, 3.675, 4.314, 3.675, 4.314, 4.314, 1.697, 3.675, 1.697, 3.675, 3.675, 3.675, 4.314, 4.314, 4.314, 4.314, 4.314, 3.675, 4.314, 4.314, 4.314, 3.675, 4.314, 1.697, 1.697, 4.314, 4.314, 3.675, 4.314, 4.314, 1.697, 3.675, 1.697, 4.314, 1.697, 4.314, 4.314, 3.675, 1.997, 1.697, 4.314, 3.675, 1.697, 4.314, 1.697, 4.314, 1.697, 3.675, 4.314, 3.675, 1.697, 1.697, 4.314, 1.697 ]
6
[ 0.094, 0.094, 0.094, 0.820, 0.728, 0.608, 0.820, 0.820, 0.094, 0.094, 0.701, 0.820, 0.094, 0.820, 0.094, 0.820, 0.820, 0.820, 0.608, 0.094, 0.094, 0.820, 0.728, 0.820, 0.820, 0.820, 0.094, 0.094, 0.608, 0.820, 0.094, 0.820, 0.074, 0.820, 0.820, 0.820, 0.094, 0.094, 0.820, 0.074, 0.728, 0.608, 0.820, 0.094, 0.094, 0.608, 0.094, 0.094, 0.820, 0.820, 0.094, 0.820, 0.820, 0.820, 0.094, 0.820, 0.074, 0.094, 0.074, 0.820, 0.820, 0.094, 0.074, 0.820, 0.608, 0.094, 0.701, 0.074, 0.608, 0.094, 0.820, 0.094, 0.728, 0.074, 0.820, 0.608, 0.701, 0.608, 0.820, 0.094, 0.820, 0.820, 0.728, 0.074, 0.608, 0.820, 0.608, 0.074, 0.701, 0.094, 0.608, 0.074, 0.094, 0.820, 0.820, 0.608, 0.074, 0.728, 0.820, 0.094, 0.820, 0.094, 0.094, 0.701, 0.608, 0.608, 0.094, 0.094, 0.094, 0.074, 0.094, 0.094, 0.094, 0.728, 0.094, 0.820, 0.820, 0.820, 0.094, 0.820, 0.701, 0.094, 0.820, 0.701, 0.820, 0.094, 0.094, 0.820, 0.094, 0.094, 0.820, 0.074, 0.608, 0.094, 0.094, 0.820, 0.094, 0.820, 0.820, 0.094, 0.094, 0.094, 0.608, 0.094, 0.094, 0.094, 0.820, 0.094, 0.820, 0.820, 0.094, 0.094, 0.728, 0.608, 0.820, 0.094, 0.094, 0.094, 0.608, 0.608, 0.094, 0.074, 0.094, 0.074, 0.094, 0.094, 0.094, 0.701, 0.608, 0.820, 0.820, 0.094, 0.074, 0.094, 0.094, 0.820, 0.728, 0.701, 0.094, 0.820, 0.074, 0.820, 0.820, 0.820, 0.728, 0.820, 0.820, 0.094, 0.094, 0.094, 0.074, 0.094, 0.094, 0.820, 0.820, 0.094, 0.094, 0.094, 0.074, 0.728 ]