4
[ 2.673, 2.673, 16.358, 2.673, 2.673, 2.673, 2.673, 2.673, 3.550, 2.673, 3.041, 2.673, 2.673, 2.673, 3.550, 2.673, 3.550, 2.673, 2.673, 2.673, 2.673, 2.673, 2.673, 2.673, 16.358, 3.041, 2.673, 2.673, 2.673, 3.550, 16.358, 2.673, 2.673, 3.550, 2.673, 2.673, 16.358, 3.041, 2.673, 3.041, 2.673, 2.673, 3.550, 2.673, 2.673, 2.673, 3.550, 3.041, 2.673, 2.673 ]
1
[ 0.110, 0.110, 0.110, 0.110, 0.110, 0.110, 0.110, 0.110, 0.110, 0.110, 0.110, 0.110, 0.110, 0.110, 0.110, 0.110, 0.110, 0.110, 0.110, 0.110, 0.110, 0.110, 0.110, 0.110, 0.110, 0.110, 0.110, 0.110, 0.110, 0.110, 0.110, 0.110, 0.110, 0.110, 0.110, 0.110, 0.110, 0.110, 0.110, 0.110, 0.110, 0.110, 0.110, 0.110, 0.110, 0.110, 0.110, 0.110, 0.110, 0.110 ]