3
[ 2.513, 2.513, 1.368, 2.513, 2.582, 2.582, 2.582, 1.368, 2.582, 1.368, 2.513, 1.368, 1.368, 1.368, 2.513, 2.513, 1.368, 2.513, 1.368, 2.582, 2.582, 2.513, 2.582, 2.513, 2.513, 1.368, 2.513, 1.368, 1.368, 2.513, 2.582, 2.582, 2.582, 2.513, 2.582, 2.582, 2.513, 1.368, 1.368, 1.368, 2.513, 2.582, 1.368, 2.582, 1.368, 2.582, 1.368, 2.582, 2.582, 2.513, 2.513, 1.368, 2.582, 2.513, 2.513, 1.368, 1.368, 2.582, 2.582, 1.368, 1.368, 2.513, 1.368, 2.513, 2.513, 2.513, 2.513, 1.368, 1.368, 1.368, 1.368, 1.368, 2.513, 2.582, 2.513, 2.513, 2.582, 2.582, 2.582, 2.513, 2.582, 2.513, 2.582, 2.513, 2.582, 1.368, 2.582, 1.368, 1.368, 2.513, 1.368, 2.582, 1.368, 2.513, 2.582, 1.368, 1.368, 2.582, 1.368, 1.368, 2.513, 2.513, 1.368, 2.582, 2.513, 2.513, 2.582, 1.368, 2.513, 1.368, 2.582, 2.513, 2.582, 2.513, 2.513, 1.368, 1.368, 1.368, 1.368, 2.513, 2.582, 2.582, 1.368, 2.513, 2.513, 2.513, 1.368, 2.582, 2.513, 2.513, 1.368, 2.513, 2.582, 2.582, 2.582, 2.582, 2.513, 2.582, 2.513, 1.368, 1.368, 2.513, 2.513, 2.582, 2.582, 2.513, 1.368, 1.368, 1.368, 1.368, 1.368, 1.368, 2.582, 2.513, 1.368, 2.513, 2.582, 2.582, 2.582, 2.513, 1.368, 2.513, 1.368, 2.582, 2.582, 2.582, 1.368, 2.582, 2.513, 2.513, 2.513, 2.513, 2.582, 1.368, 1.368, 2.582, 1.368, 1.368, 1.368, 2.582, 2.582, 2.582, 1.368, 2.513, 1.368, 1.368, 2.513, 1.368, 1.368, 2.513, 2.513, 1.368, 2.582, 2.513, 1.368, 1.368, 2.582, 2.513, 1.368, 2.513 ]
3
[ 0.969, 0.471, 0.969, 0.940, 0.940, 0.471, 0.940, 0.969, 0.969, 0.940, 0.471, 0.471, 0.471, 0.969, 0.471, 0.471, 0.471, 0.940, 0.940, 0.471, 0.471, 0.969, 0.940, 0.940, 0.969, 0.940, 0.969, 0.940, 0.969, 0.940, 0.471, 0.471, 0.969, 0.969, 0.969, 0.471, 0.471, 0.940, 0.940, 0.471, 0.471, 0.969, 0.969, 0.969, 0.471, 0.969, 0.471, 0.471, 0.969, 0.471, 0.471, 0.969, 0.940, 0.471, 0.940, 0.471, 0.940, 0.940, 0.471, 0.940, 0.940, 0.940, 0.471, 0.471, 0.940, 0.471, 0.940, 0.940, 0.940, 0.940, 0.471, 0.969, 0.969, 0.940, 0.471, 0.471, 0.969, 0.940, 0.969, 0.940, 0.471, 0.969, 0.940, 0.940, 0.969, 0.940, 0.471, 0.471, 0.471, 0.471, 0.471, 0.940, 0.969, 0.940, 0.940, 0.940, 0.969, 0.969, 0.471, 0.471, 0.471, 0.471, 0.940, 0.471, 0.471, 0.940, 0.940, 0.471, 0.940, 0.969, 0.471, 0.940, 0.471, 0.969, 0.969, 0.969, 0.969, 0.471, 0.940, 0.969, 0.940, 0.940, 0.940, 0.471, 0.471, 0.940, 0.969, 0.969, 0.940, 0.471, 0.471, 0.471, 0.969, 0.940, 0.471, 0.471, 0.940, 0.471, 0.940, 0.969, 0.969, 0.471, 0.969, 0.471, 0.471, 0.969, 0.969, 0.969, 0.471, 0.471, 0.969, 0.969, 0.940, 0.969, 0.940, 0.471, 0.969, 0.969, 0.471, 0.969, 0.969, 0.471, 0.471, 0.940, 0.940, 0.940, 0.969, 0.940, 0.940, 0.969, 0.969, 0.471, 0.471, 0.969, 0.940, 0.940, 0.471, 0.940, 0.471, 0.969, 0.471, 0.471, 0.969, 0.940, 0.471, 0.471, 0.471, 0.969, 0.969, 0.969, 0.969, 0.969, 0.940, 0.471, 0.940, 0.969, 0.969, 0.940, 0.940, 0.471 ]