5
[ 1.938, 1.048, 1.048, 1.048, 1.938, 1.048, 1.048, 1.048, 1.048, 1.938, 1.048, 1.048, 1.048, 1.048, 1.048, 1.938, 1.048, 1.048, 1.048, 1.938, 1.048, 1.048, 1.048, 1.048, 2.234, 1.938, 1.048, 1.048, 1.048, 2.234, 1.938, 1.048, 1.938, 1.048, 1.048, 1.048, 4.303, 1.048, 1.938, 2.234, 1.048, 1.048, 1.048, 1.048, 1.938, 0.585, 1.938, 1.938, 1.048, 1.048 ]
6
[ 0.666, 0.943, 0.341, 0.943, 0.341, 0.341, 0.123, 0.341, 0.341, 0.658, 0.341, 0.666, 0.341, 0.666, 0.666, 0.321, 0.658, 0.341, 0.666, 0.341, 0.943, 0.341, 0.666, 0.943, 0.341, 0.943, 0.341, 0.658, 0.943, 0.666, 0.666, 0.943, 0.341, 0.341, 0.341, 0.341, 0.658, 0.943, 0.341, 0.666, 0.341, 0.341, 0.123, 0.123, 0.943, 0.666, 0.666, 0.943, 0.666, 0.658 ]