7
[ 2.548, 2.548, 2.548, 2.548, 0.631, 2.548, 2.548, 2.548, 0.631, 4.290, 0.599, 4.290, 4.290, 2.548, 2.548, 4.290, 2.548, 2.548, 4.290, 2.548, 2.548, 4.290, 2.548, 4.290, 4.290, 2.548, 0.599, 2.548, 2.548, 4.290, 2.548, 4.290, 2.548, 4.290, 4.290, 2.548, 0.666, 0.599, 2.548, 0.631, 2.548, 2.548, 2.548, 0.631, 2.548, 0.599, 2.548, 4.290, 4.290, 2.548, 4.290, 2.548, 4.290, 2.548, 2.548, 4.290, 4.290, 4.290, 0.599, 4.290, 4.290, 4.290, 5.303, 4.290, 4.290, 4.290, 2.548, 4.290, 0.631, 0.631, 2.548, 2.548, 2.548, 2.548, 2.548, 2.548, 4.290, 0.599, 2.548, 2.548, 2.548, 0.631, 2.548, 4.290, 4.290, 2.548, 4.290, 2.548, 4.290, 4.290, 0.631, 4.290, 2.548, 2.548, 0.631, 4.290, 2.548, 0.631, 4.290, 2.548, 4.290, 2.548, 4.290, 0.631, 4.290, 2.548, 2.548, 2.548, 2.548, 2.548, 2.548, 2.548, 0.599, 2.548, 0.631, 2.548, 0.631, 2.548, 0.631, 4.290, 0.631, 2.548, 2.548, 2.548, 2.548, 4.290, 2.548, 2.548, 4.290, 2.548, 4.290, 2.548, 4.290, 2.548, 4.290, 2.548, 4.290, 0.631, 2.548, 4.290, 2.548, 0.599, 4.290, 2.548, 4.290, 4.290, 4.290, 2.548, 2.548, 4.290, 0.599, 2.548, 2.548, 0.758, 4.290, 2.548, 4.290, 4.290, 2.548, 0.631, 4.290, 2.548, 4.290, 0.599, 2.548, 2.548, 2.548, 2.548, 2.548, 2.548, 4.290, 2.548, 2.548, 4.290, 4.290, 2.548, 4.290, 2.548, 4.290, 0.599, 4.290, 2.548, 2.548, 4.290, 0.758, 4.290, 2.548, 4.290, 2.548, 0.631, 0.631, 2.548, 2.548, 4.290, 2.548, 4.290, 0.631, 4.290, 0.599, 0.631 ]
9
[ 0.631, 0.522, 0.631, 0.522, 0.285, 0.389, 0.631, 0.522, 0.631, 0.522, 0.522, 0.631, 0.631, 0.522, 0.631, 0.631, 0.631, 0.522, 0.522, 0.631, 0.631, 0.631, 0.522, 0.631, 0.522, 0.522, 0.285, 0.522, 0.935, 0.340, 0.631, 0.522, 0.440, 0.340, 0.522, 0.631, 0.631, 0.522, 0.522, 0.522, 0.522, 0.340, 0.631, 0.631, 0.522, 0.631, 0.522, 0.522, 0.631, 0.340, 0.631, 0.522, 0.631, 0.522, 0.522, 0.578, 0.522, 0.522, 0.522, 0.522, 0.631, 0.631, 0.522, 0.631, 0.522, 0.522, 0.522, 0.631, 0.522, 0.631, 0.522, 0.935, 0.631, 0.631, 0.522, 0.522, 0.631, 0.340, 0.285, 0.522, 0.631, 0.522, 0.285, 0.631, 0.631, 0.522, 0.631, 0.522, 0.522, 0.340, 0.522, 0.285, 0.631, 0.631, 0.522, 0.631, 0.522, 0.631, 0.522, 0.522, 0.340, 0.285, 0.340, 0.522, 0.631, 0.631, 0.340, 0.631, 0.631, 0.522, 0.631, 0.389, 0.935, 0.631, 0.522, 0.340, 0.522, 0.935, 0.631, 0.631, 0.522, 0.522, 0.522, 0.340, 0.389, 0.631, 0.631, 0.157, 0.631, 0.631, 0.522, 0.522, 0.631, 0.340, 0.522, 0.631, 0.631, 0.631, 0.631, 0.631, 0.340, 0.522, 0.631, 0.340, 0.631, 0.522, 0.631, 0.522, 0.631, 0.631, 0.522, 0.340, 0.522, 0.631, 0.631, 0.631, 0.389, 0.522, 0.522, 0.522, 0.631, 0.631, 0.340, 0.522, 0.631, 0.522, 0.631, 0.522, 0.631, 0.522, 0.285, 0.522, 0.631, 0.522, 0.389, 0.631, 0.631, 0.157, 0.631, 0.631, 0.631, 0.631, 0.440, 0.522, 0.389, 0.631, 0.631, 0.340, 0.631, 0.631, 0.631, 0.631, 0.631, 0.522, 0.285, 0.522, 0.522, 0.340, 0.340, 0.631 ]