3
[ 2.215, 2.215, 1.452, 1.452, 2.215, 2.215, 2.215, 1.452, 2.215, 3.530, 1.452, 2.215, 1.452, 1.452, 3.530, 1.452, 3.530, 2.215, 1.452, 2.215, 2.215, 3.530, 2.215, 1.452, 3.530, 1.452, 2.215, 2.215, 1.452, 3.530, 1.452, 1.452, 1.452, 1.452, 2.215, 2.215, 3.530, 2.215, 1.452, 2.215, 2.215, 2.215, 2.215, 1.452, 2.215, 3.530, 1.452, 2.215, 3.530, 1.452, 3.530, 1.452, 3.530, 2.215, 3.530, 3.530, 3.530, 1.452, 3.530, 3.530, 3.530, 2.215, 3.530, 1.452, 3.530, 1.452, 3.530, 2.215, 2.215, 1.452, 3.530, 3.530, 1.452, 3.530, 3.530, 3.530, 2.215, 2.215, 3.530, 1.452, 3.530, 2.215, 3.530, 2.215, 3.530, 2.215, 3.530, 3.530, 1.452, 1.452, 1.452, 2.215, 3.530, 1.452, 1.452, 3.530, 1.452, 2.215, 3.530, 3.530, 1.452, 1.452, 1.452, 2.215, 3.530, 2.215, 2.215, 2.215, 1.452, 2.215, 2.215, 3.530, 3.530, 3.530, 1.452, 1.452, 1.452, 2.215, 2.215, 3.530, 3.530, 3.530, 1.452, 2.215, 3.530, 3.530, 1.452, 1.452, 3.530, 1.452, 3.530, 2.215, 1.452, 3.530, 3.530, 1.452, 2.215, 1.452, 3.530, 1.452, 2.215, 1.452, 1.452, 2.215, 3.530, 2.215, 3.530, 2.215, 1.452, 2.215, 2.215, 2.215, 2.215, 2.215, 1.452, 1.452, 1.452, 3.530, 1.452, 1.452, 1.452, 2.215, 2.215, 3.530, 3.530, 3.530, 1.452, 2.215, 2.215, 1.452, 3.530, 3.530, 3.530, 2.215, 2.215, 1.452, 1.452, 3.530, 1.452, 1.452, 1.452, 1.452, 2.215, 3.530, 2.215, 2.215, 3.530, 2.215, 1.452, 3.530, 2.215, 2.215, 2.215, 2.215, 2.215, 3.530, 1.452, 2.215, 1.452, 2.215 ]
3
[ 0.993, 0.781, 0.564, 0.781, 0.781, 0.993, 0.781, 0.564, 0.564, 0.993, 0.993, 0.993, 0.564, 0.564, 0.781, 0.781, 0.781, 0.993, 0.781, 0.781, 0.564, 0.564, 0.781, 0.564, 0.993, 0.564, 0.781, 0.993, 0.781, 0.781, 0.781, 0.564, 0.564, 0.781, 0.993, 0.564, 0.781, 0.781, 0.993, 0.781, 0.564, 0.993, 0.781, 0.564, 0.781, 0.564, 0.781, 0.564, 0.993, 0.781, 0.564, 0.564, 0.781, 0.564, 0.993, 0.564, 0.993, 0.993, 0.781, 0.993, 0.564, 0.781, 0.781, 0.781, 0.564, 0.993, 0.781, 0.781, 0.564, 0.993, 0.781, 0.781, 0.564, 0.781, 0.781, 0.993, 0.781, 0.993, 0.781, 0.564, 0.781, 0.993, 0.781, 0.781, 0.993, 0.993, 0.564, 0.781, 0.993, 0.781, 0.564, 0.993, 0.993, 0.564, 0.781, 0.993, 0.564, 0.781, 0.564, 0.781, 0.564, 0.564, 0.781, 0.781, 0.564, 0.781, 0.564, 0.564, 0.564, 0.781, 0.564, 0.781, 0.564, 0.993, 0.781, 0.564, 0.781, 0.993, 0.781, 0.781, 0.993, 0.781, 0.781, 0.993, 0.993, 0.993, 0.564, 0.564, 0.993, 0.564, 0.781, 0.564, 0.564, 0.564, 0.564, 0.781, 0.564, 0.993, 0.781, 0.993, 0.564, 0.781, 0.993, 0.781, 0.781, 0.781, 0.564, 0.993, 0.993, 0.993, 0.781, 0.781, 0.993, 0.781, 0.564, 0.781, 0.781, 0.564, 0.564, 0.993, 0.993, 0.564, 0.564, 0.564, 0.993, 0.993, 0.781, 0.993, 0.993, 0.781, 0.781, 0.781, 0.564, 0.781, 0.781, 0.993, 0.993, 0.993, 0.993, 0.564, 0.564, 0.781, 0.564, 0.781, 0.993, 0.564, 0.993, 0.564, 0.781, 0.993, 0.781, 0.781, 0.993, 0.564, 0.781, 0.781, 0.781, 0.564, 0.781, 0.781 ]