3
[ 1.572, 4.196, 1.572, 4.196, 4.196, 4.196, 5.769, 1.572, 4.196, 4.196, 1.572, 5.769, 4.196, 1.572, 1.572, 1.572, 1.572, 4.196, 1.572, 5.769, 5.769, 4.196, 5.769, 5.769, 4.196, 4.196, 5.769, 4.196, 1.572, 1.572, 1.572, 4.196, 4.196, 4.196, 5.769, 5.769, 1.572, 1.572, 1.572, 5.769, 4.196, 1.572, 5.769, 5.769, 1.572, 4.196, 5.769, 4.196, 1.572, 1.572, 4.196, 1.572, 5.769, 4.196, 5.769, 5.769, 1.572, 1.572, 1.572, 1.572, 5.769, 1.572, 1.572, 1.572, 5.769, 5.769, 5.769, 4.196, 4.196, 1.572, 1.572, 1.572, 1.572, 5.769, 1.572, 1.572, 1.572, 1.572, 1.572, 1.572, 5.769, 4.196, 1.572, 1.572, 4.196, 4.196, 5.769, 5.769, 1.572, 4.196, 1.572, 4.196, 4.196, 5.769, 1.572, 4.196, 5.769, 5.769, 1.572, 1.572 ]
3
[ 0.301, 0.301, 0.233, 0.301, 0.301, 0.233, 0.233, 0.301, 0.536, 0.301, 0.536, 0.536, 0.536, 0.536, 0.301, 0.536, 0.233, 0.233, 0.233, 0.301, 0.536, 0.301, 0.301, 0.301, 0.233, 0.233, 0.301, 0.301, 0.536, 0.233, 0.233, 0.301, 0.536, 0.536, 0.301, 0.301, 0.536, 0.536, 0.233, 0.301, 0.536, 0.233, 0.301, 0.233, 0.301, 0.233, 0.536, 0.301, 0.233, 0.233, 0.301, 0.301, 0.301, 0.536, 0.301, 0.536, 0.536, 0.301, 0.301, 0.233, 0.301, 0.536, 0.233, 0.301, 0.233, 0.233, 0.233, 0.536, 0.536, 0.301, 0.536, 0.301, 0.233, 0.536, 0.233, 0.536, 0.301, 0.536, 0.233, 0.233, 0.301, 0.536, 0.301, 0.233, 0.233, 0.536, 0.536, 0.536, 0.301, 0.233, 0.233, 0.301, 0.536, 0.301, 0.233, 0.233, 0.536, 0.536, 0.536, 0.233 ]