4
[ 15.081, 0.915, 15.081, 15.081, 15.081, 15.081, 15.081, 15.081, 15.081, 5.323, 15.081, 15.081, 15.081, 15.081, 15.081, 15.081, 15.081, 15.081, 15.081, 15.081, 15.081, 15.081, 2.146, 15.081, 15.081, 15.081, 15.081, 2.146, 15.081, 15.081, 15.081, 15.081, 15.081, 15.081, 15.081, 15.081, 15.081, 15.081, 15.081, 15.081, 15.081, 15.081, 15.081, 15.081, 15.081, 15.081, 15.081, 15.081, 15.081, 15.081 ]
4
[ 0.732, 0.258, 0.258, 0.739, 0.732, 0.739, 0.732, 0.732, 0.258, 0.258, 0.739, 0.739, 0.732, 0.739, 0.739, 0.732, 0.258, 0.234, 0.739, 0.732, 0.258, 0.258, 0.739, 0.732, 0.739, 0.732, 0.732, 0.258, 0.739, 0.732, 0.732, 0.739, 0.732, 0.739, 0.732, 0.258, 0.732, 0.739, 0.258, 0.732, 0.258, 0.234, 0.258, 0.258, 0.739, 0.739, 0.732, 0.739, 0.732, 0.258 ]