rate_constant_pi_constant_tree_unrooted_run_1	rate_constant_pi_constant_tree_unrooted_run_2	rate_constant_pi_constant_tree_unrooted_run_3	rate_constant_pi_constant_tree_unrooted_run_4	rate_DPP_pi_DPP_tree_unrooted_run_1	rate_DPP_pi_DPP_tree_unrooted_run_2	rate_DPP_pi_DPP_tree_unrooted_run_3	rate_DPP_pi_DPP_tree_unrooted_run_4	rate_discrete_gamma_pi_discrete_beta_tree_unrooted_run_1	rate_discrete_gamma_pi_discrete_beta_tree_unrooted_run_2	rate_discrete_gamma_pi_discrete_beta_tree_unrooted_run_3	rate_discrete_gamma_pi_discrete_beta_tree_unrooted_run_4
NA	NA	NA	NA	NA	NA	NA	NA	NA	NA	NA	NA
12.4116111645795	12.1148413765881	12.425919263207	12.5579699244367	12.5849219321393	12.4044265789174	12.5714812230022	12.3827490666466	11.0382094579099	11.175058988328	11.1385514203754	11.1385514203754
11.6611686964412	11.4386967913476	11.3991825385963	11.7303314191516	11.5529113482351	11.7303314191516	11.3991825385963	11.7640701794965	7.08877208917235	7.90170664829905	7.66547223946962	7.39774133996682
15.5976823485422	15.5508164226328	15.5249659306379	15.5722024582378	15.5336057130657	15.6729635364436	15.5508164226328	15.63553621947	14.9305034827595	15.1534186478892	15.0992667457671	15.2018049190842
10.5528783143078	10.765731123335	10.3170991581987	10.421285221263	10.7511900801033	10.6002549535479	10.83703869578	10.4549343223355	10.6312807985872	10.7945298628967	10.4715661928529	10.7511900801033
8.57082042577057	8.46583793051272	8.24384470907647	8.3472763613699	8.50165793079116	8.4593543403911	8.2500552611322	8.20057103952454	8.41100543734485	8.6749066267617	8.50820022853083	8.60078736035402
9.96090935389253	10.0386957758351	10.012858378104	10.0501506942269	10.0386957758351	10.2003955242208	10.1043313645139	10.0530117375081	11.1466884921195	11.0373789137777	11.0587123546006	11.005369413252
5.11591842574556	5.09737277595392	5.33978040930258	5.19556645530027	5.12516747339482	5.24101156456656	5.12824700117628	5.20772026362126	5.25005808690414	5.18947981286139	5.29807490474397	5.16506741638132
12.4683643632993	12.4472306987007	12.1943935380241	12.4542948369842	12.2332250361424	12.0822818745784	12.0492810736241	12.1628815274466	9.55683880423304	9.88530638035344	9.86345404883507	10.0323216541381
9.7905626821931	9.62715388812775	9.34970465165052	9.71838116002253	9.46096490779687	9.36861501309363	9.16202506113829	9.4152394888121	6.75676750450165	7.20182923779347	7.15107414954548	7.32363574877206
5.66437924149628	5.49618956590778	5.36788812879033	5.84253444460691	5.43295443452818	5.36788812879033	5.25967763472779	5.47110822117654	2.70588149016262	3.56250458340713	3.50053102235352	3.7098628064077
16.22332816252	16.5747213039025	16.5747213039025	16.3056440816861	16.7762300526669	16.0680615423819	17.5392293979328	17.6999840453423	15.0798907922188	15.5436519427673	15.4866357663018	15.1265460755048
14.2887000605412	14.2558583485284	14.2233660044568	14.2511954272284	13.728138144229	13.7881679527683	13.8781613350302	13.7720577953907	13.0912767671622	12.8969106071196	13.0677754676627	13.1149047240499
13.9650418591097	14.2852412600279	14.0197454073258	14.4830239348617	13.6172935671811	13.6636129053129	13.6172935671811	13.3385032896524	13.9922159564379	13.3587056516252	14.1929557479531	13.6403270995193
14.9270131426355	14.5927239539537	14.8947760372167	14.5649684454716	14.7527913336619	14.8289942244741	14.8122665876965	14.9189936189003	13.8769726920343	13.8643971309608	13.7212102006657	13.7479339589417
16.3217078044234	16.3768686939758	16.3597085004023	16.2481765575847	16.0488883425203	15.9889059064061	16.0414430740111	15.9851245831337	15.8854065646847	15.8226318702756	15.5849671603493	15.7017875068425
15.3936867104596	15.5613963065823	15.9266238672081	15.5017824533173	15.6302158788509	15.7493655869817	15.9178809481557	15.7412393966297	17.2013504665359	17.0678042627946	17.0967914673406	17.0534516845471
11.6234173233597	11.7679023561781	11.9539768246953	11.4435358216581	11.6993698912539	11.8282865030291	11.9007744190659	11.7382856361136	12.6544744768102	12.610850021114	12.5822371752492	12.5260946476537
23.3143951860243	23.3241514535881	23.4184815090437	23.3290416407426	23.5316697470147	23.5264268908065	23.7328472577564	23.5474564440241	25.9832957998778	25.7396162048646	25.9832957998778	25.5907271094403
13.3377732986612	13.3865197130915	13.110283545162	13.3573935736612	13.0103508926752	12.7202085700257	12.7838011042139	12.9875388502738	12.8819608519164	12.8699212869102	12.8456484670369	12.8819608519164
7.32296576338128	7.60195823078962	7.16769914324326	7.90439153946139	6.50599223217565	6.99959229078321	6.81630600186076	7.32296576338128	4.30073820276983	5.5163514982401	5.85179790783048	4.6097074535643
8.29756502657824	8.26781913743341	7.9961869177984	8.19442565777676	7.91605222085949	7.61454083784375	7.81895614012761	7.75913028662076	7.64090089237806	7.5879336300558	7.50105987834039	7.57722023351938
3.66235737465266	3.60368446521209	3.66682550572946	3.71556265731931	3.42063827457576	3.55778553001377	3.59912509863154	3.64442107996632	3.96922806588911	4.04571103266617	3.92827532562916	3.9610770117907
11.1173645935881	11.2400251831815	11.1333592993282	10.9760144182418	10.8182184050009	10.9573260150065	10.9599962061403	10.8021267123968	12.3868886292502	12.3370689359494	12.3516832061681	12.3810079982104
16.1443710326833	16.1152445634464	16.0115128765214	16.2481765575847	16.07483148139	16.1152445634464	16.1948240373938	16.1225468032893	16.4717187042181	16.28685754661	16.349378803895	16.5283240005311
14.2677438194481	14.2992297382161	14.5274474583042	14.1706253372182	14.5742564429569	14.2465125956069	14.555643868806	14.2992297382161	14.2571525875868	14.3199851993276	14.1706253372182	14.2992297382161
13.4531108066758	13.1851151852795	13.3573935736612	12.905849930851	13.3476039682318	13.1956103355644	13.3279011865214	13.4437121121155	13.0553036738421	13.2473851783573	13.277905371653	13.2060581503958
16.0744490688935	16.060755082774	16.1699022942595	16.0799224057675	16.2376933271561	16.1889141875203	16.3751668649416	16.0717114936555	16.2782317599329	16.3079012927259	16.2917238084033	16.3105961995943
14.652209596787	14.6844067538467	14.9112550380461	14.7112709629086	14.7920707975236	14.8082722268741	14.8434278728731	14.7893719887581	15.0644280206819	15.0699345851058	15.0534229432799	15.07268888374
7.58258201614111	7.45097713671154	7.91605222085949	7.62511419536868	7.61983243631313	7.49000828514865	7.71344188078517	7.84352899865016	7.30093885972228	7.19813071122701	7.30686541023637	7.19813071122701
3.75489117222567	3.72872592370595	3.33224155480488	3.49707222184031	3.68463499900026	3.78084540153634	3.52991393385304	3.60823714669384	4.04172757444276	3.98547190342386	4.1049249170073	4.09316164904964
12.0181570216068	12.0255012122379	12.1695446369796	12.0801401835219	11.9849315757188	12.1482702162204	11.8872574155749	12.1589215185458	12.7731511142359	12.8194496565472	12.8347956372908	12.8102214657991
4.72955911568558	4.81603019788126	5.10172923515959	4.78185320696455	4.62102960368877	4.65781379949417	4.67597404008992	4.60240010244277	4.09861552582992	4.506760670241	4.36529209541197	4.38608206576443
0.788820147454866	0.522366873354895	0.857484341728622	0.857484341728622	0.897690807476781	1.02672954056934	0.474646561019446	0.732320597834319	-0.0502819779162023	0.0498064285603519	0.359075956200618	-0.0708721759162154
16.4984456458197	16.4817601407127	16.6070577829919	16.5017752806369	16.5972887853108	16.6427057049056	16.6908937653705	16.7004744881975	17.472371565294	17.5005128461847	17.7309289542191	17.5899803462866
12.4166803145529	12.4166803145529	12.7202085700257	12.6942589415138	12.6280386128454	12.7330717564921	12.9528875047606	12.7838011042139	12.4314151275352	12.5319009943622	12.5597949566918	12.8578174053531
-2.11678215036249	0.24654288444871	-0.727816670314672	-2.11678215036249	-0.995547569817466	-2.11678215036249	-0.491582261485243	-0.995547569817466	-2.69281351795781	-Inf	-2.69281351795781	-2.69281351795781
6.64333334013534	6.43570531468979	6.26296403200566	6.49336093708039	6.71875537177214	7.00633995529609	6.72617350375822	6.83489178551595	5.45846204636331	5.59381950610824	5.49618956590778	5.52099507305482
13.9871084158925	14.2250843674704	14.137319503253	13.8004428579889	13.9990215186713	13.9142839828391	13.8769726920343	14.0576681512806	14.5368836999358	14.2887819233848	14.2887819233848	14.137319503253
8.31113651354439	7.90439153946139	8.06650158801662	8.48786654374076	7.84737536299589	6.13933873141897	7.7887260940635	7.60195823078962	6.26908567823897	5.85179790783048	6.26908567823897	6.13933873141897
5.01613885932741	5.08699433327084	4.12575743173603	5.52415673902176	4.52978248626326	2.94482755370139	4.61935749034359	4.52978248626326	2.94482755370139	3.31080845998132	3.75910393097934	3.13611669780047
15.8069454766119	15.8415928214349	15.678140914845	15.9428095283772	15.9095110240882	15.7362002565284	15.7929534552481	15.6036213273315	14.5709457692871	14.6850304672088	14.5474276571381	14.5355767242177
9.66072553763193	9.39669975862947	9.58452264681972	9.62715388812775	9.9363353654311	9.62715388812775	10.002514266207	10.1573339171909	9.3306414311567	9.40598775611474	9.38737518196389	9.3306414311567
5.42009124806175	5.08679512114944	5.32792129088141	5.47110822117654	5.24577438913551	5.28722629230224	5.10172923515959	5.04137605752623	4.81603019788126	4.79900877027321	4.40667226376444	4.86631116947111
13.5134526249138	13.6058181554206	13.2529405824791	13.0752892981928	13.1211096700643	12.9315811347894	13.0046517722995	13.1880431407839	10.9265473227385	11.1719644549448	10.5714018174452	11.1133151860124
8.639831794233	8.92737261782149	9.50608853156718	9.60433988826329	9.95573302964578	8.47907714682347	9.40283113949886	9.95573302964578	5.70047539182647	5.70047539182647	6.2765067594218	7.66547223946962
7.66612914148475	7.46722913371047	7.32296576338128	7.95986413786931	7.72834619977124	8.01387550971846	7.7887260940635	8.26448123025845	4.87743835306709	4.87743835306709	5.5163514982401	6.26908567823897
5.01613885932741	5.28589434104513	3.75910393097934	4.78746434280363	5.83650941673951	5.28589434104513	5.22172343035	4.94273096294165	2.7334379614569	3.31080845998132	2.49720355262747	2.49720355262747
6.23091385175411	6.87717608765013	6.23091385175411	6.30920280545898	7.07257868694122	7.22675724240093	6.75676750450165	7.01857654888568	7.65208685369843	7.29982787991102	6.59580149265436	7.15107414954548
5.630289719589	4.60730380400615	4.60730380400615	4.60730380400615	4.60730380400615	7.2112137968223	4.60730380400615	6.3045697521465	5.630289719589	2.40874544869453	5.630289719589	6.5723006516493
13.6941628483542	13.1922976800575	13.3087491202025	13.3087491202025	14.1148436960735	13.9142839828391	13.9751324397367	14.1595770193337	15.4391298545787	15.6643977000131	15.4651340682042	15.5227139786274
6.77749404326483	7.07830587100225	6.98636105941522	7.10399015163208	6.76293787118148	6.96622619962043	7.21043332111758	7.03929907490112	6.77022649924962	6.54171757927066	6.73356968754396	6.68886035724923
13.8262433443125	13.7212102006657	13.5537650097375	13.7611770385746	14.1261091743233	13.8390333162047	14.0576681512806	13.9019153035461	13.8262433443125	13.6941628483542	13.7346120145673	14.1035224804955
13.7022509871496	13.8577438260288	13.996485110082	13.5451025335539	14.1279053385805	13.8338415548152	13.9510967309587	13.7441433722063	13.6249628978704	13.5809257408174	13.6074450660398	13.5087324964902
5.15547049737229	5.686266787577	5.83650941673951	5.34811139933161	6.06484776221066	6.30920280545898	5.93090171310476	5.83650941673951	5.34811139933161	5.63364070927883	5.28589434104513	4.8665779250567
8.21674421717914	8.40139321871061	8.57086554638323	8.31113651354439	9.10578604573528	8.83767186138439	8.72750041306598	8.44508256265029	9.42598544665357	10.0323216541381	9.42598544665357	9.47930440856951
4.74713069513518	4.40667226376444	4.56465185993203	4.60240010244277	4.19126555473368	4.02637491998224	4.28005135697168	4.6394998994303	4.38608206576443	4.09861552582992	4.16847871520034	4.07480765696888
15.2281806953002	15.2281806953002	15.1415857092987	15.2703902710656	15.0896566979023	15.097141575095	15.2981456939786	15.2563982497018	14.8456072663029	15.013541328719	14.9745871919027	15.0896566979023
6.71805464516466	7.39637365976703	6.71805464516466	6.71805464516466	6.13933873141897	6.00068330821112	6.91001728670289	6.50599223217565	5.32506235414101	5.85179790783048	5.32506235414101	6.00068330821112
5.88424642981883	5.57962933742969	5.73757773699788	6.14954770975372	5.01613885932741	4.52978248626326	4.78746434280363	4.94273096294165	3.31080845998132	3.47156310739085	3.62044850777149	3.62044850777149
10.4597397604148	10.8318646035235	10.4597397604148	10.5325341599666	10.9813249340554	10.7041000212474	10.8929338563923	10.4597397604148	10.0059988121266	9.54223766157809	10.3060109507759	10.2246448087755
1.39626944414197	1.61007092460996	1.85037350239516	1.66773018702774	1.37484121600549	1.39626944414197	1.3640519794099	1.33137761615309	1.3640519794099	1.10074584170849	0.976000192847534	1.16062930012684
0.490669049245378	0.409356927790464	0.0103288230944534	0.409356927790464	0.0498064285603519	-0.406224652926055	-0.243143142541913	0.272604874004934	-0.38214658471176	0.0692768748913641	-0.480145226829314	-0.455217222221856
13.4753712216579	14.0166392364801	13.9091652303662	13.9558698905361	13.6944053927567	13.9091652303662	13.5322442177734	13.4753712216579	11.1719644549448	11.3384646016673	11.4924624161341	11.1719644549448
9.72741440045036	9.5820640382331	9.92835149053021	9.5820640382331	9.50546680572557	9.65598461213635	9.3988113493253	9.19807155781013	6.00068330821112	6.39100505087795	5.5163514982401	5.5163514982401
11.8682190553874	11.9733442030738	11.9474914841052	11.8949359141035	12.2022088912771	12.3608830419458	12.1148413765881	12.2099995428825	11.7299394520901	11.7676099824035	12.0904626032351	11.8682190553874
9.81267483601971	9.76136388659883	9.42320849835344	9.54223766157809	9.09123595834923	8.08586734946015	8.94167502407852	9.42320849835344	8.60487958528509	9.09123595834923	8.78024552265936	8.08586734946015
8.21674421717914	9.00923772266517	8.65066290494512	8.40139321871061	8.44508256265029	8.11781253743751	8.72750041306598	8.01387550971846	8.16787332418522	8.06650158801662	8.06650158801662	8.01387550971846
8.83767186138439	8.35675870081727	8.52978251019334	8.76487746183261	8.97603629309399	9.3988113493253	9.22795116859425	8.83767186138439	9.8190661225205	10.0323216541381	9.60699204284055	9.1677596067889
13.3771131080597	13.8614449180307	13.62382740169	13.8933735905717	14.0903202152839	14.1756185044661	13.8290437872423	13.9712201728569	14.6738747087994	14.9277591249375	15.054528544039	14.6961322248801
7.90439153946139	7.7887260940635	7.72834619977124	8.11781253743751	7.84737536299589	8.21674421717914	8.35675870081727	8.40139321871061	5.85179790783048	5.85179790783048	5.32506235414101	5.32506235414101
5.73757773699788	4.8665779250567	5.28589434104513	5.15547049737229	5.57962933742969	5.88424642981883	5.93090171310476	5.83650941673951	4.12575743173603	2.94482755370139	3.13611669780047	2.94482755370139
6.34726561262635	6.10763174330113	6.66168422428861	6.2704281045055	5.97652390037765	6.23091385175411	5.7876385237456	5.63364070927883	2.7334379614569	3.75910393097934	2.49720355262747	3.47156310739085
9.09123595834923	9.54223766157809	8.86256144182546	8.20085453075785	9.29682052937182	9.42320849835344	8.41291694374686	8.78024552265936	8.86256144182546	8.41291694374686	7.83420103000117	8.78024552265936
8.01387550971846	8.65066290494512	8.31113651354439	7.72834619977124	8.44508256265029	7.66612914148475	8.68943760589861	7.7887260940635	7.24681272549632	7.46722913371047	7.72834619977124	7.46722913371047
6.14954770975372	6.34726561262635	6.02115841827099	6.38464266139298	5.57962933742969	5.34811139933161	5.83650941673951	5.57962933742969	2.94482755370139	4.01077025043832	4.70514842363753	4.12575743173603
6.50599223217565	6.91001728670289	6.00068330821112	6.81630600186076	6.39100505087795	7.16769914324326	6.26908567823897	6.81630600186076	7.24681272549632	7.60195823078962	7.66612914148475	6.91001728670289
-0.279390511404934	1.10823807257965	1.10823807257965	-0.279390511404934	0.532206704984326	2.94482755370139	0.532206704984326	3.13611669780047	0.532206704984326	0.532206704984326	-0.279390511404934	-0.279390511404934
-0.280192669240751	-0.727816670314672	-1.30451682061194	-0.727816670314672	-0.280192669240751	0.24654288444871	-2.11678215036249	0.663830654857209	-1.66982760237497	-0.995547569817466	-2.69281351795781	-2.69281351795781
6.2765067594218	3.50191703651485	3.50191703651485	6.2765067594218	3.50191703651485	-Inf	-Inf	-Inf	-Inf	-Inf	-Inf	-Inf
3.13611669780047	0.532206704984326	0.532206704984326	2.7334379614569	-0.279390511404934	1.55519262056717	-0.279390511404934	-Inf	-Inf	-Inf	-Inf	-Inf
-0.280192669240751	-2.69281351795781	-2.69281351795781	-0.491582261485243	-3.50441073434707	-1.66982760237497	-3.50441073434707	-4.89137187326944	-Inf	-Inf	-Inf	-Inf
-5.45250181149811	-7.96136497602772	-7.14976775963846	-5.18477091199532	-7.96136497602772	-7.96136497602772	-7.96136497602772	-9.34832611495008	-Inf	-Inf	-Inf	-Inf
8.11309624054354	4.88887817543722	5.70047539182647	7.66547223946962	4.88887817543722	6.2765067594218	4.88887817543722	4.88887817543722	9.17903893728047	8.30438538464262	8.11309624054354	9.17903893728047
2.40874544869453	-Inf	-Inf	-Inf	-Inf	2.40874544869453	-Inf	-Inf	-Inf	-Inf	-Inf	-Inf
0.713883150112327	-Inf	-Inf	-Inf	-Inf	-Inf	-Inf	-Inf	-Inf	-Inf	-Inf	-Inf
-0.995547569817466	-1.30451682061194	-1.66982760237497	-0.727816670314672	-0.727816670314672	-0.491582261485243	-2.69281351795781	-Inf	-0.995547569817466	-2.11678215036249	-1.30451682061194	-0.995547569817466
-7.96136497602772	-7.14976775963846	-9.34832611495008	-9.34832611495008	-6.57373639204314	-7.96136497602772	-Inf	-Inf	-7.96136497602772	-Inf	-Inf	-Inf
2.83982753926852	2.65922620687669	2.06087411810299	3.00589362881197	3.04540788156335	2.35460911448755	2.65922620687669	2.56261830080346	1.39433726740145	0.534083708037201	0.900737208793887	1.56244411986149
11.2289806314103	11.0529352917201	11.6813477927661	11.6813477927661	11.541333309128	11.4924624161341	10.7209627517159	11.2844532298182	8.4382618538454	9.17638699977935	8.20202744501597	8.84094059018897
8.51224651524438	8.83075283182918	8.68348226930545	8.96905081641087	8.86612187689856	8.93525379365338	8.79482418788842	9.40598775611474	8.12421989485385	7.90099426303206	8.20434133797768	8.14048043336031
9.00923772266517	8.61114865219374	8.52978251019334	8.94229753274903	8.97603629309399	9.1677596067889	8.44508256265029	8.87313481003871	8.40139321871061	8.35675870081727	8.26448123025845	8.01387550971846
3.31080845998132	4.01077025043832	4.01077025043832	3.88885087779935	4.52978248626326	4.12575743173603	4.01077025043832	4.78746434280363	5.28589434104513	4.12575743173603	5.28589434104513	4.52978248626326
5.93090171310476	6.30920280545898	6.23091385175411	5.22172343035	5.97652390037765	5.57962933742969	5.93090171310476	6.02115841827099	4.12575743173603	4.23456245265671	4.94273096294165	4.23456245265671
2.24212033961413	1.99670320740786	2.24212033961413	2.24212033961413	2.18347107068173	2.56261830080346	2.46124656463486	2.40862048633669	0.534083708037201	0.663830654857209	1.00954222971457	-0.727816670314672
2.75150367743551	2.40862048633669	2.35460911448755	2.12309117638947	1.79111863638527	2.51255751405574	2.56261830080346	2.29913651607962	-0.727816670314672	1.48012820069539	1.56244411986149	0.534083708037201
5.22172343035	4.78746434280363	4.78746434280363	4.94273096294165	5.97652390037765	5.83650941673951	5.686266787577	5.57962933742969	6.96315261710757	6.84771636815463	7.15107414954548	6.9062278350336
-0.088903525141669	0.0857882370391785	-0.280192669240751	-0.727816670314672	-0.727816670314672	-1.66982760237497	-0.088903525141669	-2.11678215036249	-Inf	-2.11678215036249	-3.50441073434707	-Inf
11.1719644549448	11.3384646016673	10.9907182334336	10.8602943897608	10.5714018174452	10.9907182334336	10.9265473227385	10.2346063786518	7.93429654551317	7.6253272947187	7.93429654551317	9.32527240015999
-9.34832611495008	-9.34832611495008	-Inf	-Inf	-9.34832611495008	-Inf	-Inf	-7.96136497602772	-7.96136497602772	-Inf	-Inf	-7.14976775963846
9.29682052937182	9.54223766157809	9.36099144006695	9.76136388659883	10.0059988121266	9.09123595834923	8.69445458936541	9.59925383804359	6.80853506047872	5.18333517160148	5.18333517160148	3.79570658761689
4.43607120142114	4.43607120142114	3.31080845998132	4.70514842363753	4.61935749034359	4.94273096294165	4.52978248626326	4.43607120142114	3.62044850777149	4.12575743173603	3.13611669780047	3.75910393097934
-0.279390511404934	-0.279390511404934	0.532206704984326	-1.6663516503273	1.55519262056717	1.10823807257965	-1.6663516503273	0.532206704984326	-0.279390511404934	0.532206704984326	0.532206704984326	-1.6663516503273
-0.727816670314672	-1.30451682061194	-2.69281351795781	-1.66982760237497	-0.280192669240751	-1.66982760237497	-1.66982760237497	-0.491582261485243	-2.69281351795781	-0.995547569817466	-0.727816670314672	-4.89137187326944
8.639831794233	9.29402611857818	9.69805117310541	9.60433988826329	9.60433988826329	10.1109996497838	10.1109996497838	10.1109996497838	10.801909396121	10.1844075461696	11.0047781035817	10.801909396121
2.91244150542395	2.10084428903469	2.10084428903469	2.10084428903469	-Inf	2.91244150542395	-Inf	-Inf	4.30073820276983	2.91244150542395	0.713883150112327	2.91244150542395
5.34811139933161	5.01613885932741	5.93090171310476	5.08699433327084	5.46714056255627	5.83650941673951	5.93090171310476	5.83650941673951	6.06484776221066	5.57962933742969	5.97652390037765	5.7876385237456
4.87743835306709	4.30073820276983	2.10084428903469	2.91244150542395	4.6097074535643	6.00068330821112	5.11367276189652	5.85179790783048	3.9354274210068	5.32506235414101	3.9354274210068	4.87743835306709
-5.45250181149811	-5.76147106229258	-5.45250181149811	-5.18477091199532	-3.44741201196608	-4.54585776682231	-3.79312358682343	-3.79312358682343	-6.12678184405561	-4.7371469109214	-4.94853650316589	-6.12678184405561
6.71805464516466	6.50599223217565	6.81630600186076	6.91001728670289	7.16769914324326	6.61479725309633	7.08538322407716	7.24681272549632	8.83767186138439	8.61114865219374	8.35675870081727	8.01387550971846
4.52978248626326	4.01077025043832	4.01077025043832	4.70514842363753	4.94273096294165	4.8665779250567	4.12575743173603	4.23456245265671	3.31080845998132	1.9205034023302	3.13611669780047	3.13611669780047
6.39100505087795	6.71805464516466	6.71805464516466	6.26908567823897	6.61479725309633	7.53570529781191	6.91001728670289	6.39100505087795	8.31113651354439	8.11781253743751	8.52978251019334	8.48786654374076
10.9559072105877	10.0348466118988	9.95573302964578	9.95573302964578	10.1844075461696	10.3899921171921	9.95573302964578	9.87341711047968	7.66547223946962	6.72346130740932	7.66547223946962	7.66547223946962
5.73757773699788	5.97652390037765	6.10763174330113	6.52776857046187	5.93090171310476	6.14954770975372	6.34726561262635	6.23091385175411	3.31080845998132	3.88885087779935	3.47156310739085	2.94482755370139
8.76487746183261	8.80159347471174	8.16787332418522	8.65066290494512	8.72750041306598	8.87313481003871	9.04191902472824	9.07409658973492	6.00068330821112	6.26908567823897	6.50599223217565	6.26908567823897
9.01563235236982	7.6253272947187	7.26001651295567	7.26001651295567	8.84094059018897	6.81306196496815	8.64965144608989	9.59367477018785	10.409972316026	10.7209627517159	10.3241813827321	11.1133151860124
-3.50441073434707	-Inf	-4.89137187326944	-4.89137187326944	-4.89137187326944	-4.89137187326944	-Inf	-Inf	-4.89137187326944	-Inf	-Inf	-Inf
-5.18477091199532	-4.37116600464147	-4.94853650316589	-4.94853650316589	-4.54585776682231	-4.54585776682231	-6.12678184405561	-5.18477091199532	-4.37116600464147	-4.94853650316589	-4.54585776682231	-4.94853650316589
9.83058132412453	10.7209627517159	10.1408950938096	9.83058132412453	10.1408950938096	9.83058132412453	9.32527240015999	10.4922882351921	7.93429654551317	8.4382618538454	8.4382618538454	9.17638699977935
-5.45250181149811	-7.14976775963846	-9.34832611495008	-6.12678184405561	-4.94853650316589	-4.94853650316589	-4.94853650316589	-5.18477091199532	-2.66583560529538	-3.15219197835952	-3.44741201196608	-2.66583560529538
3.13611669780047	3.13611669780047	1.55519262056717	2.22947265312467	1.10823807257965	3.31080845998132	1.9205034023302	3.47156310739085	-1.6663516503273	-Inf	-1.6663516503273	-1.6663516503273
5.99560050135203	3.79570658761689	6.3045697521465	5.99560050135203	5.99560050135203	5.99560050135203	6.3045697521465	6.80853506047872	-Inf	-Inf	2.40874544869453	-Inf
0.39542828482935	0.663830654857209	0.900737208793887	0.39542828482935	0.0857882370391785	1.211050978479	0.785750027496183	0.785750027496183	-Inf	-4.89137187326944	-2.69281351795781	-1.66982760237497
-1.30451682061194	-4.89137187326944	-2.11678215036249	-1.66982760237497	-1.30451682061194	-0.088903525141669	-0.491582261485243	-0.727816670314672	-0.491582261485243	-4.89137187326944	-0.727816670314672	-1.66982760237497
6.23703059737282	6.81306196496815	-Inf	5.42543338098356	-Inf	4.0384722420612	-Inf	-Inf	-Inf	-Inf	-Inf	-Inf
7.08877208917235	6.2765067594218	5.70047539182647	5.70047539182647	7.08877208917235	3.50191703651485	-Inf	7.39774133996682	4.88887817543722	3.50191703651485	5.70047539182647	3.50191703651485
7.90170664829905	6.72346130740932	7.66547223946962	7.90170664829905	8.47907714682347	3.50191703651485	3.50191703651485	8.30438538464262	5.70047539182647	4.88887817543722	4.88887817543722	7.08877208917235
-0.279390511404934	-Inf	-Inf	-Inf	-Inf	-1.6663516503273	-1.6663516503273	-1.6663516503273	-Inf	1.10823807257965	-0.279390511404934	-1.6663516503273
8.11309624054354	8.92737261782149	7.66547223946962	9.29402611857818	9.17903893728047	9.40283113949886	7.90170664829905	8.78871719461364	10.801909396121	10.5163800861738	10.3237391842144	10.1844075461696
1.10823807257965	1.55519262056717	1.10823807257965	2.7334379614569	1.9205034023302	2.7334379614569	1.55519262056717	2.94482755370139	3.75910393097934	2.7334379614569	2.94482755370139	3.47156310739085
8.64965144608989	7.26001651295567	8.64965144608989	8.4382618538454	9.01563235236982	9.59367477018785	8.20202744501597	9.46392782336784	9.9393863450452	11.1719644549448	10.0426437371135	10.5714018174452
-3.92287053364344	-4.21041135723193	-5.18477091199532	-4.94853650316589	-2.97682604098525	-3.55621703288676	-3.55621703288676	-3.15219197835952	-4.21041135723193	-3.92287053364344	-5.76147106229258	-5.18477091199532
3.50191703651485	3.50191703651485	3.50191703651485	5.70047539182647	5.70047539182647	6.2765067594218	3.50191703651485	3.50191703651485	-Inf	-Inf	-Inf	3.50191703651485
4.0384722420612	-Inf	-Inf	4.0384722420612	-Inf	4.0384722420612	-Inf	-Inf	4.0384722420612	-Inf	-Inf	-Inf
4.0384722420612	-Inf	4.0384722420612	5.42543338098356	-Inf	4.0384722420612	-Inf	-Inf	4.0384722420612	4.0384722420612	-Inf	-Inf
-1.30451682061194	-2.69281351795781	-1.30451682061194	-1.30451682061194	-1.30451682061194	-0.491582261485243	-2.11678215036249	-0.491582261485243	-1.30451682061194	0.0857882370391785	-0.995547569817466	-2.11678215036249
1.64155770211456	1.99670320740786	1.79111863638527	1.8619741103287	1.71771073999951	1.48012820069539	1.30476226332112	1.71771073999951	-0.727816670314672	-2.11678215036249	-0.995547569817466	-2.11678215036249
0.532206704984326	-0.279390511404934	-1.6663516503273	-1.6663516503273	-Inf	-1.6663516503273	-Inf	-0.279390511404934	-Inf	-Inf	-Inf	-Inf
-2.69281351795781	-4.89137187326944	-4.89137187326944	-3.50441073434707	-Inf	-3.50441073434707	-Inf	-3.50441073434707	-Inf	-Inf	-Inf	-Inf
-9.34832611495008	-9.34832611495008	-Inf	-Inf	-Inf	-7.96136497602772	-Inf	-Inf	-Inf	-Inf	-Inf	-Inf
4.88887817543722	4.88887817543722	4.88887817543722	-Inf	6.72346130740932	5.70047539182647	-Inf	5.70047539182647	-Inf	-Inf	-Inf	-Inf
5.18333517160148	6.5723006516493	6.3045697521465	6.3045697521465	7.38590555900315	6.5723006516493	7.54666020641268	7.38590555900315	5.18333517160148	3.79570658761689	3.79570658761689	5.18333517160148
7.39774133996682	8.11309624054354	7.08877208917235	7.66547223946962	7.66547223946962	8.639831794233	7.66547223946962	8.30438538464262	5.70047539182647	4.88887817543722	7.66547223946962	6.2765067594218
-3.34415461989775	-3.55621703288676	-3.67120421418446	-2.46025103427279	-2.89451012181915	-2.46025103427279	-3.0626169742792	-2.39608012357766	-2.21483390206652	-2.39608012357766	-2.73924350168113	-2.46025103427279
2.49720355262747	2.22947265312467	2.22947265312467	1.10823807257965	2.7334379614569	1.10823807257965	1.55519262056717	1.9205034023302	-0.279390511404934	-0.279390511404934	1.10823807257965	0.532206704984326
2.40874544869453	2.40874544869453	3.79570658761689	-Inf	-Inf	5.18333517160148	-Inf	5.18333517160148	2.40874544869453	-Inf	2.40874544869453	3.79570658761689
2.10084428903469	2.10084428903469	2.10084428903469	0.713883150112327	-Inf	2.91244150542395	3.48847287301927	2.91244150542395	2.10084428903469	0.713883150112327	3.48847287301927	3.48847287301927
-1.6663516503273	-Inf	-Inf	-Inf	-Inf	-Inf	-Inf	-1.6663516503273	-Inf	-1.6663516503273	-Inf	-1.6663516503273
5.70047539182647	6.2765067594218	7.08877208917235	8.30438538464262	7.66547223946962	8.11309624054354	6.72346130740932	7.66547223946962	6.2765067594218	8.47907714682347	8.30438538464262	7.08877208917235
4.88887817543722	-Inf	3.50191703651485	3.50191703651485	-Inf	-Inf	-Inf	-Inf	3.50191703651485	-Inf	-Inf	-Inf
6.23703059737282	-Inf	4.0384722420612	5.42543338098356	4.0384722420612	-Inf	4.0384722420612	4.0384722420612	5.42543338098356	4.0384722420612	4.0384722420612	-Inf
-1.6663516503273	-1.6663516503273	-Inf	-Inf	0.532206704984326	-0.279390511404934	-Inf	-0.279390511404934	0.532206704984326	-Inf	-1.6663516503273	-1.6663516503273
6.23703059737282	6.81306196496815	4.0384722420612	5.42543338098356	7.93429654551317	7.26001651295567	7.26001651295567	6.81306196496815	6.81306196496815	6.23703059737282	8.4382618538454	7.6253272947187
-5.76147106229258	-9.34832611495008	-6.57373639204314	-6.12678184405561	-9.34832611495008	-9.34832611495008	-7.96136497602772	-9.34832611495008	-9.34832611495008	-6.12678184405561	-7.96136497602772	-9.34832611495008
0.532206704984326	1.10823807257965	1.10823807257965	0.532206704984326	-0.279390511404934	1.55519262056717	0.532206704984326	2.49720355262747	4.12575743173603	1.55519262056717	2.7334379614569	2.94482755370139
-1.6663516503273	-1.6663516503273	-1.6663516503273	-Inf	-1.6663516503273	-0.279390511404934	-Inf	-1.6663516503273	-0.279390511404934	-Inf	-Inf	-Inf
6.72346130740932	7.08877208917235	8.11309624054354	7.90170664829905	7.39774133996682	4.88887817543722	3.50191703651485	7.39774133996682	5.70047539182647	6.2765067594218	6.72346130740932	7.39774133996682
3.48847287301927	2.91244150542395	0.713883150112327	2.10084428903469	2.10084428903469	0.713883150112327	2.91244150542395	2.10084428903469	2.10084428903469	-Inf	-Inf	0.713883150112327
5.42543338098356	4.0384722420612	-Inf	-Inf	4.0384722420612	5.42543338098356	5.42543338098356	-Inf	4.0384722420612	4.0384722420612	-Inf	-Inf
5.630289719589	3.79570658761689	2.40874544869453	2.40874544869453	4.60730380400615	3.79570658761689	4.60730380400615	2.40874544869453	5.18333517160148	4.60730380400615	4.60730380400615	-Inf
3.79570658761689	-Inf	5.18333517160148	3.79570658761689	2.40874544869453	5.18333517160148	-Inf	5.18333517160148	4.60730380400615	3.79570658761689	3.79570658761689	2.40874544869453
-4.54585776682231	-4.21041135723193	-3.67120421418446	-5.18477091199532	-4.06152595685129	-3.15219197835952	-3.24590326320164	-3.79312358682343	-4.94853650316589	-4.54585776682231	-5.18477091199532	-4.37116600464147
-2.69281351795781	-2.11678215036249	-2.69281351795781	-0.995547569817466	-1.30451682061194	-2.69281351795781	-0.995547569817466	-0.995547569817466	-4.89137187326944	-4.89137187326944	-Inf	-3.50441073434707
-0.279390511404934	-Inf	-Inf	-1.6663516503273	-Inf	-1.6663516503273	-Inf	-Inf	-1.6663516503273	-1.6663516503273	-Inf	-Inf
8.47907714682347	8.92737261782149	7.90170664829905	7.66547223946962	9.29402611857818	9.0571195646415	9.50608853156718	9.0571195646415	11.5155342994685	11.3991825385963	11.3991825385963	10.9559072105877
3.50191703651485	3.50191703651485	-Inf	-Inf	-Inf	5.70047539182647	6.2765067594218	5.70047539182647	3.50191703651485	3.50191703651485	5.70047539182647	3.50191703651485
6.2765067594218	8.639831794233	8.11309624054354	7.90170664829905	7.66547223946962	7.90170664829905	8.47907714682347	8.47907714682347	3.50191703651485	5.70047539182647	3.50191703651485	3.50191703651485
2.40874544869453	2.40874544869453	2.40874544869453	2.40874544869453	-Inf	-Inf	3.79570658761689	3.79570658761689	-Inf	-Inf	-Inf	3.79570658761689
5.18333517160148	2.40874544869453	-Inf	2.40874544869453	5.630289719589	5.99560050135203	6.3045697521465	5.18333517160148	5.18333517160148	2.40874544869453	5.18333517160148	5.18333517160148
5.18333517160148	-Inf	5.18333517160148	5.18333517160148	5.18333517160148	-Inf	3.79570658761689	5.18333517160148	2.40874544869453	-Inf	2.40874544869453	-Inf
4.0384722420612	-Inf	-Inf	4.0384722420612	4.0384722420612	4.0384722420612	5.42543338098356	5.42543338098356	-Inf	4.0384722420612	-Inf	-Inf
7.90170664829905	7.39774133996682	8.639831794233	7.66547223946962	8.11309624054354	8.11309624054354	8.11309624054354	8.30438538464262	5.70047539182647	8.30438538464262	6.72346130740932	7.90170664829905
5.18333517160148	3.79570658761689	5.18333517160148	4.60730380400615	5.630289719589	5.18333517160148	5.18333517160148	5.18333517160148	3.79570658761689	5.99560050135203	3.79570658761689	5.630289719589
4.30073820276983	6.00068330821112	5.85179790783048	5.11367276189652	4.87743835306709	5.85179790783048	4.30073820276983	5.69104326042094	0.713883150112327	0.713883150112327	0.713883150112327	2.91244150542395
-7.14976775963846	-7.96136497602772	-7.14976775963846	-7.14976775963846	-4.94853650316589	-6.57373639204314	-4.54585776682231	-4.94853650316589	-3.0626169742792	-4.06152595685129	-3.34415461989775	-3.55621703288676
2.40874544869453	-Inf	-Inf	-Inf	-Inf	-Inf	-Inf	-Inf	-Inf	-Inf	-Inf	-Inf
-0.727816670314672	-0.491582261485243	0.39542828482935	0.0857882370391785	-0.995547569817466	-0.088903525141669	-0.995547569817466	-0.088903525141669	-4.89137187326944	-3.50441073434707	-Inf	-4.89137187326944
2.10084428903469	0.713883150112327	0.713883150112327	-Inf	0.713883150112327	0.713883150112327	0.713883150112327	0.713883150112327	2.10084428903469	0.713883150112327	-Inf	-Inf
6.23703059737282	4.0384722420612	4.0384722420612	-Inf	5.42543338098356	-Inf	-Inf	-Inf	5.42543338098356	-Inf	-Inf	-Inf
5.18333517160148	3.79570658761689	5.18333517160148	2.40874544869453	-Inf	2.40874544869453	3.79570658761689	-Inf	2.40874544869453	2.40874544869453	3.79570658761689	3.79570658761689
-1.6663516503273	-Inf	-Inf	-Inf	-Inf	-Inf	-Inf	-Inf	-Inf	-Inf	-1.6663516503273	-1.6663516503273
0.713883150112327	0.713883150112327	3.48847287301927	0.713883150112327	0.713883150112327	-Inf	-Inf	-Inf	0.713883150112327	0.713883150112327	-Inf	-Inf
3.50191703651485	-Inf	3.50191703651485	-Inf	-Inf	-Inf	-Inf	-Inf	-Inf	-Inf	-Inf	-Inf
2.10084428903469	2.10084428903469	4.6097074535643	3.48847287301927	3.48847287301927	3.48847287301927	0.713883150112327	2.91244150542395	0.713883150112327	0.713883150112327	0.713883150112327	0.713883150112327
3.50191703651485	-Inf	-Inf	-Inf	-Inf	-Inf	-Inf	-Inf	-Inf	-Inf	-Inf	-Inf
4.0384722420612	4.0384722420612	4.0384722420612	-Inf	-Inf	-Inf	4.0384722420612	-Inf	4.0384722420612	4.0384722420612	-Inf	-Inf
0.713883150112327	-Inf	-Inf	0.713883150112327	-Inf	0.713883150112327	-Inf	-Inf	-Inf	0.713883150112327	-Inf	-Inf
-0.279390511404934	1.9205034023302	-0.279390511404934	-0.279390511404934	0.532206704984326	-1.6663516503273	1.55519262056717	0.532206704984326	0.532206704984326	1.55519262056717	-1.6663516503273	2.22947265312467
-7.96136497602772	-9.34832611495008	-9.34832611495008	-7.96136497602772	-Inf	-Inf	-9.34832611495008	-Inf	-7.14976775963846	-9.34832611495008	-6.57373639204314	-Inf
0.713883150112327	0.713883150112327	0.713883150112327	-Inf	-Inf	-Inf	-Inf	0.713883150112327	0.713883150112327	-Inf	-Inf	-Inf
4.0384722420612	-Inf	4.0384722420612	4.0384722420612	6.23703059737282	6.23703059737282	4.0384722420612	-Inf	-Inf	-Inf	-Inf	-Inf
5.70047539182647	3.50191703651485	6.72346130740932	6.2765067594218	6.2765067594218	6.2765067594218	7.08877208917235	7.39774133996682	3.50191703651485	7.08877208917235	5.70047539182647	4.88887817543722
-4.89137187326944	-0.995547569817466	-2.11678215036249	-3.50441073434707	-2.69281351795781	-2.69281351795781	-Inf	-2.69281351795781	-Inf	-4.89137187326944	-Inf	-Inf
3.50191703651485	3.50191703651485	-Inf	-Inf	-Inf	3.50191703651485	-Inf	-Inf	3.50191703651485	-Inf	-Inf	-Inf
-1.6663516503273	-Inf	-Inf	-Inf	-1.6663516503273	-Inf	-Inf	-Inf	-Inf	-Inf	-Inf	-Inf
-4.89137187326944	-Inf	-4.89137187326944	-4.89137187326944	-Inf	-4.89137187326944	-Inf	-Inf	-4.89137187326944	-3.50441073434707	-Inf	-Inf
-1.6663516503273	-0.279390511404934	-0.279390511404934	0.532206704984326	-1.6663516503273	-0.279390511404934	-0.279390511404934	-0.279390511404934	-Inf	-0.279390511404934	-0.279390511404934	-1.6663516503273
-4.89137187326944	-4.89137187326944	-Inf	-Inf	-2.69281351795781	-3.50441073434707	-4.89137187326944	-Inf	-3.50441073434707	-4.89137187326944	-Inf	-3.50441073434707
-2.69281351795781	-1.66982760237497	-1.66982760237497	-2.11678215036249	-1.66982760237497	-1.66982760237497	-2.69281351795781	-1.66982760237497	-3.50441073434707	-0.491582261485243	-2.11678215036249	-2.11678215036249
-7.14976775963846	-6.57373639204314	-7.14976775963846	-7.14976775963846	-6.57373639204314	-6.12678184405561	-9.34832611495008	-7.96136497602772	-7.14976775963846	-9.34832611495008	-7.14976775963846	-6.57373639204314
-1.6663516503273	-Inf	-0.279390511404934	-Inf	-0.279390511404934	-0.279390511404934	1.10823807257965	-Inf	-0.279390511404934	-0.279390511404934	-Inf	-1.6663516503273
5.42543338098356	4.0384722420612	4.0384722420612	4.0384722420612	-Inf	-Inf	4.0384722420612	4.0384722420612	4.0384722420612	4.0384722420612	4.0384722420612	4.0384722420612
-4.89137187326944	-2.69281351795781	-2.69281351795781	-Inf	-4.89137187326944	-Inf	-0.995547569817466	-4.89137187326944	-4.89137187326944	-2.11678215036249	-Inf	-1.66982760237497
0.713883150112327	-Inf	-Inf	-Inf	-Inf	-Inf	-Inf	-Inf	-Inf	-Inf	-Inf	-Inf
-1.6663516503273	-1.6663516503273	-Inf	-Inf	-Inf	-Inf	-1.6663516503273	-0.279390511404934	-0.279390511404934	-1.6663516503273	-1.6663516503273	-1.6663516503273
-4.89137187326944	-Inf	-Inf	-Inf	-Inf	-Inf	-Inf	-4.89137187326944	-3.50441073434707	-Inf	-Inf	-Inf
-9.34832611495008	-Inf	-Inf	-Inf	-Inf	-Inf	-Inf	-Inf	-Inf	-Inf	-Inf	-Inf
0.713883150112327	-Inf	0.713883150112327	-Inf	-Inf	0.713883150112327	-Inf	0.713883150112327	-Inf	-Inf	-Inf	-Inf
-1.6663516503273	-1.6663516503273	-Inf	-Inf	-Inf	-Inf	-1.6663516503273	-Inf	-Inf	-Inf	-Inf	-Inf
4.0384722420612	4.0384722420612	-Inf	4.0384722420612	4.0384722420612	4.0384722420612	4.0384722420612	4.0384722420612	4.0384722420612	-Inf	-Inf	-Inf
4.0384722420612	-Inf	-Inf	-Inf	-Inf	-Inf	-Inf	-Inf	-Inf	-Inf	-Inf	-Inf
5.42543338098356	4.0384722420612	-Inf	4.0384722420612	6.23703059737282	4.0384722420612	5.42543338098356	4.0384722420612	4.0384722420612	5.42543338098356	4.0384722420612	-Inf
2.40874544869453	2.40874544869453	-Inf	-Inf	3.79570658761689	-Inf	2.40874544869453	2.40874544869453	4.60730380400615	-Inf	-Inf	-Inf
0.713883150112327	0.713883150112327	2.91244150542395	0.713883150112327	-Inf	-Inf	2.10084428903469	-Inf	2.10084428903469	0.713883150112327	0.713883150112327	0.713883150112327
5.42543338098356	-Inf	5.42543338098356	-Inf	4.0384722420612	-Inf	-Inf	-Inf	4.0384722420612	-Inf	-Inf	-Inf
-1.6663516503273	-Inf	-Inf	-Inf	-Inf	-Inf	-Inf	-Inf	-Inf	-Inf	-Inf	-Inf
-4.89137187326944	-4.89137187326944	-Inf	-4.89137187326944	-3.50441073434707	-Inf	-3.50441073434707	-2.69281351795781	-3.50441073434707	-Inf	-2.11678215036249	-4.89137187326944
0.713883150112327	-Inf	-Inf	-Inf	-Inf	-Inf	-Inf	-Inf	-Inf	-Inf	-Inf	0.713883150112327
3.50191703651485	-Inf	3.50191703651485	4.88887817543722	-Inf	5.70047539182647	3.50191703651485	-Inf	-Inf	-Inf	-Inf	-Inf
0.713883150112327	-Inf	-Inf	-Inf	-Inf	-Inf	-Inf	-Inf	-Inf	-Inf	-Inf	-Inf
1.10823807257965	-1.6663516503273	-0.279390511404934	1.10823807257965	-1.6663516503273	-0.279390511404934	-Inf	-Inf	-Inf	-Inf	-1.6663516503273	-Inf
-1.6663516503273	-Inf	-Inf	-Inf	-0.279390511404934	-Inf	-0.279390511404934	-Inf	-1.6663516503273	-Inf	-1.6663516503273	-1.6663516503273
2.40874544869453	-Inf	-Inf	-Inf	-Inf	-Inf	-Inf	-Inf	-Inf	-Inf	-Inf	-Inf
4.0384722420612	5.42543338098356	4.0384722420612	4.0384722420612	6.23703059737282	6.81306196496815	5.42543338098356	6.81306196496815	10.6475548553301	10.8602943897608	10.7918182256593	10.2346063786518
3.50191703651485	-Inf	-Inf	3.50191703651485	-Inf	-Inf	-Inf	-Inf	-Inf	-Inf	-Inf	3.50191703651485
4.0384722420612	-Inf	-Inf	-Inf	4.0384722420612	-Inf	-Inf	-Inf	4.0384722420612	-Inf	-Inf	-Inf
-7.96136497602772	-7.14976775963846	-7.96136497602772	-6.57373639204314	-Inf	-7.14976775963846	-7.96136497602772	-9.34832611495008	-9.34832611495008	-9.34832611495008	-9.34832611495008	-7.96136497602772
-1.6663516503273	-1.6663516503273	-Inf	-1.6663516503273	-Inf	-Inf	-Inf	-Inf	-Inf	-Inf	-Inf	-Inf
-4.89137187326944	-Inf	-Inf	-Inf	-Inf	-Inf	-Inf	-Inf	-Inf	-Inf	-Inf	-Inf
-9.34832611495008	-Inf	-Inf	-Inf	-Inf	-Inf	-Inf	-Inf	-Inf	-Inf	-Inf	-Inf
-1.6663516503273	-0.279390511404934	-Inf	-1.6663516503273	-1.6663516503273	-Inf	-1.6663516503273	-1.6663516503273	-0.279390511404934	-Inf	-Inf	-1.6663516503273
-9.34832611495008	-9.34832611495008	-Inf	-9.34832611495008	-7.96136497602772	-9.34832611495008	-7.96136497602772	-Inf	-Inf	-Inf	-Inf	-9.34832611495008
3.79570658761689	5.18333517160148	-Inf	5.18333517160148	3.79570658761689	-Inf	4.60730380400615	3.79570658761689	4.60730380400615	3.79570658761689	4.60730380400615	5.18333517160148
0.713883150112327	0.713883150112327	0.713883150112327	2.10084428903469	0.713883150112327	-Inf	0.713883150112327	2.10084428903469	-Inf	-Inf	2.10084428903469	-Inf
0.713883150112327	0.713883150112327	-Inf	0.713883150112327	-Inf	2.10084428903469	-Inf	-Inf	-Inf	-Inf	-Inf	-Inf
-7.96136497602772	-9.34832611495008	-Inf	-9.34832611495008	-Inf	-9.34832611495008	-Inf	-Inf	-Inf	-Inf	-Inf	-Inf
4.0384722420612	-Inf	-Inf	4.0384722420612	-Inf	-Inf	-Inf	-Inf	-Inf	-Inf	-Inf	-Inf
-1.6663516503273	-Inf	-Inf	-Inf	-Inf	-Inf	-Inf	-Inf	-Inf	-Inf	-Inf	-Inf
-4.89137187326944	-Inf	-Inf	-4.89137187326944	-Inf	-Inf	-Inf	-Inf	-Inf	-Inf	-Inf	-Inf
-9.34832611495008	-7.14976775963846	-6.57373639204314	-7.14976775963846	-6.57373639204314	-7.96136497602772	-9.34832611495008	-7.14976775963846	-7.14976775963846	-Inf	-7.96136497602772	-7.14976775963846
2.40874544869453	-Inf	-Inf	-Inf	-Inf	-Inf	-Inf	-Inf	-Inf	-Inf	-Inf	-Inf
4.88887817543722	3.50191703651485	4.88887817543722	-Inf	-Inf	4.88887817543722	3.50191703651485	3.50191703651485	3.50191703651485	-Inf	-Inf	5.70047539182647
0.713883150112327	-Inf	-Inf	-Inf	2.10084428903469	-Inf	0.713883150112327	0.713883150112327	-Inf	-Inf	-Inf	2.10084428903469
0.713883150112327	-Inf	-Inf	-Inf	-Inf	-Inf	-Inf	-Inf	-Inf	-Inf	-Inf	-Inf
2.40874544869453	-Inf	2.40874544869453	-Inf	-Inf	-Inf	3.79570658761689	-Inf	-Inf	-Inf	-Inf	2.40874544869453
2.40874544869453	3.79570658761689	-Inf	2.40874544869453	-Inf	3.79570658761689	2.40874544869453	2.40874544869453	2.40874544869453	2.40874544869453	2.40874544869453	2.40874544869453
0.713883150112327	2.10084428903469	-Inf	0.713883150112327	-Inf	2.10084428903469	-Inf	-Inf	0.713883150112327	0.713883150112327	0.713883150112327	-Inf
2.40874544869453	-Inf	-Inf	-Inf	-Inf	-Inf	-Inf	-Inf	-Inf	-Inf	-Inf	-Inf
2.40874544869453	2.40874544869453	-Inf	-Inf	2.40874544869453	2.40874544869453	-Inf	-Inf	2.40874544869453	3.79570658761689	4.60730380400615	2.40874544869453
4.0384722420612	4.0384722420612	-Inf	5.42543338098356	4.0384722420612	4.0384722420612	-Inf	-Inf	-Inf	-Inf	-Inf	-Inf
0.713883150112327	-Inf	-Inf	-Inf	-Inf	-Inf	-Inf	-Inf	-Inf	-Inf	-Inf	-Inf
-1.6663516503273	-1.6663516503273	-1.6663516503273	-Inf	-1.6663516503273	-1.6663516503273	-1.6663516503273	-Inf	-1.6663516503273	-1.6663516503273	-Inf	-Inf
3.50191703651485	5.70047539182647	-Inf	-Inf	-Inf	-Inf	3.50191703651485	-Inf	3.50191703651485	-Inf	-Inf	3.50191703651485
2.10084428903469	2.10084428903469	2.10084428903469	0.713883150112327	3.48847287301927	-Inf	0.713883150112327	0.713883150112327	-Inf	2.10084428903469	2.10084428903469	0.713883150112327
3.79570658761689	3.79570658761689	5.630289719589	5.630289719589	6.5723006516493	-Inf	2.40874544869453	5.630289719589	-Inf	2.40874544869453	2.40874544869453	5.18333517160148
0.713883150112327	0.713883150112327	-Inf	-Inf	-Inf	-Inf	-Inf	0.713883150112327	-Inf	-Inf	-Inf	-Inf
2.40874544869453	4.60730380400615	3.79570658761689	3.79570658761689	-Inf	2.40874544869453	-Inf	3.79570658761689	2.40874544869453	2.40874544869453	-Inf	-Inf
3.50191703651485	3.50191703651485	5.70047539182647	3.50191703651485	3.50191703651485	3.50191703651485	-Inf	5.70047539182647	3.50191703651485	4.88887817543722	4.88887817543722	3.50191703651485
4.0384722420612	-Inf	5.42543338098356	-Inf	4.0384722420612	-Inf	-Inf	-Inf	-Inf	-Inf	-Inf	-Inf
0.713883150112327	-Inf	-Inf	-Inf	0.713883150112327	-Inf	-Inf	-Inf	-Inf	-Inf	-Inf	-Inf
3.50191703651485	-Inf	-Inf	-Inf	3.50191703651485	-Inf	4.88887817543722	4.88887817543722	5.70047539182647	3.50191703651485	4.88887817543722	-Inf
2.40874544869453	-Inf	-Inf	-Inf	-Inf	-Inf	-Inf	-Inf	-Inf	-Inf	-Inf	-Inf
-Inf	-0.279390511404934	-Inf	-Inf	-Inf	-1.6663516503273	-Inf	-Inf	-Inf	-1.6663516503273	-1.6663516503273	-Inf
-Inf	4.0384722420612	5.42543338098356	-Inf	4.0384722420612	-Inf	5.42543338098356	4.0384722420612	-Inf	4.0384722420612	4.0384722420612	4.0384722420612
-Inf	2.10084428903469	2.10084428903469	2.91244150542395	2.91244150542395	3.48847287301927	0.713883150112327	0.713883150112327	2.10084428903469	3.48847287301927	2.10084428903469	2.10084428903469
-Inf	-1.6663516503273	-1.6663516503273	-1.6663516503273	-1.6663516503273	-1.6663516503273	-1.6663516503273	-0.279390511404934	-1.6663516503273	-Inf	-1.6663516503273	-Inf
-Inf	-9.34832611495008	-Inf	-Inf	-Inf	-Inf	-Inf	-Inf	-Inf	-Inf	-Inf	-Inf
-Inf	3.50191703651485	-Inf	-Inf	-Inf	-Inf	-Inf	-Inf	-Inf	-Inf	-Inf	-Inf
-Inf	3.50191703651485	-Inf	-Inf	-Inf	3.50191703651485	3.50191703651485	-Inf	-Inf	3.50191703651485	-Inf	-Inf
-Inf	-1.6663516503273	-Inf	-1.6663516503273	-1.6663516503273	-Inf	-1.6663516503273	-Inf	-Inf	-0.279390511404934	-1.6663516503273	-Inf
-Inf	-7.96136497602772	-Inf	-Inf	-9.34832611495008	-9.34832611495008	-7.96136497602772	-9.34832611495008	-Inf	-9.34832611495008	-Inf	-7.96136497602772
-Inf	4.0384722420612	-Inf	-Inf	-Inf	-Inf	-Inf	-Inf	4.0384722420612	-Inf	-Inf	-Inf
-Inf	3.50191703651485	-Inf	4.88887817543722	-Inf	3.50191703651485	3.50191703651485	3.50191703651485	3.50191703651485	-Inf	-Inf	-Inf
-Inf	-9.34832611495008	-Inf	-Inf	-Inf	-Inf	-Inf	-9.34832611495008	-Inf	-Inf	-Inf	-Inf
-Inf	-9.34832611495008	-Inf	-9.34832611495008	-9.34832611495008	-Inf	-Inf	-9.34832611495008	-9.34832611495008	-9.34832611495008	-Inf	-Inf
-Inf	4.0384722420612	-Inf	4.0384722420612	4.0384722420612	-Inf	-Inf	-Inf	-Inf	-Inf	-Inf	4.0384722420612
-Inf	4.0384722420612	4.0384722420612	4.0384722420612	4.0384722420612	-Inf	-Inf	-Inf	-Inf	-Inf	4.0384722420612	-Inf
-Inf	3.50191703651485	-Inf	-Inf	-Inf	-Inf	-Inf	-Inf	-Inf	-Inf	-Inf	-Inf
-Inf	4.0384722420612	5.42543338098356	-Inf	-Inf	-Inf	-Inf	-Inf	5.42543338098356	-Inf	-Inf	-Inf
-Inf	0.713883150112327	2.91244150542395	0.713883150112327	-Inf	-Inf	-Inf	0.713883150112327	-Inf	-Inf	-Inf	-Inf
-Inf	-1.6663516503273	-1.6663516503273	-Inf	-Inf	-Inf	-Inf	-1.6663516503273	-0.279390511404934	-0.279390511404934	-0.279390511404934	-1.6663516503273
-Inf	-3.50441073434707	-2.69281351795781	-Inf	-3.50441073434707	-1.66982760237497	-4.89137187326944	-3.50441073434707	-2.69281351795781	-3.50441073434707	-4.89137187326944	-4.89137187326944
-Inf	6.23703059737282	-Inf	4.0384722420612	5.42543338098356	-Inf	6.23703059737282	5.42543338098356	-Inf	-Inf	4.0384722420612	5.42543338098356
-Inf	0.713883150112327	-Inf	-Inf	-Inf	0.713883150112327	-Inf	-Inf	-Inf	-Inf	-Inf	-Inf
-Inf	3.79570658761689	-Inf	3.79570658761689	-Inf	-Inf	-Inf	-Inf	2.40874544869453	-Inf	-Inf	2.40874544869453
-Inf	-4.89137187326944	-Inf	-Inf	-3.50441073434707	-Inf	-4.89137187326944	-Inf	-4.89137187326944	-Inf	-3.50441073434707	-2.11678215036249
-Inf	-2.69281351795781	-Inf	-4.89137187326944	-2.69281351795781	-Inf	-4.89137187326944	-4.89137187326944	-4.89137187326944	-4.89137187326944	-Inf	-4.89137187326944
-Inf	-0.279390511404934	-Inf	-1.6663516503273	0.532206704984326	-Inf	-1.6663516503273	-1.6663516503273	-1.6663516503273	-1.6663516503273	-Inf	-Inf
-Inf	3.79570658761689	-Inf	-Inf	-Inf	-Inf	-Inf	2.40874544869453	-Inf	3.79570658761689	-Inf	-Inf
-Inf	5.42543338098356	-Inf	-Inf	4.0384722420612	-Inf	4.0384722420612	-Inf	-Inf	4.0384722420612	4.0384722420612	5.42543338098356
-Inf	-9.34832611495008	-9.34832611495008	-7.96136497602772	-7.96136497602772	-9.34832611495008	-7.96136497602772	-9.34832611495008	-7.14976775963846	-Inf	-9.34832611495008	-Inf
-Inf	-3.50441073434707	-4.89137187326944	-Inf	-Inf	-Inf	-4.89137187326944	-Inf	-3.50441073434707	-Inf	-Inf	-Inf
-Inf	-7.96136497602772	-7.96136497602772	-Inf	-9.34832611495008	-9.34832611495008	-7.96136497602772	-9.34832611495008	-7.96136497602772	-9.34832611495008	-Inf	-9.34832611495008
-Inf	0.713883150112327	-Inf	0.713883150112327	0.713883150112327	0.713883150112327	-Inf	0.713883150112327	0.713883150112327	-Inf	-Inf	-Inf
-Inf	-7.96136497602772	-9.34832611495008	-7.96136497602772	-9.34832611495008	-9.34832611495008	-Inf	-Inf	-9.34832611495008	-Inf	-Inf	-9.34832611495008
-Inf	3.50191703651485	-Inf	-Inf	-Inf	3.50191703651485	-Inf	3.50191703651485	-Inf	-Inf	-Inf	-Inf
-Inf	4.88887817543722	-Inf	4.88887817543722	4.88887817543722	3.50191703651485	3.50191703651485	4.88887817543722	3.50191703651485	5.70047539182647	3.50191703651485	4.88887817543722
-Inf	3.50191703651485	-Inf	-Inf	4.88887817543722	-Inf	-Inf	-Inf	3.50191703651485	-Inf	-Inf	-Inf
-Inf	4.0384722420612	-Inf	-Inf	-Inf	-Inf	-Inf	-Inf	4.0384722420612	-Inf	-Inf	-Inf
-Inf	-9.34832611495008	-Inf	-Inf	-Inf	-Inf	-Inf	-Inf	-Inf	-Inf	-Inf	-Inf
-Inf	0.713883150112327	-Inf	-Inf	-Inf	0.713883150112327	0.713883150112327	-Inf	0.713883150112327	0.713883150112327	-Inf	0.713883150112327
-Inf	-1.6663516503273	-Inf	-Inf	-Inf	-Inf	-1.6663516503273	-Inf	-Inf	-Inf	-Inf	-0.279390511404934
-Inf	6.2765067594218	-Inf	3.50191703651485	4.88887817543722	3.50191703651485	5.70047539182647	5.70047539182647	7.39774133996682	6.2765067594218	7.66547223946962	7.39774133996682
-Inf	-4.89137187326944	-2.69281351795781	-2.11678215036249	-4.89137187326944	-4.89137187326944	-Inf	-Inf	-Inf	-3.50441073434707	-4.89137187326944	-Inf
-Inf	-9.34832611495008	-9.34832611495008	-Inf	-Inf	-Inf	-7.96136497602772	-Inf	-9.34832611495008	-Inf	-Inf	-Inf
-Inf	0.713883150112327	-Inf	-Inf	0.713883150112327	-Inf	-Inf	-Inf	-Inf	-Inf	-Inf	-Inf
-Inf	-1.6663516503273	-Inf	-Inf	-Inf	-Inf	-Inf	-Inf	-Inf	-Inf	-Inf	-Inf
-Inf	-4.89137187326944	-Inf	-Inf	-Inf	-Inf	-Inf	-Inf	-Inf	-Inf	-Inf	-Inf
-Inf	3.50191703651485	-Inf	-Inf	-Inf	-Inf	-Inf	-Inf	-Inf	-Inf	-Inf	-Inf
-Inf	2.40874544869453	-Inf	-Inf	-Inf	-Inf	-Inf	-Inf	-Inf	-Inf	-Inf	-Inf
-Inf	0.713883150112327	-Inf	-Inf	-Inf	-Inf	-Inf	-Inf	-Inf	-Inf	-Inf	-Inf
-Inf	4.88887817543722	3.50191703651485	3.50191703651485	4.88887817543722	4.88887817543722	3.50191703651485	3.50191703651485	-Inf	4.88887817543722	-Inf	3.50191703651485
-Inf	4.0384722420612	-Inf	-Inf	4.0384722420612	-Inf	6.23703059737282	4.0384722420612	8.4382618538454	4.0384722420612	7.6253272947187	7.26001651295567
-Inf	4.0384722420612	-Inf	4.0384722420612	-Inf	-Inf	-Inf	-Inf	-Inf	-Inf	-Inf	-Inf
-Inf	2.40874544869453	2.40874544869453	3.79570658761689	-Inf	-Inf	-Inf	-Inf	-Inf	-Inf	-Inf	-Inf
-Inf	0.713883150112327	-Inf	0.713883150112327	0.713883150112327	-Inf	-Inf	-Inf	-Inf	-Inf	-Inf	-Inf
-Inf	-4.89137187326944	-Inf	-4.89137187326944	-4.89137187326944	-4.89137187326944	-2.69281351795781	-3.50441073434707	-2.69281351795781	-Inf	-3.50441073434707	-4.89137187326944
-Inf	-9.34832611495008	-Inf	-Inf	-Inf	-Inf	-7.14976775963846	-9.34832611495008	-Inf	-Inf	-Inf	-7.14976775963846
-Inf	-4.89137187326944	-3.50441073434707	-4.89137187326944	-3.50441073434707	-4.89137187326944	-Inf	-4.89137187326944	-2.69281351795781	-Inf	-Inf	-4.89137187326944
-Inf	-4.89137187326944	-Inf	-Inf	-Inf	-Inf	-Inf	-Inf	-Inf	-Inf	-Inf	-Inf
-Inf	0.713883150112327	-Inf	-Inf	-Inf	-Inf	-Inf	-Inf	-Inf	-Inf	-Inf	-Inf
-Inf	-1.6663516503273	-Inf	-Inf	-Inf	-Inf	-Inf	-Inf	-Inf	-Inf	-Inf	-Inf
-Inf	2.40874544869453	-Inf	-Inf	-Inf	-Inf	-Inf	-Inf	-Inf	-Inf	-Inf	-Inf
-Inf	2.40874544869453	-Inf	2.40874544869453	-Inf	-Inf	-Inf	-Inf	-Inf	2.40874544869453	-Inf	-Inf
-Inf	4.0384722420612	-Inf	-Inf	-Inf	-Inf	-Inf	-Inf	4.0384722420612	-Inf	-Inf	-Inf
-Inf	2.40874544869453	-Inf	-Inf	-Inf	-Inf	-Inf	-Inf	-Inf	2.40874544869453	-Inf	-Inf
-Inf	-Inf	3.50191703651485	-Inf	-Inf	-Inf	-Inf	-Inf	3.50191703651485	-Inf	-Inf	-Inf
-Inf	-Inf	5.18333517160148	2.40874544869453	-Inf	-Inf	-Inf	2.40874544869453	-Inf	-Inf	-Inf	-Inf
-Inf	-Inf	-1.6663516503273	-0.279390511404934	-Inf	-Inf	-Inf	-Inf	-1.6663516503273	-1.6663516503273	-Inf	-Inf
-Inf	-Inf	0.532206704984326	-Inf	-0.279390511404934	-Inf	-Inf	-Inf	-Inf	-1.6663516503273	-Inf	-Inf
-Inf	-Inf	-4.89137187326944	-Inf	-4.89137187326944	-Inf	-Inf	-Inf	-Inf	-Inf	-Inf	-Inf
-Inf	-Inf	4.0384722420612	4.0384722420612	4.0384722420612	4.0384722420612	-Inf	4.0384722420612	-Inf	-Inf	4.0384722420612	-Inf
-Inf	-Inf	-1.6663516503273	-Inf	-1.6663516503273	-Inf	-1.6663516503273	-1.6663516503273	-Inf	-Inf	-Inf	-Inf
-Inf	-Inf	2.40874544869453	-Inf	-Inf	-Inf	-Inf	-Inf	-Inf	-Inf	-Inf	-Inf
-Inf	-Inf	3.50191703651485	4.88887817543722	4.88887817543722	4.88887817543722	3.50191703651485	6.72346130740932	6.72346130740932	6.2765067594218	3.50191703651485	4.88887817543722
-Inf	-Inf	0.713883150112327	-Inf	-Inf	-Inf	-Inf	-Inf	-Inf	-Inf	-Inf	-Inf
-Inf	-Inf	3.50191703651485	-Inf	-Inf	-Inf	5.70047539182647	-Inf	5.70047539182647	3.50191703651485	3.50191703651485	5.70047539182647
-Inf	-Inf	0.713883150112327	-Inf	0.713883150112327	-Inf	2.10084428903469	0.713883150112327	2.10084428903469	-Inf	0.713883150112327	-Inf
-Inf	-Inf	3.50191703651485	3.50191703651485	-Inf	3.50191703651485	-Inf	3.50191703651485	3.50191703651485	-Inf	-Inf	-Inf
-Inf	-Inf	-1.6663516503273	-Inf	-Inf	-Inf	-Inf	-Inf	-1.6663516503273	-Inf	-Inf	-Inf
-Inf	-Inf	-1.6663516503273	-Inf	-Inf	-Inf	-Inf	-Inf	-Inf	-Inf	-1.6663516503273	-Inf
-Inf	-Inf	4.0384722420612	4.0384722420612	4.0384722420612	4.0384722420612	5.42543338098356	4.0384722420612	-Inf	-Inf	4.0384722420612	-Inf
-Inf	-Inf	-1.6663516503273	-Inf	-Inf	-Inf	-Inf	-Inf	-Inf	-Inf	-Inf	-Inf
-Inf	-Inf	2.10084428903469	-Inf	0.713883150112327	-Inf	-Inf	-Inf	-Inf	0.713883150112327	-Inf	0.713883150112327
-Inf	-Inf	2.40874544869453	-Inf	2.40874544869453	-Inf	2.40874544869453	-Inf	-Inf	-Inf	-Inf	-Inf
-Inf	-Inf	-1.6663516503273	-Inf	-Inf	-Inf	-Inf	-1.6663516503273	-Inf	-Inf	-Inf	-Inf
-Inf	-Inf	0.713883150112327	-Inf	0.713883150112327	-Inf	-Inf	2.10084428903469	-Inf	-Inf	-Inf	-Inf
-Inf	-Inf	-1.6663516503273	-Inf	-Inf	-1.6663516503273	-Inf	0.532206704984326	-Inf	-Inf	-Inf	-Inf
-Inf	-Inf	4.0384722420612	-Inf	-Inf	-Inf	-Inf	-Inf	-Inf	-Inf	-Inf	-Inf
-Inf	-Inf	-1.6663516503273	-1.6663516503273	-1.6663516503273	-Inf	-Inf	-Inf	-Inf	-Inf	-Inf	-Inf
-Inf	-Inf	-Inf	2.40874544869453	2.40874544869453	2.40874544869453	2.40874544869453	-Inf	-Inf	-Inf	-Inf	-Inf
-Inf	-Inf	-Inf	2.40874544869453	-Inf	-Inf	-Inf	-Inf	-Inf	-Inf	-Inf	-Inf
-Inf	-Inf	-Inf	2.10084428903469	-Inf	-Inf	-Inf	-Inf	-Inf	-Inf	-Inf	-Inf
-Inf	-Inf	-Inf	0.713883150112327	-Inf	-Inf	0.713883150112327	-Inf	0.713883150112327	-Inf	0.713883150112327	0.713883150112327
-Inf	-Inf	-Inf	4.60730380400615	2.40874544869453	3.79570658761689	3.79570658761689	-Inf	2.40874544869453	5.18333517160148	2.40874544869453	-Inf
-Inf	-Inf	-Inf	5.18333517160148	2.40874544869453	2.40874544869453	-Inf	2.40874544869453	2.40874544869453	2.40874544869453	-Inf	3.79570658761689
-Inf	-Inf	-Inf	3.50191703651485	3.50191703651485	3.50191703651485	-Inf	3.50191703651485	-Inf	-Inf	-Inf	3.50191703651485
-Inf	-Inf	-Inf	2.91244150542395	-Inf	-Inf	-Inf	-Inf	0.713883150112327	0.713883150112327	-Inf	0.713883150112327
-Inf	-Inf	-Inf	0.713883150112327	-Inf	-Inf	-Inf	-Inf	-Inf	-Inf	-Inf	-Inf
-Inf	-Inf	-Inf	2.40874544869453	-Inf	-Inf	-Inf	-Inf	-Inf	-Inf	-Inf	-Inf
-Inf	-Inf	-Inf	-1.6663516503273	-Inf	-Inf	-Inf	-Inf	-Inf	-Inf	-Inf	-Inf
-Inf	-Inf	-Inf	5.42543338098356	-Inf	-Inf	4.0384722420612	-Inf	4.0384722420612	6.23703059737282	4.0384722420612	4.0384722420612
-Inf	-Inf	-Inf	-1.6663516503273	-Inf	-1.6663516503273	-Inf	-Inf	-Inf	-Inf	-Inf	-Inf
-Inf	-Inf	-Inf	-0.279390511404934	-Inf	-Inf	-1.6663516503273	-Inf	-Inf	-1.6663516503273	-Inf	-Inf
-Inf	-Inf	-Inf	2.10084428903469	-Inf	-Inf	2.10084428903469	-Inf	-Inf	-Inf	-Inf	-Inf
-Inf	-Inf	-Inf	-1.6663516503273	-Inf	-Inf	-1.6663516503273	-Inf	-Inf	-Inf	-Inf	-Inf
-Inf	-Inf	-Inf	-1.6663516503273	-Inf	-Inf	-Inf	-Inf	-Inf	-Inf	-Inf	-Inf
-Inf	-Inf	-Inf	4.0384722420612	-Inf	-Inf	-Inf	-Inf	-Inf	-Inf	-Inf	-Inf
-Inf	-Inf	-Inf	-4.89137187326944	-Inf	-Inf	-Inf	-Inf	-Inf	-Inf	-Inf	-Inf
-Inf	-Inf	-Inf	4.60730380400615	2.40874544869453	-Inf	2.40874544869453	-Inf	3.79570658761689	5.18333517160148	3.79570658761689	2.40874544869453
-Inf	-Inf	-Inf	4.0384722420612	-Inf	4.0384722420612	4.0384722420612	-Inf	4.0384722420612	7.6253272947187	5.42543338098356	6.23703059737282
-Inf	-Inf	-Inf	-1.6663516503273	-Inf	-Inf	-1.6663516503273	-Inf	-Inf	-Inf	-Inf	-Inf
-Inf	-Inf	-Inf	3.50191703651485	-Inf	-Inf	-Inf	-Inf	-Inf	-Inf	3.50191703651485	-Inf
-Inf	-Inf	-Inf	4.0384722420612	-Inf	-Inf	-Inf	-Inf	-Inf	-Inf	-Inf	-Inf
-Inf	-Inf	-Inf	-4.89137187326944	-Inf	-Inf	-Inf	-Inf	-Inf	-Inf	-Inf	-Inf
-Inf	-Inf	-Inf	-9.34832611495008	-Inf	-Inf	-Inf	-Inf	-Inf	-Inf	-Inf	-Inf
-Inf	-Inf	-Inf	3.50191703651485	-Inf	-Inf	-Inf	-Inf	-Inf	-Inf	-Inf	-Inf
-Inf	-Inf	-Inf	3.50191703651485	-Inf	-Inf	-Inf	-Inf	-Inf	-Inf	-Inf	-Inf
-Inf	-Inf	-Inf	2.40874544869453	-Inf	-Inf	-Inf	-Inf	-Inf	-Inf	-Inf	-Inf
-Inf	-Inf	-Inf	-1.6663516503273	-Inf	-Inf	-Inf	-Inf	-Inf	-Inf	-Inf	-Inf
-Inf	-Inf	-Inf	0.713883150112327	-Inf	-Inf	-Inf	-Inf	-Inf	-Inf	-Inf	-Inf
-Inf	-Inf	-Inf	0.713883150112327	0.713883150112327	-Inf	0.713883150112327	-Inf	-Inf	-Inf	-Inf	0.713883150112327
-Inf	-Inf	-Inf	-1.6663516503273	-1.6663516503273	-Inf	-Inf	-1.6663516503273	-Inf	-Inf	-0.279390511404934	-0.279390511404934
-Inf	-Inf	-Inf	-Inf	0.713883150112327	-Inf	-Inf	-Inf	-Inf	0.713883150112327	-Inf	-Inf
-Inf	-Inf	-Inf	-Inf	2.40874544869453	-Inf	-Inf	-Inf	-Inf	-Inf	-Inf	-Inf
-Inf	-Inf	-Inf	-Inf	2.40874544869453	-Inf	-Inf	-Inf	-Inf	-Inf	-Inf	-Inf
-Inf	-Inf	-Inf	-Inf	-1.6663516503273	-Inf	-Inf	-Inf	-Inf	-Inf	-Inf	-Inf
-Inf	-Inf	-Inf	-Inf	-1.6663516503273	-Inf	-Inf	-1.6663516503273	-Inf	-Inf	-Inf	-1.6663516503273
-Inf	-Inf	-Inf	-Inf	4.0384722420612	4.0384722420612	-Inf	-Inf	-Inf	-Inf	4.0384722420612	-Inf
-Inf	-Inf	-Inf	-Inf	2.40874544869453	-Inf	-Inf	-Inf	-Inf	-Inf	-Inf	-Inf
-Inf	-Inf	-Inf	-Inf	-1.6663516503273	-Inf	-1.6663516503273	-Inf	-Inf	-Inf	-Inf	-Inf
-Inf	-Inf	-Inf	-Inf	2.40874544869453	-Inf	-Inf	-Inf	-Inf	-Inf	-Inf	-Inf
-Inf	-Inf	-Inf	-Inf	4.0384722420612	-Inf	-Inf	4.0384722420612	-Inf	-Inf	-Inf	-Inf
-Inf	-Inf	-Inf	-Inf	-4.89137187326944	-Inf	-Inf	-Inf	-Inf	-Inf	-Inf	-Inf
-Inf	-Inf	-Inf	-Inf	4.0384722420612	-Inf	-Inf	-Inf	-Inf	-Inf	-Inf	-Inf
-Inf	-Inf	-Inf	-Inf	0.713883150112327	-Inf	-Inf	2.10084428903469	-Inf	0.713883150112327	-Inf	-Inf
-Inf	-Inf	-Inf	-Inf	-1.6663516503273	-Inf	-Inf	-Inf	-Inf	-Inf	-Inf	-Inf
-Inf	-Inf	-Inf	-Inf	2.40874544869453	-Inf	-Inf	-Inf	2.40874544869453	-Inf	-Inf	-Inf
-Inf	-Inf	-Inf	-Inf	0.713883150112327	0.713883150112327	0.713883150112327	-Inf	-Inf	-Inf	2.91244150542395	-Inf
-Inf	-Inf	-Inf	-Inf	-4.89137187326944	-Inf	-Inf	-4.89137187326944	-Inf	-Inf	-4.89137187326944	-Inf
-Inf	-Inf	-Inf	-Inf	-1.6663516503273	-Inf	-Inf	-Inf	-Inf	-Inf	-Inf	-Inf
-Inf	-Inf	-Inf	-Inf	3.79570658761689	-Inf	-Inf	-Inf	-Inf	-Inf	-Inf	-Inf
-Inf	-Inf	-Inf	-Inf	3.50191703651485	3.50191703651485	-Inf	-Inf	-Inf	-Inf	-Inf	-Inf
-Inf	-Inf	-Inf	-Inf	-0.279390511404934	-1.6663516503273	-1.6663516503273	-Inf	-Inf	-Inf	-Inf	-Inf
-Inf	-Inf	-Inf	-Inf	-4.89137187326944	-Inf	-Inf	-Inf	-Inf	-Inf	-Inf	-Inf
-Inf	-Inf	-Inf	-Inf	3.50191703651485	3.50191703651485	-Inf	-Inf	3.50191703651485	-Inf	-Inf	-Inf
-Inf	-Inf	-Inf	-Inf	2.40874544869453	-Inf	-Inf	-Inf	2.40874544869453	-Inf	-Inf	-Inf
-Inf	-Inf	-Inf	-Inf	0.713883150112327	-Inf	-Inf	-Inf	0.713883150112327	-Inf	-Inf	-Inf
-Inf	-Inf	-Inf	-Inf	3.50191703651485	3.50191703651485	-Inf	-Inf	3.50191703651485	-Inf	-Inf	-Inf
-Inf	-Inf	-Inf	-Inf	0.713883150112327	-Inf	-Inf	-Inf	-Inf	-Inf	-Inf	-Inf
-Inf	-Inf	-Inf	-Inf	-4.89137187326944	-3.50441073434707	-Inf	-Inf	-3.50441073434707	-Inf	-Inf	-Inf
-Inf	-Inf	-Inf	-Inf	-9.34832611495008	-Inf	-Inf	-Inf	-Inf	-Inf	-Inf	-Inf
-Inf	-Inf	-Inf	-Inf	-Inf	-4.89137187326944	-Inf	-Inf	-Inf	-Inf	-Inf	-Inf
-Inf	-Inf	-Inf	-Inf	-Inf	3.50191703651485	-Inf	-Inf	3.50191703651485	4.88887817543722	-Inf	-Inf
-Inf	-Inf	-Inf	-Inf	-Inf	2.40874544869453	-Inf	-Inf	-Inf	3.79570658761689	-Inf	-Inf
-Inf	-Inf	-Inf	-Inf	-Inf	2.40874544869453	-Inf	-Inf	2.40874544869453	3.79570658761689	-Inf	-Inf
-Inf	-Inf	-Inf	-Inf	-Inf	3.50191703651485	-Inf	-Inf	3.50191703651485	-Inf	-Inf	3.50191703651485
-Inf	-Inf	-Inf	-Inf	-Inf	0.713883150112327	-Inf	-Inf	0.713883150112327	-Inf	-Inf	-Inf
-Inf	-Inf	-Inf	-Inf	-Inf	-1.6663516503273	-Inf	-Inf	-Inf	-Inf	-Inf	-Inf
-Inf	-Inf	-Inf	-Inf	-Inf	2.40874544869453	2.40874544869453	-Inf	2.40874544869453	-Inf	2.40874544869453	-Inf
-Inf	-Inf	-Inf	-Inf	-Inf	0.713883150112327	-Inf	-Inf	-Inf	-Inf	-Inf	-Inf
-Inf	-Inf	-Inf	-Inf	-Inf	-1.6663516503273	-Inf	-Inf	-Inf	-Inf	-Inf	-Inf
-Inf	-Inf	-Inf	-Inf	-Inf	0.713883150112327	-Inf	-Inf	-Inf	-Inf	0.713883150112327	-Inf
-Inf	-Inf	-Inf	-Inf	-Inf	2.40874544869453	-Inf	-Inf	-Inf	-Inf	-Inf	-Inf
-Inf	-Inf	-Inf	-Inf	-Inf	3.50191703651485	-Inf	-Inf	-Inf	-Inf	-Inf	-Inf
-Inf	-Inf	-Inf	-Inf	-Inf	3.50191703651485	-Inf	-Inf	-Inf	3.50191703651485	-Inf	-Inf
-Inf	-Inf	-Inf	-Inf	-Inf	-Inf	-9.34832611495008	-Inf	-Inf	-9.34832611495008	-Inf	-Inf
-Inf	-Inf	-Inf	-Inf	-Inf	-Inf	-4.89137187326944	-Inf	-Inf	-Inf	-Inf	-Inf
-Inf	-Inf	-Inf	-Inf	-Inf	-Inf	0.713883150112327	-Inf	-Inf	-Inf	-Inf	-Inf
-Inf	-Inf	-Inf	-Inf	-Inf	-Inf	4.0384722420612	-Inf	-Inf	-Inf	-Inf	-Inf
-Inf	-Inf	-Inf	-Inf	-Inf	-Inf	4.0384722420612	-Inf	-Inf	-Inf	-Inf	-Inf
-Inf	-Inf	-Inf	-Inf	-Inf	-Inf	-4.89137187326944	-4.89137187326944	-Inf	-Inf	-4.89137187326944	-Inf
-Inf	-Inf	-Inf	-Inf	-Inf	-Inf	2.40874544869453	-Inf	-Inf	-Inf	-Inf	-Inf
-Inf	-Inf	-Inf	-Inf	-Inf	-Inf	-4.89137187326944	-Inf	-Inf	-Inf	-Inf	-Inf
-Inf	-Inf	-Inf	-Inf	-Inf	-Inf	-4.89137187326944	-Inf	-Inf	-Inf	-Inf	-Inf
-Inf	-Inf	-Inf	-Inf	-Inf	-Inf	4.0384722420612	-Inf	-Inf	-Inf	-Inf	-Inf
-Inf	-Inf	-Inf	-Inf	-Inf	-Inf	3.50191703651485	-Inf	-Inf	-Inf	-Inf	-Inf
-Inf	-Inf	-Inf	-Inf	-Inf	-Inf	0.713883150112327	-Inf	-Inf	-Inf	-Inf	-Inf
-Inf	-Inf	-Inf	-Inf	-Inf	-Inf	3.50191703651485	-Inf	-Inf	-Inf	-Inf	-Inf
-Inf	-Inf	-Inf	-Inf	-Inf	-Inf	4.0384722420612	-Inf	-Inf	-Inf	-Inf	-Inf
-Inf	-Inf	-Inf	-Inf	-Inf	-Inf	4.0384722420612	-Inf	-Inf	-Inf	-Inf	4.0384722420612
-Inf	-Inf	-Inf	-Inf	-Inf	-Inf	0.713883150112327	-Inf	-Inf	-Inf	-Inf	-Inf
-Inf	-Inf	-Inf	-Inf	-Inf	-Inf	2.40874544869453	-Inf	-Inf	-Inf	-Inf	-Inf
-Inf	-Inf	-Inf	-Inf	-Inf	-Inf	3.50191703651485	-Inf	-Inf	-Inf	-Inf	-Inf
-Inf	-Inf	-Inf	-Inf	-Inf	-Inf	2.40874544869453	-Inf	2.40874544869453	-Inf	-Inf	-Inf
-Inf	-Inf	-Inf	-Inf	-Inf	-Inf	-Inf	2.40874544869453	-Inf	-Inf	-Inf	-Inf
-Inf	-Inf	-Inf	-Inf	-Inf	-Inf	-Inf	0.713883150112327	-Inf	-Inf	-Inf	-Inf
-Inf	-Inf	-Inf	-Inf	-Inf	-Inf	-Inf	-1.6663516503273	-Inf	-Inf	-Inf	-Inf
-Inf	-Inf	-Inf	-Inf	-Inf	-Inf	-Inf	-9.34832611495008	-Inf	-Inf	-Inf	-Inf
-Inf	-Inf	-Inf	-Inf	-Inf	-Inf	-Inf	-4.89137187326944	-4.89137187326944	-Inf	-Inf	-Inf
-Inf	-Inf	-Inf	-Inf	-Inf	-Inf	-Inf	-4.89137187326944	-Inf	-Inf	-Inf	-Inf
-Inf	-Inf	-Inf	-Inf	-Inf	-Inf	-Inf	-4.89137187326944	-Inf	-4.89137187326944	-Inf	-Inf
-Inf	-Inf	-Inf	-Inf	-Inf	-Inf	-Inf	4.0384722420612	-Inf	-Inf	-Inf	-Inf
-Inf	-Inf	-Inf	-Inf	-Inf	-Inf	-Inf	-1.6663516503273	-Inf	-Inf	-1.6663516503273	-Inf
-Inf	-Inf	-Inf	-Inf	-Inf	-Inf	-Inf	0.713883150112327	-Inf	-Inf	-Inf	-Inf
-Inf	-Inf	-Inf	-Inf	-Inf	-Inf	-Inf	3.50191703651485	-Inf	-Inf	-Inf	-Inf
-Inf	-Inf	-Inf	-Inf	-Inf	-Inf	-Inf	-1.6663516503273	-Inf	-Inf	-Inf	-Inf
-Inf	-Inf	-Inf	-Inf	-Inf	-Inf	-Inf	3.50191703651485	-Inf	-Inf	-Inf	-Inf
-Inf	-Inf	-Inf	-Inf	-Inf	-Inf	-Inf	2.40874544869453	-Inf	-Inf	-Inf	-Inf
-Inf	-Inf	-Inf	-Inf	-Inf	-Inf	-Inf	-9.34832611495008	-Inf	-Inf	-Inf	-Inf
-Inf	-Inf	-Inf	-Inf	-Inf	-Inf	-Inf	0.713883150112327	-Inf	0.713883150112327	-Inf	-Inf
-Inf	-Inf	-Inf	-Inf	-Inf	-Inf	-Inf	3.50191703651485	-Inf	-Inf	-Inf	-Inf
-Inf	-Inf	-Inf	-Inf	-Inf	-Inf	-Inf	2.40874544869453	-Inf	-Inf	-Inf	2.40874544869453
-Inf	-Inf	-Inf	-Inf	-Inf	-Inf	-Inf	0.713883150112327	-Inf	-Inf	-Inf	-Inf
-Inf	-Inf	-Inf	-Inf	-Inf	-Inf	-Inf	4.0384722420612	-Inf	-Inf	-Inf	-Inf
-Inf	-Inf	-Inf	-Inf	-Inf	-Inf	-Inf	-Inf	-4.89137187326944	-Inf	-Inf	-Inf
-Inf	-Inf	-Inf	-Inf	-Inf	-Inf	-Inf	-Inf	0.713883150112327	-Inf	-Inf	-Inf
-Inf	-Inf	-Inf	-Inf	-Inf	-Inf	-Inf	-Inf	0.713883150112327	-Inf	-Inf	-Inf
-Inf	-Inf	-Inf	-Inf	-Inf	-Inf	-Inf	-Inf	-9.34832611495008	-Inf	-Inf	-Inf
-Inf	-Inf	-Inf	-Inf	-Inf	-Inf	-Inf	-Inf	4.0384722420612	-Inf	-Inf	-Inf
-Inf	-Inf	-Inf	-Inf	-Inf	-Inf	-Inf	-Inf	2.40874544869453	2.40874544869453	-Inf	-Inf
-Inf	-Inf	-Inf	-Inf	-Inf	-Inf	-Inf	-Inf	-1.6663516503273	-Inf	-Inf	-Inf
-Inf	-Inf	-Inf	-Inf	-Inf	-Inf	-Inf	-Inf	-9.34832611495008	-Inf	-Inf	-Inf
-Inf	-Inf	-Inf	-Inf	-Inf	-Inf	-Inf	-Inf	2.40874544869453	-Inf	-Inf	-Inf
-Inf	-Inf	-Inf	-Inf	-Inf	-Inf	-Inf	-Inf	2.40874544869453	-Inf	-Inf	-Inf
-Inf	-Inf	-Inf	-Inf	-Inf	-Inf	-Inf	-Inf	-1.6663516503273	-Inf	-Inf	-Inf
-Inf	-Inf	-Inf	-Inf	-Inf	-Inf	-Inf	-Inf	3.50191703651485	-Inf	-Inf	3.50191703651485
-Inf	-Inf	-Inf	-Inf	-Inf	-Inf	-Inf	-Inf	0.713883150112327	-Inf	-Inf	-Inf
-Inf	-Inf	-Inf	-Inf	-Inf	-Inf	-Inf	-Inf	3.50191703651485	-Inf	-Inf	-Inf
-Inf	-Inf	-Inf	-Inf	-Inf	-Inf	-Inf	-Inf	-Inf	-4.89137187326944	-Inf	-Inf
-Inf	-Inf	-Inf	-Inf	-Inf	-Inf	-Inf	-Inf	-Inf	3.79570658761689	-Inf	-Inf
-Inf	-Inf	-Inf	-Inf	-Inf	-Inf	-Inf	-Inf	-Inf	0.713883150112327	-Inf	-Inf
-Inf	-Inf	-Inf	-Inf	-Inf	-Inf	-Inf	-Inf	-Inf	4.0384722420612	-Inf	-Inf
-Inf	-Inf	-Inf	-Inf	-Inf	-Inf	-Inf	-Inf	-Inf	4.0384722420612	-Inf	-Inf
-Inf	-Inf	-Inf	-Inf	-Inf	-Inf	-Inf	-Inf	-Inf	3.50191703651485	-Inf	-Inf
-Inf	-Inf	-Inf	-Inf	-Inf	-Inf	-Inf	-Inf	-Inf	2.40874544869453	-Inf	-Inf
-Inf	-Inf	-Inf	-Inf	-Inf	-Inf	-Inf	-Inf	-Inf	3.50191703651485	-Inf	-Inf
-Inf	-Inf	-Inf	-Inf	-Inf	-Inf	-Inf	-Inf	-Inf	4.0384722420612	-Inf	-Inf
-Inf	-Inf	-Inf	-Inf	-Inf	-Inf	-Inf	-Inf	-Inf	-Inf	-4.89137187326944	-Inf
-Inf	-Inf	-Inf	-Inf	-Inf	-Inf	-Inf	-Inf	-Inf	-Inf	3.50191703651485	-Inf
-Inf	-Inf	-Inf	-Inf	-Inf	-Inf	-Inf	-Inf	-Inf	-Inf	-Inf	2.40874544869453
-Inf	-Inf	-Inf	-Inf	-Inf	-Inf	-Inf	-Inf	-Inf	-Inf	-Inf	0.713883150112327
-Inf	-Inf	-Inf	-Inf	-Inf	-Inf	-Inf	-Inf	-Inf	-Inf	-Inf	-4.89137187326944
-Inf	-Inf	-Inf	-Inf	-Inf	-Inf	-Inf	-Inf	-Inf	-Inf	-Inf	3.50191703651485
-Inf	-Inf	-Inf	-Inf	-Inf	-Inf	-Inf	-Inf	-Inf	-Inf	-Inf	3.50191703651485
-Inf	-Inf	-Inf	-Inf	-Inf	-Inf	-Inf	-Inf	-Inf	-Inf	-Inf	4.0384722420612
-Inf	-Inf	-Inf	-Inf	-Inf	-Inf	-Inf	-Inf	-Inf	-Inf	-Inf	0.713883150112327
-Inf	-Inf	-Inf	-Inf	-Inf	-Inf	-Inf	-Inf	-Inf	-Inf	-Inf	0.713883150112327
-Inf	-Inf	-Inf	-Inf	-Inf	-Inf	-Inf	-Inf	-Inf	-Inf	-Inf	2.40874544869453
-Inf	-Inf	-Inf	-Inf	-Inf	-Inf	-Inf	-Inf	-Inf	-Inf	-Inf	4.0384722420612
-Inf	-Inf	-Inf	-Inf	-Inf	-Inf	-Inf	-Inf	-Inf	-Inf	-Inf	3.50191703651485
