3
[ 6.997, 1.952, 6.997, 6.997, 6.997, 6.997, 1.952, 3.351, 6.997, 6.997, 6.997, 6.997, 6.997, 6.997, 6.997, 3.351, 6.997, 1.952, 1.952, 6.997, 6.997, 6.997, 6.997, 6.997, 6.997, 6.997, 3.351, 6.997, 6.997, 6.997, 6.997, 6.997, 6.997, 6.997, 6.997, 6.997, 6.997, 6.997, 6.997, 6.997, 6.997, 6.997, 6.997, 6.997, 1.952, 6.997, 6.997, 6.997, 3.351, 3.351, 6.997, 6.997, 6.997, 3.351, 6.997, 6.997, 6.997, 6.997, 6.997, 6.997, 6.997, 6.997, 3.351, 6.997, 1.952, 6.997, 6.997, 3.351, 6.997, 6.997, 1.952, 6.997, 6.997, 1.952, 6.997, 1.952, 6.997, 3.351, 1.952, 3.351, 3.351, 6.997, 1.952, 6.997, 6.997, 6.997, 6.997, 3.351, 6.997, 6.997, 6.997, 6.997, 6.997, 6.997, 6.997, 6.997, 6.997, 6.997, 6.997, 6.997 ]
4
[ 0.744, 0.744, 0.744, 0.968, 0.744, 0.384, 0.744, 0.744, 0.744, 0.744, 0.384, 0.744, 0.744, 0.744, 0.968, 0.744, 0.744, 0.744, 0.744, 0.744, 0.384, 0.744, 0.744, 0.744, 0.744, 0.744, 0.744, 0.744, 0.744, 0.744, 0.744, 0.384, 0.744, 0.744, 0.744, 0.744, 0.744, 0.744, 0.744, 0.384, 0.744, 0.744, 0.744, 0.744, 0.744, 0.384, 0.968, 0.744, 0.744, 0.744, 0.744, 0.744, 0.744, 0.744, 0.744, 0.744, 0.744, 0.744, 0.744, 0.384, 0.744, 0.744, 0.744, 0.744, 0.384, 0.744, 0.744, 0.744, 0.744, 0.305, 0.744, 0.744, 0.744, 0.744, 0.744, 0.744, 0.744, 0.744, 0.744, 0.744, 0.744, 0.744, 0.744, 0.744, 0.744, 0.744, 0.744, 0.744, 0.744, 0.744, 0.384, 0.744, 0.744, 0.744, 0.744, 0.968, 0.384, 0.744, 0.744, 0.744 ]