5
[ 1.937, 1.937, 6.319, 4.331, 1.937, 1.937, 4.331, 3.877, 3.877, 1.937, 4.331, 4.331, 4.331, 4.331, 1.937, 1.937, 1.937, 4.331, 3.877, 4.331, 1.937, 4.331, 1.937, 4.331, 4.331, 4.331, 4.331, 4.331, 4.331, 1.937, 4.331, 4.331, 1.937, 1.937, 1.937, 4.331, 4.331, 4.331, 4.331, 4.331, 4.331, 1.937, 1.937, 4.331, 4.331, 1.937, 3.877, 3.877, 1.937, 4.331, 1.937, 1.937, 4.331, 6.319, 4.331, 1.937, 3.877, 1.937, 1.937, 1.937, 4.331, 14.183, 4.331, 1.937, 4.331, 3.877, 1.937, 4.331, 1.937, 1.937, 1.937, 1.937, 6.319, 4.331, 4.331, 4.331, 1.937, 3.877, 4.331, 1.937, 4.331, 4.331, 1.937, 4.331, 3.877, 3.877, 4.331, 4.331, 1.937, 3.877, 4.331, 3.877, 6.319, 4.331, 4.331, 1.937, 1.937, 1.937, 1.937, 4.331 ]
4
[ 0.283, 0.283, 0.283, 0.283, 0.283, 0.283, 0.847, 0.283, 0.283, 0.283, 0.283, 0.283, 0.283, 0.283, 0.283, 0.283, 0.283, 0.283, 0.847, 0.283, 0.283, 0.283, 0.283, 0.283, 0.847, 0.283, 0.847, 0.283, 0.283, 0.283, 0.283, 0.283, 0.869, 0.283, 0.283, 0.283, 0.283, 0.283, 0.283, 0.283, 0.847, 0.283, 0.283, 0.283, 0.283, 0.283, 0.283, 0.283, 0.283, 0.283, 0.283, 0.283, 0.283, 0.283, 0.847, 0.847, 0.283, 0.283, 0.283, 0.283, 0.283, 0.283, 0.283, 0.847, 0.283, 0.283, 0.283, 0.847, 0.283, 0.283, 0.283, 0.283, 0.283, 0.847, 0.283, 0.847, 0.283, 0.847, 0.283, 0.283, 0.283, 0.283, 0.283, 0.283, 0.283, 0.283, 0.283, 0.283, 0.283, 0.283, 0.796, 0.283, 0.847, 0.283, 0.283, 0.283, 0.283, 0.283, 0.283, 0.847 ]