3
[ 4.612, 4.612, 4.710, 4.612, 5.798, 4.710, 4.710, 4.710, 4.710, 4.612, 4.612, 4.710, 4.612, 4.612, 5.798, 5.798, 5.798, 4.710, 4.710, 4.612, 4.710, 5.798, 4.710, 4.612, 5.798, 5.798, 5.798, 4.612, 4.710, 4.710, 4.612, 4.710, 4.710, 5.798, 5.798, 5.798, 4.612, 4.612, 4.710, 5.798, 4.612, 4.710, 4.612, 4.710, 5.798, 4.612, 4.710, 4.612, 5.798, 4.612, 4.710, 4.710, 5.798, 5.798, 4.710, 4.612, 4.710, 4.710, 4.612, 5.798, 4.710, 4.612, 4.612, 4.710, 5.798, 4.612, 5.798, 4.710, 5.798, 5.798, 4.710, 5.798, 4.710, 4.710, 4.710, 4.710, 4.710, 4.612, 4.612, 5.798, 4.710, 4.710, 4.612, 5.798, 5.798, 5.798, 4.612, 4.612, 4.710, 5.798, 4.612, 5.798, 5.798, 4.710, 4.710, 4.710, 4.612, 4.710, 5.798, 5.798, 4.710, 4.612, 4.710, 5.798, 4.710, 4.612, 4.710, 4.612, 4.710, 4.710, 4.612, 4.612, 4.710, 4.612, 4.612, 4.612, 5.798, 5.798, 4.612, 4.710, 4.710, 5.798, 4.710, 4.710, 4.710, 4.612, 5.798, 5.798, 5.798, 5.798, 5.798, 4.612, 5.798, 4.710, 5.798, 5.798, 4.612, 4.710, 4.612, 4.612, 4.612, 4.612, 4.710, 4.612, 4.612, 5.798, 4.710, 5.798, 4.612, 4.710, 5.798, 4.710, 4.710, 4.710, 5.798, 4.612, 4.710, 5.798, 5.798, 5.798, 5.798, 4.612, 5.798, 5.798, 4.710, 5.798, 5.798, 4.612, 5.798, 5.798, 4.710, 4.612, 4.710, 4.710, 4.612, 5.798, 4.612, 4.710, 4.612, 5.798, 4.612, 4.710, 4.612, 4.612, 4.710, 4.710, 4.612, 4.612, 5.798, 4.612, 4.710, 4.612, 5.798, 4.612, 4.710, 5.798, 4.612, 4.710, 4.710, 5.798 ]
3
[ 0.145, 0.660, 0.145, 0.145, 0.660, 0.660, 0.145, 0.178, 0.178, 0.660, 0.145, 0.178, 0.178, 0.660, 0.660, 0.178, 0.145, 0.660, 0.660, 0.145, 0.145, 0.660, 0.660, 0.145, 0.145, 0.145, 0.660, 0.178, 0.145, 0.145, 0.145, 0.660, 0.145, 0.178, 0.178, 0.178, 0.178, 0.145, 0.178, 0.145, 0.178, 0.178, 0.660, 0.178, 0.178, 0.660, 0.145, 0.145, 0.178, 0.178, 0.660, 0.178, 0.145, 0.178, 0.145, 0.660, 0.178, 0.178, 0.178, 0.145, 0.145, 0.145, 0.145, 0.660, 0.178, 0.145, 0.178, 0.145, 0.178, 0.178, 0.145, 0.178, 0.660, 0.660, 0.178, 0.660, 0.178, 0.178, 0.145, 0.145, 0.145, 0.178, 0.145, 0.145, 0.660, 0.178, 0.145, 0.660, 0.145, 0.145, 0.660, 0.178, 0.178, 0.145, 0.145, 0.178, 0.660, 0.660, 0.660, 0.178, 0.660, 0.660, 0.178, 0.145, 0.145, 0.178, 0.178, 0.178, 0.660, 0.145, 0.178, 0.660, 0.178, 0.660, 0.178, 0.178, 0.178, 0.145, 0.178, 0.145, 0.145, 0.178, 0.660, 0.178, 0.178, 0.145, 0.178, 0.145, 0.660, 0.145, 0.145, 0.178, 0.145, 0.660, 0.145, 0.178, 0.660, 0.145, 0.145, 0.660, 0.660, 0.660, 0.145, 0.178, 0.145, 0.178, 0.660, 0.178, 0.178, 0.145, 0.660, 0.145, 0.145, 0.145, 0.145, 0.145, 0.178, 0.660, 0.660, 0.145, 0.145, 0.660, 0.660, 0.145, 0.660, 0.178, 0.145, 0.660, 0.145, 0.145, 0.660, 0.660, 0.178, 0.145, 0.178, 0.178, 0.178, 0.660, 0.178, 0.660, 0.660, 0.178, 0.178, 0.145, 0.178, 0.145, 0.178, 0.145, 0.178, 0.178, 0.178, 0.145, 0.660, 0.178, 0.145, 0.178, 0.660, 0.145, 0.178, 0.178 ]