pars_sum	pars_var	pars_disp	obs_disp	sim_disp
1	-0.188232074438971	-0.135976229572289	0.222222222222222	0.358198451794511
-13	-0.090603131933777	-0.0222787562255099	0.266117969821674	0.288396726047183
3	0.0199314574314575	-0.0424054373522458	0.222222222222222	0.264627659574468
1	0.242234169653525	0.114417989417989	0.322751322751323	0.208333333333333
-8	-0.0459464072367302	-0.00811287477954159	0.339506172839506	0.347619047619048
-3	-0.0768262502133471	-0.0715206034624125	0.327523602033406	0.399044205495818
-11	-0.303481240981241	-0.160662244232494	0.267139479905437	0.427801724137931
-6	0.0315593531319339	0.0148597076116793	0.311268715524035	0.296409007912355
5	0.103378103378103	0.0422712515735773	0.296296296296296	0.254025044722719
-1	0.102271483305966	0.04200101207258	0.287211740041929	0.245210727969349
-7	0.0579706434545145	0.0446020488573681	0.311268715524035	0.266666666666667
-3	-0.00269670592251264	-0.0122730573710967	0.253086419753086	0.265359477124183
-8	-0.144420394420394	-0.0848965848965849	0.31986531986532	0.404761904761905
1	-0.0216201423097979	-0.0304514240684456	0.296296296296296	0.326747720364742
-3	0.0749061273254822	0.0248171026208089	0.311268715524035	0.286451612903226
3	-0.202025177887247	-0.160022825466699	0.222222222222222	0.382245047688922
-7	-0.0253882915173237	-0.0145075951527565	0.28042328042328	0.294930875576037
-3	-0.0634152585765491	-0.0501938534278961	0.267139479905437	0.317333333333333
3	0.297475038402458	0.127723633035919	0.346666666666667	0.218943033630748
-7	0.231240981240982	0.118191721132898	0.368191721132898	0.25
-8	0.120839733742959	0.0750981396142686	0.296296296296296	0.221198156682028
-3	-0.123097974822113	-0.0749004582675983	0.296296296296296	0.371196754563895
-1	0.186363927291346	0.0862897130178235	0.296296296296296	0.210006583278473
-3	-0.0560078511691414	-0.047397951142632	0.311268715524035	0.358666666666667
-4	-0.00616281866281865	-0.0316203703703704	0.305185185185185	0.336805555555556
-4	0.0746927803379418	0.0240860215053764	0.346666666666667	0.32258064516129
-4	-0.0913978494623656	-0.0709677419354839	0.333333333333333	0.404301075268817
-9	-0.0716089466089466	-0.0392300194931773	0.296296296296296	0.335526315789474
0	0.187289562289562	0.0574570105820105	0.296296296296296	0.238839285714286
2	0.273494837002902	0.134207783624393	0.311268715524035	0.177060931899642
-9	-0.120087685611879	-0.0562786895554299	0.296296296296296	0.352574985851726
-8	0.0517075517075515	0.0270061728395061	0.339506172839506	0.3125
-5	0.00745114353985316	-0.00436945364922647	0.253086419753086	0.257455873402313
-8	-0.0081925243215567	0.00136542072025936	0.296296296296296	0.294930875576037
2	0.104652031063321	0.0175543717067396	0.28042328042328	0.262868908716541
-9	0.106118791602662	0.0671164523156932	0.368191721132897	0.301075268817204
2	0.149434409779237	0.0537727223711962	0.327523602033406	0.27375087966221
-3	-0.123097974822113	-0.0749004582675983	0.296296296296296	0.371196754563895
-1	-0.0488820617852876	-0.0516905875396441	0.267806267806268	0.319496855345912
8	0.253968253968254	0.109876543209876	0.339506172839506	0.22962962962963
1	0.00935960591133	-0.0229364955531285	0.307692307692308	0.330628803245436
-7	-0.171145983645983	-0.108006822612086	0.263703703703704	0.371710526315789
8	-0.0699689837620873	-0.104001322751323	0.296296296296296	0.400297619047619
-8	0.191227753727754	0.102587803320562	0.388148148148148	0.285560344827586
-4	-0.129218936678614	-0.0938919965091602	0.28042328042328	0.374315276932441
3	0.270873869260966	0.133995988251307	0.311268715524035	0.177272727272727
6	0.185586571793468	0.0757465182752536	0.253086419753086	0.177339901477833
0	0.162233169129721	0.0716180371352784	0.307692307692308	0.236074270557029
3	0.0613159242191499	-0.0118771522946096	0.246187363834423	0.258064516129032
-12	-0.154429083461342	-0.045925925925926	0.296296296296296	0.342222222222222
-10	0.00604256854256846	0.01073595146871	0.296296296296296	0.285560344827586
2	0.157876770779997	0.047120669056153	0.305185185185185	0.258064516129032
-5	0.235774022870797	0.136990449569066	0.339506172839506	0.20251572327044
-8	0.0873869260966031	0.0656966490299822	0.339506172839506	0.273809523809524
-6	0.011574074074074	-0.00707671957671968	0.28042328042328	0.2875
16	0.35978835978836	0.143083254194365	0.307692307692308	0.164609053497942
-3	0.0106588154975252	-0.00606461780929862	0.311268715524035	0.317333333333333
-13	-0.150388291517324	-0.0504820265486238	0.28042328042328	0.330905306971904
-3	0.0749061273254822	0.0248171026208089	0.311268715524035	0.286451612903226
-4	0.154531490015361	0.0800000000000001	0.346666666666667	0.266666666666667
-3	0.252842848608978	0.115910135264974	0.387464387464387	0.271554252199413
1	0.383926290822843	0.19884484061824	0.388148148148148	0.189303307529908
0	0.0883237133237134	0.0112037037037037	0.263703703703704	0.2525
3	0.137540535927633	0.0400565943119135	0.311268715524035	0.271212121212121
-7	-0.142029356545485	-0.0702127659574466	0.311268715524035	0.381481481481481
-5	0.0564677978471081	0.0387275049344014	0.305185185185185	0.266457680250784
-3	0.016739646049991	0.00782043966196583	0.311268715524035	0.303448275862069
-5	0.0300179211469533	0.00426693975081072	0.365079365079365	0.360812425328554
1	0.190612732548216	0.0813501444707119	0.339506172839506	0.258156028368794
-4	0.201484895033282	0.10771068835585	0.296296296296296	0.188585607940447
-2	-0.0137182112988564	-0.0333651931501394	0.253086419753086	0.286451612903226
7	0.14349571246123	0.0344210655838562	0.305185185185185	0.270764119601329
-3	0.13942225635774	0.0661074252014541	0.311268715524035	0.245161290322581
-9	0.199906127325482	0.126936918289012	0.311268715524035	0.184331797235023
-3	-0.00869602321215224	-0.018082788671024	0.286855482933914	0.304938271604938
-3	0.0653961853558626	0.018623937030009	0.296296296296296	0.277672359266287
-4	-0.0474687349687349	-0.0512638383169664	0.248078266946191	0.299342105263158
-11	-0.00550144300144295	0.00356521050965497	0.304526748971193	0.300961538461538
-1	-0.251140302864441	-0.150809929864847	0.266117969821674	0.41692789968652
-4	0.129650964328384	0.059068100358423	0.305185185185185	0.246117084826762
-11	-0.179056792968083	-0.0757677209290112	0.267806267806268	0.343573988735279
-3	0.0636040706605223	0.0113045242442686	0.346666666666667	0.335362142422398
-3	-0.0375781625781625	-0.0598155011480482	0.326345213137666	0.386160714285714
-3	0.0699180747567843	0.0324728132387706	0.267139479905437	0.234666666666667
1	0.162397787397787	0.0475321239606954	0.305185185185185	0.25765306122449
10	0.305637657361795	0.136586677421523	0.296296296296296	0.159709618874773
-5	0.0910831626557432	0.0430971649271507	0.339506172839506	0.296409007912355
-6	0.0960754821641919	0.0538128421217219	0.311268715524035	0.257455873402313
-8	-0.0506219064686808	-0.0242629307015726	0.326345213137666	0.350608143839238
-15	-0.309403559403559	-0.132450142450142	0.263703703703704	0.396153846153846
2	0.0846925743477468	0.0223243933588761	0.263703703703704	0.241379310344828
3	-0.036223036223036	-0.0276219918773109	0.263703703703704	0.291325695581015
0	0.034491881043605	-0.00310520121203028	0.327523602033406	0.330628803245436
-8	-0.0994708994708995	-0.0326278659611993	0.253086419753086	0.285714285714286
-4	-0.021374458874459	-0.0416380494505496	0.307692307692308	0.349330357142857
4	0.189656938044035	0.072053872053872	0.296296296296296	0.224242424242424
-2	0.368770267963816	0.179579082804889	0.387464387464387	0.207885304659498
-6	-0.0505792370711726	-0.0339484595951189	0.246187363834423	0.280135823429542
-15	-0.0795454545454543	-0.0177641369047617	0.238095238095238	0.255859375
-6	-0.171546979006656	-0.107175797027003	0.267139479905437	0.374315276932441
2	0.145956007851169	0.0332510543046369	0.327523602033406	0.294272547728769
2	-0.0442528735632183	-0.0561087237536247	0.238095238095238	0.294203961848863
3	0.0128349547704387	-0.0384239558707644	0.263703703703704	0.302127659574468
-6	0.0315593531319339	0.0148597076116793	0.311268715524035	0.296409007912355
-1	0.182488479262673	0.0813071895424837	0.346666666666667	0.265359477124183
-7	0.117815055315055	0.0521788057496307	0.408859840232389	0.356681034482759
-10	-0.0570586820586818	-0.0242576002654388	0.311268715524035	0.335526315789474
-4	0.00541125541125564	-0.0283333333333332	0.346666666666667	0.375
-11	0.236712361712362	0.13599134396889	0.327523602033406	0.191532258064516
-21	-0.224176286676287	-0.0593596765779865	0.263703703703704	0.32306338028169
-15	-0.151364838864839	-0.0534611992945328	0.253086419753086	0.306547619047619
-5	0.0224867724867726	0.00357640783172702	0.311268715524035	0.307692307692308
-8	0.0753808243727598	0.0487239604387312	0.365079365079365	0.316355404640634
5	0.017834336799854	-0.0312650312650313	0.28042328042328	0.311688311688312
-5	-0.0510855683269476	-0.00910052910052911	0.305185185185185	0.314285714285714
-6	-0.0874125277351087	-0.0445771002854471	0.248078266946191	0.292655367231638
-4	-0.246478744754607	-0.141063941676777	0.311268715524035	0.452332657200811
3	0.310782556750299	0.146033230184703	0.322751322751323	0.17671809256662
-9	-0.194161759685954	-0.0994885660986398	0.253086419753086	0.352574985851726
-4	0.0154633896569379	0.00270655270655268	0.296296296296296	0.293589743589744
-5	0.0870029015190306	0.0432786410823474	0.311268715524035	0.267990074441687
4	0.0564586754241925	-0.00631681520282257	0.267139479905437	0.27345629510826
0	-0.0304597701149424	-0.0356556415669716	0.238095238095238	0.27375087966221
-4	0.0799464499061274	0.0335963562577475	0.311268715524035	0.277672359266287
3	0.118363437328955	0.0496070123729698	0.267139479905437	0.217532467532468
5	0.148604269293925	0.0434920634920637	0.346666666666667	0.303174603174603
-6	0.0865175371223758	0.0486367410131671	0.267139479905437	0.21850273889227
-6	0.0285894660894666	-0.0035188051828916	0.368191721132897	0.371710526315789
-15	-0.411435786435787	-0.190521810417144	0.267139479905437	0.457661290322581
-1	0.113291370187922	0.0507812123768851	0.286855482933914	0.236074270557029
-3	0.0444881805768904	0.00624783030139087	0.263703703703704	0.257455873402313
-3	0.0033369408369408	-0.0266105200945627	0.267139479905437	0.29375
1	0.196049990877577	0.0983751623006464	0.311268715524035	0.212893553223388
-5	0.152313748079877	0.0751124144672533	0.346666666666667	0.271554252199413
-3	0.332437275985663	0.176493757138918	0.365079365079365	0.188585607940447
-6	-0.100934459805428	-0.0645161290322581	0.296296296296296	0.360812425328554
6	0.176309950503499	0.0217113665389527	0.355044699872286	0.333333333333333
-2	-0.0124850657108722	-0.0254590725178961	0.28042328042328	0.305882352941176
0	-0.0349462365591399	-0.0476190476190477	0.238095238095238	0.285714285714286
1	0.103643966547192	0.0223587642942482	0.28042328042328	0.258064516129032
-6	0.0740740740740741	0.0304232804232804	0.28042328042328	0.25
-4	0.000618706263867619	-0.0173954599761051	0.305185185185185	0.32258064516129
-4	-0.00893923877794839	-0.0206451612903226	0.263703703703704	0.284348864994026
4	0.0435686918445536	-0.0203181237663998	0.296296296296296	0.316614420062696
-11	-0.00925925925925924	0.0137566137566137	0.28042328042328	0.266666666666667
-11	-0.10016835016835	-0.0445767195767195	0.28042328042328	0.325
8	0.052225871191388	-0.0395860325180893	0.327523602033406	0.367109634551495
-7	0.260651348352961	0.132269743547335	0.381344307270233	0.249074563722898
-2	0.126574500768049	0.0530769230769232	0.346666666666667	0.293589743589744
-3	-0.224974398361495	-0.152856841661396	0.246187363834423	0.399044205495818
0	0.0467656596688852	-0.00497809637594598	0.253086419753086	0.258064516129032
-9	-0.27522349936143	-0.097962514572684	0.305185185185185	0.403147699757869
11	0.3277321656632	0.138076431869535	0.305185185185185	0.16710875331565
-5	0.0782396740058032	0.0336309329857717	0.305185185185185	0.271554252199413
-9	-0.12737493987494	-0.0708741368487132	0.305185185185185	0.376059322033898
-14	-0.0153343147294762	0.026282907244324	0.327523602033406	0.301240694789082
2	0.0702517788724685	0.0146602702383636	0.246187363834423	0.231527093596059
3	-0.0462050720671413	-0.0580860363469061	0.28042328042328	0.338509316770186
4	0.101493428912784	0.0122751322751323	0.28042328042328	0.268148148148148
4	0.210658815497525	0.0864625139736472	0.311268715524035	0.224806201550388
-5	0.0815252176139272	0.0388404228939834	0.296296296296296	0.257455873402313
2	-0.0516811742618192	-0.0737962962962962	0.263703703703704	0.3375
-12	-0.163282247765006	-0.0412273696615133	0.28042328042328	0.321650650084794
-6	0.0280977982590884	0.0119474313022699	0.296296296296296	0.284348864994026
-9	0.225102406554019	0.122799669282303	0.287211740041929	0.164412070759625
-5	0.0205928330928332	-0.00724089986058063	0.311268715524035	0.318509615384615
-3	-0.191808064221857	-0.111861008699005	0.305185185185185	0.41704619388419
-11	-0.135057471264368	-0.0377668308702791	0.238095238095238	0.275862068965517
-1	0.108414405188599	0.0398257080610023	0.305185185185185	0.265359477124183
-9	-0.0102212602212603	-0.0067838961281585	0.267806267806268	0.274590163934426
-7	0.0184583934583928	-0.0047314543282288	0.31986531986532	0.324596774193549
-4	0.0724526369687659	0.0283062218546089	0.296296296296296	0.267990074441687
2	0.0518609742747673	0.00277166381348326	0.267139479905437	0.264367816091954
1	0.0857051632913701	0.0247865174166729	0.286855482933914	0.262068965517241
-3	0.0713773681515615	0.0309368191721132	0.296296296296296	0.265359477124183
1	0.0868162229049327	0.00866209641936072	0.266117969821674	0.257455873402313
-10	-0.14152585765489	-0.0508301404853129	0.296296296296296	0.347126436781609
1	0.0521255245393176	0.00128166807061403	0.339506172839506	0.338224504768892
-6	-0.0676821983273597	-0.0325925925925926	0.407407407407407	0.44
-4	0.0174944529783237	-0.00788836810342197	0.339506172839506	0.347394540942928
-8	-0.000698711384195416	0.00309386456321986	0.286855482933914	0.283761618370694
-2	0.0482004181600956	0.00275092115699321	0.28042328042328	0.277672359266287
-4	0.011853558627752	0.00178000278125423	0.267139479905437	0.265359477124183
-22	-0.0627405002405002	0.0313774111762086	0.311268715524035	0.279891304347826
4	0.300499231950845	0.125067788686302	0.346666666666667	0.221598877980365
6	0.259660645867542	0.118956394818464	0.296296296296296	0.177339901477833
0	0.200914191841611	0.0923256818932866	0.311268715524035	0.218943033630748
-5	0.032839435057177	0.00398392527424785	0.388148148148148	0.3841642228739
3	0.177932858967342	0.0614949864949866	0.395286195286195	0.333791208791209
1	-0.192437511403029	-0.127653181898465	0.365478686233403	0.493131868131868
-10	0.0569684944684946	0.0386467645806727	0.253086419753086	0.214439655172414
-1	-0.174747183819764	-0.136411553868859	0.222222222222222	0.358633776091082
2	0.104041233351578	0.0418214567150735	0.28042328042328	0.238601823708207
9	0.162698412698413	0.0507936507936507	0.28042328042328	0.22962962962963
-11	-0.0991762866762867	-0.0446979356405586	0.263703703703704	0.308401639344262
-6	-0.312534209085933	-0.145124716553288	0.222222222222222	0.36734693877551
-4	0.0701228878648232	0.0237177643562458	0.345029239766082	0.321311475409836
-1	-0.0770097286226322	-0.0737717309145883	0.296296296296296	0.370068027210884
2	-0.0193851486954933	-0.0379376336823144	0.311268715524035	0.349206349206349
-3	-0.0490239007480389	-0.0316905817243884	0.339506172839506	0.371196754563895
-6	-0.0405092592592592	-0.0286676286676287	0.28042328042328	0.309090909090909
-6	0.151817716333845	0.0722686844550644	0.304526748971193	0.232258064516129
-5	0.0300136542072026	0.0176789719342911	0.311268715524035	0.293589743589744
-10	0.231571669071669	0.124407257661975	0.365478686233403	0.241071428571428
-3	-0.194316730523627	-0.114802183767701	0.28042328042328	0.395225464190981
-6	-0.160495605052057	-0.0974905462405048	0.327523602033406	0.425014148273911
-5	0.0719672725721113	0.0345836808608162	0.253086419753086	0.21850273889227
-6	-0.0750640040962619	-0.0376954732510287	0.304526748971193	0.342222222222222
-7	0.0403739778739773	0.00531971710629842	0.381344307270233	0.376024590163935
3	0.172563577402287	0.0503452131376659	0.326345213137666	0.276
-12	-0.0382094757094756	-0.0049607149216524	0.347578347578348	0.3525390625
-5	0.0902543096091487	0.0491582491582493	0.263703703703704	0.214545454545454
2	0.134429936849292	0.028145724031652	0.339506172839506	0.311360448807854
-7	0.0279280904280906	0.00584307992202737	0.305185185185185	0.299342105263158
2	-0.0193851486954933	-0.0379376336823144	0.311268715524035	0.349206349206349
-8	0.0873869260966031	0.0656966490299822	0.339506172839506	0.273809523809524
-3	-0.100164203612479	-0.0468643306379153	0.346666666666667	0.393530997304582
-3	0.227093596059114	0.124805898937324	0.346666666666667	0.221860767729343
-6	-0.145447910965152	-0.0687526607066836	0.253086419753086	0.32183908045977
-2	0.00871813371813396	-0.0308048433048432	0.267806267806268	0.298611111111111
-1	0.133239460658816	0.0598798266351458	0.311268715524035	0.251388888888889
-14	-0.133192524321557	-0.034609010675608	0.296296296296296	0.330905306971904
-1	0.086542072025943	0.0214069415327277	0.326345213137666	0.304938271604938
-4	-0.0454685099846388	-0.0348148148148147	0.346666666666667	0.381481481481481
-7	0.108585858585859	0.0525793650793652	0.365079365079365	0.3125
-1	-0.254198668714798	-0.170812951316096	0.287211740041929	0.458024691358025
4	0.173519371906469	0.0375875297708183	0.365478686233403	0.327891156462585
-7	0.11527671104284	0.0679519206400926	0.339506172839506	0.271554252199413
-6	0.0933606417477386	0.0471206690561529	0.305185185185185	0.258064516129032
2	0.229800307219662	0.0952777777777779	0.346666666666667	0.251388888888889
-8	-0.258763227513228	-0.136873330625408	0.286855482933914	0.423728813559322
5	0.253942652329749	0.0938672438672438	0.365079365079365	0.271212121212121
-8	-0.0828373015873016	-0.0419514291854717	0.267139479905437	0.309090909090909
-14	0.0487614237614241	0.0493258101851853	0.305185185185185	0.255859375
2	0.142355409596789	0.0560370898883662	0.326345213137666	0.2703081232493
5	0.155726233145588	0.0370370370370371	0.305185185185185	0.268148148148148
5	0.180030721966206	0.0495362793235134	0.307692307692308	0.258156028368794
-4	-0.0395821930304688	-0.0193600877214014	0.311268715524035	0.330628803245436
0	0.116621054552089	0.0548105576841209	0.253086419753086	0.198275862068966
0	0.106950844854071	0.0189247311827958	0.346666666666667	0.327741935483871
-1	0.0379170933606419	-0.0129678824934992	0.305185185185185	0.318153067678684
-8	0.0376382876382879	0.0156690422559483	0.286855482933914	0.271186440677966
-4	0.0751749445297833	0.0347342708127022	0.286855482933914	0.252121212121212
4	0.297719394271118	0.130277083680382	0.388148148148148	0.257871064467766
2	0.250465243568692	0.128380254317286	0.296296296296296	0.167916041979011
5	0.110873928115307	0.0277456017899749	0.253086419753086	0.225340817963111
0	0.186872833424558	0.0891983627832684	0.365478686233403	0.276280323450135
-7	0.187275985663082	0.107014848950333	0.365079365079365	0.258064516129032
1	0.190612732548216	0.0813501444707119	0.339506172839506	0.258156028368794
-13	-0.0425925925925926	0.0137566137566137	0.28042328042328	0.266666666666667
3	0.259429936849291	0.117283950617284	0.339506172839506	0.222222222222222
-2	0.027073732718894	-0.0148883374689827	0.307692307692308	0.32258064516129
-2	0.24174880525687	0.124193046394185	0.28042328042328	0.156230234029095
-8	-0.0819203944203941	-0.0514958492975733	0.305185185185185	0.356681034482759
-5	0.00901875901875904	-0.0117066739407165	0.267139479905437	0.278846153846154
-5	-0.162570698777595	-0.0839567486669468	0.311268715524035	0.395225464190982
-9	0.00635774022870805	0.0163378399479979	0.311268715524035	0.294930875576037
1	0.127084473636198	0.0533976510562686	0.311268715524035	0.257871064467766
-6	-0.0405092592592592	-0.0286676286676287	0.28042328042328	0.309090909090909
-4	-0.00760582010582023	-0.0349763979665941	0.327523602033406	0.3625
-2	-0.0713282247765006	-0.0502055228221557	0.28042328042328	0.330628803245436
4	0.310057176992661	0.121668484754039	0.388148148148148	0.266479663394109
-4	0.0821300563236046	0.0424501424501424	0.296296296296296	0.253846153846154
8	-0.133871556285349	-0.154220583628521	0.248078266946191	0.402298850574713
-8	-0.0655657962109574	-0.0225574897915323	0.267139479905437	0.28969696969697
-10	-0.0459762758149858	-0.0116521786896279	0.253086419753086	0.264738598442714
-14	-0.138738576238576	-0.0473538773148148	0.305185185185185	0.3525390625
-7	-0.206041986687148	-0.106127946127946	0.296296296296296	0.402424242424243
-8	-0.0823252688172043	-0.0420405853343035	0.238095238095238	0.280135823429542
3	0.0558382403140465	-0.015730784547989	0.253086419753086	0.268817204301075
0	0.154020523980201	0.0498512427671187	0.327523602033406	0.277672359266287
4	0.0615672322568876	-0.0103030567293733	0.311268715524035	0.321571772253408
-4	0.0192609660351596	0.00538636258285824	0.311268715524035	0.305882352941176
0	0.131088923024407	0.0531126871552405	0.311268715524035	0.258156028368794
-1	-0.101496077358146	-0.0711657556159832	0.267806267806268	0.338972023422251
-11	0.0230880230880228	0.0251098556183301	0.296296296296296	0.271186440677966
-5	-0.0707671957671954	-0.0612962962962961	0.263703703703704	0.325
0	0.292610727086533	0.131000070279007	0.368191721132897	0.23719165085389
-6	-0.0356716163167775	-0.0266120498378563	0.305185185185185	0.331797235023041
-11	0.134691286909029	0.0899551481677341	0.305185185185185	0.215230037017451
-6	-0.0237497866530124	-0.0082281398218772	0.311268715524035	0.319496855345912
10	0.303776683087028	0.118095238095238	0.346666666666667	0.228571428571429
-3	-0.0863841952551629	-0.07395694239464	0.286855482933914	0.360812425328554
0	0.152351083802697	0.0598327359617682	0.263703703703704	0.203870967741935
-11	-0.142489119303635	-0.0606968682061226	0.222222222222222	0.282919090428345
3	0.0318228366615462	-0.0301215932914047	0.287211740041929	0.317333333333333
-4	0.144462578938385	0.0740770646701448	0.311268715524035	0.23719165085389
-10	0.160503848003848	0.08236531986532	0.31986531986532	0.2375
-2	0.0541816009557944	0.0150638032990973	0.28042328042328	0.265359477124183
-8	-0.469422043010753	-0.259358072600857	0.238095238095238	0.497453310696095
-4	0.0820105820105819	0.0318138651471984	0.339506172839506	0.307692307692308
1	0.115982484948002	0.0461128773674629	0.296296296296296	0.250183418928833
0	-0.121666453319679	-0.127303693535677	0.311268715524035	0.438572409059712
-8	0.242093554593554	0.125703347578348	0.347578347578348	0.221875
-8	-0.201740911418331	-0.109233657620754	0.296296296296296	0.405529953917051
-6	0.168613457927974	0.0817170678627088	0.365478686233403	0.283761618370694
-4	0.183249061273255	0.0824289709192166	0.326345213137666	0.243916242218449
-8	-0.120173024406895	-0.0612134127287592	0.327523602033406	0.388737014762165
-3	-0.122674517835808	-0.0887312844759652	0.311268715524035	0.4
2	0.163875205254516	0.0621839080459772	0.346666666666667	0.28448275862069
3	-0.311393906221492	-0.201055206149546	0.208944793850454	0.41
-15	-0.255471380471381	-0.10434234457672	0.28042328042328	0.384765625
1	0.112289853217272	0.0341433861223381	0.253086419753086	0.218943033630748
-10	0.0320713859020311	0.0316534608497429	0.28042328042328	0.248769819573537
6	0.212869090288445	0.0438443072702329	0.381344307270233	0.3375
-5	0.142755803038061	0.0711675898772673	0.305185185185185	0.234017595307918
-4	0.201484895033282	0.10771068835585	0.296296296296296	0.188585607940447
0	0.0998122546509645	0.0291851851851852	0.305185185185185	0.276
-8	-0.350499037999038	-0.195569274037415	0.248078266946191	0.443647540983607
0	0.0785202252944188	0.0213507625272331	0.246187363834423	0.22483660130719
-15	-0.0987554112554111	-0.0177564102564102	0.346666666666667	0.364423076923077
-10	0.014911014911015	0.0122653189994881	0.286855482933914	0.274590163934426
-19	0.0492123617123611	0.0694878877476913	0.327523602033406	0.258035714285714
1	-0.0219485495347566	-0.0419282084725959	0.296296296296296	0.338224504768892
-3	0.0647546897546895	0.00953159041394319	0.296296296296296	0.286764705882353
-4	0.0878648233486944	0.0417283950617284	0.346666666666667	0.304938271604938
-5	-0.0677163338453662	-0.0487435117416143	0.246187363834423	0.294930875576037
-11	0.109856630824372	0.0917460317460316	0.365079365079365	0.273333333333333
-10	-0.032444743130227	-0.00333833794741395	0.28042328042328	0.283761618370694
-2	-0.145192483123518	-0.0917339620787898	0.263703703703704	0.355437665782493
2	0.125935048348842	0.0469008994320807	0.311268715524035	0.264367816091954
0	0.062323988735279	0.00427057118889651	0.267139479905437	0.262868908716541
-11	-0.10016835016835	-0.0445767195767195	0.28042328042328	0.325
-8	0.184343434343434	0.101921470342523	0.365079365079365	0.263157894736842
-10	-0.222648916197303	-0.106188769414576	0.263703703703704	0.36989247311828
6	0.319805194805195	0.0999226963512677	0.357575757575758	0.25765306122449
-12	-0.000698711384195194	0.0275070971533404	0.311268715524035	0.283761618370694
1	-0.0849206349206351	-0.0806866070510844	0.267139479905437	0.347826086956522
-1	-0.0877538829151731	-0.0782433862433862	0.28042328042328	0.358666666666667
-2	-0.0425147209421404	-0.0502216440779328	0.246187363834423	0.296409007912355
1	0.116538658474142	0.0381402679275019	0.296296296296296	0.258156028368794
-5	-0.0536140979689366	-0.0421573647380099	0.28042328042328	0.32258064516129
-7	0.193958013312852	0.119326599326599	0.296296296296296	0.176969696969697
-4	-0.121095750128008	-0.0908004778972522	0.296296296296296	0.387096774193548
9	0.251222404670681	0.0971126356692255	0.311268715524035	0.214156079854809
-4	0.145391705069124	0.0649203903441191	0.357575757575758	0.292655367231638
-1	0.135389998293224	0.0532041993950025	0.311268715524035	0.258064516129032
-7	-0.0223800989930023	-0.0154517775745663	0.282154882154882	0.297606659729448
-4	0.0111708482676224	-7.98642308076358e-05	0.28042328042328	0.280503144654088
-9	-0.345349035671616	-0.162611424984306	0.305185185185185	0.467796610169491
-12	0.0542594726062467	0.0533614591290568	0.267139479905437	0.213778020776381
0	-0.0146441372247824	-0.0412037037037037	0.296296296296296	0.3375
0	-0.0670954205436965	-0.0594450249622664	0.31986531986532	0.379310344827586
2	0.133239460658816	0.0431205673758867	0.311268715524035	0.268148148148148
4	0.131088923024407	0.02869945456512	0.286855482933914	0.258156028368794
-13	0.0406144781144775	0.0495445041816007	0.407407407407407	0.357862903225807
-11	-0.300986050986051	-0.157930529399456	0.253086419753086	0.411016949152542
-3	-0.0731940177504694	-0.065066647925598	0.253086419753086	0.318153067678684
-3	-0.0200279484553676	-0.0327053042086516	0.263703703703704	0.296409007912355
-7	-0.102723665223665	-0.0696660756501182	0.267139479905437	0.336805555555555
-4	0.108055099434409	0.0610659217826219	0.327523602033406	0.266457680250784
-10	-0.106518817204301	-0.0456663802754562	0.238095238095238	0.283761618370694
4	0.21853676336435	0.0922916319617969	0.305185185185185	0.212893553223388
2	0.0435686918445536	-0.0065522794158478	0.296296296296296	0.302848575712144
-5	-0.0390424987199183	-0.0373382327841532	0.368191721132897	0.405529953917051
6	0.125832053251408	0.0239651416122005	0.246187363834423	0.222222222222222
2	0.0970568783068784	-0.000448933782267069	0.308641975308642	0.309090909090909
-2	-0.0124850657108722	-0.0254590725178961	0.28042328042328	0.305882352941176
-3	0.00471070148489483	-0.00958605664488027	0.296296296296296	0.305882352941176
-4	0.0738873954599761	0.0263423148389673	0.322751322751323	0.296409007912355
-3	0.203405017921147	0.0970892906376777	0.365079365079365	0.267990074441687
-7	-0.024639664294837	0.00385905011584042	0.286855482933914	0.282996432818074
-10	0.153138528138528	0.0904166666666666	0.346666666666667	0.25625
-1	-0.16013501185915	-0.107493050860191	0.263703703703704	0.371196754563895
-1	0.0673143586936692	0.0267859569033452	0.311268715524035	0.28448275862069
-2	0.112716547192354	0.0432316295693904	0.28042328042328	0.23719165085389
-9	0.117183742183742	0.072429429809749	0.311268715524035	0.238839285714286
6	0.185586571793468	0.0757465182752538	0.253086419753086	0.177339901477833
-11	0.0426480628093532	0.0465301170813206	0.311268715524035	0.264738598442714
-9	0.0472282347282345	0.0232798798494172	0.248078266946191	0.224798387096774
0	0.0596606458675422	0.0254629629629629	0.296296296296296	0.270833333333333
-7	-0.00897657450076805	-0.00590831918505941	0.346666666666667	0.352574985851726
-5	-0.132816257816258	-0.0993052313517999	0.286855482933914	0.386160714285714
5	0.205245393176428	0.0846677303023598	0.311268715524035	0.226600985221675
7	0.0917259624156176	0.00491307634164773	0.28042328042328	0.275510204081633
-5	-0.189382787165045	-0.120460519170197	0.263703703703704	0.3841642228739
-9	-0.0703162578162578	-0.0380616416188225	0.311268715524035	0.349330357142857
0	-0.0586437532002049	-0.0719657038442618	0.246187363834423	0.318153067678684
-1	0.178912783751493	0.087089947089947	0.28042328042328	0.193333333333333
2	0.0857984607984607	-0.0164720880300591	0.339506172839506	0.355978260869565
-1	0.315097499573306	0.150956497294258	0.388148148148148	0.23719165085389
-2	0.111922799422799	0.0203143626423314	0.368191721132897	0.347877358490566
4	0.160983102918587	0.0379710144927536	0.346666666666667	0.308695652173913
-8	0.0638174176480628	0.0380856633603768	0.286855482933914	0.248769819573537
8	0.209085933223864	0.0721583652618135	0.296296296296296	0.224137931034483
-6	0.142015392015392	0.0643657072965638	0.327523602033406	0.263157894736842
-2	-0.158132787165045	-0.123393070489845	0.263703703703704	0.387096774193548
-14	-0.0394119769119774	0.00496565113500574	0.296296296296296	0.29133064516129
-7	-0.153649591149591	-0.10192572892041	0.311268715524035	0.413194444444444
2	0.183205325140809	0.0774557165861513	0.296296296296296	0.218840579710145
6	0.152252944188428	0.0290557116731344	0.287211740041929	0.258156028368794
-12	-0.102483164983165	-0.0450114927573945	0.195767195767196	0.24077868852459
6	0.268974639664295	0.109132797435705	0.327523602033406	0.218390804597701
-5	0.0352705239802011	0.0168093163191201	0.327523602033406	0.310714285714286
-5	0.0804318143027819	0.032592726457369	0.327523602033406	0.294930875576037
-9	-0.134108946608946	-0.075414230019493	0.296296296296296	0.371710526315789
-8	-0.0183211725550436	-0.00441477229397619	0.267139479905437	0.271554252199413
7	0.192437511403028	0.0693230154014466	0.286855482933914	0.217532467532468
-8	0.00130675029868577	0.0063959181106889	0.322751322751323	0.316355404640634
-3	0.113846801346801	0.0412405881155881	0.28042328042328	0.239182692307692
3	-0.00490698071343265	-0.0511784511784513	0.282154882154882	0.333333333333333
-9	-0.127688172043011	-0.0622384660204459	0.238095238095238	0.300333704115684
-3	0.232924482924482	0.105301379811183	0.327523602033406	0.222222222222222
-7	-0.031426011264721	-0.0172093850885889	0.267139479905437	0.284348864994026
-6	-0.157083119986346	-0.0862155612055249	0.311268715524035	0.39748427672956
0	-0.128511691414917	-0.110132774283718	0.326345213137666	0.436477987421384
-7	-0.125789089582193	-0.0488845411809462	0.311268715524035	0.360153256704981
1	0.225406426011265	0.0860240100789232	0.304526748971193	0.21850273889227
-6	0.156024531024531	0.0635104644138862	0.40461215932914	0.341101694915254
7	0.163574165298303	0.0118085611282411	0.40461215932914	0.392803598200899
-1	0.131171319102353	0.0688636178364717	0.267139479905437	0.198275862068966
-8	-0.00784632034632016	-0.0100143678160918	0.346666666666667	0.356681034482759
-4	0.156204130397679	0.0856600189933523	0.339506172839506	0.253846153846154
-7	0.102843915343915	0.0520061728395061	0.339506172839506	0.2875
-8	0.0401334776334774	0.0206266534391533	0.296296296296296	0.275669642857143
-10	-0.032444743130227	-0.00333833794741395	0.28042328042328	0.283761618370694
2	0.0591653865847415	-0.00100866824271073	0.267139479905437	0.268148148148148
-13	-0.114327801827802	-0.0428439153439152	0.263703703703704	0.306547619047619
0	0.150823713323713	0.0524537037037038	0.263703703703704	0.21125
-5	0.0774449564772144	0.0388516387143703	0.267139479905437	0.228287841191067
-5	-0.148777595329319	-0.0727504283961348	0.286855482933914	0.359605911330049
-8	0.0476190476190478	0.060952380952381	0.346666666666667	0.285714285714286
0	0.0122887864823349	-0.0256410256410257	0.307692307692308	0.333333333333333
3	-0.105135924101441	-0.0967493192607051	0.248078266946191	0.344827586206897
-14	-0.163482462877624	-0.0550533309546593	0.246187363834423	0.301240694789082
-4	0.18202861952862	0.088206299291205	0.28042328042328	0.192216981132075
0	0.0998122546509645	0.0291851851851852	0.305185185185185	0.276
-3	-0.0634152585765491	-0.0501938534278961	0.267139479905437	0.317333333333333
7	0.270873869260966	0.109582755661187	0.286855482933914	0.177272727272727
-6	-0.114583333333333	-0.070995670995671	0.238095238095238	0.309090909090909
-3	-0.0274364225977131	-0.0423183813323802	0.326345213137666	0.368663594470046
7	0.174876847290641	0.0433244916003537	0.307692307692308	0.264367816091954
2	0.14225977129203	0.0378301286306066	0.266117969821674	0.228287841191067
-1	-0.220160554643313	-0.147335818107575	0.253086419753086	0.400422237860661
-1	-0.16767925561029	-0.109250301948071	0.246187363834423	0.355437665782493
5	0.296466973886329	0.124444444444445	0.346666666666667	0.222222222222222
-7	-0.311486601809182	-0.155246511178715	0.347578347578348	0.502824858757062
-14	-0.0261136712749616	0.0240860215053764	0.346666666666667	0.32258064516129
-9	-0.00781625781625772	-0.00123128447596527	0.311268715524035	0.3125
3	0.215462506841817	0.0837089625122078	0.368191721132897	0.28448275862069
-10	0.0926139272913465	0.0671528035265521	0.296296296296296	0.229143492769744
-7	-0.208696023212152	-0.108484370895718	0.311268715524035	0.419753086419753
7	0.292993684929169	0.107504633427521	0.326345213137666	0.218840579710145
-13	0.181577681577682	0.123768715524035	0.311268715524035	0.1875
-17	-0.224462365591398	-0.0727552017874598	0.238095238095238	0.310850439882698
6	0.0374931581828135	-0.0285336356764927	0.296296296296296	0.324829931972789
-14	-0.156986531986532	-0.058862433862434	0.28042328042328	0.339285714285714
-5	0.0615763546798028	0.0425914315569487	0.346666666666667	0.304075235109718
-1	-0.104625068418172	-0.0729415166630522	0.287211740041929	0.360153256704981
-1	-0.061357623857624	-0.0800710906842984	0.267806267806268	0.347877358490566
0	0.208978707970643	0.0901445404924215	0.286855482933914	0.196710942441493
0	0.0849974398361495	0.0288888888888889	0.222222222222222	0.193333333333333
-1	0.327060931899642	0.171746031746032	0.365079365079365	0.193333333333333
-5	0.0815252176139272	0.0388404228939834	0.296296296296296	0.257455873402313
0	0.0714285714285715	0	0.307692307692308	0.307692307692308
-7	0.0912698412698412	0.0462962962962963	0.296296296296296	0.25
3	0.0207079000182445	-0.0267454688731287	0.388148148148148	0.414893617021277
8	0.00331114524662912	-0.100542732748852	0.342935528120713	0.443478260869565
-6	-0.0899129544290833	-0.0469135802469135	0.296296296296296	0.34320987654321
-5	-0.0383000512032772	-0.0232005590496157	0.296296296296296	0.319496855345912
-9	-0.372589179040792	-0.185510071474984	0.253086419753086	0.43859649122807
-1	0.00628306878306861	-0.0561556927297669	0.381344307270233	0.4375
-7	-0.0878296210957503	-0.0503312696861085	0.296296296296296	0.346627565982405
-2	0.105633427206008	0.0311145941210504	0.327523602033406	0.296409007912355
-3	0.114252645502645	0.0384874384874385	0.347578347578348	0.309090909090909
2	0.0305779569892473	-0.0247736706213027	0.238095238095238	0.262868908716541
-2	-0.140850209815727	-0.0917411664538102	0.253086419753086	0.344827586206897
-7	-0.0670421573647381	-0.0297068907238399	0.227920227920228	0.257627118644068
5	0.131088923024407	0.0230873669918852	0.286855482933914	0.263768115942029
5	0.0816521590715141	-0.00444444444444431	0.263703703703704	0.268148148148148
6	0.128398102536034	0.0325230709247316	0.311268715524035	0.278745644599303
-10	-0.258132787165045	-0.112962962962963	0.263703703703704	0.376666666666667
-8	0.0873869260966031	0.0656966490299822	0.339506172839506	0.273809523809524
-5	0.0877976190476192	0.0375757575757577	0.346666666666667	0.309090909090909
2	0.0993428912783753	0.0222672520544862	0.28042328042328	0.258156028368794
-4	-0.108109833971903	-0.0585487429989706	0.28042328042328	0.338972023422251
-3	0.107164191841611	0.040738398107152	0.286855482933914	0.246117084826762
-1	-0.0839719029374201	-0.0644043057836161	0.28042328042328	0.344827586206897
-9	-0.0581583888035501	-0.0205285194990067	0.311268715524035	0.331797235023041
4	0.216299903799904	0.0491855281207132	0.342935528120713	0.29375
5	0.30553955453149	0.123727598566308	0.346666666666667	0.222939068100358
0	0.195803685458858	0.0981268624946785	0.339506172839506	0.241379310344828
-5	-0.0707671957671959	-0.0612962962962964	0.263703703703704	0.325
-4	0.0801166426166425	0.0209965574548908	0.339506172839506	0.318509615384615
-10	-0.118957431457431	-0.0603847381864623	0.296296296296296	0.356681034482759
-2	0.0719211822660096	0.0310167992926613	0.346666666666667	0.315649867374005
-7	0.0555395545314902	0.0303112620260329	0.346666666666667	0.316355404640634
-9	-0.0852272727272727	-0.0474651067323481	0.238095238095238	0.285560344827586
4	0.434742490186038	0.197605085180079	0.365478686233403	0.167873601053325
6	0.144325852946543	0.03456560366533	0.311268715524035	0.276703111858705
2	0.125150312650312	0.0316190284487385	0.253086419753086	0.221467391304348
-1	0.03742106161461	-0.00580973129992735	0.327523602033406	0.333333333333333
-3	0.201328763828764	0.0931826434277413	0.339506172839506	0.246323529411765
-5	-0.0420293565454856	-0.0361258254188934	0.311268715524035	0.347394540942928
-11	-0.0588571001877453	-0.0115784319486064	0.305185185185185	0.316763617133792
-13	-0.198713323713324	-0.0891266950010121	0.253086419753086	0.342213114754098
-9	-0.203553391053391	-0.108094618055555	0.244444444444444	0.3525390625
1	-0.0326580901177675	-0.0697885279612472	0.304526748971193	0.374315276932441
1	0.101493428912784	0.0290343915343917	0.28042328042328	0.251388888888889
2	-0.0119959861339171	-0.045053123556425	0.311268715524035	0.35632183908046
-1	-0.00478927203065094	-0.0211275314723588	0.365079365079365	0.386206896551724
11	0.421198156682028	0.189401709401709	0.346666666666667	0.157264957264957
8	0.0781335522714832	-0.0231330875442782	0.287211740041929	0.310344827586207
-5	0.0129288274449564	-0.000850594536249971	0.267139479905437	0.267990074441687
-8	-0.0638974227683904	-0.0307436246034689	0.305185185185185	0.335928809788654
2	-0.111986863711001	-0.110229885057471	0.346666666666667	0.456896551724138
3	0.10589691073562	0.0090118798043326	0.326345213137666	0.317333333333333
-1	0.0928752773510839	0.0265120528498138	0.263703703703704	0.23719165085389
0	-0.0344736361977741	-0.0436731525304886	0.327523602033406	0.371196754563894
4	-0.0258736559139785	-0.076600102406554	0.238095238095238	0.314695340501792
4	0.101493428912784	0.0122751322751323	0.28042328042328	0.268148148148148
-4	0.015463389656938	0.00270655270655268	0.296296296296296	0.293589743589744
-7	-0.135552142003755	-0.0661208576998051	0.263703703703704	0.329824561403509
-6	0.017015392015392	-0.0080027137560677	0.327523602033406	0.335526315789474
1	0.0199479433350401	-0.0415086560311102	0.327523602033406	0.369032258064516
-3	0.0456989247311828	0.00980739690417112	0.238095238095238	0.228287841191067
5	0.106458675424192	0.0255321766949673	0.296296296296296	0.270764119601329
-3	0.282071385902031	0.121600550796833	0.37037037037037	0.248769819573537
-13	-0.18713924963925	-0.0797282938676381	0.296296296296296	0.376024590163934
-3	0.226838168217478	0.130581223549445	0.339506172839506	0.208924949290061
6	0.0878398102536034	-0.0118792916312261	0.326345213137666	0.338224504768892
-2	-0.145347968936679	-0.118691204080198	0.28042328042328	0.399114484503479
1	0.178607918263091	0.0813720124064951	0.322751322751323	0.241379310344828
-8	0.0658228793309438	0.0426154993217812	0.322751322751323	0.280135823429542
0	0.108191935778143	0.0431162196679439	0.305185185185185	0.262068965517241
-3	-0.160458269329237	-0.114625061494132	0.246187363834423	0.360812425328554
-12	0.0159423536439666	0.0313487167003825	0.28042328042328	0.249074563722898
5	0.155726233145588	0.0370370370370371	0.305185185185185	0.268148148148148
2	-0.251149425287356	-0.188170352513713	0.238095238095238	0.426265590608951
-8	-0.0638974227683904	-0.0307436246034689	0.305185185185185	0.335928809788654
3	0.216035159583547	0.0883948152307796	0.311268715524035	0.222873900293255
2	0.232840722495895	0.105287356321839	0.346666666666667	0.241379310344828
-19	0.0893157768157767	0.0841577131376659	0.326345213137666	0.2421875
2	-0.0657268731865507	-0.0921603947775585	0.282154882154882	0.374315276932441
1	0.259022076263456	0.133343296830702	0.339506172839506	0.206162876008804
-2	0.0627752176139271	0.0202962962962962	0.296296296296296	0.276
-6	-0.0237497866530124	-0.0082281398218772	0.311268715524035	0.319496855345912
10	0.32530560116767	0.112286079182631	0.388148148148148	0.275862068965517
2	0.124871991807476	0.0298166329021868	0.296296296296296	0.266479663394109
-10	0.172228234728234	0.096133742303097	0.387464387464387	0.29133064516129
-4	0.0111708482676224	-7.98642308076913e-05	0.28042328042328	0.280503144654088
-4	-0.182621784345922	-0.104057274658457	0.267139479905437	0.371196754563895
-5	-0.20734126984127	-0.140277777777778	0.222222222222222	0.3625
6	0.222078213005632	0.0682687064111805	0.287211740041929	0.218943033630748
-10	0.067941317941318	0.0481108207871926	0.311268715524035	0.263157894736842
-14	-0.106060606060606	-0.0357142857142856	0.238095238095238	0.273809523809524
-11	-0.0822295201605551	-0.00933321788572156	0.253086419753086	0.262419637638808
7	0.0789454479109654	-0.00975259140455598	0.263703703703704	0.27345629510826
-8	0.0557529015190306	0.0397144633246213	0.311268715524035	0.271554252199413
-7	-0.226419824202083	-0.131077803120814	0.253086419753086	0.3841642228739
-1	-0.177393753200205	-0.1268895592425	0.246187363834423	0.373076923076923
-9	0.0533910533910534	0.0331384015594542	0.296296296296296	0.263157894736842
-10	-0.0384199134199139	-0.0169044665012409	0.307692307692308	0.324596774193549
-4	0.0154303208738693	-0.00688435215464966	0.311268715524035	0.318153067678684
-4	-0.114072367298174	-0.0756593890511287	0.311268715524035	0.386928104575163
-1	-0.0210872162485066	-0.036910052910053	0.28042328042328	0.317333333333333
1	0.0298525772316096	-0.0312203447687318	0.305185185185185	0.336405529953917
-2	-0.0808318399044205	-0.0782104956678011	0.28042328042328	0.358633776091082
-5	0.0209592080559819	0.0115769857908221	0.253086419753086	0.241509433962264
-2	0.0541816009557946	0.0150638032990975	0.28042328042328	0.265359477124183
4	-0.0317460317460317	-0.0496270639763959	0.311268715524035	0.360895779500431
-3	-0.123097974822113	-0.0749004582675983	0.296296296296296	0.371196754563895
2	-0.136533538146441	-0.123880663376462	0.246187363834423	0.370068027210884
-5	-0.09367816091954	-0.0454296661193212	0.238095238095238	0.283524904214559
-11	0.0606172128349549	0.0484736666862526	0.263703703703704	0.215230037017451
-4	-0.0490858081583887	-0.0473650605670468	0.311268715524035	0.358633776091082
-7	0.0240800865800866	0.00154823989569752	0.307692307692308	0.30614406779661
-12	-0.115271377368152	-0.0420857902647705	0.222222222222222	0.264308012486993
-6	0.167434715821813	0.0886021505376344	0.346666666666667	0.258064516129032
1	0.167434715821813	0.0609523809523809	0.346666666666667	0.285714285714286
-5	-0.0515873015873016	-0.0405528277868704	0.267139479905437	0.307692307692308
-14	0.0230880230880225	0.0382317801672638	0.296296296296296	0.258064516129032
5	0.106458675424192	0.0255321766949673	0.296296296296296	0.270764119601329
-3	0.143992148830859	0.076602048857368	0.311268715524035	0.234666666666667
2	0.155726233145588	0.0537962962962964	0.305185185185185	0.251388888888889
5	0.34252858849633	0.150805509466786	0.327523602033406	0.17671809256662
-8	-0.145000912242292	-0.0406793364240172	0.311268715524035	0.351948051948052
-14	-0.324260752688172	-0.138248847926267	0.238095238095238	0.376344086021505
5	0.132193030468892	0.024675026321262	0.327523602033406	0.302848575712144
-3	0.00471070148489483	-0.00958605664488027	0.296296296296296	0.305882352941176
-1	0.0542541389315582	0.00196118211942917	0.248078266946191	0.246117084826762
-8	-0.375332968436417	-0.180411117192727	0.253086419753086	0.433497536945813
-5	-0.0832431457431456	-0.0694692944408298	0.287211740041929	0.356681034482758
-9	-0.0555715565796212	-0.0200591083443376	0.296296296296296	0.316355404640634
5	0.0350301039956211	-0.0226405807801157	0.296296296296296	0.318936877076412
0	0.034491881043605	-0.00310520121203028	0.327523602033406	0.330628803245436
-6	0.0960754821641919	0.0538128421217219	0.311268715524035	0.257455873402313
-8	-0.25815838880355	-0.128731284475965	0.311268715524035	0.44
1	0.101493428912784	0.0290343915343916	0.28042328042328	0.251388888888889
1	0.200349889059566	0.07173721340388	0.308641975308642	0.236904761904762
-12	-0.0961554872845194	-0.025720121786719	0.305185185185185	0.330905306971904
-6	0.0818001443001442	0.0358796296296296	0.296296296296296	0.260416666666667
3	0.0898030807304999	-0.0156982479703683	0.342935528120713	0.358633776091082
-3	0.221729611384784	0.127939298324694	0.296296296296296	0.168356997971602
-3	0.226838168217478	0.130581223549445	0.339506172839506	0.208924949290061
3	0.0804318143027821	-0.0165624194719703	0.327523602033406	0.344086021505376
-3	0.0636040706605224	0.0113045242442687	0.346666666666667	0.335362142422398
0	0.0973928998122548	0.0187335722819594	0.305185185185185	0.286451612903226
0	0.0859276327018262	0.0214960058097313	0.286855482933914	0.265359477124183
5	0.0581189563948182	-0.0159930927782297	0.286855482933914	0.302848575712144
-3	0.192636328725038	0.0892107932643538	0.346666666666667	0.257455873402313
-14	-0.020412457912458	0.0162037037037037	0.322751322751323	0.306547619047619
3	-0.191798941798942	-0.135035656774787	0.28042328042328	0.415458937198068
2	0.0665727939921489	-0.00280535855003933	0.311268715524035	0.314074074074074
-10	0.0493684929168799	0.0539587740035668	0.311268715524035	0.257309941520468
2	0.0298212005108558	-0.0137806814255823	0.28042328042328	0.294203961848863
1	0.242516854412016	0.0938756004193792	0.388148148148148	0.294272547728769
1	0.184948002189382	0.0901334202874922	0.296296296296296	0.206162876008804
-10	0.0880109660351597	0.0673524733055854	0.311268715524035	0.243916242218449
4	0.168263090676884	0.0583835066593687	0.322751322751323	0.264367816091954
0	0.103484765553731	0.032026721681894	0.387464387464387	0.355437665782493
-3	-0.0845440774876258	-0.0716584387186943	0.263703703703704	0.335362142422398
-5	0.113291370187922	0.0751944449670055	0.311268715524035	0.236074270557029
-5	0.00134408602150538	-0.00802184673152415	0.238095238095238	0.246117084826762
-7	0.14793771043771	0.0784143518518517	0.28042328042328	0.202008928571429
-4	0.077837514934289	0.0389138464610162	0.28042328042328	0.241509433962264
6	0.144325852946543	0.03456560366533	0.311268715524035	0.276703111858705
-7	0.171680320873869	0.103383410864537	0.311268715524035	0.207885304659498
4	0.181499726327312	0.0737257633809356	0.296296296296296	0.222570532915361
0	0.0973928998122548	0.0187335722819594	0.305185185185185	0.286451612903226
-4	0.129650964328384	0.059068100358423	0.305185185185185	0.246117084826762
-2	-0.00416026625704058	-0.0314456391875748	0.296296296296296	0.327741935483871
-4	0.21926096603516	0.126954990033839	0.311268715524035	0.184313725490196
-8	-0.171155487284519	-0.0775734355044699	0.305185185185185	0.382758620689655
-1	-0.15442054958184	-0.119576719576719	0.28042328042328	0.4
0	0.185355862775217	0.0879629629629629	0.296296296296296	0.208333333333333
-3	-0.0265574330090459	-0.0274492816403148	0.266117969821674	0.293567251461988
-4	-0.0454685099846388	-0.0348148148148147	0.346666666666667	0.381481481481481
2	0.0298212005108558	-0.0137806814255823	0.28042328042328	0.294203961848863
-4	0.0895374637310121	0.0459164292497626	0.339506172839506	0.293589743589744
10	0.276429424816521	0.071723406908592	0.342935528120713	0.271212121212121
5	0.0953384418901659	0.0108308039342521	0.28042328042328	0.269592476489028
-4	-0.047468734968735	-0.0512638383169664	0.248078266946191	0.299342105263158
-3	0.236471861471861	0.0887792397660819	0.345029239766082	0.25625
5	0.0543240284619592	-0.0022598411345216	0.246187363834423	0.248447204968944
-5	0.0137235449735451	-0.00390572390572386	0.305185185185185	0.309090909090909
-7	0.138521932070319	0.0841325536062377	0.305185185185185	0.221052631578948
6	0.155939580133128	0.0460012685233235	0.267139479905437	0.221138211382114
-6	0.0429168800136542	0.0307655708699466	0.311268715524035	0.280503144654088
6	0.0834880098993001	-0.0147906417703494	0.248078266946191	0.262868908716541
-15	-0.0108465608465608	0.0446020488573681	0.311268715524035	0.266666666666667
8	0.0985221674876847	-0.00399600399600403	0.307692307692308	0.311688311688312
1	-0.021620142309798	-0.0304514240684457	0.296296296296296	0.326747720364742
0	0.111281788701143	0.038032656312226	0.253086419753086	0.21505376344086
-8	0.114207551707551	0.0638365299823632	0.339506172839506	0.275669642857143
-6	0.0771705146705147	0.0295155423280423	0.305185185185185	0.275669642857143
-3	0.0774110149110149	0.0175187155240347	0.311268715524035	0.29375
2	0.266411717016556	0.10136258097305	0.31986531986532	0.21850273889227
-9	0.0958621351766514	0.0629050482959724	0.346666666666667	0.283761618370694
-9	0.0645743145743146	0.0307172251616696	0.304526748971193	0.273809523809524
-3	0.0786900200693303	0.0441614704630255	0.253086419753086	0.208924949290061
-19	-0.0313780081925245	0.0387132438167584	0.296296296296296	0.257583052479538
-5	-0.130313811348294	-0.0594450249622663	0.31986531986532	0.379310344827586
0	0.179868578255675	0.0792139077853363	0.322751322751323	0.243537414965986
2	0.0708738692609658	0.00114119721962841	0.286855482933914	0.285714285714286
-5	0.00330687830687848	-0.0198148148148147	0.305185185185185	0.325
-10	0.0174663299663299	0.0166072549547125	0.322751322751323	0.30614406779661
-7	0.164502164502165	0.0835087719298247	0.346666666666667	0.263157894736842
-3	-0.0563856960408687	-0.035226586950725	0.28042328042328	0.315649867374005
-6	0.0818001443001442	0.0358796296296296	0.296296296296296	0.260416666666667
-7	0.158850408850409	0.0890464933018126	0.311268715524035	0.222222222222222
-1	-0.0686462324393358	-0.0458741416188224	0.311268715524035	0.357142857142857
2	0.249871991807475	0.122383252818035	0.296296296296296	0.173913043478261
-4	-0.26682774364226	-0.172382053722977	0.286855482933914	0.459237536656891
2	-0.0133096150337531	-0.0448515414262286	0.326345213137666	0.371196754563895
-6	0.132305194805195	0.0491741182314953	0.357575757575758	0.308401639344262
1	0.0498719918074756	-0.0058313632781718	0.296296296296296	0.302127659574468
6	0.176693975081072	0.0341510341510341	0.31986531986532	0.285714285714286
3	0.052022529441884	-0.0177777777777779	0.296296296296296	0.314074074074074
0	0.120839733742959	0.038231780167264	0.296296296296296	0.258064516129032
0	0.130747567844342	0.0457023060796645	0.287211740041929	0.241509433962264
2	0.119357781426746	0.0259066414877394	0.381344307270233	0.355437665782494
4	0.249641577060932	0.0969312169312169	0.365079365079365	0.268148148148148
-5	-0.226500638569604	-0.118044152526911	0.28042328042328	0.398467432950191
-13	-0.0404665898617512	0.00645161290322577	0.307692307692308	0.301240694789082
15	0.105044699872286	-0.0301172217756132	0.248078266946191	0.278195488721805
-10	-0.143774534903567	-0.0630990391656364	0.267806267806268	0.330905306971904
-4	-0.0939313449394095	-0.0682771376944424	0.248078266946191	0.316355404640634
1	0.192665571975917	0.101767420916357	0.296296296296296	0.194528875379939
0	-0.170229561358594	-0.146618876941458	0.263703703703704	0.410322580645161
-1	-0.0103430619559652	-0.0315948601662888	0.296296296296296	0.327891156462585
13	0.398148148148148	0.156695156695157	0.387464387464387	0.230769230769231
-2	0.150990996757126	0.0547909609382525	0.326345213137666	0.271554252199413
0	-0.0339381720430108	-0.0561773096335308	0.238095238095238	0.294272547728769
-1	0.147444103089264	0.0428980410721129	0.365478686233403	0.32258064516129
-12	-0.0909370199692778	-0.0131410256410256	0.307692307692308	0.320833333333333
-2	-0.0112133237133239	-0.0406635802469137	0.253086419753086	0.29375
-8	0.0288445127154805	0.0293231162196679	0.305185185185185	0.275862068965517
-15	-0.128487253487254	-0.0357871398035106	0.326345213137666	0.362132352941176
2	0.216333845366103	0.0762389077801264	0.304526748971193	0.228287841191067
-3	0.0575268817204301	0.023992673992674	0.238095238095238	0.214102564102564
-6	0.151274651274651	0.0801366400523366	0.311268715524035	0.231132075471698
9	0.038359788359788	-0.0308641975308644	0.253086419753086	0.283950617283951
2	0.0519521985039226	0.00450143846370266	0.31986531986532	0.315363881401617
-3	0.0922619047619049	0.0201923076923078	0.307692307692308	0.2875
-4	0.2460530807305	0.113792035350969	0.342935528120713	0.229143492769744
-1	0.176507296466974	0.0689943074003795	0.346666666666667	0.277672359266287
-6	0.0255376344086021	0.00242802636142908	0.333333333333333	0.330905306971904
-9	-0.0581583888035501	-0.0205285194990067	0.311268715524035	0.331797235023041
-5	0.0543831168831168	0.00835020242914974	0.307692307692308	0.299342105263158
-12	-0.0204725829725831	0.0056712962962962	0.296296296296296	0.290625
4	0.222078213005632	0.077205156763456	0.287211740041929	0.210006583278473
-5	0.18810125060125	0.0752002394736228	0.381344307270233	0.30614406779661
-2	-0.21989247311828	-0.148832866479925	0.238095238095238	0.386928104575163
-7	-0.215416453319679	-0.12026353820068	0.286855482933914	0.407119021134594
-6	-0.229966717869944	-0.140979689366786	0.296296296296296	0.437275985663082
-10	-0.029100529100529	-0.00296296296296295	0.263703703703704	0.266666666666667
2	0.0964669738863289	0.00916666666666671	0.346666666666667	0.3375
-4	0.0242747673782157	0.0176465792969181	0.267139479905437	0.249492900608519
-5	0.0309950503498894	0.0154882154882156	0.305185185185185	0.28969696969697
1	-0.0349462365591398	-0.0629800307219662	0.238095238095238	0.301075268817204
-3	0.0713773681515615	0.0309368191721132	0.296296296296296	0.265359477124183
0	-0.160872162485066	-0.131821617535903	0.28042328042328	0.412244897959184
-10	0.054531490015361	0.0455913978494624	0.346666666666667	0.301075268817204
4	0.2638660828316	0.136850110872872	0.311268715524035	0.174418604651163
-1	0.379088504088504	0.180511879804333	0.326345213137666	0.145833333333333
-3	0.116722136883427	0.0431747370393796	0.327523602033406	0.284348864994026
2	0.296466973886329	0.131612903225806	0.346666666666667	0.21505376344086
-15	-0.0989357864357868	-0.0241911652558531	0.267139479905437	0.29133064516129
-2	-0.0936166581327871	-0.0836908372392244	0.263703703703704	0.347394540942928
4	0.136584741423451	0.0423332783550498	0.267139479905437	0.224806201550388
4	0.242519613209268	0.104232804232804	0.407407407407407	0.303174603174603
-5	-0.00781625781625761	-0.0256445170660856	0.286855482933914	0.3125
-11	-0.105339105339105	-0.0446065906708595	0.40461215932914	0.44921875
5	0.320771462706946	0.133393950415227	0.347578347578348	0.214184397163121
-10	0.0280977982590884	0.0315576978535821	0.296296296296296	0.264738598442714
-5	0.0830928330928332	0.0324225616778809	0.311268715524035	0.278846153846154
-8	-0.00876322751322745	0.00217780643312565	0.311268715524035	0.309090909090909
0	-0.0784984491881047	-0.0595519531689747	0.311268715524035	0.370820668693009
-7	0.0279280904280904	0.00584307992202726	0.305185185185185	0.299342105263158
7	0.136644478579963	-0.00316376265942847	0.342935528120713	0.346099290780142
8	0.130532749498267	0.0133991878256545	0.286855482933914	0.27345629510826
-6	0.144300144300144	0.074074074074074	0.296296296296296	0.222222222222222
4	0.112534209085933	0.0267038198072679	0.296296296296296	0.269592476489028
-7	-0.125789089582193	-0.0488845411809462	0.311268715524035	0.360153256704981
1	0.299547704386414	0.132859840232389	0.408859840232389	0.276
2	0.163875205254516	0.0621839080459771	0.346666666666667	0.28448275862069
9	0.0511273911273912	-0.0079855465221319	0.305185185185185	0.313170731707317
-3	0.0647546897546893	0.00953159041394314	0.296296296296296	0.286764705882353
-5	0.0300136542072026	0.0176789719342911	0.311268715524035	0.293589743589744
3	-0.0612391193036353	-0.0799054373522458	0.222222222222222	0.302127659574468
-12	-0.139288914490527	-0.0516139372624139	0.267139479905437	0.318753417167851
3	-0.0538317118962279	-0.0823955870764381	0.263703703703704	0.346099290780142
-12	-0.0565796210957503	-0.00477897252090809	0.296296296296296	0.301075268817204
-1	-0.0292456050520566	-0.0455533210435171	0.327523602033406	0.373076923076923
1	0.0202946321897935	-0.0305688440250652	0.263703703703704	0.294272547728769
-4	-0.0512032770097287	-0.0370370370370371	0.296296296296296	0.333333333333333
6	0.128398102536034	0.0325230709247315	0.311268715524035	0.278745644599303
-3	-0.021868066222905	-0.0357251622273761	0.286855482933914	0.32258064516129
-4	-0.142045454545455	-0.109782120395328	0.238095238095238	0.347877358490566
4	0.226425157876771	0.0835863072048206	0.305185185185185	0.221598877980365
1	0.127084473636198	0.0533976510562686	0.311268715524035	0.257871064467766
6	0.0919084108739278	0.00381444567491063	0.322751322751323	0.318936877076412
-4	0.155032467532467	0.0514316897791472	0.357575757575757	0.30614406779661
-9	0.150222462722462	0.0747966882226139	0.381344307270233	0.306547619047619
-7	-0.0187590187590182	-0.0240496581774469	0.368191721132898	0.392241379310345
3	0.00990783410138274	-0.0552447552447551	0.357575757575758	0.412820512820513
2	-0.0908687489332654	-0.100536768652711	0.253086419753086	0.353623188405797
-8	0.0133128520225291	0.0224867724867723	0.296296296296296	0.273809523809524
-1	0.130397678784775	0.0537918871252203	0.339506172839506	0.285714285714286
-11	0.107164191841611	0.0821252227542906	0.311268715524035	0.229143492769744
6	0.296152287079706	0.107402179506918	0.326345213137666	0.218943033630748
-9	-0.0420293565454858	-0.0142197858832901	0.286855482933914	0.301075268817204
-8	-0.0607612220515448	-0.0207231040564375	0.253086419753086	0.273809523809524
-6	0.0577572964669737	0.0359523809523808	0.346666666666667	0.310714285714286
-9	-0.00460829493087556	0.0189830508474577	0.346666666666667	0.327683615819209
-10	-0.170935545935546	-0.0885648148148148	0.305185185185185	0.39375
1	0.15518278018278	0.0485590361769606	0.248078266946191	0.199519230769231
6	0.248677248677249	0.123456790123457	0.296296296296296	0.17283950617284
0	0.154020523980201	0.0498512427671187	0.327523602033406	0.277672359266287
-1	0.194909688013136	0.0971737660581475	0.346666666666667	0.249492900608519
-10	-0.0410212920293564	-0.0050866891165991	0.311268715524035	0.316355404640634
-1	0.133239460658816	0.0598798266351458	0.311268715524035	0.251388888888889
8	0.118591497901843	0.0245149911816578	0.253086419753086	0.228571428571429
-12	-0.0491522366522367	-0.0137497984196097	0.287211740041929	0.300961538461538
4	0.205162997098481	0.0693675736646115	0.327523602033406	0.258156028368794
-3	-0.063756613756614	-0.0376360187680943	0.248078266946191	0.285714285714286
-3	-0.120250896057348	-0.0874847374847375	0.365079365079365	0.452564102564103
-3	0.12812019969278	0.0502576587543113	0.346666666666667	0.296409007912355
1	-0.00224441030892641	-0.0423544728817624	0.311268715524035	0.353623188405797
-6	-0.0237497866530125	-0.00822813982187731	0.311268715524035	0.319496855345912
10	0.214833059660646	0.0726120857699804	0.296296296296296	0.223684210526316
2	0.2638660828316	0.138854922420586	0.311268715524035	0.172413793103448
1	0.2329589093702	0.0945271011630459	0.346666666666667	0.252139565503621
-2	0.035415599931729	-0.0042863707379836	0.263703703703704	0.267990074441687
-10	-0.032444743130227	-0.00333833794741395	0.28042328042328	0.283761618370694
1	0.104533844189017	0.0390439700784528	0.28042328042328	0.241379310344828
-5	0.0662578162578163	0.015023602033406	0.327523602033406	0.3125
5	-0.081235176062762	-0.0864165464165462	0.282154882154882	0.368571428571428
2	0.0397727272727275	-0.0265324214792298	0.238095238095238	0.264627659574468
-10	0.0685425685425683	0.0462962962962962	0.296296296296296	0.25
-1	-0.00815544608648067	-0.0196783694320641	0.296296296296296	0.31597466572836
-3	-0.0592410144134282	-0.0369744321738913	0.253086419753086	0.290060851926978
6	0.223645320197044	0.0770741901776384	0.346666666666667	0.269592476489028
2	0.0605413105413106	0.0332874375427567	0.28042328042328	0.247135842880524
-1	0.131405743300904	0.0452336251107372	0.339506172839506	0.294272547728769
3	0.0739802013995562	-0.00997639796659411	0.327523602033406	0.3375
-2	0.137540535927633	0.0677313005580483	0.311268715524035	0.243537414965986
-4	0.0192609660351596	0.00538636258285824	0.311268715524035	0.305882352941176
-8	-0.0932539682539681	-0.0578605200945626	0.267139479905437	0.325
-1	0.136279875935048	0.0698894051792071	0.311268715524035	0.241379310344828
2	-0.0532384601350117	-0.0638825031928479	0.263703703703704	0.327586206896552
-2	-0.0587027914614121	-0.0322128851540616	0.238095238095238	0.2703081232493
0	0.0154303208738692	-0.0312975847447701	0.286855482933914	0.318153067678684
-4	0.00793650793650791	-0.0113960113960114	0.296296296296296	0.307692307692308
4	0.290288445127155	0.105344307270233	0.381344307270233	0.276
-2	-0.0129903302317094	-0.0157186364082915	0.267806267806268	0.283524904214559
-4	-0.0269567597153804	-0.00316864334386241	0.267139479905437	0.2703081232493
-3	-0.0636360727086535	-0.0623374797947853	0.296296296296296	0.358633776091082
-14	-0.0454846079846078	-0.0050217360606794	0.266117969821674	0.271139705882353
3	0.291483188257382	0.118098926813524	0.342935528120713	0.224836601307189
-4	-0.0470216760539343	-0.0475906013540423	0.339506172839506	0.387096774193548
-4	0.0228707970643452	0.00617283950617276	0.339506172839506	0.333333333333333
-10	0.231204130397679	0.145957785742732	0.339506172839506	0.193548387096774
-1	0.285864598364598	0.117417217653067	0.387464387464387	0.270047169811321
-5	0.0443258529465424	0.0354066465585173	0.311268715524035	0.275862068965517
-4	0.0825823519371907	0.0378266323364362	0.327523602033406	0.28969696969697
-8	-0.14735343061956	-0.0794880860769674	0.267139479905437	0.346627565982405
-9	-0.0327956989247313	-0.00213464696223323	0.238095238095238	0.240229885057471
-8	-0.0339405964405966	-0.0225832231040565	0.253086419753086	0.275669642857143
-2	0.00232974910394268	-0.0218487394957983	0.365079365079365	0.386928104575163
-6	-0.105025388291517	-0.0662042855591243	0.28042328042328	0.346627565982405
1	0.123681515616999	0.0482989001952924	0.267139479905437	0.218840579710145
-11	-0.224974398361495	-0.104384435556187	0.267139479905437	0.371523915461624
1	0.101493428912784	0.0290343915343916	0.28042328042328	0.251388888888889
-3	0.0728110599078341	0.0271698113207547	0.346666666666667	0.319496855345912
2	0.0498719918074755	-0.0123993558776168	0.296296296296296	0.308695652173913
-13	0.117724867724868	0.0763452131376659	0.326345213137666	0.25
-2	-0.0470003413551799	-0.0547743773550224	0.267806267806268	0.32258064516129
-4	-0.130531505531505	-0.10508665716999	0.253086419753086	0.358173076923077
1	0.101493428912784	0.0290343915343915	0.28042328042328	0.251388888888889
-1	0.0637310121181088	0.0116150163769211	0.339506172839506	0.327891156462585
-4	-0.00616281866281876	-0.0316203703703705	0.305185185185185	0.336805555555556
3	0.111384783798577	0.0319284802043422	0.296296296296296	0.264367816091954
-11	-0.0771209633278601	-0.0011905534991451	0.296296296296296	0.297486849795441
-10	-0.115095366103431	-0.0492159247351965	0.267139479905437	0.316355404640634
3	0.216035159583547	0.0883948152307796	0.311268715524035	0.222873900293255
-7	-0.328144734596347	-0.169668615984405	0.305185185185185	0.474853801169591
4	0.130532749498267	0.037812420415775	0.311268715524035	0.27345629510826
3	0.0147209421402968	-0.0554193899782136	0.368191721132897	0.423611111111111
-5	0.0129288274449564	-0.000850594536250027	0.267139479905437	0.267990074441687
3	0.333018646526711	0.162445240939865	0.339506172839506	0.177060931899642
-3	-0.123097974822113	-0.0749004582675983	0.296296296296296	0.371196754563895
-2	0.0915898617511521	0.0233434426982814	0.307692307692308	0.284348864994026
2	0.174543049543049	0.0395805072553129	0.326345213137666	0.286764705882353
-11	-0.179056792968083	-0.0757677209290113	0.267806267806268	0.343573988735279
-3	-0.0619559651817718	-0.0501089324618737	0.296296296296296	0.34640522875817
-6	0.0315593531319339	0.0148597076116793	0.311268715524035	0.296409007912355
3	0.259413935825226	0.0954387820747267	0.347578347578348	0.252139565503621
-5	0.0137235449735451	-0.00390572390572386	0.305185185185185	0.309090909090909
-1	0.0665727939921489	0.0168242710795903	0.311268715524035	0.294444444444444
-10	-0.0459762758149856	-0.0116521786896278	0.253086419753086	0.264738598442714
-7	-0.146782727427889	-0.0741863075196407	0.253086419753086	0.327272727272727
1	0.134869431643625	0.0423328305681246	0.307692307692308	0.265359477124183
-7	-0.0727086533538145	-0.0309764309764309	0.296296296296296	0.327272727272727
-7	-0.142959549411162	-0.071345029239766	0.222222222222222	0.293567251461988
2	0.0758985586571795	0.00125749091266347	0.387464387464387	0.386206896551724
-4	0.136968766001024	0.0680084551052292	0.296296296296296	0.228287841191067
-2	0.112716547192354	0.0432316295693904	0.28042328042328	0.23719165085389
-4	0.0381794131794135	-0.00918110265180749	0.326345213137666	0.335526315789473
3	0.0225779967159278	-0.010351966873706	0.238095238095238	0.248447204968944
-10	-0.131854256854257	-0.0656259359089548	0.40461215932914	0.470238095238095
-6	0.151244588744589	0.070997023809524	0.346666666666667	0.275669642857143
-1	0.0573316692268304	0.00202374856752729	0.296296296296296	0.294272547728769
-4	-0.11741764806281	-0.0749006403908367	0.327523602033406	0.402424242424243
2	-0.186371100164203	-0.139940476190476	0.346666666666667	0.486607142857143
-5	0.06131592421915	0.024989207152395	0.246187363834423	0.221198156682028
-6	0.0288445127154806	0.0102543096091484	0.305185185185185	0.294930875576037
-6	0.0280977982590884	0.0119474313022699	0.296296296296296	0.284348864994026
-1	-0.0210872162485066	-0.036910052910053	0.28042328042328	0.317333333333333
5	0.205245393176428	0.0846677303023597	0.311268715524035	0.226600985221675
-3	-0.0540781276668375	-0.0596083116639727	0.339506172839506	0.399114484503479
-8	-0.0932539682539683	-0.0578605200945627	0.267139479905437	0.325
-8	-0.0081925243215567	0.00136542072025936	0.296296296296296	0.294930875576037
-11	-0.160458269329237	-0.0687893298832168	0.267139479905437	0.335928809788654
-7	-0.0734927035330261	-0.0421279003961517	0.346666666666667	0.388794567062818
-6	-0.0570586820586819	-0.0486708328555593	0.286855482933914	0.335526315789474
-11	-0.123373229220003	-0.0454229586540533	0.305185185185185	0.350608143839238
1	0.115982484948002	0.0461128773674628	0.296296296296296	0.250183418928833
-16	-0.210376130739034	-0.0631685902485605	0.286855482933914	0.350024073182475
-8	-0.151304713804713	-0.0912872458925088	0.28042328042328	0.371710526315789
-1	-0.0759441707717571	-0.0476190476190477	0.238095238095238	0.285714285714286
5	0.172461170848268	0.0561808561808561	0.28042328042328	0.224242424242424
-3	0.0371873496873498	-0.00634346610761705	0.263703703703704	0.270047169811321
1	-0.0415526363802227	-0.0402873742089429	0.286855482933914	0.327142857142857
14	0.086617405582923	-0.0702531522604961	0.345029239766082	0.415282392026578
0	0.172422915526364	0.0780307014248866	0.327523602033406	0.249492900608519
-3	-0.0560078511691412	-0.0473979511426318	0.311268715524035	0.358666666666667
-4	0.0192609660351596	0.00538636258285824	0.311268715524035	0.305882352941176
0	-0.00706987775953338	-0.0154790048407072	0.311268715524035	0.326747720364742
-9	-0.110529740570063	-0.0492883942233123	0.339506172839506	0.388794567062818
-1	0.250581370541048	0.110475788881861	0.388148148148148	0.277672359266287
-9	-0.134108946608947	-0.0754142300194933	0.296296296296296	0.37171052631579
-8	0.0492123617123615	0.0213795342367957	0.327523602033406	0.30614406779661
0	-0.0275388291517328	-0.0474678760393049	0.28042328042328	0.327891156462585
7	0.17487684729064	0.0433244916003537	0.307692307692308	0.264367816091954
2	0.133239460658816	0.0431205673758867	0.311268715524035	0.268148148148148
3	0.130133128520225	0.0428970556630131	0.267139479905437	0.224242424242424
0	0.131088923024407	0.0531126871552404	0.311268715524035	0.258156028368794
-7	0.00136542072025958	0.012233445566779	0.339506172839506	0.327272727272727
-9	0.0958621351766514	0.0629050482959724	0.346666666666667	0.283761618370694
-5	-0.0420293565454856	-0.0361258254188934	0.311268715524035	0.347394540942928
5	-0.0615036695681861	-0.11595465883616	0.327523602033406	0.443478260869565
-5	-0.0366530124594641	-0.0220646178092986	0.311268715524035	0.333333333333333
-10	-0.105537421061615	-0.0413062703276914	0.311268715524035	0.352574985851726
-12	-0.129730969448711	-0.0424765004409735	0.311268715524035	0.353745215965008
-7	0.0144393241167435	0.0150369404606693	0.307692307692308	0.292655367231638
-14	0.122835497835498	0.0908072916666669	0.346666666666667	0.255859375
10	0.19047619047619	0.0501974954390065	0.327523602033406	0.277326106594399
-1	0.134884145228973	0.0657552931772964	0.339506172839506	0.27375087966221
0	0.173886328725039	0.0706666666666667	0.346666666666667	0.276
3	0.0318228366615462	-0.0301215932914047	0.287211740041929	0.317333333333333
-8	-0.0543696405765371	-0.00805580115924942	0.267806267806268	0.275862068965517
-5	-0.138990228707971	-0.0876272461433346	0.266117969821674	0.353745215965008
6	0.144462689290276	0.0411331707883431	0.263703703703704	0.222570532915361
-5	-0.0623496873496877	-0.0558758443978572	0.253086419753086	0.308962264150943
-5	-0.0457074586106846	-0.0274167249010018	0.253086419753086	0.280503144654088
-7	0.107164191841611	0.0651516306972725	0.311268715524035	0.246117084826762
0	0.0564586754241928	0.016956060976604	0.267139479905437	0.250183418928833
0	0.0125661375661376	-0.0428451178451178	0.282154882154882	0.325
3	0.118748933265062	0.0141648077131948	0.282154882154882	0.267990074441687
-5	0.0204599761051374	0.00017067759003242	0.322751322751323	0.32258064516129
-4	0.143458393458393	0.0486788791873538	0.31986531986532	0.271186440677966
-3	0.0194359105649428	-0.0160634899233342	0.31986531986532	0.335928809788654
-3	0.203986388462195	0.102314521985616	0.339506172839506	0.23719165085389
-4	-0.334357398873527	-0.197530864197531	0.222222222222222	0.419753086419753
-1	0.135389998293224	0.0532041993950025	0.311268715524035	0.258064516129032
1	-0.176436781609195	-0.132594417077175	0.238095238095238	0.370689655172414
1	-0.054126130739034	-0.0821767751306019	0.286855482933914	0.369032258064516
-8	-0.0154220779220778	-0.019393837156995	0.345029239766082	0.364423076923077
-3	-0.354006656426011	-0.229320401995924	0.246187363834423	0.475507765830346
-3	0.155181536216019	0.0823128740640574	0.327523602033406	0.245210727969349
-3	0.0839520395972007	0.0195316157496357	0.31986531986532	0.300333704115684
2	0.144325852946543	0.0553283893378551	0.286855482933914	0.231527093596059
-4	0.0643294504181601	0.0229674070209676	0.28042328042328	0.257455873402313
12	0.36056376573618	0.146932646932647	0.365079365079365	0.218146718146718
-12	-0.0118145743145742	0.00511593526299414	0.246187363834423	0.241071428571428
3	0.199906127325482	0.078522149600581	0.286855482933914	0.208333333333333
0	-0.0942054958183988	-0.0896447467876038	0.28042328042328	0.370068027210884
-1	-0.0954301075268817	-0.0896466973886329	0.238095238095238	0.327741935483871
0	0.104652031063321	0.0282837149196596	0.28042328042328	0.252139565503621
5	-0.0273766854412015	-0.078293022973874	0.267806267806268	0.346099290780142
5	0.30553955453149	0.123727598566308	0.346666666666667	0.222939068100358
-1	0.0381037719747396	-0.0127759934211548	0.282154882154882	0.294930875576037
-9	0.137976830517153	0.0885996352889391	0.296296296296296	0.207696661007357
7	0.178607918263091	0.0468892537858054	0.322751322751323	0.275862068965517
-2	0.120848267622461	0.0555866791160909	0.28042328042328	0.22483660130719
-3	0.0883096518177164	0.0243909255416518	0.304526748971193	0.280135823429542
-4	-0.181457431457432	-0.141203703703704	0.296296296296296	0.4375
-3	-0.00925925925925924	-0.0272690272690273	0.28042328042328	0.307692307692308
-7	0.0222763347763347	0.00672281323877066	0.267139479905437	0.260416666666667
0	0.0594299368492918	0.00200617283950627	0.339506172839506	0.3375
-9	0.073460701484895	0.0523800540778469	0.296296296296296	0.243916242218449
1	0.0339901477832513	-0.0115317851278443	0.346666666666667	0.358198451794511
-13	-0.00420875420875422	0.00925925925925924	0.259259259259259	0.25
-2	-0.0779655231268135	-0.064246913580247	0.253086419753086	0.317333333333333
-5	-0.0225468975468975	-0.0365749459440609	0.304526748971193	0.341101694915254
2	0.19894606588155	0.0730265094453967	0.339506172839506	0.266479663394109
0	0.00482164191841605	-0.0321453529000699	0.326345213137666	0.358490566037736
-3	0.0653961853558626	0.018623937030009	0.296296296296296	0.277672359266287
-2	0.179707501280082	0.0717827132205421	0.368191721132897	0.296409007912355
-1	0.183286396996074	0.0784247424539573	0.248078266946191	0.169653524492234
-9	-0.0703162578162578	-0.0380616416188225	0.311268715524035	0.349330357142857
0	0.240552995391705	0.112	0.346666666666667	0.234666666666667
-2	0.189388120839734	0.0924253285543608	0.296296296296296	0.203870967741935
5	0.300483488414523	0.1280693510687	0.326345213137666	0.198275862068966
-12	0.00919913419913387	0.0220698924731181	0.346666666666667	0.324596774193549
-3	-0.0749861324458098	-0.0691300917472554	0.305185185185185	0.374315276932441
7	0.23458310527276	0.103552532123961	0.28042328042328	0.17687074829932
-4	-0.00426887926887909	-0.0335711394454563	0.308641975308642	0.342213114754098
-7	-0.119030551288616	-0.0551935055881625	0.266117969821674	0.321311475409836
-14	-0.0509860509860512	-0.00497809637594598	0.253086419753086	0.258064516129032
7	0.309583546680321	0.146268715524035	0.311268715524035	0.165
-7	0.0163540163540166	0.000545808966861738	0.263703703703704	0.263157894736842
12	0.222222222222222	0.074074074074074	0.296296296296296	0.222222222222222
-7	0.0340928486089774	0.0158202024300623	0.248078266946191	0.232258064516129
-12	-0.0873617123617124	-0.0298329793912196	0.311268715524035	0.341101694915254
-1	-0.194252432155658	-0.150064245621154	0.287211740041929	0.437275985663082
-5	0.136724386724387	0.0651642208245981	0.296296296296296	0.231132075471698
-5	0.0410394265232975	0.0218694885361552	0.365079365079365	0.34320987654321
0	0.0436143039591316	0.00667240076107067	0.28042328042328	0.27375087966221
-5	0.155599291688001	0.0820502994371933	0.339506172839506	0.257455873402313
3	0.166009557945042	0.0615827007131354	0.28042328042328	0.218840579710145
-8	-0.120173024406895	-0.0612134127287592	0.327523602033406	0.388737014762165
-9	-0.0244410308926442	0.00968161143599722	0.339506172839506	0.329824561403509
-9	-0.132816257816258	-0.0748919987616795	0.311268715524035	0.386160714285714
-9	0.0185025174944529	0.0231507681988723	0.339506172839506	0.316355404640634
-1	0.177232676224612	0.0540149657297365	0.37037037037037	0.316355404640634
-7	-0.159571909571909	-0.10270955165692	0.305185185185185	0.407894736842105
0	0.033388803550094	-0.0182308951723527	0.266117969821674	0.284348864994026
-8	0.0557529015190306	0.0397144633246213	0.311268715524035	0.271554252199413
8	0.105820105820105	0.0148148148148146	0.296296296296296	0.281481481481482
-2	-0.137224782386073	-0.103703703703704	0.296296296296296	0.4
0	0.113201911589008	0.0370370370370369	0.322751322751323	0.285714285714286
-1	0.0455794504181601	0.00442328042328038	0.28042328042328	0.276
-9	-0.0736531986531986	-0.040697409231892	0.28042328042328	0.321120689655172
-6	0.0384024577572966	0.0148694316436253	0.346666666666667	0.331797235023041
-1	-0.00675971538040498	-0.0173432787152522	0.267139479905437	0.28448275862069
2	0.0207543949479436	-0.02747177376807	0.266117969821674	0.293589743589744
-11	0.0205928330928332	0.0257083706964485	0.311268715524035	0.285560344827586
