8
[ 0.376, 1.899, 1.899, 5.254, 1.899, 0.376, 5.254, 1.899, 0.376, 1.157, 0.376, 1.157, 0.376, 5.254, 0.376, 2.365, 1.899, 1.899, 0.376, 2.365, 1.157, 0.376, 0.376, 1.899, 1.899, 1.899, 3.454, 0.376, 0.376, 1.899, 2.365, 1.157, 2.365, 0.376, 1.899, 1.899, 2.365, 3.454, 0.376, 1.899, 1.899, 1.899, 3.454, 0.376, 1.899, 1.899, 1.899, 1.899, 1.157, 1.157, 1.899, 2.365, 1.899, 0.376, 0.376, 1.157, 1.899, 1.899, 0.376, 2.365, 1.899, 1.899, 0.376, 1.157, 1.157, 1.899, 3.454, 0.376, 1.899, 1.899, 2.365, 1.899, 5.254, 1.157, 2.365, 0.376, 5.254, 5.254, 2.365, 1.899, 1.899, 1.157, 1.899, 1.899, 2.365, 0.376, 0.376, 0.376, 1.899, 1.899, 1.899, 1.899, 1.899, 5.254, 5.254, 0.376, 1.157, 1.899, 0.376, 5.254, 1.899, 5.254, 1.157, 1.157, 1.899, 1.157, 0.376, 1.157, 2.614, 1.899, 1.899, 3.454, 2.365, 0.376, 0.376, 1.157, 1.157, 1.899, 1.899, 0.376, 2.365, 1.899, 1.899, 1.899, 0.376, 0.376, 2.365, 1.899, 1.899, 1.899, 2.365, 5.254, 2.365, 0.376, 1.899, 1.157, 0.376, 2.699, 1.899, 1.899, 1.899, 0.376, 5.254, 1.899, 1.157, 0.376, 1.899, 0.376, 0.376, 1.157, 2.365, 0.376, 0.376, 1.899, 1.157, 0.376, 0.376, 1.899, 2.365, 0.376, 2.614, 1.157, 1.899, 1.899, 0.376, 2.365, 1.899, 0.376, 0.376, 1.157, 1.899, 1.157, 0.376, 0.376, 2.365, 1.899, 0.376, 5.254, 1.899, 0.376, 1.899, 0.376, 2.365, 2.365, 5.254, 0.376, 1.899, 1.157, 0.376, 1.899, 5.254, 1.899, 0.376, 1.899, 0.376, 0.376, 0.376, 1.899, 1.899, 2.365 ]
4
[ 0.098, 0.079, 0.079, 0.079, 0.079, 0.079, 0.079, 0.079, 0.079, 0.079, 0.079, 0.079, 0.079, 0.079, 0.079, 0.079, 0.079, 0.079, 0.079, 0.274, 0.079, 0.079, 0.079, 0.079, 0.079, 0.079, 0.079, 0.079, 0.079, 0.079, 0.274, 0.079, 0.787, 0.079, 0.787, 0.787, 0.787, 0.079, 0.787, 0.079, 0.079, 0.787, 0.079, 0.079, 0.079, 0.079, 0.079, 0.079, 0.079, 0.079, 0.079, 0.274, 0.079, 0.079, 0.079, 0.079, 0.079, 0.079, 0.079, 0.079, 0.079, 0.079, 0.079, 0.079, 0.079, 0.079, 0.098, 0.079, 0.079, 0.079, 0.079, 0.079, 0.079, 0.787, 0.079, 0.079, 0.079, 0.079, 0.079, 0.079, 0.079, 0.079, 0.079, 0.274, 0.787, 0.787, 0.787, 0.787, 0.079, 0.079, 0.079, 0.079, 0.079, 0.787, 0.079, 0.079, 0.079, 0.787, 0.787, 0.079, 0.274, 0.079, 0.787, 0.079, 0.079, 0.079, 0.079, 0.079, 0.079, 0.079, 0.079, 0.079, 0.079, 0.079, 0.079, 0.787, 0.787, 0.787, 0.787, 0.079, 0.079, 0.079, 0.079, 0.079, 0.079, 0.079, 0.079, 0.079, 0.787, 0.079, 0.079, 0.274, 0.079, 0.079, 0.079, 0.787, 0.787, 0.079, 0.079, 0.079, 0.079, 0.079, 0.079, 0.787, 0.787, 0.079, 0.079, 0.079, 0.079, 0.079, 0.079, 0.079, 0.787, 0.079, 0.787, 0.079, 0.079, 0.079, 0.079, 0.787, 0.079, 0.079, 0.079, 0.079, 0.079, 0.079, 0.079, 0.274, 0.079, 0.079, 0.787, 0.787, 0.079, 0.079, 0.079, 0.079, 0.079, 0.079, 0.787, 0.274, 0.079, 0.787, 0.079, 0.079, 0.079, 0.079, 0.079, 0.079, 0.079, 0.079, 0.787, 0.079, 0.079, 0.079, 0.079, 0.079, 0.079, 0.079, 0.079, 0.079 ]