3
[ 5.686, 5.686, 2.881, 5.686, 1.950, 1.950, 5.686, 1.950, 1.950, 5.686, 1.950, 1.950, 5.686, 1.950, 2.881, 5.686, 5.686, 5.686, 5.686, 5.686, 1.950, 1.950, 1.950, 2.881, 5.686, 1.950, 5.686, 5.686, 5.686, 5.686, 1.950, 2.881, 1.950, 5.686, 2.881, 2.881, 2.881, 5.686, 1.950, 1.950, 2.881, 1.950, 2.881, 2.881, 1.950, 1.950, 5.686, 2.881, 2.881, 2.881, 5.686, 5.686, 2.881, 2.881, 5.686, 2.881, 2.881, 5.686, 1.950, 1.950, 2.881, 5.686, 2.881, 5.686, 1.950, 2.881, 2.881, 2.881, 1.950, 5.686, 1.950, 5.686, 5.686, 5.686, 5.686, 1.950, 5.686, 5.686, 5.686, 5.686, 5.686, 1.950, 5.686, 1.950, 1.950, 2.881, 5.686, 1.950, 2.881, 2.881, 5.686, 2.881, 2.881, 2.881, 1.950, 2.881, 2.881, 2.881, 2.881, 2.881 ]
3
[ 0.746, 0.746, 0.196, 0.196, 0.196, 0.196, 0.196, 0.746, 0.746, 0.332, 0.196, 0.746, 0.196, 0.332, 0.746, 0.332, 0.746, 0.332, 0.196, 0.746, 0.332, 0.332, 0.332, 0.746, 0.746, 0.196, 0.746, 0.332, 0.746, 0.746, 0.332, 0.196, 0.746, 0.332, 0.746, 0.332, 0.746, 0.746, 0.196, 0.196, 0.746, 0.746, 0.196, 0.332, 0.332, 0.332, 0.746, 0.746, 0.332, 0.196, 0.746, 0.196, 0.746, 0.332, 0.196, 0.746, 0.746, 0.332, 0.196, 0.332, 0.332, 0.746, 0.746, 0.332, 0.332, 0.196, 0.196, 0.746, 0.196, 0.746, 0.196, 0.746, 0.332, 0.746, 0.332, 0.332, 0.746, 0.196, 0.746, 0.196, 0.196, 0.196, 0.196, 0.196, 0.196, 0.332, 0.746, 0.332, 0.196, 0.332, 0.196, 0.332, 0.332, 0.196, 0.196, 0.332, 0.196, 0.332, 0.332, 0.196 ]