3
[ 1.915, 1.915, 1.915, 2.204, 4.037, 4.037, 4.037, 1.915, 4.037, 2.204, 2.204, 1.915, 2.204, 2.204, 4.037, 1.915, 2.204, 1.915, 1.915, 1.915, 2.204, 2.204, 4.037, 1.915, 4.037, 1.915, 1.915, 1.915, 4.037, 1.915, 4.037, 4.037, 1.915, 4.037, 1.915, 4.037, 4.037, 1.915, 2.204, 2.204, 2.204, 4.037, 4.037, 4.037, 4.037, 4.037, 2.204, 4.037, 4.037, 2.204, 2.204, 1.915, 2.204, 1.915, 1.915, 1.915, 4.037, 2.204, 4.037, 4.037, 2.204, 2.204, 2.204, 4.037, 4.037, 2.204, 1.915, 1.915, 1.915, 2.204, 1.915, 4.037, 1.915, 1.915, 1.915, 4.037, 4.037, 2.204, 1.915, 1.915, 2.204, 2.204, 4.037, 4.037, 2.204, 4.037, 1.915, 4.037, 2.204, 4.037, 4.037, 2.204, 1.915, 4.037, 2.204, 1.915, 1.915, 2.204, 2.204, 1.915, 1.915, 1.915, 4.037, 1.915, 4.037, 2.204, 2.204, 4.037, 2.204, 4.037, 4.037, 4.037, 1.915, 1.915, 2.204, 1.915, 4.037, 4.037, 1.915, 1.915, 4.037, 2.204, 2.204, 4.037, 4.037, 2.204, 2.204, 2.204, 2.204, 1.915, 1.915, 2.204, 1.915, 4.037, 4.037, 4.037, 2.204, 4.037, 1.915, 1.915, 2.204, 1.915, 4.037, 2.204, 1.915, 1.915, 4.037, 2.204, 1.915, 4.037, 4.037, 2.204, 1.915, 1.915, 1.915, 2.204, 4.037, 1.915, 1.915, 4.037, 1.915, 2.204, 4.037, 4.037, 2.204, 2.204, 4.037, 4.037, 4.037, 1.915, 2.204, 4.037, 1.915, 1.915, 1.915, 4.037, 1.915, 4.037, 2.204, 2.204, 4.037, 1.915, 2.204, 4.037, 4.037, 2.204, 4.037, 2.204, 1.915, 2.204, 1.915, 1.915, 1.915, 4.037, 1.915, 2.204, 1.915, 4.037, 2.204, 1.915 ]
3
[ 0.549, 0.259, 0.902, 0.549, 0.549, 0.902, 0.902, 0.259, 0.549, 0.259, 0.259, 0.549, 0.902, 0.259, 0.549, 0.259, 0.259, 0.902, 0.902, 0.549, 0.902, 0.902, 0.902, 0.902, 0.549, 0.259, 0.549, 0.902, 0.549, 0.259, 0.902, 0.259, 0.549, 0.259, 0.259, 0.549, 0.902, 0.549, 0.549, 0.902, 0.549, 0.902, 0.259, 0.549, 0.259, 0.902, 0.549, 0.902, 0.549, 0.549, 0.259, 0.902, 0.549, 0.259, 0.259, 0.259, 0.259, 0.549, 0.549, 0.549, 0.549, 0.902, 0.549, 0.902, 0.549, 0.549, 0.259, 0.259, 0.259, 0.902, 0.259, 0.549, 0.549, 0.549, 0.902, 0.259, 0.549, 0.902, 0.259, 0.902, 0.549, 0.549, 0.549, 0.549, 0.902, 0.549, 0.902, 0.549, 0.902, 0.902, 0.549, 0.549, 0.259, 0.902, 0.259, 0.259, 0.549, 0.549, 0.549, 0.902, 0.549, 0.259, 0.549, 0.902, 0.902, 0.259, 0.259, 0.902, 0.259, 0.902, 0.549, 0.902, 0.259, 0.549, 0.549, 0.902, 0.259, 0.902, 0.902, 0.902, 0.259, 0.902, 0.549, 0.902, 0.902, 0.549, 0.549, 0.902, 0.902, 0.259, 0.549, 0.549, 0.902, 0.902, 0.259, 0.259, 0.902, 0.902, 0.902, 0.902, 0.902, 0.259, 0.259, 0.902, 0.549, 0.902, 0.259, 0.259, 0.549, 0.259, 0.259, 0.549, 0.259, 0.902, 0.259, 0.259, 0.902, 0.259, 0.902, 0.902, 0.549, 0.549, 0.259, 0.902, 0.259, 0.259, 0.902, 0.549, 0.259, 0.902, 0.259, 0.259, 0.902, 0.549, 0.259, 0.902, 0.902, 0.259, 0.259, 0.549, 0.259, 0.259, 0.259, 0.259, 0.549, 0.259, 0.259, 0.259, 0.549, 0.259, 0.259, 0.902, 0.902, 0.549, 0.902, 0.902, 0.549, 0.549, 0.902, 0.549 ]