3
[ 3.329, 3.329, 3.266, 3.329, 7.376, 3.329, 3.266, 3.329, 3.266, 3.266, 7.376, 3.266, 7.376, 3.329, 7.376, 3.266, 3.329, 3.329, 7.376, 3.266, 7.376, 7.376, 7.376, 3.329, 7.376, 3.266, 3.329, 7.376, 3.266, 3.266, 3.329, 7.376, 3.266, 3.329, 3.329, 3.266, 3.266, 3.266, 3.266, 3.329, 3.329, 3.266, 7.376, 7.376, 3.266, 7.376, 7.376, 7.376, 3.266, 7.376, 3.266, 3.266, 7.376, 3.329, 3.266, 3.266, 7.376, 7.376, 3.329, 3.329, 7.376, 3.329, 3.329, 3.329, 7.376, 7.376, 7.376, 3.266, 7.376, 3.266, 3.329, 7.376, 3.266, 7.376, 3.266, 7.376, 3.329, 3.329, 3.266, 3.329, 3.266, 3.329, 7.376, 3.329, 7.376, 3.266, 3.329, 7.376, 7.376, 3.329, 7.376, 3.329, 3.266, 3.266, 3.266, 7.376, 7.376, 3.329, 3.329, 3.329 ]
3
[ 0.841, 0.660, 0.660, 0.841, 0.402, 0.841, 0.402, 0.660, 0.402, 0.402, 0.841, 0.841, 0.841, 0.660, 0.841, 0.402, 0.660, 0.660, 0.841, 0.841, 0.841, 0.402, 0.660, 0.841, 0.660, 0.841, 0.660, 0.660, 0.402, 0.841, 0.841, 0.841, 0.402, 0.402, 0.660, 0.402, 0.660, 0.841, 0.841, 0.660, 0.402, 0.660, 0.660, 0.660, 0.660, 0.841, 0.660, 0.660, 0.402, 0.660, 0.402, 0.660, 0.841, 0.402, 0.660, 0.660, 0.660, 0.402, 0.402, 0.402, 0.841, 0.660, 0.841, 0.660, 0.660, 0.841, 0.841, 0.841, 0.660, 0.660, 0.402, 0.402, 0.660, 0.402, 0.402, 0.402, 0.841, 0.402, 0.660, 0.841, 0.402, 0.841, 0.841, 0.660, 0.402, 0.402, 0.402, 0.841, 0.841, 0.660, 0.402, 0.660, 0.660, 0.660, 0.841, 0.660, 0.660, 0.841, 0.841, 0.402 ]