3
[ 1.006, 4.195, 1.006, 1.115, 4.195, 1.115, 1.006, 1.115, 1.006, 4.195, 1.115, 1.115, 4.195, 1.006, 1.115, 4.195, 1.006, 1.006, 1.006, 1.115, 1.006, 4.195, 4.195, 1.115, 4.195, 1.115, 1.115, 1.006, 4.195, 4.195, 1.115, 1.006, 1.115, 1.115, 1.006, 4.195, 1.115, 1.115, 1.115, 1.115, 1.115, 4.195, 1.006, 1.115, 1.006, 4.195, 1.006, 1.115, 1.006, 1.006, 1.115, 4.195, 4.195, 4.195, 1.115, 1.006, 4.195, 4.195, 1.115, 1.006, 1.115, 1.006, 1.115, 1.115, 1.006, 4.195, 1.115, 4.195, 1.006, 1.115, 4.195, 4.195, 4.195, 1.006, 4.195, 1.006, 1.115, 1.006, 1.006, 1.115, 1.115, 1.115, 1.006, 4.195, 1.115, 4.195, 1.006, 1.115, 1.006, 1.006, 1.115, 1.006, 4.195, 1.006, 1.006, 4.195, 1.115, 4.195, 1.006, 1.115, 1.006, 4.195, 4.195, 1.115, 1.006, 1.115, 1.006, 4.195, 1.115, 4.195, 1.115, 4.195, 1.006, 1.115, 4.195, 4.195, 1.006, 1.115, 4.195, 1.115, 1.006, 1.006, 1.006, 4.195, 1.006, 1.006, 1.006, 1.006, 4.195, 1.115, 4.195, 4.195, 1.006, 1.115, 1.115, 1.006, 1.006, 4.195, 1.115, 1.115, 1.006, 1.006, 1.115, 1.006, 1.006, 1.006, 4.195, 1.006, 1.006, 4.195, 4.195, 1.006, 4.195, 4.195, 1.115, 4.195, 4.195, 4.195, 4.195, 4.195, 1.115, 1.115, 4.195, 1.115, 4.195, 4.195, 4.195, 4.195, 1.115, 1.115, 4.195, 1.006, 4.195, 4.195, 1.115, 1.006, 4.195, 1.115, 1.006, 1.115, 4.195, 1.115, 4.195, 4.195, 1.115, 1.115, 4.195, 4.195, 1.115, 1.006, 1.006, 1.006, 1.115, 1.115, 4.195, 4.195, 1.006, 1.006, 1.006, 1.115 ]
3
[ 0.825, 0.180, 0.825, 0.180, 0.825, 0.744, 0.180, 0.825, 0.825, 0.180, 0.744, 0.825, 0.825, 0.825, 0.825, 0.180, 0.744, 0.825, 0.744, 0.180, 0.180, 0.180, 0.180, 0.825, 0.180, 0.744, 0.744, 0.180, 0.825, 0.180, 0.180, 0.180, 0.180, 0.744, 0.744, 0.180, 0.180, 0.180, 0.825, 0.180, 0.825, 0.744, 0.825, 0.825, 0.744, 0.825, 0.744, 0.180, 0.744, 0.744, 0.825, 0.180, 0.825, 0.180, 0.180, 0.744, 0.825, 0.744, 0.744, 0.825, 0.744, 0.744, 0.744, 0.180, 0.825, 0.825, 0.744, 0.744, 0.744, 0.744, 0.825, 0.180, 0.180, 0.744, 0.180, 0.825, 0.180, 0.825, 0.180, 0.744, 0.180, 0.825, 0.825, 0.180, 0.744, 0.180, 0.825, 0.180, 0.180, 0.825, 0.180, 0.744, 0.180, 0.744, 0.180, 0.744, 0.180, 0.744, 0.825, 0.180, 0.180, 0.825, 0.825, 0.825, 0.744, 0.825, 0.744, 0.744, 0.180, 0.744, 0.180, 0.180, 0.180, 0.825, 0.180, 0.825, 0.825, 0.825, 0.744, 0.744, 0.180, 0.744, 0.744, 0.825, 0.825, 0.180, 0.180, 0.744, 0.825, 0.744, 0.744, 0.180, 0.744, 0.744, 0.744, 0.825, 0.825, 0.744, 0.825, 0.825, 0.744, 0.825, 0.180, 0.744, 0.180, 0.744, 0.744, 0.825, 0.825, 0.744, 0.744, 0.825, 0.744, 0.825, 0.744, 0.825, 0.744, 0.180, 0.180, 0.825, 0.180, 0.744, 0.744, 0.825, 0.180, 0.744, 0.744, 0.744, 0.825, 0.744, 0.825, 0.744, 0.744, 0.744, 0.825, 0.180, 0.180, 0.825, 0.825, 0.744, 0.825, 0.744, 0.744, 0.825, 0.180, 0.744, 0.744, 0.744, 0.744, 0.180, 0.744, 0.825, 0.825, 0.744, 0.180, 0.825, 0.180, 0.180, 0.180, 0.825 ]