3
[ 4.218, 4.218, 1.260, 1.260, 2.901, 2.901, 2.901, 2.901, 4.218, 2.901, 4.218, 4.218, 4.218, 2.901, 1.260, 2.901, 4.218, 2.901, 2.901, 4.218, 4.218, 4.218, 1.260, 4.218, 2.901, 4.218, 4.218, 4.218, 1.260, 2.901, 4.218, 4.218, 2.901, 2.901, 4.218, 2.901, 4.218, 4.218, 2.901, 1.260, 1.260, 2.901, 2.901, 4.218, 2.901, 4.218, 4.218, 1.260, 1.260, 1.260, 2.901, 1.260, 2.901, 1.260, 1.260, 1.260, 2.901, 4.218, 4.218, 1.260, 4.218, 1.260, 2.901, 4.218, 1.260, 2.901, 2.901, 4.218, 1.260, 2.901, 1.260, 4.218, 1.260, 1.260, 2.901, 2.901, 1.260, 4.218, 1.260, 4.218, 1.260, 4.218, 2.901, 1.260, 2.901, 2.901, 2.901, 2.901, 1.260, 2.901, 1.260, 4.218, 2.901, 2.901, 2.901, 1.260, 1.260, 2.901, 4.218, 4.218 ]
3
[ 0.373, 0.812, 0.065, 0.812, 0.373, 0.812, 0.065, 0.812, 0.373, 0.812, 0.065, 0.065, 0.065, 0.373, 0.065, 0.373, 0.065, 0.373, 0.373, 0.373, 0.373, 0.373, 0.065, 0.373, 0.812, 0.812, 0.812, 0.812, 0.812, 0.373, 0.065, 0.812, 0.373, 0.065, 0.812, 0.812, 0.373, 0.373, 0.065, 0.065, 0.065, 0.065, 0.373, 0.373, 0.065, 0.065, 0.065, 0.373, 0.812, 0.065, 0.065, 0.812, 0.065, 0.065, 0.065, 0.065, 0.065, 0.812, 0.373, 0.812, 0.373, 0.373, 0.373, 0.812, 0.812, 0.065, 0.373, 0.812, 0.812, 0.812, 0.373, 0.373, 0.065, 0.373, 0.065, 0.065, 0.812, 0.812, 0.812, 0.373, 0.373, 0.065, 0.812, 0.373, 0.812, 0.065, 0.373, 0.065, 0.373, 0.373, 0.373, 0.373, 0.812, 0.812, 0.812, 0.812, 0.812, 0.373, 0.065, 0.812 ]