pars_sum	pars_var	pars_disp	obs_disp	sim_disp
-22	-0.102889855705876	-0.0392073701908751	0.368175582990397	0.407382953181272
-22	-0.0866420326996034	-0.0301804958326689	0.367521367521368	0.397701863354037
-23	-0.170059225701403	-0.0815378231556672	0.389014134907854	0.470551958063522
7	0.181432805852694	0.104719337990938	0.396581196581198	0.29186185859026
8	0.209075332260564	0.117865190399547	0.402926829268293	0.285061638868746
-21	0.0282812925389915	0.0376579466213821	0.394364699627858	0.356706753006476
-7	0.171243816675608	0.111023085441691	0.425641025641027	0.314617940199336
-9	0.0577175794378504	0.0414918988972423	0.41338897583029	0.371897076933048
5	0.0206682565286218	-0.00267887290366775	0.355803650540493	0.35848252344416
19	0.224301567149643	0.114208899740704	0.400862998921252	0.286654099180548
3	0.0353883474635472	0.0114894803868948	0.340347110395419	0.328857630008525
-12	0.0615915140404361	0.045667169329936	0.437681159420289	0.392013990090353
8	0.142582236731624	0.0715542912381518	0.394364699627858	0.322810408389706
5	0.120212994464259	0.0582008820228999	0.381301690039554	0.323100808016655
-19	-0.192947699174231	-0.101754824075374	0.36954732510288	0.471302149178254
-11	0.0286032143353798	0.0237827096650628	0.372910052910053	0.34912734324499
-5	0.171818609240387	0.10945074870902	0.439985616684647	0.330534867975627
5	0.112224730019907	0.0562074124961752	0.386894586894588	0.330687174398413
12	0.16183523054612	0.0781048581048587	0.372910052910053	0.294805194805194
6	0.0917458164195903	0.0479337059665172	0.32877492877493	0.280841222808412
15	0.207423696896824	0.110902664113139	0.355803650540493	0.244900986427353
17	0.176208500986325	0.0814777689217756	0.377917540181691	0.296439771259916
2	0.109367425071025	0.0613845140061702	0.398747539810341	0.337363025804171
6	0.155923888340308	0.0877490111470696	0.391082344480403	0.303333333333333
-12	-0.0850277766352426	-0.050289033267756	0.357834757834759	0.408123791102515
-12	0.0584394257819655	0.0429860899582118	0.389014134907854	0.346028044949643
2	0.0351499192802618	0.00861298382677489	0.377917540181691	0.369304556354916
-18	-0.00185946719113106	0.0182581453634089	0.430476190476191	0.412218045112782
-4	0.0371171969987049	0.0208402218718503	0.367521367521368	0.346681145649518
7	0.218091231764574	0.12076167516501	0.432925748715223	0.312164073550212
2	0.127971845349202	0.066130407548848	0.392098765432099	0.325968357883251
10	0.0610053591590738	0.0197102915240174	0.382504409171076	0.362794117647059
11	0.0460224537456869	-6.98959249885167e-05	0.377207977207978	0.377277873132967
-2	-0.00275294514969338	-0.0120384771033146	0.379280730005367	0.391319207108682
-4	0.170635913940045	0.106166632110029	0.425641025641027	0.319474393530998
-27	-0.160585929424486	-0.0548416856316826	0.359813920200393	0.414655605832076
9	0.132610974333462	0.062617288977871	0.346163388268651	0.28354609929078
-3	0.0796878609644276	0.0495106560220937	0.396581196581198	0.347070540559104
4	-0.0287490949498023	-0.0432118802978809	0.36331569664903	0.406527576946911
-9	0.113864667166771	0.0754740194316511	0.393098464317977	0.317624444886326
9	-0.0246849048163287	-0.0387978233422543	0.36331569664903	0.402113519991284
3	-0.022415145462489	-0.0302164077841466	0.411287477954145	0.441503885738292
-16	0.0351955332794075	0.0346872591553454	0.406267806267807	0.371580547112462
-10	0.170752091000554	0.114523501428319	0.393098464317977	0.278574962889658
-16	-0.0234704733290108	-0.00296500194295435	0.389014134907854	0.391979136850809
5	0.262576236168227	0.157283853501794	0.430204962243798	0.272921108742004
-10	-0.128149231923315	-0.0820849829243344	0.367521367521368	0.449606350445703
3	0.142081628814596	0.0800989205287932	0.400862998921252	0.320764078392459
5	0.127229804451332	0.0631789048049212	0.392098765432099	0.328919860627178
10	0.119847395222865	0.0490157300260448	0.404004961899699	0.354989231873654
-23	-0.0385111671279228	0.00179772945730478	0.425641025641027	0.423843296183722
-5	0.0527744750977934	0.0322192272022179	0.392098765432099	0.359879538229881
-40	-0.369924873022494	-0.157890980681678	0.37068044788975	0.528571428571428
8	0.126413969843257	0.0573793668410766	0.387421383647799	0.330042016806722
2	0.115445036603528	0.0585877632355637	0.386894586894588	0.328306823659024
4	0.143447662753043	0.0779436434466051	0.379280730005367	0.301337086558762
-1	0.152028488036511	0.0929060116998853	0.420881834215168	0.327975822515282
-9	-0.0426758646721115	-0.0250275426331774	0.394470526864893	0.41949806949807
6	0.149199997649644	0.0779040143221098	0.371521035598706	0.293617021276596
-24	-0.212877093283354	-0.10237200160296	0.338461538461539	0.440833540064499
3	0.143133943884885	0.07734794564063	0.406267806267808	0.328919860627177
-9	0.112771089523279	0.0761173095110286	0.389014134907854	0.312896825396826
-2	0.0822092466083161	0.0479484973350415	0.393098464317977	0.345149966982936
-32	-0.263700823118847	-0.114880672981052	0.398747539810341	0.513628212791393
5	0.0195156313116261	-0.00909894707236908	0.361309216192937	0.370408163265306
-11	0.24351520750144	0.16385447026984	0.408480944712828	0.244626474442988
13	0.247961358108741	0.141855567942526	0.386894586894588	0.245039018952062
-7	0.0695715875002489	0.0441662869294452	0.394364699627858	0.350198412698413
0	0.0817735167608201	0.0438641679249188	0.389014134907854	0.345149966982936
0	0.213537135294968	0.128711280838942	0.386894586894588	0.258183306055646
1	0.0950922449357994	0.0500095421148052	0.346163388268651	0.296153846153846
2	0.080736502638881	0.0381993623660293	0.353721340388007	0.315521978021978
11	0.181894034209429	0.0961364202140904	0.371521035598706	0.275384615384616
1	0.0637929894788352	0.031860224415526	0.392098765432099	0.360238541016573
12	0.203200800703976	0.106801762053562	0.401693121693122	0.29489135963956
-10	0.0732926740436153	0.0521035199934299	0.435327635327637	0.383224115334207
-4	0.0354336138931984	0.0204594900131669	0.322617763394462	0.302158273381295
13	0.195874784766025	0.106363335644009	0.361740381157857	0.255377045513848
-17	-0.00206950459070177	0.0131482336531615	0.427979638406179	0.414831404753017
-6	0.111727491915756	0.0678141768921917	0.372910052910053	0.305095876017862
-11	0.0435284585648601	0.0319294863570576	0.391082344480403	0.359152858123346
-20	0.024507861613663	0.0344209862439345	0.398747539810341	0.364326553566407
-24	-0.0641721463999282	-0.00763353823698459	0.445014245014247	0.452647783251231
2	0.140575998584885	0.0802706140338892	0.398747539810341	0.318476925776452
-11	0.159525306476602	0.108179927109634	0.430204962243798	0.322025035134164
12	0.17920414368785	0.0925743636479388	0.389014134907854	0.296439771259916
-12	0.0710849247772645	0.0559436050303865	0.389014134907854	0.333070529877468
2	-0.0325272555065196	-0.0369992070307207	0.371521035598706	0.408520242629427
-8	0.156046484210758	0.107294892439822	0.435327635327637	0.328032742887815
7	0.26130199124567	0.155799849193569	0.389014134907854	0.233214285714286
9	0.16266563362934	0.0820801197685633	0.396581196581198	0.314501076812634
-9	-0.104833476110567	-0.0541800282052916	0.440070546737214	0.494250574942505
-17	-0.0130288522028207	0.00581289573409322	0.332398417835311	0.326585522101218
-9	-0.0610004068356562	-0.0313452454455201	0.358909853249476	0.390255098694996
1	-0.016769217679076	-0.0266432116291346	0.445014245014247	0.471657456643381
-19	0.0673945437487531	0.0661982160954425	0.427947754517802	0.36174953842236
-11	-0.104582160602052	-0.0594944842187982	0.340347110395419	0.399841594614218
-2	0.0517139789568909	0.0267511003857823	0.384724437356016	0.357973336970234
-17	-0.0115728705550955	0.0121275653614667	0.393098464317977	0.38097089895651
0	0.0855076782486054	0.0437894899059955	0.400862998921252	0.357073509015256
-13	-0.038214451031969	-0.0175655447771907	0.404004961899699	0.42157050667689
-14	0.0768326479527981	0.0605692788841242	0.423285486443381	0.362716207559257
-16	0.133188313117009	0.097090573235905	0.398747539810341	0.301656966574436
-6	0.100383250226804	0.0623666754388905	0.442566010987064	0.380199335548174
-3	0.13785688536006	0.0849058682854746	0.382504409171076	0.297598540885602
4	0.140130864496078	0.0757017508100338	0.404004961899699	0.328303211089665
-1	0.0656247550978825	0.0345565971465251	0.375084175084175	0.34052757793765
2	0.162925989536123	0.0993635927402604	0.437528523784449	0.338164931044188
-5	-0.0446066842812765	-0.0345772641547282	0.406267806267807	0.440845070422536
-6	0.0536285436160279	0.0320370370370369	0.372910052910053	0.340873015873016
-18	-0.107614677076503	-0.0503041697731952	0.367521367521368	0.417825537294564
10	0.0962099544575764	0.0388812207652787	0.382504409171076	0.343623188405797
-10	0.101122071530452	0.0722608559718834	0.432925748715223	0.360664892743339
-7	0.111760070458444	0.0709602393138856	0.361740381157857	0.290780141843972
-9	0.0706448886616877	0.0462100706935736	0.379280730005367	0.333070659311794
-5	-0.00358599704657458	-0.00693515468148714	0.36954732510288	0.376482479784367
-11	0.0461800795968502	0.0345274192750826	0.401384562132225	0.366857142857143
9	0.0696889467337567	0.0163471597364906	0.356633628934099	0.340286469197608
-22	-0.0311242763678921	0.00146531574984937	0.36954732510288	0.368082009353031
10	0.00871910843395063	-0.0164278720048182	0.340347110395419	0.356774982400238
9	0.205633861109456	0.115434770990327	0.36954732510288	0.254112554112554
-8	-0.0790947681304633	-0.0420033608934763	0.365443912812334	0.40744727370581
-15	-0.0219999910435789	0.00281628665321765	0.420881834215168	0.41806554756195
-17	-0.0219276606190704	-0.00211859800869618	0.342039670001755	0.344158268010451
-19	-0.25745123788924	-0.134743134206681	0.375552077899496	0.510295212106177
-8	0.0123967394036496	0.00629256113722365	0.359813920200393	0.35352135906317
-15	-0.264899708536667	-0.14356025784434	0.37068044788975	0.51424070573409
5	0.247364745185526	0.142006544153966	0.432925748715223	0.290919204561257
-12	0.0132734148815422	0.0182734930936383	0.367521367521368	0.34924787442773
-13	0.0476758315619382	0.0406477564372295	0.432925748715223	0.392277992277993
0	0.0961115415433328	0.0519968457468468	0.357834757834759	0.305837912087912
34	0.38703992369542	0.223354096495713	0.398747539810341	0.175393443314628
3	0.169491913472022	0.0989873328201124	0.389014134907854	0.290026802087742
-28	-0.00873661521346158	0.0278594107006328	0.389784096893102	0.361924686192469
3	0.0223333694510726	0.00184889832784391	0.361740381157857	0.359891482830013
-1	-0.0754410671137552	-0.0638741483768532	0.334532627865962	0.398406776242815
-5	0.00713434854357431	0.00306567549837505	0.332398417835311	0.329332742336936
6	0.208710336930031	0.119211297989883	0.393098464317977	0.273887166328095
8	0.145576812285199	0.0738785103785109	0.367521367521368	0.293642857142858
-5	0.0263713836348655	0.0100203943251946	0.372910052910053	0.362889658584858
-16	0.0338975329751646	0.0338650540424438	0.398747539810341	0.364882485767897
10	0.17181993597892	0.0834007095023429	0.385011302382194	0.301610592879852
-8	-0.0754560886670038	-0.0416781984460413	0.396925227113906	0.438603425559948
-25	0.0856956530822645	0.080178328641135	0.393098464317977	0.312920135676842
12	0.154108475541516	0.0723108382045576	0.389014134907854	0.316703296703297
6	0.0533681665068632	0.0164566325644994	0.389014134907854	0.372557502343355
-15	0.0908125082017623	0.067743625666358	0.394364699627858	0.3266210739615
-5	-0.033846144373016	-0.0242044942650414	0.384724437356016	0.408928931621058
-4	0.212428730357391	0.131953352110127	0.394364699627858	0.26241134751773
4	0.0681817880816644	0.0283547607077029	0.328774928774929	0.300420168067226
3	0.129139237688216	0.0661952078579784	0.384724437356016	0.318529229498038
1	0.134395226054735	0.0846166477576541	0.389014134907854	0.3043974871502
14	0.286362417307347	0.153336639063817	0.436279069767441	0.282942430703624
15	0.0718097584955918	0.0196763185379354	0.338461538461539	0.318785219923604
6	0.120591090153087	0.0598682678678447	0.366092853416797	0.306224585548952
-2	0.0085609943417827	-0.00168890528602678	0.377207977207978	0.378896882494005
-16	0.00399441100317244	0.0147475456914988	0.334532627865962	0.319785082174463
18	0.0685081626575487	0.00645191137686618	0.346163388268651	0.339711476891785
1	0.0390075888511435	0.0111856710540922	0.365443912812334	0.354258241758242
-3	0.0958327539053449	0.0534849337686218	0.353721340388007	0.300236406619385
12	0.128300356535914	0.0533807493618359	0.36954732510288	0.316166575741044
7	0.206296230075953	0.110854952570351	0.396159122085047	0.285304169514697
-1	-0.0361856976481907	-0.0310183464772841	0.398747539810341	0.429765886287625
-5	0.100297124143835	0.0597316083797578	0.400862998921252	0.341131390541494
-2	0.0245730443477621	0.00602192938670876	0.382504409171076	0.376482479784367
-13	0.0735265717514658	0.0548349539716094	0.400862998921252	0.346028044949643
-9	0.0261239247472049	0.0192659363166283	0.367521367521368	0.34825543120474
0	0.0688557456079353	0.0333154410449093	0.36954732510288	0.336231884057971
-17	-0.221246700118897	-0.116728520050539	0.423285486443381	0.54001400649392
3	0.172266755401924	0.0983273717431148	0.398747539810341	0.300420168067226
-5	0.0977445351663119	0.0605474765047762	0.391082344480403	0.330534867975627
4	0.0993987192985965	0.0471659604012561	0.377207977207978	0.330042016806722
-10	0.185100099041381	0.122680834257464	0.389014134907854	0.266333300650391
6	0.243282939653404	0.140489158626414	0.411287477954145	0.270798319327731
-15	-0.0529795842686945	-0.0214462081128741	0.36331569664903	0.384761904761904
4	0.0986438300340108	0.0482141734000209	0.398747539810341	0.35053336641032
19	0.251662611516628	0.139344968756735	0.396581196581198	0.257236227824463
16	0.254263562721862	0.137395872042612	0.435327635327637	0.297931763285025
-9	0.00123947924323309	0.00296426540557942	0.413388975830291	0.410424710424711
8	0.125036105569325	0.0567849383090632	0.415932914046121	0.359147975737058
16	0.228292659989657	0.123670016465112	0.400862998921252	0.27719298245614
-5	0.0560609310150979	0.0301572186979937	0.379280730005367	0.349123511307374
-6	0.0534270682268172	0.0317133175783006	0.370686326136563	0.338973008558262
0	-0.0496400638592757	-0.0439361331447655	0.357834757834759	0.401770890979524
-7	-0.018596410169392	-0.00713950319612588	0.435327635327637	0.442467138523763
17	0.211739542152558	0.10938381263079	0.353721340388007	0.244337527757217
-18	-0.00536281005926031	0.01152482477127	0.384724437356016	0.373199612584746
-9	0.0284681248385891	0.0206755091686605	0.401693121693122	0.381017612524461
10	0.15096764474111	0.0732780942987163	0.389014134907854	0.315736040609138
-1	0.144477920692468	0.0807474305794579	0.432925748715223	0.352178318135765
-2	0.201349544912362	0.124412422169242	0.402926829268293	0.278514407099051
14	0.218165915446913	0.114083009660626	0.399332982271371	0.285249972610745
9	0.194097118752938	0.106020705611657	0.391082344480403	0.285061638868746
4	0.150889708401346	0.0824960931109971	0.387421383647799	0.304925290536802
6	0.157542000251637	0.0874686455766561	0.340347110395419	0.252878464818763
-4	0.0146310137280377	-0.000668702687082356	0.41843075302791	0.419099455714992
9	0.0444312003761316	-0.00065124114875359	0.382504409171076	0.38315565031983
-14	-0.0270061755598243	-0.00913660463340216	0.371521035598706	0.380657640232108
-9	0.0988815384309755	0.0675075171936768	0.400862998921252	0.333355481727575
5	0.0811251279088779	0.0345486274549856	0.382504409171076	0.347955781716091
14	0.14609531755965	0.0622469274926811	0.400862998921252	0.338616071428571
-1	0.0685125936633104	0.0323993952213438	0.355803650540493	0.323404255319149
-6	0.0259663203342807	0.0141309019813696	0.386894586894588	0.372763684913218
-13	0.106392249571224	0.0779160240744697	0.449664902998237	0.371748878923767
-5	0.114264227650239	0.0696942089988283	0.393098464317977	0.323404255319149
18	0.215186537896706	0.111811466400838	0.389014134907854	0.277202668507017
-7	-0.0206111836873207	-0.00922060677972164	0.365443912812334	0.374664519592055
15	0.199976543739963	0.104317501292543	0.432925748715223	0.32860824742268
1	0.0104678154683439	-0.010181117027946	0.351588555380024	0.36176967240797
-9	0.0295263258967906	0.0214689183638965	0.420881834215168	0.399412915851271
-1	-0.0391359210750496	-0.042711124322561	0.402926829268293	0.445637953590854
5	0.0374607730695263	0.006918884879906	0.396581196581198	0.389662311701292
-19	0.122609083601463	0.0974980540314301	0.445650301464254	0.348152247432824
-23	0.072851758490498	0.071903607331616	0.439985616684647	0.368082009353031
-8	0.0107468992325048	0.00780179637814965	0.361740381157857	0.353938584779707
-22	-0.0625504102350158	-0.0170314540396297	0.34217907227616	0.359210526315789
-3	0.0491107880958669	0.0301341378055965	0.34217907227616	0.312044934470563
-12	-0.0165421304538871	-0.0063353969867338	0.332398417835311	0.338733814822045
-3	0.213531961247856	0.132454050602015	0.432925748715223	0.300471698113208
-21	-0.0537848889097814	-0.0116808749432866	0.420881834215168	0.432562709158454
20	0.261204812894425	0.140834493641511	0.36331569664903	0.222481203007519
3	0.15798104111621	0.0884534221632828	0.398747539810341	0.310294117647058
-14	-0.0657198813331472	-0.0306153229815611	0.375552077899496	0.406167400881057
-3	0.0954599345733502	0.0571853864746069	0.394364699627858	0.337179313153251
4	0.0950511299643754	0.0457020064330718	0.382504409171076	0.336802402738004
3	0.105199736017683	0.0618098235473655	0.398747539810341	0.336937716262976
-20	-0.0326262239508103	0.00693029103366288	0.439985616684647	0.433055325650984
4	0.144703228409534	0.0748006103699441	0.394364699627858	0.319564089257914
9	0.142705947286988	0.0714870527820168	0.375084175084175	0.303597122302158
-12	0.165682634722721	0.11135824788026	0.485272950675795	0.373914702795535
11	0.22562011299107	0.128701487069483	0.392098765432099	0.263397278362616
5	0.155089773023867	0.0886813061935768	0.391082344480403	0.302401038286826
-5	0.142165802491211	0.0888201000877068	0.425641025641027	0.33682092555332
-8	0.100024792989149	0.0639627797905492	0.398747539810341	0.334784760019792
-10	0.0423782042367769	0.0319272633126454	0.398747539810341	0.366820276497696
11	0.114863817867573	0.0443510211744513	0.387421383647799	0.343070362473347
-21	-0.047957328637843	-0.00933673307108901	0.393098464317977	0.402435197389066
9	0.141252073699323	0.0650095950259422	0.400862998921252	0.33585340389531
-11	-0.0708676851355187	-0.0395382540480572	0.382504409171076	0.422042663219133
5	0.245585212502268	0.149689419196351	0.402926829268293	0.253237410071943
-5	0.0512058140602361	0.0315919918300775	0.355803650540493	0.324211658710415
-6	-0.051162003048881	-0.0308055363852456	0.334532627865962	0.365338164251207
-3	0.0712747350463535	0.0363580108059302	0.396581196581198	0.360223185775268
-23	-0.154534355708709	-0.0667069182469558	0.365443912812334	0.43215083105929
-4	-0.219038348199802	-0.150636239265524	0.36331569664903	0.513951935914554
-6	0.026050037768913	0.01197408308166	0.357834757834759	0.345860674753099
-20	-0.0337607225144261	0.00242274502771067	0.379280730005367	0.376857984977657
-8	-0.0418191786420556	-0.0297202154263396	0.398747539810341	0.428467755236681
7	0.143577406981977	0.0756836077032091	0.379280730005367	0.303597122302158
-39	-0.172656368843947	-0.0524319816809719	0.389014134907854	0.441446116588826
-9	0.0687724890115913	0.0498188244895224	0.389014134907854	0.339195310418332
12	0.251683486633423	0.138808385882924	0.41364522417154	0.274836838288616
14	0.138840412264027	0.0665111276674459	0.332398417835311	0.265887290167865
-5	0.0971122451577777	0.0572315445482656	0.365443912812334	0.308212368264068
-9	-0.0770666161018324	-0.0416085167292893	0.389014134907854	0.430622651637144
-31	-0.304618449117733	-0.142120629007479	0.425641025641027	0.567761654648506
-14	0.0725988340929566	0.0542119861268807	0.357834757834759	0.303622771707878
-11	-0.0557477600969478	-0.0297139726049687	0.389784096893102	0.41949806949807
-22	-0.0109806570382277	0.0210390897347428	0.445014245014247	0.423975155279504
-6	0.110528943791746	0.0720959585075772	0.386894586894588	0.314798628387011
5	0.199529060225209	0.11327558649206	0.432925748715223	0.319650162223163
7	0.210889935170286	0.117778167359392	0.377917540181691	0.2601393728223
-9	-0.0158003390481491	-0.00781126191754233	0.389014134907854	0.396825396825397
-11	0.0129465734284256	0.0136607933976354	0.355803650540493	0.342142857142857
3	0.00520346965966378	-0.00829410896595772	0.398747539810341	0.407041648776299
-5	0.0710749548046186	0.0396072013093301	0.396581196581198	0.356973995271868
6	0.158793068054646	0.0847022248012357	0.386894586894588	0.302192362093352
-16	-0.0384946944405236	-0.00699030519174243	0.386894586894588	0.39388489208633
2	0.0904393874338061	0.0543353377901706	0.371521035598706	0.317185697808535
-11	0.0439471296792956	0.033857007190341	0.392098765432099	0.358241758241758
-19	0.0124799974929536	0.024815547286977	0.401693121693122	0.376877574406145
3	0.0748469011905311	0.0326187736995234	0.377503429355281	0.344884655655757
-6	0.0682418830416329	0.0412622029565705	0.380235211514832	0.338973008558262
3	0.155792458827504	0.0861816205709929	0.394364699627858	0.308183079056865
1	0.105441921470447	0.0621397949147982	0.382504409171076	0.320364614256278
9	0.135763062591934	0.0604639904079997	0.394364699627858	0.333900709219858
8	0.280618900908349	0.161852458022672	0.435327635327637	0.273475177304965
7	0.294283738867638	0.177583480763085	0.400862998921252	0.223279518158167
-34	-0.207784696612459	-0.0799796322192834	0.344126984126984	0.424106616346268
-1	0.139449840687675	0.0813455456386633	0.437528523784448	0.356182978145785
2	0.141437550239922	0.0789680627914905	0.435327635327637	0.356359572536146
-6	-0.200959663324591	-0.137603662426357	0.36331569664903	0.500919359075387
3	0.059009191673425	0.0305462974876828	0.380235211514832	0.349688914027149
12	0.182661474339011	0.0891841545725953	0.394364699627858	0.305180545055262
-27	-0.0348080020474218	0.00858132894313335	0.389014134907854	0.380432805964721
14	0.172678223888365	0.0728683467082669	0.440070546737214	0.367202200028947
-4	0.143307720984043	0.0858326442429221	0.415954415954417	0.330121771711495
-21	-0.0186735765449262	0.0142243595027464	0.391082344480403	0.376857984977657
1	0.0855864804550672	0.0425109159089749	0.391082344480403	0.348571428571428
-13	-0.0248793134800388	0.00400401909205944	0.437528523784448	0.433524504692389
3	0.116215675828485	0.0561429499187035	0.404004961899699	0.347862011980995
-21	-0.0329545529795827	0.00266195429789901	0.391082344480403	0.388420390182504
5	0.125028660544953	0.0653084662394859	0.375084175084175	0.309775708844689
4	0.169760494125709	0.0949822753537167	0.423285486443381	0.328303211089665
-6	-0.0737721349652648	-0.0535127037579826	0.366092853416797	0.41960555717478
-10	0.0439643469681007	0.0318673120559907	0.396925227113906	0.365057915057916
-4	-0.000427503602246415	-0.00973327340248242	0.386894586894588	0.39662786029707
-7	0.0160426798495495	0.00583120033744922	0.425436757512229	0.41960555717478
8	0.0953861000835183	0.0426314953066619	0.334532627865962	0.2919011325593
2	-0.016733218109938	-0.0286644854606012	0.367521367521368	0.39618585298197
7	0.0445462582196007	0.00242693442276615	0.394364699627858	0.391937765205091
-10	0.0858924184330951	0.0591117524450863	0.392098765432099	0.332987012987013
-11	0.113869128786609	0.0814184198829921	0.386894586894588	0.305476167011596
7	0.165993746747859	0.086830589250352	0.391082344480403	0.304251755230051
-13	0.043958387137361	0.0361684896512999	0.353721340388007	0.317552850736707
-15	0.015841064558213	0.0234880747075882	0.393098464317977	0.369610389610389
7	0.270105420072754	0.163175264733171	0.445014245014247	0.281838980281076
13	0.197286627546397	0.108650413913573	0.394364699627858	0.285714285714285
5	0.068749793061433	0.0259953210417609	0.346163388268651	0.32016806722689
-31	-0.0519157223241019	0.00814233145074328	0.36954732510288	0.361404993652137
-26	-0.0725453634988437	-0.0144848504507115	0.411287477954145	0.425772328404856
-3	0.126230373946269	0.0750292206598065	0.404004961899699	0.328975741239892
12	0.186298780491784	0.0935058606761749	0.389014134907854	0.295508274231679
-16	-0.00846511181304632	0.00891491354649271	0.384724437356016	0.375809523809524
6	0.144276063742844	0.0774132797322016	0.391082344480403	0.313669064748201
0	-0.109674851763941	-0.0816130930261351	0.377207977207978	0.458821070234113
-9	-0.131430326267623	-0.0828595211502021	0.355803650540493	0.438663171690695
0	0.0823549277867188	0.0423153235653244	0.367521367521368	0.325206043956044
4	0.10986594477919	0.0552963626940947	0.392098765432099	0.336802402738004
19	0.198355555417272	0.102269797536488	0.36954732510288	0.267277527566392
-11	0.118410124679844	0.080962615594817	0.447414564322776	0.366451948727959
0	0.0696565150883063	0.0326388888888898	0.396581196581198	0.363942307692308
-6	0.022139736391048	0.019430476705416	0.392098765432099	0.372668288726683
2	0.0833282012568621	0.0387617044367616	0.384724437356016	0.345962732919255
6	0.0302832244008704	0.0106206400575326	0.332398417835311	0.321777777777778
-4	0.109679035483098	0.0682114505623522	0.384724437356016	0.316512986793664
7	0.230336862877538	0.129467337381951	0.420881834215168	0.291414496833217
-1	0.00832533559489812	-0.00809834692395639	0.3471744044514	0.355272751375356
3	0.08330568634073	0.0375668380522749	0.375084175084175	0.3375173370319
-4	0.112287018826441	0.0682126718347142	0.398747539810341	0.330534867975627
-3	0.107081802588621	0.068689023042404	0.34217907227616	0.273490049233756
12	0.25509142557566	0.143009798936852	0.386894586894588	0.243884787957736
-10	0.0566639185224913	0.0412096859591235	0.398747539810341	0.357537853851218
5	0.0736873472793376	0.0284506731253582	0.371521035598706	0.343070362473348
-12	0.130897086967176	0.092123247123248	0.415954415954417	0.323831168831169
-1	0.0220329618658015	0.00573168259650653	0.365443912812334	0.359712230215827
-17	-0.037382539337448	-0.00992900939804409	0.391082344480403	0.401011353878447
-9	-0.00563417978319813	0.0029897644030703	0.326882863724969	0.323893099321899
-36	-0.128305089891316	-0.0316418082954015	0.389784096893102	0.421425905188503
-13	-0.0422666229612406	-0.017797192072554	0.379280730005367	0.397077922077921
-2	-0.0228298593618108	-0.0217594315620644	0.342039670001755	0.36379910156382
0	0.243730589162382	0.148860398860401	0.445014245014247	0.296153846153846
-9	0.128035500818382	0.0844024830256778	0.391082344480403	0.306679861454725
-7	-0.0318534742502222	-0.0220414599438497	0.36954732510288	0.39158878504673
4	0.144280964142058	0.0798880604165905	0.332398417835311	0.25251035741872
-20	-0.20307291064796	-0.108408303933648	0.389014134907854	0.497422438841503
1	0.0223378719993191	0.00182904515606763	0.382504409171076	0.380675364015008
13	0.142087226577282	0.0634314406191305	0.377917540181691	0.31448609956256
-11	0.143105303587155	0.0975166451482233	0.384724437356016	0.287207792207793
2	0.111034295514894	0.052974499425741	0.448459674627898	0.395485175202157
-12	-0.0103191158260005	0.00113570323307455	0.406429070580014	0.405293367346939
5	0.1425801095818	0.0769297465202201	0.398747539810341	0.321817793290121
-15	-0.066444435488023	-0.025966782129851	0.392098765432099	0.41806554756195
-2	0.0791572709436904	0.0476261258869968	0.386894586894588	0.339268461007591
-9	-0.162435541762666	-0.100044100369	0.357834757834759	0.457878858203759
-9	0.0681937077431445	0.0471224409585214	0.361740381157857	0.314617940199336
-16	-0.0241068531431478	-0.00110834932263448	0.377207977207978	0.378316326530613
11	0.235637906146376	0.124813731751313	0.41843075302791	0.293617021276596
5	0.147452006807451	0.0793127500322623	0.393098464317977	0.313785714285715
-12	0.186729417901745	0.126297007085836	0.398747539810341	0.272450532724505
-40	-0.177143159422042	-0.0403137725693408	0.437681159420289	0.47799493198963
16	0.193071936312843	0.10348267372724	0.338461538461539	0.2349788647343
-2	0.171720437584018	0.0994670580634082	0.437528523784448	0.33806146572104
-12	-0.0442805071284339	-0.0242728764517997	0.34217907227616	0.366451948727959
10	0.0261462538652556	-0.0103074365904099	0.353721340388007	0.364028776978417
-16	0.0739290538577496	0.0581569536259571	0.359813920200393	0.301656966574436
-13	-0.111124054389844	-0.064886574312003	0.389014134907854	0.453900709219857
6	0.0841898934514715	0.0365542781384373	0.32877492877493	0.292220650636492
12	0.040053167549994	-0.00224042538338248	0.332490784623486	0.334731210006868
14	0.195657898233843	0.102931235636228	0.400862998921252	0.297931763285024
-25	-0.136161843700065	-0.0478607488162317	0.348148148148149	0.396008896964381
1	0.17217338472032	0.102552245830583	0.393098464317977	0.290546218487395
8	0.0752183615763095	0.0274200628569565	0.332398417835311	0.304978354978354
16	0.138220864058966	0.0607985581251127	0.36954732510288	0.308748766977768
-15	0.033516269358609	0.0316987108133001	0.396581196581198	0.364882485767898
-8	0.0414663501334323	0.0279169750262875	0.398747539810341	0.370830564784054
-15	0.129771369141004	0.0933207211030218	0.371521035598706	0.278200314495684
-2	0.242468105345557	0.151131400816822	0.398747539810341	0.247616138993519
14	0.258571014336991	0.14830581676063	0.393098464317977	0.244792647557347
-42	-0.225641771322925	-0.0692518075633856	0.370686326136563	0.439938133699949
10	0.0256057558045627	-0.0110682622831473	0.394364699627858	0.405432961911005
-4	0.00349697056438325	0.0070254639072469	0.400862998921252	0.393837535014005
-13	0.0742714386723646	0.0545831862477684	0.396581196581198	0.341998010333429
18	0.190794809407949	0.0997969093170338	0.367521367521368	0.267724458204335
4	0.0644999789118379	0.0304550408741304	0.391082344480403	0.360627303606273
2	0.156282654905937	0.0883981175243328	0.396581196581198	0.308183079056865
4	0.0876039629152554	0.0476007981002432	0.377917540181691	0.330316742081448
-8	0.043645503018575	0.0262881922817623	0.404004961899699	0.377716769617937
4	0.130875234254459	0.068946559473331	0.391082344480403	0.322135785007072
-6	-0.019820110298315	-0.0131684731294756	0.367521367521368	0.380689840650844
-19	-0.177997489963211	-0.0897825917894072	0.346163388268651	0.435945980058059
-14	-0.0581144658575723	-0.0170036343559427	0.389014134907854	0.406017769263797
-14	-0.0982996271794776	-0.0520759138413143	0.355803650540493	0.407879564381807
6	0.210054896663157	0.114376695042583	0.420214607130495	0.305837912087912
-4	0.169048612352743	0.105610846176884	0.396581196581198	0.290970350404313
-9	-0.0040348054115249	-0.000511470096722644	0.338461538461539	0.338973008558262
-16	-0.0114948450446786	0.0101100891861773	0.338461538461539	0.328351449275362
0	0.180123795251947	0.108715401209248	0.425436757512229	0.316721356302981
-4	-0.00290905960492915	-0.00859058830756926	0.386894586894588	0.395485175202157
13	0.214455998226629	0.113425504973854	0.387421383647799	0.273995878673945
-11	0.0577128557279806	0.041211442104353	0.391082344480403	0.34987090237605
-16	-0.0518076497738569	-0.0197602041329202	0.342039670001755	0.361799874134675
1	0.152908373581248	0.0904460823760173	0.377207977207978	0.286761894831961
-4	0.067586096470354	0.0357209802601911	0.361137440758294	0.325416460498103
-8	0.143076863815818	0.0918470024853018	0.406267806267807	0.314420803782506
-14	-0.0748359157867523	-0.03824896062607	0.4	0.43824896062607
18	0.244172045143083	0.133128850037062	0.389014134907854	0.255885284870792
1	0.126146439663336	0.0701686397338573	0.377207977207978	0.307039337474121
7	0.0903033553847075	0.0367758812555614	0.371521035598706	0.334745154343144
15	0.309568011601805	0.174115884223245	0.41843075302791	0.244314868804664
-4	-0.00276883803166617	-0.0086534090240537	0.394364699627858	0.403018108651911
-13	0.217373776049191	0.152905691583632	0.439985616684647	0.287079925101015
-14	0.087106237293973	0.0672511756492346	0.391082344480403	0.323831168831168
-2	-0.019357007391287	-0.0205758964163689	0.389014134907854	0.409590031324223
20	0.34831618226487	0.193549466192826	0.437528523784449	0.243979057591623
-27	-0.188698010048908	-0.0747150338269664	0.386894586894588	0.461609620721554
-2	0.00856731981361603	-0.00148981647572305	0.36954732510288	0.371037141578603
-7	0.0689499440438113	0.0435314006128137	0.382504409171076	0.338973008558262
-12	-0.0288352746619241	-0.0139509455387402	0.361740381157857	0.375691326696597
-25	0.0414254590725188	0.0572134038800711	0.440070546737214	0.382857142857143
-12	0.0566014975134745	0.0452792194066671	0.355803650540493	0.310524431133826
-18	-0.0229241578428068	0.00377367101101467	0.391082344480403	0.387308673469388
7	0.158831972505314	0.0822006260776454	0.394364699627858	0.312164073550212
-5	-0.0451126076908313	-0.0349163014234569	0.391082344480403	0.42599864590386
-3	0.083112781483499	0.0487137037241045	0.435327635327637	0.386613931603532
-20	-0.0487600241042033	-0.00891765551959656	0.391082344480403	0.4
-20	0.0968753325590237	0.0821120210027291	0.439985616684647	0.357873595681918
11	0.244008237570218	0.135868376465566	0.440070546737214	0.304202170271648
-10	-0.120032822846583	-0.0673899438742827	0.379280730005367	0.44667067387965
6	0.0926109150949084	0.0467871043140258	0.367521367521368	0.320734263207343
-8	0.100260742594911	0.0648653635472531	0.402926829268293	0.33806146572104
1	0.175715977131037	0.0995967416002794	0.437681159420289	0.33808441782001
-7	-0.0993237504104979	-0.0686662752015843	0.396925227113906	0.46559150231549
-13	-0.0089730218328472	0.0041450387421948	0.41843075302791	0.414285714285715
-2	0.128511168060605	0.075850131978773	0.420424307802949	0.344574175824176
-4	0.152178761192726	0.0957635458166618	0.372910052910053	0.277146507093391
-14	-0.0127641864099756	0.00618918830150361	0.398747539810341	0.392558351508838
0	0.0252779289173705	0.0053890867888215	0.400862998921252	0.39547391213243
-3	0.0241139718298656	0.00796412844575628	0.365443912812334	0.357479784366578
-13	0.0479202289246541	0.0359740816042289	0.382554517133956	0.346580435529727
-3	0.0702251822714921	0.0357496832848958	0.451225873761085	0.415476190476189
11	0.210465462780857	0.116795760873431	0.371521035598706	0.254725274725275
5	0.129242902834893	0.0692579635341555	0.34217907227616	0.272921108742004
-6	0.070494482213357	0.0410339121414888	0.386894586894588	0.345860674753099
10	0.240787591632398	0.137871884213348	0.402926829268293	0.265054945054945
-11	0.00303155091490892	0.00498118366425332	0.399332982271371	0.394351798607118
0	0.086507978478577	0.0415621022004011	0.396581196581198	0.355019094380797
4	0.141573463917941	0.0796199030394061	0.371521035598706	0.2919011325593
11	0.250794147446213	0.138653451811347	0.423285486443381	0.284632034632034
4	0.276262490811925	0.156850039863737	0.433992897006594	0.277142857142857
-5	0.0977213580467663	0.0597602710278777	0.396581196581198	0.33682092555332
-10	0.117313142751191	0.0792867655426902	0.437528523784449	0.358241758241758
6	0.104856683791622	0.0446433404933527	0.386894586894588	0.342251246401235
-15	0.0755443824212364	0.0656570252591453	0.439985616684647	0.374328591425502
9	0.115330671275603	0.0498823343599468	0.372910052910053	0.323027718550106
-10	0.0153541398579227	0.011932272118368	0.402926829268293	0.390994557149925
-2	0.112707312805587	0.0626848420482955	0.384724437356016	0.322039595307721
9	0.118221189184895	0.053020290708734	0.367521367521368	0.314501076812634
-6	0.0568811562183568	0.0313227513227519	0.401693121693122	0.37037037037037
-13	-0.0993780885655627	-0.0512728119163155	0.36331569664903	0.414588508565346
12	0.190935759646649	0.0978723745390418	0.382504409171076	0.284632034632034
-26	-0.0798343398110644	-0.0172200749211058	0.359813920200393	0.377033995121499
8	0.193207779565728	0.106057804116058	0.400862998921252	0.294805194805194
15	0.139615491586706	0.058742881884499	0.365443912812334	0.306701030927835
12	0.112855124069405	0.0442430903115446	0.350080515297906	0.305837424986362
1	0.257073167228467	0.153991203382768	0.420881834215168	0.2668906308324
-21	-0.142294260627036	-0.0702043618351774	0.330398322851153	0.400602684686331
9	0.241238381843544	0.134441967137632	0.425436757512229	0.290994790374597
-7	0.0538608114640636	0.0344338404566845	0.36954732510288	0.335113484646196
6	0.183480887923932	0.106946747742768	0.379280730005367	0.2723339822626
3	0.0202604668183619	0.000170238969644021	0.365443912812334	0.36527367384269
6	0.229348689830541	0.132717971971277	0.394364699627858	0.261646727656581
7	0.229981905524838	0.128160683564655	0.399332982271371	0.271172298706716
-11	0.0605656210474748	0.0454880889091424	0.442566010987064	0.397077922077922
1	0.025314090464324	0.00382142151146131	0.391082344480403	0.387260922968942
18	0.309003217593991	0.171031927618768	0.415932914046121	0.244900986427353
-11	-0.0300297660435354	-0.0136767902313278	0.36954732510288	0.383224115334208
3	0.0546867446742302	0.0169434859289939	0.392098765432099	0.375155279503105
-6	0.0984370343882233	0.062845583499843	0.402926829268293	0.34008124576845
-9	0.100297124143835	0.0660782389014599	0.400862998921252	0.334784760019792
-13	-0.0158263305322126	0.00165802190007552	0.371521035598706	0.36986301369863
-16	-0.0113099436417251	0.0108182779412787	0.400862998921252	0.390044720979973
-8	-0.0583165707264495	-0.0400937639534817	0.36331569664903	0.403409460602512
9	0.178120633596228	0.09420894010266	0.389014134907854	0.294805194805194
-7	0.0549887094317633	0.035347938041771	0.391082344480403	0.355734406438632
-4	-0.0150708077324091	-0.0196464456768028	0.392098765432099	0.411745211108902
-5	0.109985401034915	0.0710626774581507	0.381301690039554	0.310239012581404
1	0.209727035081229	0.12703853068576	0.437528523784448	0.310489993098688
2	0.12619915272264	0.0683130910152955	0.432925748715223	0.364612657699927
18	0.28549642079054	0.154271330970361	0.439985616684647	0.285714285714286
23	0.256931821489589	0.13354051339663	0.386894586894588	0.253354073497958
17	0.225440244564793	0.120334149835631	0.386894586894588	0.266560437058957
0	0.0380963969512157	0.0103683831383364	0.403929751347592	0.393561368209256
-4	0.108855507239564	0.071414808538212	0.393098464317977	0.321683655779765
3	0.0683461634054091	0.0300072076467833	0.379280730005367	0.349273522358584
-16	-0.0252544516624622	-0.00119564779758985	0.391082344480403	0.392277992277993
-4	0.0702868021646786	0.0385254260073519	0.371521035598706	0.332995609591354
-1	0.0545126994293205	0.0216108304095199	0.380235211514832	0.358624381105313
5	0.156823012893101	0.086029460413697	0.367521367521368	0.281491907107671
8	0.0923461571748571	0.0413151206688089	0.351588555380024	0.310273434711215
-11	0.0722425593285303	0.0500637309730874	0.386894586894588	0.3368308559215
-7	0.0227782309531757	0.0193738325391911	0.391082344480403	0.371708511941212
-21	-0.130268746862113	-0.06220436672747	0.355803650540493	0.418008017267963
-17	0.0190077842477864	0.024438382736256	0.357834757834759	0.333396375098503
-7	-0.00588521510157503	0.000781349605065096	0.400862998921252	0.400081649316187
10	0.143080625014056	0.071226197313154	0.396581196581198	0.325354999268044
14	0.272380819940272	0.14939243650584	0.435327635327637	0.285935198821797
-29	-0.270145993002468	-0.132411020218148	0.346163388268651	0.478574408486799
-8	0.0411238324117982	0.0248549661835795	0.365443912812334	0.340588946628754
2	0.0821395461257792	0.0409969807542568	0.330613705492933	0.289616724738676
14	0.179373512160956	0.0912431917560714	0.385011302382194	0.293768110626123
4	-0.0243648218679963	-0.0345343662764495	0.373139494634821	0.407673860911271
3	0.0574766076643427	0.0205710004122173	0.371521035598706	0.350950035186489
-5	0.140601678023455	0.089186609883246	0.391082344480403	0.301895734597157
3	0.11293531597036	0.0568473625959574	0.394364699627858	0.3375173370319
-4	0.041598128613147	0.0212453528499739	0.402926829268293	0.381681476418319
2	0.213425512048794	0.127510461491046	0.396581196581198	0.269070735090152
3	0.139435958236211	0.0796615714911248	0.359813920200393	0.280152348709268
4	0.0673357672405496	0.026942370326713	0.384724437356016	0.357782067029303
10	0.262476905655879	0.146904761904762	0.430476190476191	0.283571428571429
-18	0.127768784402517	0.09583320959076	0.437528523784448	0.341695314193688
2	0.126196409818924	0.0693734283173416	0.415954415954417	0.346580987637076
3	0.229177498337463	0.137779903954074	0.437681159420289	0.299901255466215
4	0.169536975461649	0.0966799411149821	0.396581196581198	0.299901255466216
0	-0.0385557538623835	-0.0338255400601588	0.387421383647799	0.421246923707957
4	0.0473037012227721	0.00546849976287567	0.423285486443381	0.417816986680506
5	-0.0260108535139819	-0.0430487826790497	0.398747539810341	0.441796322489391
16	0.111062386237643	0.0421370249412291	0.361740381157857	0.319603356216628
-1	-0.193595334114735	-0.139052709919205	0.322941899245216	0.461994609164421
-9	-0.0928476144915262	-0.052563070316693	0.350080515297906	0.402643585614599
13	0.164434390862661	0.0801246182541151	0.386894586894588	0.306769968640473
-11	-0.000326293586977777	0.00849157994178906	0.394364699627858	0.385873119686069
0	0.193463558224178	0.117340651531302	0.403929751347592	0.28658909981629
1	0.0498497025056869	0.0232907329315659	0.377207977207978	0.353917244276412
2	0.300788518717179	0.184180917819362	0.442566010987064	0.258385093167703
4	0.172548191853572	0.0975996380746375	0.389014134907854	0.291414496833217
-11	-0.0310879671017344	-0.014663914584138	0.350080515297906	0.364744429882044
-2	0.168540181860115	0.106336569486016	0.393098464317977	0.286761894831961
6	0.211999403035119	0.125093178214144	0.396581196581198	0.271488018367054
-10	0.0588288013903658	0.0395825388937722	0.404004961899699	0.364422423005927
4	0.238712542327606	0.142002373815955	0.437528523784448	0.295526149968494
5	0.200738356808444	0.115325269512462	0.386894586894588	0.271569317382126
-34	-0.10462745881491	-0.0202953935137359	0.400862998921252	0.421158392434988
8	0.213672031562425	0.122426599651984	0.375084175084175	0.252657575432191
-1	0.00957413341035784	-0.0030721960273975	0.389014134907854	0.392086330935252
11	0.195243945104401	0.111343830461478	0.375084175084175	0.263740344622697
-10	-7.27709149195288e-05	0.00710173563890665	0.411287477954145	0.404185742315238
-17	-0.167681646867993	-0.0766435416384731	0.365443912812334	0.442087454450807
-11	-0.172164279423354	-0.105691849067985	0.391082344480403	0.496774193548388
6	0.109419556788188	0.0483605905519841	0.393098464317977	0.344737873765993
11	0.194282065589027	0.103506263994417	0.425436757512229	0.321930493517812
-5	0.0374038977293056	0.0205540937935312	0.338461538461539	0.317907444668008
3	0.253391124635306	0.153993597392618	0.392098765432099	0.238105168039482
10	0.0815894623236986	0.0292510948916942	0.342039670001755	0.312788575110061
4	0.186430789810014	0.109406576348805	0.361740381157857	0.252333804809052
5	0.182710370493037	0.105917981180352	0.406267806267807	0.300349825087456
-7	0.158902788631854	0.100542875307845	0.435327635327637	0.334784760019792
-2	0.0250265231121577	0.0029493137334321	0.391969539633091	0.389020225899658
-20	-0.147411507472497	-0.0737390952986707	0.391082344480403	0.464821439779074
-2	-0.00076786449937627	-0.0136823388867983	0.384724437356016	0.398406776242815
10	0.17479574737482	0.0949421492718847	0.391082344480403	0.296140195208518
-18	0.0685471588162467	0.0622523692312712	0.432925748715223	0.370673379483952
-13	-0.102642591808904	-0.0496697255840749	0.400862998921252	0.450532724505327
-20	-0.00638260331935481	0.013233484670666	0.359813920200393	0.346580435529727
-50	-0.228796081080185	-0.0522492123995879	0.442566010987064	0.494815223386652
-13	0.00244748750231016	0.00795108454682958	0.375084175084175	0.367133090537346
-2	0.0719268282013962	0.0337548437160369	0.420881834215168	0.387126990499131
4	0.16155710744325	0.0872148563040702	0.398747539810341	0.311532683506271
1	0.216138587423116	0.130469993676044	0.391082344480403	0.260612350804359
2	0.141000158928819	0.0775945132924533	0.394364699627858	0.316770186335404
-15	-0.125105537503518	-0.0703766319947736	0.346163388268651	0.416540020263425
-6	-0.105199786770499	-0.0706338147266819	0.3471744044514	0.417808219178082
-11	0.10484400166353	0.0703954332471026	0.437528523784448	0.367133090537346
19	0.190748202801783	0.0925471201139768	0.391082344480403	0.298535224366426
-16	-0.0678515450944587	-0.0248741009936084	0.398747539810341	0.42362164080395
10	0.125766786400377	0.0617245594327803	0.355803650540493	0.294079091107712
-2	0.0521592809785788	0.0278575048848153	0.371521035598706	0.343663530713891
-4	0.125380535907408	0.0791482023758923	0.408480944712828	0.329332742336936
-25	-0.158720636058505	-0.0701478157748577	0.377917540181691	0.448065355956549
-5	0.109756406298661	0.0720260915218037	0.404004961899699	0.331978870377895
18	0.213898293130201	0.115512614063338	0.350080515297906	0.234567901234568
-20	-0.187605464054899	-0.0993159707436613	0.353721340388007	0.453037311131669
-9	0.0822182151976638	0.0614629315130956	0.400862998921252	0.339400067408156
-15	-0.0228208541099645	-0.00161552028218637	0.392098765432099	0.393714285714286
8	0.164107250465199	0.0861039895020483	0.391082344480403	0.304978354978355
6	0.0804114131663853	0.0340711781648441	0.353721340388007	0.319650162223163
2	-0.0245157156457274	-0.0281071001168175	0.370686326136563	0.398793426253381
2	0.11275072676825	0.061413508229614	0.351959726717008	0.290546218487394
-11	-0.00324678334690709	0.00294322623089843	0.328774928774929	0.325831702544031
-5	0.112287018826441	0.0697717985704484	0.398747539810341	0.328975741239893
-17	-0.0485151300889269	-0.0173143804686896	0.382504409171076	0.399818789639766
-13	-0.0276568661037542	-0.00404489814186593	0.430204962243798	0.434249860385664
9	0.186759242704174	0.0999889441680488	0.372910052910053	0.272921108742004
-7	0.0252893828926347	0.0156087403231729	0.36954732510288	0.353938584779707
4	0.176302537796661	0.0952280093706891	0.425641025641027	0.330413016270338
8	0.196758279650789	0.109086613152143	0.380235211514832	0.27114859836269
11	0.107436378806842	0.0416438668490653	0.351937984496124	0.310294117647058
-21	-0.000717919438943615	0.0192603608836144	0.384724437356016	0.365464076472402
-2	0.0850784398599462	0.0443076230310282	0.386894586894588	0.34258696386356
3	0.169724332578755	0.0961233459772184	0.432925748715223	0.336802402738004
5	0.0665013087569164	0.0278570423943783	0.32877492877493	0.300917886380551
4	0.0248781545715209	-0.00465091684955715	0.380235211514832	0.384886128364389
0	-0.093674080343568	-0.073135142679507	0.36331569664903	0.436450839328537
1	0.021706668278823	0.0030429168370994	0.338461538461539	0.33541862162444
-11	0.0151836900977559	0.0126841294801249	0.372910052910053	0.360225923429928
14	0.13673109905901	0.0559737969261783	0.382504409171076	0.326530612244898
-1	-0.00470644522584551	-0.0152499636873247	0.380235211514832	0.395485175202157
-15	-0.0270755926650619	-0.00873010486672304	0.326882863724969	0.335612968591692
20	0.332189474336984	0.186680726116272	0.442566010987064	0.255885284870792
-3	0.0357101360684681	0.0204914595053188	0.384724437356016	0.364232977850697
21	0.307057598453093	0.163092420361066	0.427979638406179	0.264887218045113
-2	0.0965977358169492	0.0576798426935373	0.393098464317977	0.33541862162444
-21	-0.212261358444087	-0.106470143613001	0.401693121693122	0.508163265306123
2	0.0408697048559371	0.0112424916289647	0.359813920200393	0.348571428571429
7	0.201766014899951	0.113264503008719	0.355803650540493	0.242539147531774
-8	0.0737559273034957	0.0455454858109553	0.430476190476191	0.384930704665235
-20	-0.0361874645941499	0.00189142994547525	0.393098464317977	0.391207034372502
-15	-0.0083538616392177	0.00697351745667857	0.380235211514832	0.373261694058154
3	-0.00462764301938368	-0.022308179357943	0.370686326136563	0.392994505494506
-4	0.155432220169392	0.0957377795035321	0.41364522417154	0.317907444668008
-23	-0.0431450894212441	-0.00240127064423501	0.400862998921252	0.403264269565487
19	0.241056863593839	0.1234325432907	0.386894586894588	0.263462043603887
-11	0.0567427207289529	0.0427493904779723	0.389014134907854	0.346264744429882
0	0.021748581229181	0.00195842423330506	0.342039670001755	0.34008124576845
-2	0.0681906575579879	0.0359921928287426	0.447077409162718	0.411085216333975
-11	-0.0821475032858882	-0.0423626813456515	0.405486968449931	0.447849649795582
-15	-0.167590185554637	-0.0892781647697713	0.382504409171076	0.471782573940847
-14	0.00447657903104004	0.010923862058614	0.382504409171076	0.371580547112462
9	0.21293879253829	0.115852066265672	0.387421383647799	0.271569317382126
-8	0.101916045944232	0.0650580959329436	0.427947754517802	0.362889658584858
9	0.173128944249093	0.0923750791119205	0.355803650540493	0.263428571428572
4	0.100456920356798	0.0467912806148116	0.396581196581198	0.349789915966386
20	0.18424085033005	0.0854105302932779	0.406267806267807	0.32085727597453
14	0.273685792033991	0.147746625238227	0.432925748715223	0.285179123476996
-35	-0.112029090596049	-0.0201426608980406	0.398747539810341	0.418890200708382
-28	0.12399842199724	0.106941292639676	0.398747539810341	0.291806247170665
1	0.116456717871778	0.0606631219903314	0.398747539810341	0.33808441782001
-11	0.00944751432785185	0.0209316954483419	0.402926829268293	0.381995133819951
-5	0.0369036569550829	0.0250122376501005	0.398747539810341	0.373735302160241
-16	-0.0394808357865173	-0.0147771104098093	0.33652312599681	0.351300236406619
-29	-0.145073948068887	-0.0586118074402467	0.338461538461539	0.397073345901786
-5	0.0865258509756922	0.0507485111325283	0.402926829268293	0.352178318135765
9	0.141393858485251	0.0730058069363305	0.377207977207978	0.304202170271648
1	0.226661639875774	0.137685018222693	0.432925748715223	0.295240730492529
6	0.0985829263759857	0.0470253450903322	0.359813920200393	0.312788575110061
6	0.134125060472695	0.0662007398850469	0.379280730005367	0.31307999012032
9	0.0613866227756312	0.0227968539888047	0.365443912812334	0.342647058823529
6	0.146501250585141	0.0729099254951673	0.394364699627858	0.32145477413269
6	0.199513917044193	0.105412355587598	0.422848200312989	0.317435844725391
-3	0.0371374608996277	0.0187053076072564	0.382504409171076	0.36379910156382
0	0.00833148607164613	-0.00440191536091561	0.34217907227616	0.346580987637075
-24	0.10560532107492	0.0943405638646655	0.457147969225263	0.362807405360598
2	0.088206681800346	0.0399741764231633	0.389014134907854	0.349039958484691
-9	-0.0989374596440649	-0.0652805853443124	0.389014134907854	0.454294720252167
-11	-0.042728178741948	-0.0214359464281917	0.398747539810341	0.420183486238533
-13	0.0453594547331317	0.0401809585145603	0.382504409171076	0.342323450656516
-5	0.0375127908877371	0.0219120541386872	0.375552077899496	0.353640023760809
-18	0.0678529434615417	0.0596293989628598	0.435327635327637	0.375698236364777
6	0.0662506141719194	0.0279237201005175	0.340347110395419	0.312423390294902
-7	0.0689499440438118	0.0435314006128141	0.382504409171076	0.338973008558262
-6	-0.00415264427113582	-0.00293470471645568	0.396581196581198	0.399515901297653
-20	-0.235114210421941	-0.118494396526431	0.367521367521368	0.4860157640478
7	0.235376065319743	0.133966873706003	0.437681159420289	0.303714285714286
-8	-0.0422409206082459	-0.0297894511076892	0.392098765432099	0.421888216539788
-9	0.0437559207747288	0.0270870538651931	0.391969539633091	0.364882485767898
-8	-0.000318146770578287	-0.00242629549415924	0.382504409171076	0.384930704665235
-13	0.0579242408514034	0.0431079761426906	0.355803650540493	0.312695674397802
5	0.0822562594777871	0.0346272637329553	0.353721340388007	0.319094076655052
-4	0.0937721531458302	0.0577487726478063	0.353721340388007	0.295972567740201
-3	-0.14923467388554	-0.104734858364371	0.386894586894588	0.491629445258958
-20	-0.0444681229806071	-0.00332937218892487	0.394364699627858	0.397694071816783
-16	-0.0621166669977696	-0.0252196272431957	0.363724472135687	0.388944099378882
-14	0.031234810709154	0.0309100309100312	0.386894586894588	0.355984555984557
-14	0.0938061433077219	0.0683244260697125	0.437528523784448	0.369204097714736
1	0.12475453810621	0.0727423113210436	0.361740381157857	0.288998069836813
3	0.153720955968044	0.0806576258179498	0.394470526864893	0.313812901046943
-22	-0.0251710140838722	0.014541624152609	0.394364699627858	0.379823075475249
-8	-0.0444723875632214	-0.0311854680648996	0.357834757834759	0.389020225899658
6	0.152268483593348	0.0846579596204788	0.375084175084175	0.290426215463696
-19	-0.0322831976329306	-0.00360454111853892	0.384724437356016	0.388328978474555
-1	0.0342226304208118	0.0165351895329007	0.355803650540493	0.339268461007592
5	0.114840146427167	0.0566951268345262	0.338461538461539	0.281766411627013
-26	-0.171088142912078	-0.0763088731634319	0.368413696715584	0.444722569879015
-1	0.0211660077742664	0.00226267811575243	0.363724472135687	0.361461794019934
11	0.104976075162278	0.0462888439559524	0.332398417835311	0.286109573879359
-20	0.0562513014798247	0.0582458218043522	0.394364699627858	0.336118877823505
18	0.120011370322663	0.0422678591035591	0.400569800569801	0.358301941466242
-9	0.014987288492463	0.00912645666099376	0.389784096893102	0.380657640232108
0	0.15865182286413	0.0921083033043368	0.391082344480403	0.298974041176066
7	0.0967143591179901	0.0464081230989436	0.359813920200393	0.31340579710145
-15	-0.0529227163845271	-0.0241204235605139	0.365443912812334	0.389564336372848
-15	-0.00931680425967296	0.00920305025820645	0.382504409171076	0.37330135891287
2	0.0718646743484133	0.0273068696472955	0.401693121693122	0.374386252045827
-5	-0.031775373886111	-0.027824767939957	0.332398417835311	0.360223185775268
-8	0.112389825906723	0.0739977614977621	0.386894586894588	0.312896825396826
-13	-0.0238533947858095	-0.00607592897052317	0.385011302382194	0.391087231352718
8	0.182498625927913	0.0976153773878527	0.368413696715583	0.270798319327731
11	0.0882284794500297	0.0340555056468949	0.361740381157857	0.327684875510962
10	0.233604008979479	0.130473816641498	0.394364699627858	0.26389088298636
-17	-0.415005766402615	-0.229109236164404	0.394364699627858	0.623473935792261
-6	0.00895686811895147	0.0056575875173342	0.367521367521368	0.361863780004034
-12	-0.0135473574772675	-0.00102749102748945	0.386894586894588	0.387922077922077
-8	-0.143422953705173	-0.0955300317653109	0.36331569664903	0.458845728414341
-1	0.0771273635163719	0.0478717680191709	0.361740381157857	0.313868613138686
-17	-0.00810487315493535	0.0100077560487437	0.365443912812334	0.35543615676359
-13	0.0772121744512404	0.0558421005456396	0.41843075302791	0.36258865248227
-7	0.042415956826576	0.023663951561458	0.392098765432099	0.368434813870641
-1	0.0523132754300749	0.0259326392472042	0.379280730005367	0.353348090758163
-21	0.0154605750667745	0.0320633657621497	0.435327635327637	0.403264269565487
11	0.105771461262363	0.0416348954422849	0.389014134907854	0.34737923946557
-7	0.112193648144837	0.0736240707869791	0.393098464317977	0.319474393530998
4	0.238712542327606	0.142002373815955	0.437528523784448	0.295526149968494
-14	-0.144336791100655	-0.0701775329512541	0.396581196581198	0.466758729532452
-3	0.111155613324467	0.0689478585986749	0.402926829268293	0.333978970669618
-12	0.0155531716232606	0.0178149628149638	0.396581196581198	0.378766233766234
-18	-0.0504507949752003	-0.0136525317588119	0.389014134907854	0.402666666666666
15	0.23231739204522	0.118788880439847	0.382554517133956	0.263765636694109
3	0.183360202594229	0.107583126744384	0.396581196581198	0.288998069836814
7	0.205414662302553	0.111165101876179	0.452126200274348	0.340961098398169
1	0.082644450581486	0.0405301622692937	0.32877492877493	0.288244766505636
-2	0.0216705067318707	0.00762057021049911	0.348148148148149	0.34052757793765
-13	-0.14227702468461	-0.085562080806135	0.338461538461539	0.424023619267674
-5	0.0994813291746965	0.0593539206098452	0.437528523784448	0.378174603174603
-21	-0.0610413675675717	-0.0187816533716749	0.36954732510288	0.388328978474555
15	0.191810895873564	0.100389875576765	0.398747539810341	0.298357664233577
-7	0.0392131672813024	0.0277401861299741	0.402926829268293	0.375186643138319
-9	0.0983832653362346	0.0644514490850188	0.36954732510288	0.305095876017861
4	0.134795916767986	0.0735343993793834	0.349406009783368	0.275871610403985
-5	-0.00875248650184568	-0.00198060297448227	0.400862998921252	0.402843601895734
12	0.0940407776080919	0.0354315923799102	0.358909853249476	0.323478260869566
-10	0.0420757428266818	0.0313899997386238	0.386894586894588	0.355504587155964
-3	0.00824095595684948	-0.00195396295197775	0.33652312599681	0.338477088948788
-13	-0.114653097279269	-0.0682292958704781	0.34217907227616	0.410408368146638
-6	0.158122535798858	0.0986045041324434	0.425641025641027	0.327036521508583
-28	0.062870760464144	0.0702968936851582	0.393098464317977	0.322801570632819
22	0.149510027832077	0.0583774204016096	0.355803650540493	0.297426230138883
8	0.258349063046481	0.148169414177914	0.440070546737214	0.2919011325593
-1	0.0977211994910184	0.0523951433245953	0.357834757834759	0.305439614510163
4	0.122988718999226	0.0668284677437999	0.394364699627858	0.327536231884058
-16	-0.0862366689281631	-0.0394986590977373	0.332398417835311	0.371897076933048
6	0.125042881295988	0.0652567597896926	0.396581196581198	0.331324436791505
8	0.1646363509943	0.0857114837697371	0.400862998921252	0.315151515151515
-28	-0.0205375767328204	0.0200558341335043	0.371521035598706	0.351465201465202
-9	-0.00137133990286697	0.00397791218062898	0.387421383647799	0.38344347146717
4	-0.0334105264807768	-0.0399555440327625	0.340347110395419	0.380302654428182
-5	-0.0607873365173396	-0.0421875284171355	0.425641025641027	0.467828554058162
11	0.0829921496976088	0.0278475481857799	0.351588555380024	0.323741007194244
-10	-0.0419592617222734	-0.0190530634655326	0.440070546737214	0.459123610202746
-3	0.154292868226428	0.0956080057863976	0.423285486443381	0.327677480656984
-8	0.0139969935964931	0.00935114850209201	0.406429070580014	0.397077922077922
-19	-0.0380561657116885	-0.00343595673622915	0.351959726717008	0.355395683453238
-1	0.0667221262027263	0.03225677485715	0.380235211514832	0.347978436657682
10	0.0332949255352282	-0.00818255818255659	0.357834757834759	0.366017316017315
-9	0.140328645026419	0.0925337177898874	0.361740381157857	0.26920666336797
-4	0.121946779699221	0.0823730775265127	0.393098464317977	0.310725386791464
7	0.0606886187554655	0.0206972282024261	0.356633628934099	0.335936400731673
8	0.123136062935812	0.0548152660937344	0.382554517133956	0.327739251040222
-27	-0.0633016753466599	-0.0111104662485369	0.357834757834759	0.368945224083296
-2	0.00856748774649729	-0.00129226964457824	0.361740381157857	0.363032650802435
1	0.181573676632922	0.111018781554028	0.359813920200393	0.248795138646365
-17	-0.161743928084339	-0.0875031066777409	0.427947754517802	0.515450861195543
-17	-0.00901374501120655	0.00813542465723072	0.391082344480403	0.382946919823172
0	0.0390307921729844	0.0136954551191583	0.423285486443381	0.409590031324223
-34	-0.203428392633649	-0.0806841557157268	0.350080515297906	0.430764671013633
-9	0.0552258473333384	0.0402357583383177	0.382504409171076	0.342268650832759
6	0.186192838446329	0.106291059636728	0.389014134907854	0.282723075271126
-6	0.0859036758911612	0.052570546737214	0.440070546737214	0.3875
9	0.175245346365497	0.0906504139135719	0.394364699627858	0.303714285714286
0	0.0355919745995928	0.0127129891663294	0.370686326136563	0.357973336970234
-12	-0.0615928546389455	-0.0224946653123246	0.400862998921252	0.423357664233577
9	0.103935474899181	0.0428982519434791	0.367521367521368	0.324623115577889
2	0.124549567507121	0.0720053689127274	0.400862998921252	0.328857630008525
4	0.176432264378466	0.0986871475138984	0.391082344480403	0.292395196966505
-3	0.199736443040574	0.123885522937656	0.435327635327637	0.311442112389981
12	0.0909947423846849	0.0303612961768996	0.324938271604938	0.294576975428039
6	0.132864225169306	0.0667755658727405	0.359813920200393	0.293038354327653
-31	-0.237864956857448	-0.101732652266489	0.398747539810341	0.500480192076831
-11	-0.0911236398775244	-0.0468505426600144	0.393098464317977	0.439949006977991
-1	0.0386647330326926	0.0147042041778881	0.357834757834759	0.343130553656871
-15	0.0500061253815948	0.0456170752458347	0.432925748715223	0.387308673469388
4	0.201119620425	0.117444817525728	0.389014134907854	0.271569317382126
-1	0.0944017335151487	0.0537412494247027	0.375084175084175	0.321342925659472
11	0.186068689805188	0.0995323178389534	0.394364699627858	0.294832381788904
-18	-0.0361861056479311	-0.00574032653678547	0.367521367521368	0.373261694058154
7	0.190225970484119	0.105596307459084	0.430204962243798	0.324608654784714
1	0.200220513737411	0.118601688166906	0.425641025641027	0.307039337474121
3	0.142661792849527	0.0802484740501856	0.361740381157857	0.281491907107671
-7	0.138489786760643	0.0964975921696047	0.389014134907854	0.29251654273825
-6	0.0836222195734091	0.0530172185495273	0.393098464317977	0.34008124576845
4	0.128499248399125	0.0667265196676975	0.386894586894588	0.32016806722689
10	0.119198814617772	0.0521456335181152	0.398747539810341	0.346601906292226
-16	0.00257183251551085	0.0151630553701558	0.359813920200393	0.344650864830237
4	0.143976763282143	0.0777544586235465	0.389014134907854	0.311259676284308
10	0.059215924812748	0.0212528566164628	0.332490784623486	0.311237928007023
10	0.0520525461208377	0.00173585279968391	0.367521367521368	0.365785514721685
13	0.139423601783535	0.0629730550482795	0.387421383647799	0.324448328599519
11	0.128620431624186	0.0548898216315846	0.377917540181691	0.323027718550106
-3	0.078753075970596	0.047640084389815	0.330613705492933	0.282973621103118
-25	-0.206819361447506	-0.0991117386149805	0.396581196581198	0.495692935196178
-9	0.0982625664174561	0.0686628860683178	0.396581196581198	0.32791831051288
10	0.117197030978342	0.0509865285751811	0.334532627865962	0.28354609929078
-14	0.00256057505744522	0.013162536578279	0.398747539810341	0.385585003232062
-23	-0.0740555323784368	-0.021229051156554	0.361740381157857	0.382969432314411
-2	-0.0358771246308284	-0.0306900311831841	0.340347110395419	0.371037141578604
4	0.186253742104354	0.107183676125343	0.427947754517802	0.320764078392459
-7	0.0573351402911256	0.0365904649699223	0.433992897006594	0.397402432036672
-5	0.0529697810379157	0.0333862341021498	0.393098464317977	0.359712230215827
-3	0.169002092562793	0.104932502254793	0.389014134907854	0.284081632653061
-13	-0.184314247791483	-0.113048310185775	0.361740381157857	0.474788691343632
-19	-0.232159803954211	-0.12846014235874	0.398747539810341	0.527207682169082
-9	0.0726847713080512	0.0499425135369841	0.435327635327637	0.385385121790653
-10	0.0556339071964934	0.045016542656115	0.394364699627858	0.349348156971743
-7	0.0259394725116288	0.0185978825764687	0.415954415954417	0.397356533377949
11	0.205820602472668	0.110265562897142	0.384724437356016	0.274458874458874
3	-0.0525350393172241	-0.0498030266472463	0.399332982271371	0.449136008918617
0	0.140812168192616	0.0836198355231671	0.410643653362101	0.327023817838933
-21	-0.0567058028885316	-0.0131752903181476	0.372910052910053	0.386085343228201
-13	-0.00100588698836435	0.00831572362361077	0.361740381157857	0.353424657534246
-12	0.0595968454308107	0.0432527327461786	0.394364699627858	0.351111966881679
0	0.0694926267380391	0.0310925605438483	0.365443912812334	0.334351352268486
-23	-0.0743853096794279	-0.016487970450235	0.434940600978336	0.451428571428571
-4	0.125802590539762	0.0764572549598496	0.394364699627858	0.317907444668008
10	0.122222670043236	0.0525704706529799	0.391969539633091	0.339399068980111
12	0.0802728685399027	0.024363996061694	0.3471744044514	0.322810408389706
-6	0.0522418896636657	0.0322060264540565	0.34217907227616	0.309973045822103
5	0.108929942880429	0.0499056539047077	0.432307424795688	0.38240177089098
-3	0.155330903046797	0.0941708306405423	0.41364522417154	0.319474393530998
-6	-0.0319252090674123	-0.0262259632700019	0.332398417835311	0.358624381105313
17	0.250503182887864	0.138391591518344	0.393098464317977	0.254706872799633
-16	-0.0789100616772525	-0.0379426129426125	0.396581196581198	0.43452380952381
1	0.0661468369853841	0.0298662481118614	0.353721340388007	0.323855092276146
13	0.0899339911824046	0.0323351575150139	0.328774928774929	0.296439771259915
8	0.0750209916100747	0.0245822053742717	0.400862998921252	0.37628079354698
-6	0.097923992291953	0.0614677119350022	0.396581196581198	0.335113484646196
-3	0.0665926642439566	0.0384681148021198	0.386894586894588	0.348426472092468
-2	-0.019949043447167	-0.0229671870083064	0.361137440758294	0.3841046277666
-19	-0.0452067594926624	-0.0108264428533184	0.404004961899699	0.414831404753017
5	0.245158886896086	0.149932996692078	0.393098464317977	0.243165467625899
-12	0.0421341358285932	0.0393291893291901	0.377207977207978	0.337878787878788
2	-0.0402696104359441	-0.0365438238430939	0.401693121693122	0.438236945536216
-9	0.0835368023278987	0.0543736341951865	0.357834757834759	0.303461123639572
-3	0.00673315689185339	-0.000862194300604857	0.351588555380024	0.352450749680629
-12	-0.0989531939702925	-0.0591060121789321	0.355803650540493	0.414909662719425
8	0.194191817414414	0.100500334481318	0.445650301464254	0.345149966982936
-31	-0.184461210315711	-0.0732796641296871	0.387421383647799	0.460701047777486
-11	-0.0833497228678699	-0.0470391888812938	0.423285486443381	0.470324675324675
-11	0.056249174330002	0.0451075160495327	0.398747539810341	0.353640023760808
9	-0.0134466510338171	-0.0366560461818742	0.393098464317977	0.429754510499851
-11	0.0281586438306066	0.0338219497619732	0.382504409171076	0.348682459409103
-16	-0.0920192899854965	-0.0430038200357837	0.389784096893102	0.432787916928885
14	0.255978703538155	0.141794745918459	0.396581196581198	0.254786450662739
-3	0.109462148950916	0.0685548329022274	0.423285486443381	0.354730653541154
-10	-0.0462840455331056	-0.0262828914205052	0.338461538461539	0.364744429882044
6	0.122722456278487	0.0568913677155781	0.400862998921252	0.343971631205674
8	0.173601757487865	0.0917606846907709	0.384724437356016	0.292963752665245
-12	0.142245027507406	0.102857207546316	0.402926829268293	0.300069621721978
-18	-0.0185142748205699	0.00460689822392163	0.415954415954417	0.411347517730495
-1	0.124572946684671	0.0737351671846195	0.396581196581198	0.322846029396578
0	0.0817417214687648	0.0413677273031505	0.437528523784448	0.396160796481298
-3	0.00672462882209135	0.0014868108862322	0.384724437356016	0.383237626469784
-21	0.0577990354401007	0.0554495989956982	0.392098765432099	0.336649166436401
12	0.215743313277766	0.115295397034527	0.430476190476191	0.315180793441664
3	0.123574585709583	0.0677558496706136	0.365443912812334	0.29768806314172
-2	0.108183172132372	0.0663888771125755	0.394364699627858	0.327975822515282
1	0.109003979842527	0.0587794401829483	0.353721340388007	0.294941900205059
-4	0.0574716014997876	0.0289784564181865	0.398747539810341	0.369769083392155
15	0.226917078888293	0.11881241685908	0.394364699627858	0.275552282768778
-11	0.0837268477130801	0.0597483894009176	0.359813920200393	0.300065530799476
-23	0.025972776817584	0.0427225244683532	0.393098464317977	0.350375939849624
12	0.13143440916491	0.0631212408990184	0.359813920200393	0.296692679301375
-4	-0.00585785141479833	-0.00942305293206863	0.322617763394462	0.332040816326531
-27	-0.105343456327377	-0.0291310021473729	0.379280730005367	0.40841173215274
7	0.192624958950385	0.100645712200934	0.432925748715223	0.332280036514289
9	0.0670563829048813	0.0221715297745224	0.324938271604938	0.302766741830416
-2	0.00883246915787739	-0.00317111459968505	0.338461538461539	0.341632653061224
-2	0.110433294617751	0.0602930952953651	0.377917540181691	0.317624444886326
-9	0.113796849609222	0.0741515075077198	0.386894586894588	0.312743079386868
-18	-0.106027375489199	-0.0479826466552108	0.396581196581198	0.444563843236409
4	0.0241434303537554	-0.000263160008947105	0.340347110395419	0.340610270404367
-9	-0.00209150667530811	0.00738393246738273	0.432925748715223	0.42554181624784
2	0.173173626657736	0.10034873689199	0.371521035598706	0.271172298706716
18	0.23098115345259	0.121086180987735	0.386894586894588	0.265808405906853
6	0.139535634919177	0.0752294961937681	0.396581196581198	0.32135170038743
-1	0.0792339630887812	0.0410024085814676	0.358909853249476	0.317907444668008
-8	0.0129353159703601	0.00897957783720599	0.394364699627858	0.385385121790652
-24	0.0436094805517863	0.0529135693807032	0.400862998921252	0.347949429540549
3	0.217397708925411	0.124174113378171	0.432925748715223	0.308751635337052
-6	-0.00260510823714832	-0.00469419815214206	0.386894586894588	0.39158878504673
-26	-0.00953206374948323	0.0233868433819999	0.400862998921252	0.377476155539252
2	0.114935972391154	0.0574681360892961	0.394364699627858	0.336896563538562
-26	-0.163884906341588	-0.0710116907013327	0.398747539810341	0.469759230511674
-10	0.0278582354927798	0.0226883957466489	0.400862998921252	0.378174603174603
-22	-0.0144121205236318	0.0126731869562591	0.386894586894588	0.374221399938329
-6	0.067049916893471	0.0411857103411569	0.355803650540493	0.314617940199336
-22	-0.0169550096201361	0.0115875080986688	0.391082344480403	0.379494836381734
-31	-0.0176066429769334	0.0350085600439303	0.435327635327637	0.400319075283706
-12	0.0443222749093652	0.0344920153976523	0.402926829268293	0.368434813870641
6	0.0450364542980336	0.00464343137610623	0.396581196581198	0.391937765205091
-6	-0.0583269024987557	-0.0437914438207274	0.385011302382194	0.428802746202922
-14	0.00356810123243645	0.0106885936673179	0.386894586894588	0.37620599322727
18	0.150802905879726	0.0666487167447599	0.386894586894588	0.320245870149828
13	0.0677851171499314	0.0185475802291565	0.355803650540493	0.337256070311336
-21	-0.330005015595367	-0.176688663499215	0.36331569664903	0.540004360148245
-5	0.0366806834644334	0.0219495485191769	0.353721340388007	0.33177179186883
-19	-0.0883903686337183	-0.038134989310801	0.394364699627858	0.432499688938659
-9	0.0411349351891054	0.0319350144367562	0.406267806267807	0.374332791831051
15	0.172617226559655	0.0784365701464153	0.406267806267807	0.327831236121392
14	0.2000310099709	0.109513276629712	0.396581196581198	0.287067919951486
2	0.0848540834773641	0.039507687565941	0.396581196581198	0.357073509015257
6	0.107347710919075	0.0542079955975956	0.36331569664903	0.309107701051435
-1	0.0665926642439566	0.0351338901887948	0.386894586894588	0.351760696705793
-29	-0.143257596382541	-0.0526288275415035	0.398747539810341	0.451376367351845
-6	0.168546171466189	0.111192848249337	0.400862998921252	0.289670150671915
7	0.168689362235702	0.0915096187964789	0.382504409171076	0.290994790374597
15	0.205643959711543	0.102359744779053	0.387421383647799	0.285061638868746
-2	-0.120268059942651	-0.0895924181638454	0.32877492877493	0.418367346938775
-2	0.067400421399575	0.03773425372224	0.391082344480403	0.353348090758163
-27	-0.224217824619857	-0.0993326083324287	0.368413696715583	0.467746305048012
-11	-0.114097730844517	-0.0571392044517251	0.361309216192937	0.418448420644662
-9	-0.0152498824588929	-0.00766746305037047	0.377917540181691	0.385585003232062
-14	0.0169523817917945	0.0201100282060826	0.402926829268293	0.382816801062211
-1	-0.0493296845925132	-0.0435252995403372	0.326882863724969	0.370408163265306
-12	0.0747281654978783	0.0539636833345758	0.385011302382194	0.331047619047619
-6	0.0386332387315128	0.0204749650203957	0.33652312599681	0.316048160976414
2	0.24562628167839	0.146222172786933	0.425641025641027	0.279418852854094
-6	-0.030297792876016	-0.0231262194075898	0.400862998921252	0.423989218328842
4	0.135330899815528	0.074977212495019	0.380235211514832	0.305257999019813
7	0.0985431822609131	0.0426302456069152	0.394364699627858	0.351734454020942
-9	-0.0161861547176816	-0.00552593128547851	0.377917540181691	0.38344347146717
-1	0.0794205389011386	0.0416155095579215	0.351588555380024	0.309973045822103
9	0.131330002450152	0.0612984607984605	0.375084175084175	0.313785714285715
-2	0.110287330062048	0.063030015640078	0.382504409171076	0.319474393530998
-18	-0.0807781375127888	-0.036815849845183	0.361740381157857	0.39855623100304
-7	0.112954454363681	0.0761865151208271	0.439985616684647	0.36379910156382
-4	0.100546849446003	0.0582760350576925	0.400862998921252	0.342586963863559
7	0.123650031381546	0.0616488581106281	0.401693121693122	0.340044263582494
-27	-0.137581368244697	-0.0530971418341721	0.361740381157857	0.414837522992029
-11	0.16410326092279	0.10859097476018	0.475724065297525	0.367133090537346
-8	0.0108189138539569	0.00754821933575217	0.355803650540493	0.34825543120474
2	0.244412493129639	0.151296916112487	0.393098464317977	0.24180154820549
-8	-0.0312947914157171	-0.0225057557214541	0.34217907227616	0.364684827997614
0	0.0500321168656578	0.0204302685434754	0.349406009783368	0.328975741239893
-3	0.0699856301858811	0.0351247701602315	0.392098765432099	0.356973995271868
-19	0.0124962751057875	0.0287366142629303	0.423285486443381	0.394548872180451
6	0.143027370820431	0.0762255597977936	0.389014134907854	0.312788575110061
-8	-0.00297809431101237	-0.00128323968117372	0.36954732510288	0.370830564784054
-4	0.0510793606011562	0.0301572771777748	0.357834757834759	0.327677480656984
-21	-0.284008260847709	-0.156115039630981	0.351588555380024	0.507703595011005
-12	0.0701503532855224	0.0523775209831726	0.359813920200393	0.307436399217221
-3	0.0842918727774792	0.0480947145740193	0.400862998921252	0.352768284347233
-23	-0.0901112044724669	-0.03568359151772	0.332398417835311	0.368082009353031
-4	0.112660958566493	0.0645482222515793	0.399332982271371	0.334784760019792
-7	0.112168102015887	0.0707470334610696	0.36954732510288	0.298800291641811
-10	-0.0594064339683866	-0.034430918233539	0.342039670001755	0.376470588235294
-21	-0.0184034163727078	0.00900967287731669	0.391082344480403	0.382072671603086
13	0.321178598965976	0.185952617750314	0.439985616684647	0.254032998934332
19	0.0832701207003496	0.0176946361087889	0.389784096893102	0.372089460784313
-15	-0.185437456706121	-0.110519812421462	0.322617763394462	0.433137575815924
3	-0.0100619224508354	-0.023771061840012	0.389422911283376	0.413193973123388
0	0.0984918387159743	0.0503700687351302	0.375084175084175	0.324714106349045
-17	0.00743998638624244	0.0247473815819149	0.415954415954417	0.391207034372502
4	0.0959709888683594	0.0413452301023333	0.413388975830291	0.372043745727957
3	0.112887802875288	0.0555938961736066	0.411287477954145	0.355693581780538
-24	-0.0790195654061597	-0.0225314274711361	0.404004961899699	0.426536389370835
-27	-0.0838891274271245	-0.00592193232994098	0.396581196581198	0.402503128911139
4	0.19615087128933	0.113913237042547	0.440070546737214	0.326157309694667
-10	0.159380416835599	0.104849008578165	0.423285486443381	0.318436477865216
-13	0.0590887115676018	0.0449780291696209	0.389014134907854	0.344036105738233
8	0.0963330955014343	0.0444289607333091	0.357834757834759	0.31340579710145
3	0.138547523028122	0.0704556282755323	0.429629629629629	0.359174001354097
-10	0.0279884937026791	0.0192795909107968	0.36331569664903	0.344036105738233
-8	0.0683912253950351	0.0476992764762555	0.386894586894588	0.339195310418332
16	0.224786949152163	0.118910145784093	0.384724437356016	0.265814291571923
7	0.0940918413728396	0.0418128465353353	0.351588555380024	0.309775708844689
3	0.11330465039733	0.0602527285168854	0.400862998921252	0.340610270404367
5	0.0404208964909841	0.00759266276507653	0.32877492877493	0.321182266009853
-8	0.0843638873989313	0.0553916910695955	0.394364699627858	0.338973008558262
13	0.21878141327453	0.111553875998742	0.415932914046121	0.30437903804738
0	0.183560042722126	0.111031175059953	0.425641025641027	0.314609850581074
22	0.285196939295813	0.150910997041028	0.404004961899699	0.253093964858671
-1	0.112209706577667	0.0630883736146896	0.396581196581198	0.333492822966508
12	0.143730921262329	0.0709541653016378	0.398747539810341	0.327793374508703
14	0.348211719676053	0.20628025954179	0.439985616684647	0.233705357142857
5	0.130602903099774	0.0668783499007823	0.389014134907854	0.322135785007072
0	0.181371989243339	0.107261109351513	0.425436757512229	0.318175648160716
-13	-0.00949582909779623	0.000681767814674994	0.401693121693122	0.401011353878447
-18	0.112113733716442	0.0863179224657394	0.430476190476191	0.344158268010451
-6	0.114308509006108	0.0698192081369662	0.406267806267807	0.336448598130841
-6	-0.200424761520498	-0.136364456044479	0.377917540181691	0.51428199622617
1	0.196500166813329	0.119595382779619	0.386894586894588	0.267299204114969
-9	0.0267585231408847	0.0170698357184481	0.355803650540493	0.338733814822045
1	0.107226256505453	0.0615390245825035	0.375084175084175	0.313545150501672
11	0.197585684953438	0.10521629819021	0.377917540181691	0.272701241991481
-7	-0.00574671915128999	-0.00235779478490594	0.346163388268651	0.348521183053557
-13	-0.029572845686739	-0.0109549741128695	0.326882863724969	0.337837837837838
17	0.194984516588411	0.0966585152800537	0.372910052910053	0.276251537629999
5	0.319719093311085	0.197369141348276	0.430204962243798	0.232835820895522
-13	-0.144376365914939	-0.0757120685509423	0.396581196581198	0.47229326513214
-14	-0.0239870288643034	-0.00142293747940025	0.389784096893102	0.391207034372502
-21	-0.113059479110794	-0.0480990124436768	0.361137440758294	0.40923645320197
