rate_constant_pi_constant_tree_unrooted_run_1	rate_constant_pi_constant_tree_unrooted_run_2	rate_constant_pi_constant_tree_unrooted_run_3	rate_constant_pi_constant_tree_unrooted_run_4	rate_DPP_pi_DPP_tree_unrooted_run_1	rate_DPP_pi_DPP_tree_unrooted_run_2	rate_DPP_pi_DPP_tree_unrooted_run_3	rate_DPP_pi_DPP_tree_unrooted_run_4	rate_discrete_gamma_pi_discrete_beta_tree_unrooted_run_1	rate_discrete_gamma_pi_discrete_beta_tree_unrooted_run_2	rate_discrete_gamma_pi_discrete_beta_tree_unrooted_run_3	rate_discrete_gamma_pi_discrete_beta_tree_unrooted_run_4
1	1	1	1	1	1	1	1	1	1	1	1
0.508457628530956	0.508457628530956	0.513957170235814	0.510957420214982	0.610199150070827	0.612615615365386	0.61453212232314	0.606199483376385	0.566036163653029	0.585117906841097	0.575202066494459	0.576035330389134
0.43704691275727	0.426297808515957	0.430464127989334	0.440963253062245	0.486792767269394	0.485876176985251	0.481959836680277	0.481626531122406	0.465627864344638	0.459628364302975	0.458961753187234	0.458795100408299
0.846679443379718	0.855928672610616	0.85067911007416	0.852512290642446	0.890925756186984	0.890425797850179	0.892842263144738	0.892592283976335	0.883926339471711	0.888259311724023	0.893592200649946	0.881843179735022
0.43229730855762	0.448295975335389	0.440629947504375	0.434630447462711	0.528455962003166	0.526206149487543	0.525706191150737	0.543538038496792	0.520039996666944	0.53512207316057	0.52970585784518	0.519706691109074
0.265894508790934	0.279726689442546	0.279976668610949	0.274477126906091	0.222481459878343	0.223731355720357	0.223814682109824	0.227481043246396	0.242479793350554	0.275310390800767	0.263478043496375	0.263811349054245
0.993917173568869	0.994000499958337	0.99425047912674	0.99458378468461	0.995750354137155	0.995667027747688	0.995083743021415	0.996750270810766	0.99558370135822	0.99525039580035	0.995083743021415	0.995500374968753
0.062911424047996	0.0632447296058662	0.0589117573535539	0.057245229564203	0.0589950837430214	0.059078410132489	0.0593283893008916	0.0625781184901258	0.059078410132489	0.0549120906591117	0.0549120906591117	0.0560786601116574
0.0194983751354054	0.0176651945671194	0.0172485626197817	0.0193317223564703	0.0264144654612116	0.0261644862928089	0.0254978751770686	0.0267477710190817	0.0220814932088993	0.0225814515457045	0.0212482293142238	0.0217481876510291
0.274810432463961	0.277143571369053	0.279393383884676	0.277143571369053	0.335972002333139	0.340471627364386	0.332305641196567	0.33388884259645	0.305307891009083	0.318806766102825	0.308224314640447	0.311224064661278
0.893592200649946	0.890092492292309	0.89584201316557	0.894925422881427	0.836180318306808	0.839180068327639	0.827014415465378	0.831430714107158	0.874177151904008	0.853595533705525	0.868760936588618	0.868177651862345
0.191817348554287	0.198900091659028	0.191400716606949	0.195983668027664	0.189734188817599	0.188484292975585	0.184984584617949	0.175068744271311	0.17815182068161	0.170569119240063	0.174902091492376	0.179651695692026
0.999250062494792	0.998666777768519	0.999416715273727	0.99900008332639	0.999250062494792	0.999500041663195	0.999250062494792	0.998166819431714	0.999416715273727	0.998416798600117	0.998083493042247	0.999250062494792
0.320306641113241	0.313057245229564	0.314973752187318	0.3196400299975	0.274643779685026	0.285976168652612	0.274393800516624	0.26839430047496	0.311974002166486	0.328639280059995	0.314140488292642	0.316140321639863
0.0407466044496292	0.0408299308390967	0.0414965419548371	0.0412465627864345	0.03291392383968	0.0378301808182651	0.0341638196816932	0.0342471460711607	0.0389967502708108	0.0371635697025248	0.0392467294392134	0.0387467711024081
0.716523623031414	0.709940838263478	0.724189650862428	0.713523873010582	0.721439880009999	0.726772768935922	0.739188400966586	0.73635530372469	0.736521956503625	0.743354720439963	0.737855178735105	0.72852262311474
0.159570035830347	0.16490292475627	0.162569785851179	0.162069827514374	0.20223314723773	0.202733105574535	0.206232813932172	0.20664944587951	0.181484876260312	0.190484126322806	0.176235313723856	0.17848512623948
0.684359636696942	0.68510957420215	0.689692525622865	0.688609282559787	0.697025247896009	0.708690942421465	0.694358803433047	0.691442379801683	0.708024331305725	0.726772768935922	0.706441129905841	0.704941254895425
0.300724939588368	0.295058745104575	0.292225647862678	0.296808599283393	0.429130905757854	0.424631280726606	0.431130739105075	0.432213982168153	0.39938338471794	0.377801849845846	0.386717773518873	0.388384301308224
0.0315807016081993	0.0342471460711607	0.0321639863344721	0.0315807016081993	0.0674110490792434	0.0623281393217232	0.0738271810682443	0.066577785184568	0.0419131739021748	0.0502458128489293	0.046079493375552	0.0447462711440713
0.305557870177485	0.311724022998083	0.311890675777019	0.306891092408966	0.333305557870177	0.324556286976085	0.321639863344721	0.324222981418215	0.315973668860928	0.303808015998667	0.316223648029331	0.310224147987668
0.494125489542538	0.494375468710941	0.498875093742188	0.501041579868344	0.464711274060495	0.463461378218482	0.463628030997417	0.464044662944755	0.505791184067994	0.502458128489293	0.507707691025748	0.505874510457462
0.414382134822098	0.409382551454046	0.406632780601617	0.41329889175902	0.34780434963753	0.352720606616115	0.341388217648529	0.332388967586034	0.356386967752687	0.338138488459295	0.350720773268894	0.351054078826764
0.0585784517956837	0.0569952503958003	0.0542454795433714	0.0596616948587618	0.0462461461544871	0.0471627364386301	0.0448295975335389	0.0474960419965003	0.0529122573118907	0.0558286809432547	0.0520789934172152	0.052662278143488
0.0854928755937005	0.0909924172985584	0.0839930005832847	0.0859928339305058	0.0974085492875594	0.0977418548454295	0.0924922923089743	0.0911590700774935	0.0915757020248313	0.0959920006666111	0.0954920423298058	0.0995750354137155
0.00499958336805266	0.00341638196816932	0.00408299308390967	0.00399966669444213	0.00266644446296142	0.00233313890509124	0.00241646529455879	0.00341638196816932	0.00274977085242896	0.0022498125156237	0.00266644446296142	0.00249979168402633
0.308724272977252	0.308724272977252	0.305891175735355	0.3101408215982	0.204649612532289	0.208232647279393	0.197316890259145	0.189984167986001	0.219815015415382	0.215982001499875	0.220648279310057	0.218648445962836
0.012248979251729	0.0109990834097159	0.00933255562036497	0.0109157570202483	0.0154153820514957	0.0162486459461712	0.0148320973252229	0.015915340388301	0.0124989584201317	0.0130822431464045	0.0124989584201317	0.0152487292725606
0.0479960003333056	0.0464127989334222	0.0485792850595784	0.0476626947754354	0.0527456045329556	0.0500791600699942	0.0542454795433714	0.0531622364802933	0.048829264227981	0.0489125906174485	0.0484126322806433	0.0489125906174485
0.00866594450462461	0.00683276393633864	0.00616615282059828	0.0059995000416632	0.00466627781018248	0.00333305557870178	0.00308307641029914	0.00474960419965003	0.00399966669444213	0.00366636113657195	0.00349970835763686	0.00399966669444213
0.0909924172985584	0.0909090909090909	0.0841596533622198	0.0900758270144155	0.0886592783934672	0.08449295892009	0.0753270560786601	0.0880759936671944	0.0846596116990251	0.0852428964252979	0.0866594450462461	0.0909090909090909
0.033830514123823	0.0350804099658362	0.0308307641029914	0.0368302641446546	0.0134155487042746	0.0147487709357554	0.0134988750937422	0.0144154653778852	0.0145821181568203	0.00991584034663778	0.0130822431464045	0.0134988750937422
0.207399383384718	0.202149820848263	0.207982668110991	0.209149237563536	0.182984751270727	0.178318473460545	0.181568202649779	0.189567536038663	0.203566369469211	0.19206732772269	0.201149904174652	0.196900258311807
0.171235730355804	0.171902341471544	0.173235563703025	0.175652028997584	0.15098741771519	0.152153987167736	0.150237480209983	0.152570619115074	0.166902758103491	0.161903174735439	0.158736771935672	0.162403133072244
0.0108324306307808	0.00999916673610532	0.0124156320306641	0.0109157570202483	0.0134988750937422	0.0127489375885343	0.013165569535872	0.0134155487042746	0.0120823264727939	0.0134988750937422	0.0114990417465211	0.0129155903674694
0.0344137988500958	0.0399133405549538	0.0327472710607449	0.0353303891342388	0.0161653195567036	0.0180818265144571	0.0176651945671194	0.0193317223564703	0.0186651112407299	0.020664944587951	0.0194150487459378	0.0210815765352887
0.0870760769935839	0.0881593200566619	0.0903258061828181	0.0862428130989084	0.0719106741104908	0.0683276393633864	0.072243979668361	0.0730772435630364	0.082659778351804	0.0793267227731022	0.0823264727939338	0.0785767852678943
0.0294975418715107	0.0324972918923423	0.0288309307557704	0.0312473960503291	0.0314140488292642	0.0276643613032247	0.0311640696608616	0.0298308474293809	0.0302474793767186	0.029080909924173	0.0292475627031081	0.0304974585451212
0.123239730022498	0.126406132822265	0.129239230064161	0.125572868927589	0.0865761186567786	0.0845762853095575	0.092908924256312	0.0924089659195067	0.0970752437296892	0.0895758686776102	0.0990750770769103	0.0997416881926506
0.0158320139988334	0.0165819515040413	0.0143321389884176	0.0148320973252229	0.020664944587951	0.0185817848512624	0.0179985001249896	0.0185817848512624	0.0175818681776519	0.0181651529039247	0.0189984167986001	0.018831764019665
0.181568202649779	0.185151237396884	0.189484209649196	0.17781851512374	0.182651445712857	0.184484626281143	0.193317223564703	0.188150987417715	0.187401049912507	0.200733272227314	0.196733605532872	0.192900591617365
0.0193317223564703	0.0211649029247563	0.018831764019665	0.0223314723773019	0.0193317223564703	0.0184151320723273	0.021581534872094	0.0208315973668861	0.019748354303808	0.0155820348304308	0.0178318473460545	0.0200816598616782
0.0109990834097159	0.00899925006249479	0.0105824514623781	0.0109157570202483	0.0130822431464045	0.0110824097991834	0.0128322639780018	0.0119990000833264	0.0117490209149238	0.0114990417465211	0.0134155487042746	0.0136655278726773
0.0155820348304308	0.0144154653778852	0.0135822014832097	0.0132488959253396	0.011332388967586	0.0119156736938588	0.0127489375885343	0.0138321806516124	0.0142488125989501	0.0112490625781185	0.0125822848095992	0.0134988750937422
0.110740771602366	0.105324556286976	0.108490959086743	0.103991334055495	0.094742104824598	0.0941588200983251	0.0935755353720523	0.0954087159403383	0.100074993750521	0.0914090492458962	0.0964919590034164	0.0941588200983251
0.00841596533622198	0.00916590284142988	0.00924922923089743	0.00816598616781935	0.00541621531539038	0.00491625697858512	0.0052495625364553	0.00433297225231231	0.00533288892592284	0.00341638196816932	0.00574952087326056	0.00458295142071494
0.0546621114907091	0.0553287226064495	0.0519123406382801	0.0511624031330722	0.0235813682193151	0.0221648195983668	0.0226647779351721	0.0219981668194317	0.0258311807349388	0.0230814098825098	0.0248312640613282	0.0256645279560037
0.0793267227731022	0.0794100491625698	0.0783268060994917	0.0804099658361803	0.0582451462378135	0.0664111324056329	0.0632447296058662	0.0600783268060995	0.0720773268894259	0.073160569952504	0.0696608615948671	0.0714940421631531
0.013165569535872	0.0143321389884176	0.0123323056411966	0.0119156736938588	0.010249145904508	0.00908257645196234	0.00933255562036497	0.00849929172568953	0.00924922923089743	0.0059995000416632	0.0105824514623781	0.00741604866261145
0.0375802016498625	0.0381634863761353	0.0387467711024081	0.0388300974918757	0.0550787434380468	0.0529955837013582	0.0562453128905925	0.0559953337221898	0.0424964586284476	0.0492458961753187	0.0461628197650196	0.0436630280809933
0.011332388967586	0.012248979251729	0.011332388967586	0.00908257645196234	0.00649945837846846	0.00699941671527373	0.00616615282059828	0.00633280559953337	0.00641613198900092	0.0059995000416632	0.00649945837846846	0.00724939588367636
0.0220814932088993	0.0219981668194317	0.0248312640613282	0.02341471544038	0.0232480626614449	0.0258311807349388	0.0277476876926923	0.0261644862928089	0.0223314723773019	0.0238313473877177	0.0225814515457045	0.0245812848929256
0.0123323056411966	0.00916590284142988	0.0118323473043913	0.0104991250729106	0.0103324722939755	0.010415798683443	0.00966586117823515	0.010415798683443	0.00949920839930006	0.00908257645196234	0.0100824931255729	0.0088325972835597
0.0467461044912924	0.0514957086909424	0.0507457711857345	0.0484126322806433	0.0762436463628031	0.0764102991417382	0.0782434797100242	0.0800766602783101	0.0741604866261145	0.0725772852262312	0.0712440629947504	0.0674943754687109
0.0160819931672361	0.0144154653778852	0.0179985001249896	0.0138321806516124	0.013165569535872	0.0126656111990667	0.0123323056411966	0.0151654028830931	0.0142488125989501	0.0123323056411966	0.0114990417465211	0.0124989584201317
0.0121656528622615	0.0112490625781185	0.0108324306307808	0.0118323473043913	0.0169985834513791	0.0156653612198983	0.015915340388301	0.0174152153987168	0.0145821181568203	0.0134155487042746	0.0150820764936255	0.0163319723356387
0.0114157153570536	0.0114157153570536	0.0111657361886509	0.0133322223148071	0.0154987084409633	0.0158320139988334	0.0152487292725606	0.0141654862094825	0.0137488542621448	0.0150820764936255	0.0150820764936255	0.0151654028830931
0.105991167402716	0.107407716023665	0.108324306307808	0.106241146571119	0.0774935422048163	0.0759103408049329	0.0780768269310891	0.0819931672360637	0.0811599033413882	0.073327222731439	0.0860761603199733	0.08449295892009
0.00874927089409216	0.00674943754687109	0.00824931255728689	0.00749937505207899	0.00549954170485793	0.00508290975752021	0.00641613198900092	0.00624947921006583	0.00566619448379302	0.00508290975752021	0.00633280559953337	0.00566619448379302
0.00116656945254562	0.00191650695775352	0.000999916673610532	0.000666611115740355	0.000749937505207899	0.000666611115740355	0.000916590284142988	0.00133322223148071	0.00116656945254562	0.000916590284142988	0.0014998750104158	0.00124989584201317
0.0219981668194317	0.0222481459878343	0.0210815765352887	0.0193317223564703	0.0467461044912924	0.0447462711440713	0.0519123406382801	0.0474960419965003	0.0278310140821598	0.0344137988500958	0.0283309724189651	0.02816431964003
0.0128322639780018	0.0130822431464045	0.0154987084409633	0.014082159820015	0.0231647362719773	0.0210815765352887	0.0261644862928089	0.0241646529455879	0.0174985417881843	0.0184151320723273	0.0174152153987168	0.0178318473460545
0.0262478126822765	0.0222481459878343	0.024497958503458	0.0259978335138738	0.0151654028830931	0.0149154237146904	0.0179985001249896	0.0152487292725606	0.0196650279143405	0.0149154237146904	0.0162486459461712	0.0195817015248729
0.0126656111990667	0.0116656945254562	0.012248979251729	0.0145821181568203	0.00799933338888426	0.00674943754687109	0.00758270144154654	0.00591617365219565	0.00899925006249479	0.00683276393633864	0.00649945837846846	0.00724939588367636
0.0301641529872511	0.0289142571452379	0.0294975418715107	0.03291392383968	0.0250812432297309	0.0278310140821598	0.0232480626614449	0.0244146321139905	0.0294142154820432	0.0227481043246396	0.02341471544038	0.0288309307557704
0.0334972085659528	0.0379135072077327	0.0344137988500958	0.0345804516290309	0.0301641529872511	0.0309974168819265	0.0321639863344721	0.0305807849345888	0.0346637780184985	0.0375802016498625	0.0308307641029914	0.0312473960503291
0.00891592367302725	0.00791600699941672	0.00941588200983251	0.00716606949420882	0.00749937505207899	0.00708274310474127	0.0103324722939755	0.00858261811515707	0.00891592367302725	0.00749937505207899	0.00874927089409216	0.00866594450462461
0.0187484376301975	0.0160819931672361	0.0194983751354054	0.017748520956587	0.0133322223148071	0.0126656111990667	0.0157486876093659	0.0129155903674694	0.0154153820514957	0.0138321806516124	0.0152487292725606	0.0135822014832097
0.0169985834513791	0.0162486459461712	0.0151654028830931	0.0161653195567036	0.0117490209149238	0.011332388967586	0.0126656111990667	0.0133322223148071	0.0118323473043913	0.0103324722939755	0.0118323473043913	0.0118323473043913
0.00858261811515707	0.00766602783101408	0.00741604866261145	0.00833263894675444	0.00783268060994917	0.00799933338888426	0.00766602783101408	0.0073327222731439	0.00858261811515707	0.00649945837846846	0.00749937505207899	0.00641613198900092
0.00408299308390967	0.00383301391550704	0.00474960419965003	0.00399966669444213	0.00308307641029914	0.00349970835763686	0.00349970835763686	0.00324972918923423	0.00408299308390967	0.00291642363136405	0.00241646529455879	0.0037496875260395
0.0302474793767186	0.0230814098825098	0.0269144237980168	0.024331305724523	0.0149154237146904	0.0139988334305475	0.0110824097991834	0.0134155487042746	0.0139988334305475	0.0141654862094825	0.0134155487042746	0.0174985417881843
0.00933255562036497	0.00758270144154654	0.00916590284142988	0.0103324722939755	0.00391634030497459	0.00383301391550704	0.00358303474710441	0.00291642363136405	0.00441629864177985	0.00508290975752021	0.00483293058911757	0.00466627781018248
0.0137488542621448	0.0116656945254562	0.0125822848095992	0.014082159820015	0.0181651529039247	0.0213315557036914	0.017915173735522	0.0203316390300808	0.0157486876093659	0.0184984584617949	0.0156653612198983	0.0189984167986001
0.0255812015665361	0.0271644029664195	0.025414548787601	0.0253312223981335	0.0242479793350554	0.0224147987667694	0.0226647779351721	0.0229980834930422	0.0238313473877177	0.024497958503458	0.0237480209982501	0.027247729355887
0.0174152153987168	0.0170819098408466	0.0164986251145738	0.0145821181568203	0.00741604866261145	0.0052495625364553	0.0059995000416632	0.00558286809432547	0.00666611115740355	0.0037496875260395	0.00616615282059828	0.00499958336805266
0.013165569535872	0.0136655278726773	0.0112490625781185	0.0135822014832097	0.00924922923089743	0.00991584034663778	0.00908257645196234	0.010249145904508	0.00949920839930006	0.0112490625781185	0.00974918756770269	0.00991584034663778
0.0111657361886509	0.0123323056411966	0.0111657361886509	0.0109990834097159	0.0186651112407299	0.016831930672444	0.0189150904091326	0.0194983751354054	0.0164152987251062	0.0190817431880677	0.0169985834513791	0.0166652778935089
0.00616615282059828	0.00466627781018248	0.00466627781018248	0.0052495625364553	0.00241646529455879	0.0022498125156237	0.00191650695775352	0.00316640279976669	0.00291642363136405	0.0022498125156237	0.0029997500208316	0.00341638196816932
0.00766602783101408	0.00983251395717024	0.0088325972835597	0.00766602783101408	0.00699941671527373	0.00633280559953337	0.00591617365219565	0.0073327222731439	0.00574952087326056	0.0052495625364553	0.00799933338888426	0.00591617365219565
0.00383301391550704	0.00391634030497459	0.00349970835763686	0.00349970835763686	0.00166652778935089	0.00233313890509124	0.00316640279976669	0.00166652778935089	0.00241646529455879	0.00258311807349388	0.00316640279976669	0.00291642363136405
0.00774935422048163	0.00816598616781935	0.00783268060994917	0.00841596533622198	0.0044996250312474	0.00491625697858512	0.00533288892592284	0.00483293058911757	0.00566619448379302	0.00633280559953337	0.00416631947337722	0.00491625697858512
0.00649945837846846	0.00749937505207899	0.00549954170485793	0.00641613198900092	0.00583284726272811	0.00616615282059828	0.00516623614698775	0.00558286809432547	0.00558286809432547	0.00641613198900092	0.00549954170485793	0.00533288892592284
0.00333305557870178	0.00191650695775352	0.00183318056828598	0.00208315973668861	0.000499958336805266	0.000833263894675444	0.000416631947337722	0.000333305557870178	0.00108324306307808	0.000666611115740355	0.0014998750104158	0.00058328472627281
0.00933255562036497	0.00591617365219565	0.00766602783101408	0.00783268060994917	0.00333305557870178	0.00366636113657195	0.0022498125156237	0.00241646529455879	0.00199983334722106	0.00316640279976669	0.00266644446296142	0.0037496875260395
0.0110824097991834	0.00708274310474127	0.00941588200983251	0.00924922923089743	0.00491625697858512	0.00483293058911757	0.00349970835763686	0.00349970835763686	0.00391634030497459	0.00458295142071494	0.00408299308390967	0.00508290975752021
0.000749937505207899	0.000249979168402633	0.000416631947337722	0.000749937505207899	0.000333305557870178	0.000249979168402633	0.000249979168402633	0.000249979168402633	0.000249979168402633	0.000249979168402633	0.000166652778935089	8.33263894675444e-05
0.0080826597783518	0.00891592367302725	0.00716606949420882	0.0059995000416632	0.00308307641029914	0.00441629864177985	0.00383301391550704	0.00441629864177985	0.00441629864177985	0.00583284726272811	0.00391634030497459	0.0059995000416632
0.00366636113657195	0.00258311807349388	0.00274977085242896	0.00358303474710441	0.00108324306307808	0.00141654862094825	0.00166652778935089	0.0014998750104158	0.00116656945254562	0.00141654862094825	0.0014998750104158	0.00191650695775352
0.00508290975752021	0.00333305557870178	0.00483293058911757	0.00474960419965003	0.0029997500208316	0.00233313890509124	0.00183318056828598	0.00174985417881843	0.00291642363136405	0.00108324306307808	0.00208315973668861	0.00141654862094825
0.000333305557870178	0	0.000249979168402633	0.000249979168402633	0.000166652778935089	0	8.33263894675444e-05	8.33263894675444e-05	8.33263894675444e-05	0	0	0
8.33263894675444e-05	0	0.000249979168402633	0	8.33263894675444e-05	0	0	0	8.33263894675444e-05	0	0	0
0.00058328472627281	8.33263894675444e-05	0.000749937505207899	8.33263894675444e-05	0.000499958336805266	8.33263894675444e-05	0.000249979168402633	0.000249979168402633	0.000249979168402633	0.000166652778935089	0.000166652778935089	0.000166652778935089
0.00308307641029914	0.00433297225231231	0.00266644446296142	0.00258311807349388	0.00441629864177985	0.00499958336805266	0.00549954170485793	0.00458295142071494	0.00466627781018248	0.0044996250312474	0.00316640279976669	0.00499958336805266
0.00174985417881843	0.00108324306307808	0.00158320139988334	0.000999916673610532	0.00124989584201317	0.000833263894675444	0.000749937505207899	0.000916590284142988	0.00108324306307808	0.000749937505207899	0.00116656945254562	0.000666611115740355
0.00533288892592284	0.00466627781018248	0.00541621531539038	0.00499958336805266	0.00433297225231231	0.0037496875260395	0.00399966669444213	0.00408299308390967	0.00433297225231231	0.0037496875260395	0.00391634030497459	0.00358303474710441
0.00624947921006583	0.00591617365219565	0.00558286809432547	0.00541621531539038	0.00349970835763686	0.00283309724189651	0.00274977085242896	0.00324972918923423	0.00308307641029914	0.00191650695775352	0.00249979168402633	0.00216648612615615
0.000416631947337722	0.000416631947337722	0.000416631947337722	0.000333305557870178	0.000249979168402633	0.000666611115740355	0.000333305557870178	0.000249979168402633	0.000249979168402633	0.000166652778935089	0.000249979168402633	0.000333305557870178
8.33263894675444e-05	0.000166652778935089	0.000166652778935089	0.000166652778935089	0	0.000249979168402633	0.000249979168402633	0.000333305557870178	0	0.000333305557870178	8.33263894675444e-05	8.33263894675444e-05
0.000166652778935089	8.33263894675444e-05	8.33263894675444e-05	8.33263894675444e-05	0	8.33263894675444e-05	8.33263894675444e-05	0.000416631947337722	0.000249979168402633	0.000249979168402633	0	0.000333305557870178
0.006582784767936	0.00624947921006583	0.00483293058911757	0.00491625697858512	0.00291642363136405	0.00383301391550704	0.0037496875260395	0.00283309724189651	0.00349970835763686	0.00424964586284476	0.00441629864177985	0.00466627781018248
0.00133322223148071	0.000499958336805266	0.00116656945254562	0.00108324306307808	0.00241646529455879	0.00233313890509124	0.00258311807349388	0.00308307641029914	0.00133322223148071	0.00174985417881843	0.00141654862094825	0.00116656945254562
0.0014998750104158	0.000999916673610532	0.00141654862094825	0.00133322223148071	0.00141654862094825	0.00191650695775352	0.00174985417881843	0.00191650695775352	0.00174985417881843	0.00174985417881843	0.00158320139988334	0.00208315973668861
0.000249979168402633	8.33263894675444e-05	0.000416631947337722	0.000333305557870178	0.00208315973668861	0.00174985417881843	0.0029997500208316	0.00216648612615615	0.000833263894675444	0.000499958336805266	0.000666611115740355	0.000749937505207899
0.000999916673610532	0.00124989584201317	0.000749937505207899	0.000916590284142988	0.000333305557870178	0.000999916673610532	0.00124989584201317	0.000916590284142988	0.000916590284142988	0.000999916673610532	0.00141654862094825	0.000666611115740355
0.00166652778935089	0.00158320139988334	0.00141654862094825	0.00174985417881843	0.00341638196816932	0.00266644446296142	0.00391634030497459	0.00324972918923423	0.0022498125156237	0.00166652778935089	0.00199983334722106	0.0014998750104158
0.00366636113657195	0.00341638196816932	0.00308307641029914	0.0037496875260395	0.00616615282059828	0.00624947921006583	0.00633280559953337	0.00724939588367636	0.00499958336805266	0.00274977085242896	0.00408299308390967	0.00383301391550704
0.00216648612615615	0.00249979168402633	0.0014998750104158	0.00191650695775352	0.00249979168402633	0.0014998750104158	0.00208315973668861	0.00216648612615615	0.00308307641029914	0.00199983334722106	0.00174985417881843	0.00249979168402633
0.000749937505207899	0.000749937505207899	0.000333305557870178	0.000416631947337722	8.33263894675444e-05	0.000416631947337722	0.000333305557870178	0.000416631947337722	0.000249979168402633	0.000249979168402633	0.000249979168402633	0.000416631947337722
0.00324972918923423	0.00291642363136405	0.00291642363136405	0.00349970835763686	0.00258311807349388	0.0029997500208316	0.00249979168402633	0.00166652778935089	0.00241646529455879	0.00199983334722106	0.00291642363136405	0.00216648612615615
0.00116656945254562	0.000749937505207899	0.000749937505207899	0.000249979168402633	0.00058328472627281	0.000666611115740355	0.000499958336805266	0.00058328472627281	0.000749937505207899	0.000416631947337722	0.000833263894675444	0.000333305557870178
0.000333305557870178	0	0	0	0	8.33263894675444e-05	0	8.33263894675444e-05	0	8.33263894675444e-05	0	0
0.000333305557870178	0.00058328472627281	0.000333305557870178	0.000249979168402633	0.00258311807349388	0.00158320139988334	0.00316640279976669	0.00274977085242896	0.000916590284142988	0.00124989584201317	0.000999916673610532	0.000499958336805266
0.000166652778935089	0.000166652778935089	0.000166652778935089	0.000249979168402633	0	8.33263894675444e-05	0	8.33263894675444e-05	0.000166652778935089	8.33263894675444e-05	8.33263894675444e-05	0
0.000249979168402633	0	8.33263894675444e-05	0.000333305557870178	8.33263894675444e-05	0	8.33263894675444e-05	0.000166652778935089	8.33263894675444e-05	0	0	8.33263894675444e-05
0.00166652778935089	0.000999916673610532	0.00141654862094825	0.00133322223148071	0.000499958336805266	0.000416631947337722	0.000499958336805266	0.00058328472627281	0.00108324306307808	0.000749937505207899	0.000499958336805266	0.00108324306307808
0.00108324306307808	0.00166652778935089	0.00191650695775352	0.0014998750104158	0.000666611115740355	0.000666611115740355	0.000333305557870178	0.00058328472627281	0.000499958336805266	0.000833263894675444	0.000833263894675444	0.000999916673610532
8.33263894675444e-05	0	0	0	0	0	0	0	0	0	0	0
8.33263894675444e-05	0	0	0	0	0	0	0	0	0	0	0
0.000416631947337722	0.000249979168402633	0.000416631947337722	0.000166652778935089	0.000333305557870178	0.000166652778935089	8.33263894675444e-05	0.000166652778935089	0.000166652778935089	0	8.33263894675444e-05	0.000249979168402633
0.00433297225231231	0.00399966669444213	0.0037496875260395	0.00316640279976669	0.00366636113657195	0.0022498125156237	0.00249979168402633	0.00324972918923423	0.0037496875260395	0.00266644446296142	0.0029997500208316	0.00333305557870178
0.00358303474710441	0.00199983334722106	0.00274977085242896	0.00291642363136405	0.00108324306307808	0.000749937505207899	0.00124989584201317	0.000666611115740355	0.000999916673610532	0.000833263894675444	0.00199983334722106	0.00108324306307808
0.00058328472627281	0.000416631947337722	0.000249979168402633	0.000416631947337722	0.000416631947337722	0.00058328472627281	0.00058328472627281	0.000416631947337722	0.000166652778935089	0.000666611115740355	0.000249979168402633	0.000166652778935089
8.33263894675444e-05	8.33263894675444e-05	0.000166652778935089	0.000166652778935089	8.33263894675444e-05	0	8.33263894675444e-05	8.33263894675444e-05	8.33263894675444e-05	0	0	8.33263894675444e-05
0.000416631947337722	0.00058328472627281	0.000916590284142988	0.00108324306307808	0.000666611115740355	0.000833263894675444	0.0014998750104158	0.000916590284142988	0.00108324306307808	0.00108324306307808	0.00058328472627281	0.000749937505207899
0.00349970835763686	0.00391634030497459	0.00399966669444213	0.00466627781018248	0.00333305557870178	0.00391634030497459	0.00349970835763686	0.00399966669444213	0.00333305557870178	0.00341638196816932	0.00349970835763686	0.00333305557870178
0.000749937505207899	0.00108324306307808	0.00124989584201317	0.00108324306307808	0.00308307641029914	0.00341638196816932	0.00441629864177985	0.00474960419965003	0.00191650695775352	0.00133322223148071	0.00191650695775352	0.00241646529455879
0.000499958336805266	0.000916590284142988	0.00058328472627281	0.000416631947337722	0.00158320139988334	0.00174985417881843	0.00266644446296142	0.00216648612615615	0.00058328472627281	0.000833263894675444	0.00124989584201317	0.000749937505207899
0.000999916673610532	0.00141654862094825	0.000916590284142988	0.00124989584201317	0.00283309724189651	0.00141654862094825	0.00249979168402633	0.00249979168402633	0.000999916673610532	0.00108324306307808	0.00183318056828598	0.00124989584201317
0.000749937505207899	0.000166652778935089	0.000166652778935089	0.000499958336805266	0.00249979168402633	0.00158320139988334	0.00166652778935089	0.00208315973668861	0.000749937505207899	0.00108324306307808	0.000999916673610532	0.000749937505207899
0.000249979168402633	0.000499958336805266	0.000333305557870178	0.000166652778935089	0.00199983334722106	0.00108324306307808	0.00216648612615615	0.00116656945254562	8.33263894675444e-05	0.000333305557870178	0.000416631947337722	0.000499958336805266
0.00158320139988334	0.00174985417881843	0.00124989584201317	0.000833263894675444	0.000499958336805266	0.000749937505207899	0.000166652778935089	0.000833263894675444	0.00058328472627281	0.000666611115740355	0.000749937505207899	0.000999916673610532
0.00208315973668861	0.00274977085242896	0.00208315973668861	0.00166652778935089	0.000999916673610532	0.000999916673610532	0.00166652778935089	0.00116656945254562	0.00158320139988334	0.00191650695775352	0.00174985417881843	0.00166652778935089
0.00133322223148071	0.000833263894675444	0.00141654862094825	0.00058328472627281	0.000249979168402633	0.000416631947337722	0.000333305557870178	0.000499958336805266	0	8.33263894675444e-05	0.000333305557870178	0.000166652778935089
0.000333305557870178	0.000166652778935089	0.000166652778935089	0.000166652778935089	0.000166652778935089	8.33263894675444e-05	8.33263894675444e-05	8.33263894675444e-05	0	8.33263894675444e-05	0	0
0.00058328472627281	0.000333305557870178	0.000499958336805266	0.000416631947337722	0.000916590284142988	0.000666611115740355	0.000249979168402633	0.000833263894675444	0.000499958336805266	0.00058328472627281	0.000666611115740355	0.000666611115740355
0.000249979168402633	0.000249979168402633	0.000249979168402633	8.33263894675444e-05	0	0.000249979168402633	0.000499958336805266	8.33263894675444e-05	8.33263894675444e-05	8.33263894675444e-05	0.000166652778935089	0
0.00266644446296142	0.00166652778935089	0.00191650695775352	0.00233313890509124	0.00124989584201317	0.0022498125156237	0.00116656945254562	0.00133322223148071	0.0014998750104158	0.00133322223148071	0.00141654862094825	0.00174985417881843
0.00058328472627281	0.000749937505207899	0.000666611115740355	0.000666611115740355	0.00266644446296142	0.00249979168402633	0.0037496875260395	0.00208315973668861	0.000999916673610532	0.000749937505207899	0.0014998750104158	0.00183318056828598
0.00133322223148071	0.000916590284142988	0.00116656945254562	0.000833263894675444	0.000916590284142988	0.000666611115740355	0.000416631947337722	0.00058328472627281	0.000916590284142988	0.000333305557870178	0.00058328472627281	0.00108324306307808
8.33263894675444e-05	0	0	0	8.33263894675444e-05	0	0	0	0	8.33263894675444e-05	0	8.33263894675444e-05
0.000166652778935089	0.00058328472627281	0.000166652778935089	0.000166652778935089	0.000249979168402633	0.000166652778935089	0	0	0.000166652778935089	0.000166652778935089	0.000249979168402633	8.33263894675444e-05
0.00191650695775352	0.00141654862094825	0.00108324306307808	0.00141654862094825	0.000833263894675444	0.00124989584201317	0.0014998750104158	0.00191650695775352	0.00141654862094825	0.00133322223148071	0.00199983334722106	0.000666611115740355
0.000833263894675444	0.00191650695775352	0.00116656945254562	0.000833263894675444	0.000833263894675444	0.000999916673610532	0.000499958336805266	0.000499958336805266	0.000833263894675444	0.00108324306307808	0.000749937505207899	0.000916590284142988
8.33263894675444e-05	0	0	0	8.33263894675444e-05	0	0	8.33263894675444e-05	0	0	8.33263894675444e-05	8.33263894675444e-05
0.000749937505207899	0.000916590284142988	0.000499958336805266	0.000749937505207899	0.00116656945254562	0.000749937505207899	0.00058328472627281	0.00058328472627281	0.000749937505207899	0.00116656945254562	0.00058328472627281	0.00124989584201317
0.00141654862094825	0.000999916673610532	0.00166652778935089	0.00116656945254562	0.000916590284142988	0.00058328472627281	0.00108324306307808	0.000999916673610532	0.00058328472627281	0.00108324306307808	0.000666611115740355	0.000916590284142988
0.000999916673610532	0.000916590284142988	0.00058328472627281	0.00133322223148071	0.00133322223148071	0.000749937505207899	0.000833263894675444	0.000666611115740355	0.000999916673610532	0.00058328472627281	0.00058328472627281	0.000499958336805266
0.00124989584201317	0.00174985417881843	0.00141654862094825	0.00133322223148071	0.00141654862094825	0.0014998750104158	0.00116656945254562	0.00158320139988334	0.00124989584201317	0.000999916673610532	0.000999916673610532	0.00133322223148071
0.00174985417881843	0.00274977085242896	0.00141654862094825	0.00183318056828598	0.000916590284142988	0.000916590284142988	0.00158320139988334	0.00058328472627281	0.000833263894675444	0.00191650695775352	0.000666611115740355	0.00174985417881843
0.0014998750104158	0.00124989584201317	0.00158320139988334	0.000999916673610532	0.00216648612615615	0.00133322223148071	0.000999916673610532	0.0014998750104158	0.000666611115740355	0.00058328472627281	0.000666611115740355	0.00116656945254562
0.000416631947337722	0.000249979168402633	0.000333305557870178	0.000249979168402633	0.000499958336805266	8.33263894675444e-05	0.000166652778935089	0.000249979168402633	0	0.000166652778935089	0	0.000416631947337722
8.33263894675444e-05	0	0	0	0	0	8.33263894675444e-05	8.33263894675444e-05	0	0	0	0
8.33263894675444e-05	0	8.33263894675444e-05	8.33263894675444e-05	0	0.000166652778935089	0	0.000166652778935089	8.33263894675444e-05	0.000166652778935089	0.000249979168402633	8.33263894675444e-05
0.000499958336805266	0.000916590284142988	0.00058328472627281	0.00058328472627281	0.000416631947337722	8.33263894675444e-05	0.000166652778935089	0.000166652778935089	0.000249979168402633	8.33263894675444e-05	8.33263894675444e-05	0
0.000833263894675444	0.000749937505207899	0.000416631947337722	0.000416631947337722	0	0.000166652778935089	8.33263894675444e-05	8.33263894675444e-05	0.000166652778935089	0	0	0.000166652778935089
0.00058328472627281	0.000333305557870178	0.000499958336805266	0.000249979168402633	0.000666611115740355	0.000333305557870178	0.000416631947337722	0.000749937505207899	0.000249979168402633	0.000416631947337722	0.000416631947337722	0.000166652778935089
0.000749937505207899	0.000416631947337722	0.000499958336805266	0.000499958336805266	0.000166652778935089	0.000249979168402633	8.33263894675444e-05	0.000249979168402633	0.000666611115740355	0	0	0.000416631947337722
0.000249979168402633	0.000333305557870178	0.000166652778935089	0.000416631947337722	8.33263894675444e-05	8.33263894675444e-05	8.33263894675444e-05	0.000166652778935089	0.000166652778935089	0.000249979168402633	8.33263894675444e-05	8.33263894675444e-05
0.000166652778935089	0.000333305557870178	8.33263894675444e-05	8.33263894675444e-05	8.33263894675444e-05	0.000166652778935089	8.33263894675444e-05	0.000166652778935089	8.33263894675444e-05	0.000249979168402633	0.000249979168402633	0.000333305557870178
0.000499958336805266	0.000416631947337722	0.000333305557870178	0.000749937505207899	0.000333305557870178	0.000416631947337722	0.000249979168402633	0.000249979168402633	0.000249979168402633	0	0.000249979168402633	0.000166652778935089
8.33263894675444e-05	8.33263894675444e-05	0	0	0	0	0	0.000166652778935089	0	0	0	8.33263894675444e-05
0.000166652778935089	0.000333305557870178	0.000249979168402633	0.000416631947337722	0.000499958336805266	0.000249979168402633	0.000166652778935089	0.000249979168402633	0.000166652778935089	0.000333305557870178	8.33263894675444e-05	8.33263894675444e-05
0.000249979168402633	8.33263894675444e-05	0.000166652778935089	0.000333305557870178	0.000166652778935089	0.000666611115740355	0.000749937505207899	0.000416631947337722	0	0.000166652778935089	0.000749937505207899	0.00058328472627281
0.000416631947337722	0.00058328472627281	0	0	0.000249979168402633	0.000416631947337722	0.000249979168402633	0.000416631947337722	0.00058328472627281	0.000249979168402633	0.000333305557870178	0.000333305557870178
0.00116656945254562	0.000666611115740355	0.000999916673610532	0.000749937505207899	0.000916590284142988	0.000499958336805266	0.00116656945254562	0.000999916673610532	0.000666611115740355	0.000833263894675444	0.000666611115740355	0.00058328472627281
0.000416631947337722	0.000333305557870178	0.00108324306307808	0.000416631947337722	8.33263894675444e-05	0.000166652778935089	8.33263894675444e-05	8.33263894675444e-05	0.000166652778935089	0.000166652778935089	0.000166652778935089	8.33263894675444e-05
0.000749937505207899	0.000916590284142988	0.00108324306307808	0.000749937505207899	0.000999916673610532	0.000666611115740355	0.00108324306307808	0.000749937505207899	0.00133322223148071	0.000749937505207899	0.000749937505207899	0.000416631947337722
0.000999916673610532	0.000916590284142988	0.00141654862094825	0.0014998750104158	0.00124989584201317	0.000999916673610532	0.000833263894675444	0.00166652778935089	0.00166652778935089	0.00183318056828598	0.00133322223148071	0.00191650695775352
0.00141654862094825	0.00133322223148071	0.00174985417881843	0.00124989584201317	0.00141654862094825	0.00108324306307808	0.00158320139988334	0.00141654862094825	0.000999916673610532	0.000916590284142988	0.0014998750104158	0.00141654862094825
8.33263894675444e-05	0	0	8.33263894675444e-05	0	8.33263894675444e-05	0	0	0	0	0	8.33263894675444e-05
0.000166652778935089	0.000333305557870178	0.000249979168402633	8.33263894675444e-05	0.000166652778935089	0.000249979168402633	0.000249979168402633	8.33263894675444e-05	0.000166652778935089	0	0.000249979168402633	0.000166652778935089
8.33263894675444e-05	0	0	0	0	0	8.33263894675444e-05	0	0	8.33263894675444e-05	0	8.33263894675444e-05
0.000333305557870178	0.000499958336805266	0.000333305557870178	8.33263894675444e-05	8.33263894675444e-05	8.33263894675444e-05	0.000166652778935089	0.000333305557870178	0.000249979168402633	0.000333305557870178	0.000416631947337722	0.000249979168402633
0.00058328472627281	0.000166652778935089	0.000666611115740355	0	0	8.33263894675444e-05	8.33263894675444e-05	8.33263894675444e-05	0	0	0	0
8.33263894675444e-05	8.33263894675444e-05	8.33263894675444e-05	0.000166652778935089	0	0	0	0	0	0	0	0
8.33263894675444e-05	0	0	0	0	8.33263894675444e-05	8.33263894675444e-05	0	0	0	0	0
8.33263894675444e-05	0	0	0.000166652778935089	0	8.33263894675444e-05	0	0	0	0	0	0
0.000249979168402633	0.000249979168402633	8.33263894675444e-05	0.000166652778935089	0.000166652778935089	8.33263894675444e-05	0.000333305557870178	0	8.33263894675444e-05	8.33263894675444e-05	8.33263894675444e-05	0
0.000333305557870178	0.000416631947337722	0.000666611115740355	0.000333305557870178	0.000249979168402633	8.33263894675444e-05	0.000249979168402633	8.33263894675444e-05	0.000249979168402633	0.000249979168402633	0	0.000166652778935089
0.000166652778935089	0.000333305557870178	0.000249979168402633	0.000249979168402633	0	0	0	0	8.33263894675444e-05	8.33263894675444e-05	0	0
0.000166652778935089	0.000499958336805266	0.000333305557870178	0.000666611115740355	0.000249979168402633	0.000249979168402633	0.000249979168402633	8.33263894675444e-05	8.33263894675444e-05	0.000249979168402633	8.33263894675444e-05	0.000249979168402633
0.000249979168402633	0.000249979168402633	0.000249979168402633	0.000333305557870178	8.33263894675444e-05	8.33263894675444e-05	8.33263894675444e-05	8.33263894675444e-05	0.000166652778935089	0	0	8.33263894675444e-05
0.000833263894675444	0.000333305557870178	0.00133322223148071	0.000499958336805266	0	0.000249979168402633	0	0.000249979168402633	8.33263894675444e-05	8.33263894675444e-05	0.000249979168402633	0.000416631947337722
0.00058328472627281	0.000999916673610532	0.000499958336805266	0.000833263894675444	0.00191650695775352	0.00158320139988334	0.00308307641029914	0.00199983334722106	0.000833263894675444	0.00108324306307808	0.00116656945254562	0.000999916673610532
0.000249979168402633	0	0	0	8.33263894675444e-05	8.33263894675444e-05	0.000166652778935089	8.33263894675444e-05	0	0	8.33263894675444e-05	8.33263894675444e-05
8.33263894675444e-05	0	8.33263894675444e-05	8.33263894675444e-05	0	8.33263894675444e-05	0	0	0	8.33263894675444e-05	8.33263894675444e-05	8.33263894675444e-05
8.33263894675444e-05	0	0	0	0	0	8.33263894675444e-05	0	0	0	0	0
0.000333305557870178	0.000249979168402633	0	0	0	0.000166652778935089	0.000249979168402633	0	0.000249979168402633	8.33263894675444e-05	0	0.000166652778935089
0.000249979168402633	0.000249979168402633	0	0.000249979168402633	8.33263894675444e-05	0	0.000166652778935089	0.000249979168402633	0	0.000416631947337722	0.000249979168402633	8.33263894675444e-05
8.33263894675444e-05	8.33263894675444e-05	0	8.33263894675444e-05	8.33263894675444e-05	8.33263894675444e-05	8.33263894675444e-05	0.000166652778935089	8.33263894675444e-05	8.33263894675444e-05	0	8.33263894675444e-05
0.000333305557870178	0.000333305557870178	0.000499958336805266	0.00058328472627281	0.000249979168402633	0.000333305557870178	0.000249979168402633	0.000499958336805266	0.00058328472627281	0.000249979168402633	0.000333305557870178	0.000416631947337722
0.000249979168402633	0	8.33263894675444e-05	0	0	0	0	8.33263894675444e-05	0	0.000166652778935089	8.33263894675444e-05	0
0.000249979168402633	0	0	8.33263894675444e-05	0	8.33263894675444e-05	0	0.000166652778935089	8.33263894675444e-05	0	0.000166652778935089	8.33263894675444e-05
0.000166652778935089	8.33263894675444e-05	0	0	0.000249979168402633	0.000166652778935089	8.33263894675444e-05	0	8.33263894675444e-05	8.33263894675444e-05	8.33263894675444e-05	0
0.000166652778935089	0	0	0	8.33263894675444e-05	0	0	0	0	0	0	8.33263894675444e-05
8.33263894675444e-05	0	0	0	0	0.000166652778935089	0	0	0	0	0	0
0.00058328472627281	8.33263894675444e-05	0.00058328472627281	0.000333305557870178	0.000166652778935089	0.000416631947337722	0.000249979168402633	0.000333305557870178	8.33263894675444e-05	0.000249979168402633	0.000333305557870178	0.000249979168402633
0.000166652778935089	0	0.000249979168402633	0	0.000166652778935089	0	0	8.33263894675444e-05	0	0	0	0
0.000249979168402633	0.000333305557870178	8.33263894675444e-05	0.000249979168402633	0.000166652778935089	0.000166652778935089	0.000166652778935089	0.000416631947337722	0.000416631947337722	0.00058328472627281	0.00058328472627281	0.00058328472627281
8.33263894675444e-05	8.33263894675444e-05	0	8.33263894675444e-05	8.33263894675444e-05	0	0	8.33263894675444e-05	0	0.000166652778935089	0	0
0.000249979168402633	0.000166652778935089	0.000249979168402633	0.000416631947337722	0.000333305557870178	0.00058328472627281	0.000749937505207899	0.00058328472627281	0.000333305557870178	0.000416631947337722	8.33263894675444e-05	0.000333305557870178
0.000416631947337722	0.000249979168402633	8.33263894675444e-05	0	0	0.000416631947337722	0.000416631947337722	0.000499958336805266	0.000166652778935089	8.33263894675444e-05	0.000166652778935089	8.33263894675444e-05
0.000166652778935089	0	0	0.000166652778935089	8.33263894675444e-05	0.000166652778935089	8.33263894675444e-05	0	8.33263894675444e-05	0	0	0.000166652778935089
0.000333305557870178	0	0.000249979168402633	0.000333305557870178	0.000166652778935089	0	8.33263894675444e-05	0	0.000416631947337722	0.000333305557870178	0.000249979168402633	0.000333305557870178
8.33263894675444e-05	8.33263894675444e-05	0	0	0	0	0	0	0.000166652778935089	0	0	0.000166652778935089
0.000166652778935089	0.000166652778935089	0.000166652778935089	8.33263894675444e-05	0	0	8.33263894675444e-05	8.33263894675444e-05	8.33263894675444e-05	0	0	8.33263894675444e-05
8.33263894675444e-05	0	0	0	0.000166652778935089	0	8.33263894675444e-05	0.000333305557870178	8.33263894675444e-05	0	8.33263894675444e-05	0.000166652778935089
8.33263894675444e-05	0	0	0	0.000166652778935089	0.000333305557870178	0.000666611115740355	8.33263894675444e-05	8.33263894675444e-05	8.33263894675444e-05	0.000333305557870178	0.000166652778935089
0.000249979168402633	8.33263894675444e-05	0	0.000166652778935089	8.33263894675444e-05	0	0	8.33263894675444e-05	8.33263894675444e-05	0	0	0
0.000249979168402633	8.33263894675444e-05	0.000166652778935089	8.33263894675444e-05	8.33263894675444e-05	8.33263894675444e-05	0.000249979168402633	0.000166652778935089	0.000166652778935089	0	8.33263894675444e-05	0
8.33263894675444e-05	0	0	0	0.000166652778935089	0	8.33263894675444e-05	0	0	0	8.33263894675444e-05	0
0.000249979168402633	0.000166652778935089	0.00058328472627281	0.000333305557870178	8.33263894675444e-05	0.000166652778935089	0.000333305557870178	0	0	0	8.33263894675444e-05	0.000166652778935089
8.33263894675444e-05	0	8.33263894675444e-05	0.000166652778935089	0.000166652778935089	8.33263894675444e-05	8.33263894675444e-05	0.000166652778935089	0	8.33263894675444e-05	0	0
8.33263894675444e-05	0	0	0.000166652778935089	0	0	0	0	0	0	0	0
8.33263894675444e-05	0	0	0	0	0	0	0	0	0	0	0
8.33263894675444e-05	0	0	0	0	0	0	0	0	0	0	0
0.000249979168402633	0.000249979168402633	0.000249979168402633	0.000249979168402633	0.000416631947337722	0.000249979168402633	0	0	0.000166652778935089	0.000166652778935089	0.000166652778935089	0.000166652778935089
8.33263894675444e-05	0	0	0	0	8.33263894675444e-05	0	0	0	8.33263894675444e-05	0	0
8.33263894675444e-05	8.33263894675444e-05	8.33263894675444e-05	0.000416631947337722	0	8.33263894675444e-05	0	0	8.33263894675444e-05	8.33263894675444e-05	8.33263894675444e-05	0
0.000249979168402633	0.000333305557870178	0.00058328472627281	0.000416631947337722	0.000416631947337722	0.000166652778935089	0.000166652778935089	0.000333305557870178	0.000166652778935089	0.000416631947337722	0.000416631947337722	0.000166652778935089
8.33263894675444e-05	0	0	8.33263894675444e-05	0	8.33263894675444e-05	8.33263894675444e-05	0	8.33263894675444e-05	0	0	8.33263894675444e-05
8.33263894675444e-05	8.33263894675444e-05	0.000166652778935089	0.000416631947337722	0	0.000333305557870178	0.000166652778935089	0.000416631947337722	0	0	0	8.33263894675444e-05
0.000166652778935089	8.33263894675444e-05	0.000166652778935089	0	0	0	0.000166652778935089	0	0	0.000166652778935089	8.33263894675444e-05	0
0.000166652778935089	0.000333305557870178	0.000333305557870178	0.000499958336805266	0.000416631947337722	0.000333305557870178	0.000333305557870178	0.000499958336805266	0.00058328472627281	0.000333305557870178	8.33263894675444e-05	0.000249979168402633
8.33263894675444e-05	0.000166652778935089	0	8.33263894675444e-05	8.33263894675444e-05	0.000166652778935089	8.33263894675444e-05	0	0	0	8.33263894675444e-05	0
0.000249979168402633	0.000166652778935089	0.000416631947337722	0.000249979168402633	8.33263894675444e-05	8.33263894675444e-05	0.000166652778935089	0	0.000249979168402633	0.000333305557870178	0.000166652778935089	0.000166652778935089
8.33263894675444e-05	8.33263894675444e-05	0.000166652778935089	8.33263894675444e-05	8.33263894675444e-05	0	0	0	0	0	0	0
8.33263894675444e-05	8.33263894675444e-05	8.33263894675444e-05	0	0	0	8.33263894675444e-05	0	8.33263894675444e-05	0	0	0
8.33263894675444e-05	8.33263894675444e-05	0.000166652778935089	0	0	0	8.33263894675444e-05	0	8.33263894675444e-05	0	0	0.000166652778935089
8.33263894675444e-05	0.000166652778935089	0	0.000416631947337722	0.000249979168402633	8.33263894675444e-05	0.000166652778935089	0.000499958336805266	8.33263894675444e-05	8.33263894675444e-05	0.000499958336805266	8.33263894675444e-05
8.33263894675444e-05	0	0	0	0	0	0	0	0	8.33263894675444e-05	0	8.33263894675444e-05
8.33263894675444e-05	8.33263894675444e-05	0.000166652778935089	0	0	0.000166652778935089	8.33263894675444e-05	0.000249979168402633	8.33263894675444e-05	0	0	8.33263894675444e-05
8.33263894675444e-05	0	0	8.33263894675444e-05	0	8.33263894675444e-05	0	8.33263894675444e-05	0	8.33263894675444e-05	0	8.33263894675444e-05
8.33263894675444e-05	8.33263894675444e-05	0	0	0	8.33263894675444e-05	0	8.33263894675444e-05	0	8.33263894675444e-05	8.33263894675444e-05	8.33263894675444e-05
8.33263894675444e-05	8.33263894675444e-05	0.000249979168402633	0.000249979168402633	0.000249979168402633	0.000166652778935089	0.000166652778935089	0.000166652778935089	8.33263894675444e-05	0	0.000166652778935089	0
8.33263894675444e-05	0	0	0	0	0	0	0	0	0	0	0
8.33263894675444e-05	0.000166652778935089	0	8.33263894675444e-05	0.000249979168402633	8.33263894675444e-05	8.33263894675444e-05	0	0	0.000166652778935089	0	8.33263894675444e-05
8.33263894675444e-05	8.33263894675444e-05	0	8.33263894675444e-05	8.33263894675444e-05	0	0	0	0	0	0	8.33263894675444e-05
8.33263894675444e-05	8.33263894675444e-05	0	0.000166652778935089	0.000166652778935089	0.000166652778935089	0.000166652778935089	8.33263894675444e-05	8.33263894675444e-05	0	8.33263894675444e-05	0
8.33263894675444e-05	0	0	0	8.33263894675444e-05	0	0	8.33263894675444e-05	0	0	0	0
8.33263894675444e-05	0	8.33263894675444e-05	0	0	0	8.33263894675444e-05	0	0	0	0	0
8.33263894675444e-05	0	8.33263894675444e-05	0	0.000166652778935089	8.33263894675444e-05	8.33263894675444e-05	8.33263894675444e-05	0	8.33263894675444e-05	0	0.000166652778935089
8.33263894675444e-05	8.33263894675444e-05	8.33263894675444e-05	8.33263894675444e-05	8.33263894675444e-05	0.000166652778935089	0	0	8.33263894675444e-05	0	0	8.33263894675444e-05
0.000166652778935089	8.33263894675444e-05	0.000166652778935089	0.000166652778935089	8.33263894675444e-05	8.33263894675444e-05	0.000416631947337722	8.33263894675444e-05	8.33263894675444e-05	8.33263894675444e-05	0	0
8.33263894675444e-05	0.000166652778935089	0	8.33263894675444e-05	0	0	0	0	0	0	0	0
8.33263894675444e-05	0	0	8.33263894675444e-05	0	0	0	0	0	0	0	0
8.33263894675444e-05	0.000166652778935089	8.33263894675444e-05	0	0	0	8.33263894675444e-05	8.33263894675444e-05	0	0	0	0
8.33263894675444e-05	0	0	8.33263894675444e-05	0.000249979168402633	0.000166652778935089	8.33263894675444e-05	8.33263894675444e-05	0	0.000166652778935089	8.33263894675444e-05	0
8.33263894675444e-05	0	8.33263894675444e-05	8.33263894675444e-05	0.000166652778935089	0	8.33263894675444e-05	8.33263894675444e-05	8.33263894675444e-05	0	0	8.33263894675444e-05
0.000166652778935089	0.000416631947337722	0	0.000499958336805266	0.000416631947337722	0.000249979168402633	0.000166652778935089	0.000249979168402633	8.33263894675444e-05	0.000249979168402633	0	8.33263894675444e-05
0	0.000166652778935089	0	0	0	8.33263894675444e-05	0.000166652778935089	0	8.33263894675444e-05	0	0.000166652778935089	0
0	8.33263894675444e-05	0	0	0	0	0	0	0	0	0	0
0	0.000166652778935089	0	8.33263894675444e-05	0	0.000333305557870178	8.33263894675444e-05	8.33263894675444e-05	0.000166652778935089	8.33263894675444e-05	0	0.000249979168402633
0	0.000166652778935089	0.000249979168402633	0	0	8.33263894675444e-05	0	0	0	0	0	0
0	0.000166652778935089	0	8.33263894675444e-05	0	0	0	0	0	0	0	0
0	8.33263894675444e-05	8.33263894675444e-05	0	0	0	0	8.33263894675444e-05	0	0	0	0
0	8.33263894675444e-05	0	0	0	0	0	0	8.33263894675444e-05	0	0	0
0	8.33263894675444e-05	0.000166652778935089	8.33263894675444e-05	0	0	0	8.33263894675444e-05	8.33263894675444e-05	0	8.33263894675444e-05	0
0	8.33263894675444e-05	0	0	0	0	0	0	0	0	0	8.33263894675444e-05
0	8.33263894675444e-05	0.000166652778935089	0.000166652778935089	0	8.33263894675444e-05	0.000166652778935089	0.000249979168402633	0	0.000249979168402633	8.33263894675444e-05	0
0	8.33263894675444e-05	0	0	0	0	0	8.33263894675444e-05	0	0	0	0
0	8.33263894675444e-05	0	0	0	0	0	8.33263894675444e-05	0	0	0	0
0	0.000249979168402633	0	0	8.33263894675444e-05	8.33263894675444e-05	8.33263894675444e-05	8.33263894675444e-05	0.000333305557870178	0.000166652778935089	8.33263894675444e-05	8.33263894675444e-05
0	8.33263894675444e-05	0	0	0	0	0	0	0	0	0	0
0	8.33263894675444e-05	0	0	0	0	0	0	0	0	0	0
0	8.33263894675444e-05	8.33263894675444e-05	8.33263894675444e-05	0	0	0	8.33263894675444e-05	0	0.000166652778935089	0	8.33263894675444e-05
0	8.33263894675444e-05	0	0	0	0	0	0	0	0	0	0
0	8.33263894675444e-05	0	0	0	0	0	0	0	0	0	0
0	0.000166652778935089	8.33263894675444e-05	8.33263894675444e-05	8.33263894675444e-05	0	8.33263894675444e-05	0	0	0	0	0
0	0.000166652778935089	0.000249979168402633	8.33263894675444e-05	0.000166652778935089	8.33263894675444e-05	0.000166652778935089	0.000333305557870178	8.33263894675444e-05	0.000249979168402633	0.000666611115740355	0.000249979168402633
0	8.33263894675444e-05	8.33263894675444e-05	0	8.33263894675444e-05	0	0	0	0	0	8.33263894675444e-05	8.33263894675444e-05
0	8.33263894675444e-05	0	0	0	0	0	0	0	0	0	0
0	8.33263894675444e-05	0	0	0	0	0	0	0	0	0	0
0	8.33263894675444e-05	0	0	8.33263894675444e-05	0	0	0	0	8.33263894675444e-05	0	0
0	8.33263894675444e-05	0	0	0	0	0	0	8.33263894675444e-05	0	0	0
0	8.33263894675444e-05	0	0	8.33263894675444e-05	0	0	8.33263894675444e-05	8.33263894675444e-05	0	0	0
0	8.33263894675444e-05	0	0	0	0	8.33263894675444e-05	0.000166652778935089	0	8.33263894675444e-05	0	8.33263894675444e-05
0	8.33263894675444e-05	0	0	0	8.33263894675444e-05	0	0	0	0.000333305557870178	0.000166652778935089	8.33263894675444e-05
0	8.33263894675444e-05	0	0	0.000166652778935089	0	0.000166652778935089	0.000249979168402633	0.000333305557870178	8.33263894675444e-05	8.33263894675444e-05	8.33263894675444e-05
0	8.33263894675444e-05	0	0	0	8.33263894675444e-05	8.33263894675444e-05	0	0	0	0	0
0	8.33263894675444e-05	0	0	0	0	0	0	0	0	0	0
0	8.33263894675444e-05	8.33263894675444e-05	8.33263894675444e-05	0	0	0.000166652778935089	0	8.33263894675444e-05	0	0	8.33263894675444e-05
0	8.33263894675444e-05	0	0	8.33263894675444e-05	0	8.33263894675444e-05	8.33263894675444e-05	0	0	0	0
0	8.33263894675444e-05	0	0.000166652778935089	0	0	0	0	0.000166652778935089	8.33263894675444e-05	0.000166652778935089	0
0	0	8.33263894675444e-05	0	0	0	0	0	0	0	0	0
0	0	8.33263894675444e-05	0	0	0	8.33263894675444e-05	0	0	0	0	0
0	0	0.000166652778935089	8.33263894675444e-05	8.33263894675444e-05	0	0.000166652778935089	0	0.000249979168402633	0	0	8.33263894675444e-05
0	0	8.33263894675444e-05	0	0	0	0	0	0	0	0	0
0	0	8.33263894675444e-05	8.33263894675444e-05	0	0	8.33263894675444e-05	0	0	0	0	0
0	0	8.33263894675444e-05	0.000166652778935089	8.33263894675444e-05	0	8.33263894675444e-05	0	0	0	0	0
0	0	0.000333305557870178	0.000166652778935089	0.000166652778935089	0	0	8.33263894675444e-05	8.33263894675444e-05	8.33263894675444e-05	0	8.33263894675444e-05
0	0	8.33263894675444e-05	0	8.33263894675444e-05	0	0	0	0	0	0	0
0	0	8.33263894675444e-05	0	8.33263894675444e-05	0	0	0	0	0	0	8.33263894675444e-05
0	0	8.33263894675444e-05	8.33263894675444e-05	0	8.33263894675444e-05	8.33263894675444e-05	0	0	8.33263894675444e-05	0	0
0	0	8.33263894675444e-05	8.33263894675444e-05	0	0	0	8.33263894675444e-05	0	0	0	0
0	0	8.33263894675444e-05	8.33263894675444e-05	0	0	0	0	0	0	0	0
0	0	8.33263894675444e-05	0	0	0	0	0	0	0	0	8.33263894675444e-05
0	0	8.33263894675444e-05	0	0	0	0	0	0	0	0	8.33263894675444e-05
0	0	0	8.33263894675444e-05	0	0	0	0	0	0	0	0
0	0	0	8.33263894675444e-05	0	0	0	0	0	0	0	0
0	0	0	8.33263894675444e-05	0.000249979168402633	8.33263894675444e-05	8.33263894675444e-05	0.000249979168402633	8.33263894675444e-05	0.000166652778935089	0.000166652778935089	0.000249979168402633
0	0	0	8.33263894675444e-05	0	0	0	0	0	0	0	0
0	0	0	8.33263894675444e-05	0	0	0	0	0	0	0	8.33263894675444e-05
0	0	0	8.33263894675444e-05	8.33263894675444e-05	0	0	0	8.33263894675444e-05	0	0	0
0	0	0	8.33263894675444e-05	0	0.000249979168402633	0	8.33263894675444e-05	8.33263894675444e-05	0.000249979168402633	8.33263894675444e-05	0
0	0	0	8.33263894675444e-05	0	0	0	0	0	0	8.33263894675444e-05	0
0	0	0	8.33263894675444e-05	0.000166652778935089	0.000333305557870178	8.33263894675444e-05	0.000166652778935089	8.33263894675444e-05	8.33263894675444e-05	8.33263894675444e-05	0
0	0	0	8.33263894675444e-05	0	0	8.33263894675444e-05	0	0	0	0	0
0	0	0	0.000249979168402633	0.000166652778935089	0	0	0	8.33263894675444e-05	8.33263894675444e-05	8.33263894675444e-05	8.33263894675444e-05
0	0	0	8.33263894675444e-05	0	0	0	0	0	0	0	0
0	0	0	8.33263894675444e-05	0	0	0	0	0	0	0	8.33263894675444e-05
0	0	0	8.33263894675444e-05	0	0	0	0	0	0	0	0
0	0	0	8.33263894675444e-05	0	0	0	0	0	0	0	0
0	0	0	8.33263894675444e-05	0	0	0	0	0	8.33263894675444e-05	0	0
0	0	0	0	8.33263894675444e-05	8.33263894675444e-05	8.33263894675444e-05	0	8.33263894675444e-05	0	0	8.33263894675444e-05
0	0	0	0	8.33263894675444e-05	8.33263894675444e-05	0	0	8.33263894675444e-05	0	0	0
0	0	0	0	8.33263894675444e-05	0	0	0	0	0	0	0
0	0	0	0	8.33263894675444e-05	0	0	0	0	0	0	0
0	0	0	0	8.33263894675444e-05	0	0	0	0	0	0	0
0	0	0	0	8.33263894675444e-05	8.33263894675444e-05	8.33263894675444e-05	0	0	0	0	0
0	0	0	0	8.33263894675444e-05	0	8.33263894675444e-05	0.000166652778935089	0	0	0	8.33263894675444e-05
0	0	0	0	8.33263894675444e-05	0	0	0	0	0	0	0
0	0	0	0	0.000166652778935089	0	8.33263894675444e-05	8.33263894675444e-05	0	0	0	0
0	0	0	0	8.33263894675444e-05	0	0	0	0	0	0	0
0	0	0	0	8.33263894675444e-05	0	0	0	0	0	0	0
0	0	0	0	8.33263894675444e-05	0	0	0	0	0	0	0
0	0	0	0	8.33263894675444e-05	0	0	0	0	0	0	0
0	0	0	0	0	8.33263894675444e-05	0	0	0	0	0	0
0	0	0	0	0	8.33263894675444e-05	0	8.33263894675444e-05	0	8.33263894675444e-05	0	8.33263894675444e-05
0	0	0	0	0	8.33263894675444e-05	0	0	0	0	0	0
0	0	0	0	0	8.33263894675444e-05	0	8.33263894675444e-05	0	0	0	0
0	0	0	0	0	0	8.33263894675444e-05	0	0	0	0	0
0	0	0	0	0	0	8.33263894675444e-05	0	0	0.000249979168402633	0	0
0	0	0	0	0	0	8.33263894675444e-05	0	0	0	0	0
0	0	0	0	0	0	8.33263894675444e-05	0	0	0	0	0
0	0	0	0	0	0	0	8.33263894675444e-05	0	0	0	0
0	0	0	0	0	0	0	8.33263894675444e-05	8.33263894675444e-05	0	0	8.33263894675444e-05
0	0	0	0	0	0	0	8.33263894675444e-05	0	0	0	0
0	0	0	0	0	0	0	8.33263894675444e-05	0	0	8.33263894675444e-05	0
0	0	0	0	0	0	0	8.33263894675444e-05	0	0	0	0
0	0	0	0	0	0	0	0	8.33263894675444e-05	8.33263894675444e-05	0	0
0	0	0	0	0	0	0	0	8.33263894675444e-05	8.33263894675444e-05	0	8.33263894675444e-05
0	0	0	0	0	0	0	0	8.33263894675444e-05	0	8.33263894675444e-05	0
0	0	0	0	0	0	0	0	8.33263894675444e-05	0	0	0
0	0	0	0	0	0	0	0	8.33263894675444e-05	0	0	0
0	0	0	0	0	0	0	0	8.33263894675444e-05	0	0	0
0	0	0	0	0	0	0	0	0	8.33263894675444e-05	0	0
0	0	0	0	0	0	0	0	0	8.33263894675444e-05	0	0
0	0	0	0	0	0	0	0	0	8.33263894675444e-05	0	0
0	0	0	0	0	0	0	0	0	8.33263894675444e-05	0	0
0	0	0	0	0	0	0	0	0	0	8.33263894675444e-05	0
0	0	0	0	0	0	0	0	0	0	8.33263894675444e-05	0
0	0	0	0	0	0	0	0	0	0	8.33263894675444e-05	0
0	0	0	0	0	0	0	0	0	0	8.33263894675444e-05	0
0	0	0	0	0	0	0	0	0	0	0	8.33263894675444e-05
0	0	0	0	0	0	0	0	0	0	0	8.33263894675444e-05
0	0	0	0	0	0	0	0	0	0	0	8.33263894675444e-05
0	0	0	0	0	0	0	0	0	0	0	8.33263894675444e-05
