8
[ 4.404, 4.404, 2.097, 2.097, 2.097, 2.380, 4.404, 2.097, 2.097, 2.097, 2.097, 4.404, 2.097, 2.097, 4.404, 2.097, 2.097, 2.097, 2.097, 2.097, 2.097, 2.097, 2.097, 4.404, 2.097, 2.097, 2.097, 4.404, 2.097, 2.380, 2.097, 2.097, 2.097, 2.097, 2.097, 2.097, 2.097, 2.097, 2.097, 1.751, 2.097, 2.097, 4.404, 2.097, 4.404, 4.404, 2.097, 2.097, 2.097, 2.097, 2.097, 4.404, 4.404, 2.097, 2.097, 2.097, 2.097, 4.404, 2.097, 2.097, 2.097, 2.097, 3.501, 2.380, 2.097, 2.097, 4.404, 2.097, 2.097, 2.097, 2.097, 4.404, 1.751, 2.097, 2.097, 2.097, 3.746, 2.097, 3.746, 2.097, 2.097, 2.097, 2.097, 2.097, 2.097, 2.097, 4.404, 2.097, 2.097, 2.097, 4.404, 2.097, 2.097, 4.404, 2.097, 2.097, 2.097, 2.097, 4.404, 2.097, 2.097, 2.097, 2.380, 2.097, 2.097, 2.097, 2.097, 2.097, 2.097, 4.611, 3.501, 2.097, 2.380, 2.097, 2.097, 2.097, 4.404, 2.097, 4.404, 2.097, 2.097, 4.341, 3.746, 2.097, 2.097, 2.097, 2.097, 2.097, 2.380, 2.097, 3.746, 2.097, 2.097, 3.746, 2.097, 2.097, 2.097, 2.380, 2.097, 2.097, 2.097, 2.097, 2.097, 3.746, 3.501, 2.097, 2.097, 2.097, 2.097, 4.404, 2.097, 2.097, 2.097, 2.097, 2.097, 2.097, 4.404, 2.097, 3.746, 2.097, 2.097, 3.746, 2.097, 2.097, 2.097, 2.097, 2.097, 2.097, 2.097, 3.501, 2.097, 2.097, 2.097, 2.097, 3.501, 2.097, 4.404, 2.097, 4.404, 4.404, 2.097, 2.380, 2.097, 2.097, 2.097, 2.097, 2.097, 2.097, 2.097, 4.404, 2.097, 2.097, 4.404, 2.097, 2.097, 2.097, 2.097, 3.501, 2.097, 2.097 ]
5
[ 0.740, 0.740, 0.740, 0.740, 0.740, 0.740, 0.740, 0.740, 0.740, 0.740, 0.740, 0.740, 0.740, 0.109, 0.740, 0.740, 0.740, 0.740, 0.740, 0.740, 0.740, 0.740, 0.740, 0.740, 0.740, 0.740, 0.740, 0.740, 0.740, 0.740, 0.740, 0.740, 0.740, 0.740, 0.740, 0.109, 0.740, 0.740, 0.740, 0.740, 0.740, 0.740, 0.740, 0.740, 0.740, 0.740, 0.740, 0.109, 0.740, 0.740, 0.109, 0.740, 0.740, 0.740, 0.740, 0.740, 0.740, 0.740, 0.740, 0.740, 0.740, 0.740, 0.740, 0.740, 0.740, 0.740, 0.740, 0.740, 0.740, 0.740, 0.740, 0.740, 0.740, 0.740, 0.740, 0.740, 0.740, 0.740, 0.869, 0.740, 0.740, 0.740, 0.740, 0.740, 0.740, 0.740, 0.873, 0.740, 0.740, 0.740, 0.109, 0.740, 0.740, 0.109, 0.109, 0.740, 0.742, 0.740, 0.740, 0.740, 0.740, 0.740, 0.109, 0.740, 0.740, 0.740, 0.740, 0.740, 0.740, 0.740, 0.740, 0.740, 0.740, 0.740, 0.740, 0.740, 0.740, 0.740, 0.740, 0.740, 0.109, 0.109, 0.109, 0.740, 0.740, 0.740, 0.740, 0.740, 0.740, 0.740, 0.740, 0.740, 0.740, 0.740, 0.740, 0.740, 0.740, 0.740, 0.740, 0.740, 0.740, 0.740, 0.740, 0.740, 0.740, 0.740, 0.740, 0.740, 0.740, 0.740, 0.740, 0.740, 0.740, 0.740, 0.740, 0.740, 0.740, 0.740, 0.740, 0.740, 0.740, 0.740, 0.740, 0.740, 0.740, 0.740, 0.740, 0.740, 0.740, 0.740, 0.740, 0.109, 0.109, 0.740, 0.109, 0.740, 0.740, 0.740, 0.740, 0.109, 0.109, 0.740, 0.740, 0.740, 0.740, 0.740, 0.740, 0.740, 0.109, 0.109, 0.740, 0.740, 0.740, 0.740, 0.740, 0.740, 0.740, 0.109, 0.740, 0.740 ]