3
[ 2.851, 1.728, 2.438, 2.851, 1.728, 2.438, 1.728, 2.438, 2.438, 1.728, 2.851, 2.438, 2.851, 2.438, 1.728, 2.851, 2.851, 1.728, 2.851, 2.438, 2.438, 1.728, 2.438, 2.851, 1.728, 1.728, 2.438, 2.851, 1.728, 2.438, 1.728, 2.438, 2.851, 2.851, 1.728, 2.851, 2.851, 2.438, 2.851, 1.728, 2.851, 2.851, 2.438, 1.728, 2.851, 2.851, 2.851, 2.438, 2.851, 2.438, 2.851, 2.851, 2.851, 1.728, 2.438, 1.728, 2.438, 2.851, 1.728, 2.438, 1.728, 2.438, 2.438, 2.851, 2.438, 2.438, 2.438, 1.728, 2.851, 1.728, 2.438, 1.728, 1.728, 1.728, 2.851, 2.438, 2.851, 1.728, 2.438, 2.851, 1.728, 2.851, 1.728, 2.438, 2.438, 2.438, 2.851, 2.851, 1.728, 1.728, 2.851, 1.728, 2.438, 2.438, 2.851, 2.438, 2.851, 1.728, 1.728, 2.851 ]
3
[ 0.167, 0.167, 0.167, 0.886, 0.892, 0.886, 0.886, 0.892, 0.892, 0.892, 0.892, 0.167, 0.886, 0.167, 0.886, 0.892, 0.886, 0.892, 0.892, 0.167, 0.892, 0.167, 0.886, 0.167, 0.892, 0.886, 0.167, 0.892, 0.886, 0.886, 0.892, 0.892, 0.892, 0.892, 0.886, 0.892, 0.892, 0.886, 0.892, 0.892, 0.167, 0.167, 0.892, 0.892, 0.167, 0.892, 0.892, 0.167, 0.886, 0.892, 0.886, 0.886, 0.892, 0.886, 0.167, 0.167, 0.886, 0.167, 0.886, 0.886, 0.886, 0.892, 0.886, 0.886, 0.167, 0.892, 0.892, 0.886, 0.886, 0.167, 0.886, 0.886, 0.892, 0.886, 0.886, 0.886, 0.167, 0.892, 0.892, 0.886, 0.167, 0.167, 0.886, 0.886, 0.886, 0.886, 0.892, 0.892, 0.167, 0.167, 0.892, 0.886, 0.892, 0.892, 0.886, 0.892, 0.886, 0.167, 0.167, 0.892 ]