3
[ 2.247, 0.828, 4.185, 0.828, 2.247, 0.828, 0.828, 2.247, 4.185, 4.185, 0.828, 4.185, 4.185, 4.185, 4.185, 0.828, 4.185, 4.185, 4.185, 2.247, 0.828, 4.185, 0.828, 0.828, 0.828, 2.247, 2.247, 4.185, 0.828, 4.185, 4.185, 0.828, 0.828, 2.247, 2.247, 2.247, 0.828, 2.247, 4.185, 2.247, 4.185, 2.247, 4.185, 4.185, 4.185, 0.828, 2.247, 2.247, 4.185, 2.247 ]
3
[ 0.401, 0.401, 0.401, 0.665, 0.401, 0.401, 0.032, 0.032, 0.665, 0.032, 0.401, 0.401, 0.032, 0.401, 0.401, 0.665, 0.401, 0.665, 0.032, 0.401, 0.665, 0.401, 0.401, 0.032, 0.401, 0.401, 0.401, 0.032, 0.401, 0.401, 0.032, 0.665, 0.401, 0.401, 0.665, 0.401, 0.665, 0.665, 0.665, 0.665, 0.401, 0.032, 0.401, 0.032, 0.401, 0.032, 0.665, 0.665, 0.032, 0.665 ]