9
[ 2.732, 9.184, 8.143, 1.900, 0.740, 0.740, 9.184, 2.732, 0.740, 0.740, 1.357, 0.740, 2.732, 1.900, 1.900, 1.900, 1.900, 9.184, 2.732, 0.740, 2.732, 2.732, 0.740, 1.900, 1.900, 2.732, 2.732, 0.740, 2.732, 1.900, 2.732, 2.732, 2.951, 2.951, 0.740, 9.184, 0.740, 2.732, 2.732, 9.184, 2.732, 2.732, 1.900, 1.900, 2.951, 9.184, 1.900, 9.184, 1.900, 2.732, 0.740, 2.732, 9.184, 2.732, 2.732, 2.732, 2.732, 8.143, 1.900, 0.740, 2.233, 1.357, 2.732, 2.732, 2.732, 0.740, 2.732, 2.732, 0.740, 1.357, 1.900, 1.900, 2.732, 2.732, 2.732, 9.184, 2.732, 1.900, 2.732, 1.900, 2.732, 1.900, 1.900, 7.353, 0.740, 0.740, 2.732, 2.951, 2.732, 0.740, 2.732, 1.900, 2.732, 1.900, 0.740, 0.740, 1.357, 0.740, 9.184, 9.184 ]
8
[ 0.532, 0.455, 0.455, 0.532, 0.532, 0.532, 0.455, 0.455, 0.455, 0.532, 0.532, 0.532, 0.532, 0.532, 0.455, 0.532, 0.532, 0.532, 0.532, 0.455, 0.532, 0.532, 0.532, 0.532, 0.532, 0.532, 0.532, 0.475, 0.532, 0.532, 0.532, 0.532, 0.532, 0.532, 0.455, 0.455, 0.455, 0.532, 0.532, 0.532, 0.532, 0.532, 0.532, 0.094, 0.455, 0.532, 0.532, 0.455, 0.797, 0.455, 0.532, 0.532, 0.455, 0.532, 0.532, 0.532, 0.532, 0.532, 0.532, 0.797, 0.094, 0.532, 0.455, 0.532, 0.532, 0.532, 0.101, 0.169, 0.455, 0.529, 0.455, 0.532, 0.532, 0.532, 0.532, 0.532, 0.532, 0.532, 0.532, 0.455, 0.532, 0.532, 0.532, 0.532, 0.455, 0.532, 0.532, 0.455, 0.532, 0.532, 0.532, 0.455, 0.532, 0.532, 0.532, 0.532, 0.532, 0.532, 0.532, 0.455 ]