8
[ 4.625, 4.625, 4.625, 7.832, 0.528, 7.832, 4.625, 0.645, 0.528, 4.625, 4.625, 4.625, 7.832, 4.625, 4.625, 4.625, 4.625, 4.625, 4.625, 0.645, 0.645, 4.625, 0.528, 4.625, 0.645, 4.625, 4.625, 4.625, 0.528, 4.625, 7.832, 0.528, 0.645, 0.645, 4.625, 0.528, 0.645, 7.832, 4.625, 4.625, 0.645, 4.625, 0.528, 4.625, 4.625, 3.652, 0.645, 0.528, 4.625, 3.042, 4.625, 0.528, 0.528, 0.645, 0.645, 4.625, 4.625, 4.625, 4.625, 4.625, 4.625, 4.625, 4.625, 4.625, 4.625, 4.625, 0.232, 4.625, 4.625, 0.645, 0.645, 4.625, 4.625, 7.832, 7.832, 4.625, 4.625, 4.625, 4.123, 4.625, 4.625, 4.625, 4.625, 0.645, 4.625, 4.625, 0.645, 4.625, 4.625, 0.645, 4.625, 0.528, 4.625, 4.625, 0.645, 4.625, 4.625, 4.625, 4.625, 4.625, 4.625, 4.625, 0.528, 4.625, 4.625, 4.625, 4.625, 7.832, 0.645, 4.625, 4.625, 4.625, 4.625, 4.625, 0.232, 4.625, 4.625, 4.625, 4.625, 0.528, 4.625, 4.625, 0.645, 4.625, 7.832, 0.645, 4.625, 7.832, 0.528, 4.625, 0.645, 4.625, 4.625, 4.625, 4.625, 0.645, 4.625, 0.528, 4.625, 0.645, 0.645, 4.625, 7.832, 4.625, 4.625, 0.645, 7.832, 4.625, 0.645, 3.042, 0.645, 4.625, 0.528, 7.832, 0.528, 4.625, 4.625, 7.832, 0.645, 4.625, 0.645, 0.528, 4.625, 4.625, 4.625, 0.645, 4.625, 4.625, 4.625, 0.528, 0.645, 0.528, 0.645, 0.645, 0.232, 4.625, 7.832, 4.625, 4.625, 0.528, 4.625, 4.625, 4.625, 7.832, 4.625, 0.645, 4.625, 0.645, 4.625, 4.625, 0.645, 0.528, 4.625, 0.645, 0.645, 4.625, 4.625, 0.232, 0.528, 4.625 ]
8
[ 0.590, 0.052, 0.743, 0.523, 0.523, 0.052, 0.590, 0.523, 0.743, 0.052, 0.743, 0.590, 0.743, 0.590, 0.590, 0.523, 0.743, 0.743, 0.743, 0.743, 0.590, 0.052, 0.590, 0.523, 0.438, 0.052, 0.523, 0.234, 0.523, 0.743, 0.743, 0.523, 0.052, 0.743, 0.817, 0.743, 0.523, 0.234, 0.743, 0.743, 0.590, 0.052, 0.986, 0.523, 0.743, 0.590, 0.743, 0.052, 0.523, 0.743, 0.743, 0.523, 0.590, 0.523, 0.590, 0.743, 0.234, 0.052, 0.743, 0.234, 0.590, 0.523, 0.052, 0.743, 0.523, 0.052, 0.743, 0.523, 0.052, 0.234, 0.743, 0.523, 0.743, 0.052, 0.817, 0.743, 0.590, 0.743, 0.523, 0.743, 0.523, 0.590, 0.743, 0.743, 0.052, 0.743, 0.590, 0.743, 0.986, 0.052, 0.743, 0.743, 0.590, 0.523, 0.743, 0.234, 0.052, 0.743, 0.052, 0.743, 0.523, 0.743, 0.743, 0.523, 0.743, 0.523, 0.052, 0.743, 0.590, 0.052, 0.743, 0.743, 0.590, 0.523, 0.590, 0.743, 0.523, 0.590, 0.523, 0.052, 0.523, 0.052, 0.743, 0.590, 0.523, 0.743, 0.523, 0.743, 0.590, 0.743, 0.523, 0.743, 0.743, 0.743, 0.052, 0.590, 0.743, 0.743, 0.052, 0.743, 0.743, 0.743, 0.523, 0.743, 0.743, 0.743, 0.523, 0.743, 0.743, 0.590, 0.234, 0.523, 0.523, 0.523, 0.234, 0.523, 0.523, 0.523, 0.523, 0.523, 0.590, 0.743, 0.052, 0.817, 0.743, 0.743, 0.590, 0.523, 0.590, 0.052, 0.438, 0.052, 0.743, 0.743, 0.523, 0.052, 0.590, 0.523, 0.743, 0.590, 0.523, 0.743, 0.052, 0.523, 0.523, 0.590, 0.052, 0.590, 0.743, 0.523, 0.743, 0.743, 0.590, 0.052, 0.743, 0.743, 0.052, 0.743, 0.590, 0.052 ]