7
[ 3.783, 1.573, 2.559, 1.573, 1.573, 1.573, 1.573, 1.190, 1.573, 1.573, 1.190, 5.830, 1.190, 2.559, 3.783, 1.573, 1.573, 1.573, 1.573, 1.573, 1.573, 1.190, 1.573, 3.783, 1.573, 2.559, 3.783, 1.573, 1.573, 1.190, 1.190, 2.559, 1.573, 1.573, 1.573, 6.557, 1.573, 5.138, 1.190, 1.573, 1.573, 1.573, 1.573, 1.573, 1.190, 1.573, 1.573, 1.190, 1.573, 1.573 ]
3
[ 0.876, 0.306, 0.306, 0.876, 0.876, 0.876, 0.876, 0.306, 0.876, 0.876, 0.876, 0.306, 0.876, 0.876, 0.876, 0.306, 0.306, 0.876, 0.876, 0.306, 0.306, 0.306, 0.876, 0.306, 0.876, 0.306, 0.876, 0.876, 0.876, 0.876, 0.876, 0.306, 0.876, 0.685, 0.876, 0.876, 0.876, 0.306, 0.306, 0.876, 0.306, 0.876, 0.876, 0.685, 0.306, 0.306, 0.876, 0.876, 0.306, 0.876 ]