3
[ 2.673, 2.673, 2.673, 2.673, 1.616, 2.673, 2.673, 2.673, 1.616, 1.616, 1.616, 1.616, 2.673, 1.616, 2.673, 2.406, 2.406, 2.406, 2.673, 2.406, 2.406, 2.406, 2.673, 2.673, 2.406, 1.616, 2.406, 2.673, 1.616, 1.616, 2.673, 1.616, 2.406, 1.616, 1.616, 2.406, 1.616, 2.406, 2.673, 2.673, 1.616, 2.673, 2.673, 1.616, 2.673, 1.616, 2.673, 2.673, 2.673, 2.406, 2.406, 2.406, 2.406, 2.673, 2.406, 2.406, 1.616, 1.616, 1.616, 2.673, 2.406, 2.673, 1.616, 1.616, 1.616, 2.673, 2.673, 2.673, 2.673, 1.616, 1.616, 1.616, 2.406, 2.673, 2.406, 1.616, 2.406, 2.406, 1.616, 1.616, 2.673, 2.406, 2.406, 2.673, 1.616, 1.616, 2.406, 2.673, 2.673, 2.673, 2.406, 2.673, 2.406, 1.616, 2.406, 2.673, 2.406, 2.406, 1.616, 1.616, 2.406, 2.406, 1.616, 2.406, 1.616, 1.616, 2.673, 2.406, 2.406, 2.406, 1.616, 2.673, 1.616, 2.406, 2.673, 2.406, 2.673, 1.616, 2.406, 1.616, 2.673, 2.673, 1.616, 1.616, 2.406, 2.673, 2.673, 2.673, 2.673, 2.673, 2.673, 1.616, 2.673, 2.673, 2.406, 1.616, 2.406, 2.406, 2.673, 1.616, 2.406, 2.406, 2.673, 2.673, 1.616, 2.673, 2.673, 1.616, 2.673, 1.616, 1.616, 1.616, 2.406, 2.406, 2.406, 2.406, 1.616, 1.616, 1.616, 2.673, 2.673, 2.673, 2.406, 2.673, 2.406, 2.673, 2.673, 2.406, 2.673, 2.673, 2.406, 2.673, 2.406, 2.673, 1.616, 1.616, 2.673, 2.673, 1.616, 2.406, 1.616, 2.673, 2.673, 2.673, 1.616, 2.673, 2.406, 2.406, 2.673, 2.673, 1.616, 2.673, 1.616, 2.673, 1.616, 2.673, 1.616, 2.406, 2.673, 1.616 ]
3
[ 0.426, 0.426, 0.963, 0.963, 0.963, 0.579, 0.579, 0.579, 0.579, 0.426, 0.426, 0.426, 0.426, 0.963, 0.579, 0.963, 0.579, 0.426, 0.963, 0.579, 0.579, 0.426, 0.426, 0.963, 0.579, 0.579, 0.963, 0.426, 0.963, 0.579, 0.963, 0.963, 0.426, 0.579, 0.579, 0.963, 0.963, 0.963, 0.963, 0.426, 0.579, 0.426, 0.579, 0.426, 0.963, 0.579, 0.579, 0.579, 0.579, 0.426, 0.963, 0.426, 0.579, 0.579, 0.579, 0.963, 0.426, 0.579, 0.579, 0.426, 0.579, 0.426, 0.426, 0.963, 0.963, 0.579, 0.579, 0.579, 0.963, 0.963, 0.579, 0.579, 0.426, 0.579, 0.426, 0.579, 0.426, 0.579, 0.579, 0.579, 0.426, 0.579, 0.579, 0.963, 0.579, 0.426, 0.963, 0.963, 0.579, 0.579, 0.426, 0.963, 0.579, 0.963, 0.426, 0.579, 0.426, 0.963, 0.579, 0.579, 0.963, 0.579, 0.579, 0.579, 0.963, 0.963, 0.963, 0.426, 0.963, 0.426, 0.426, 0.579, 0.579, 0.963, 0.426, 0.963, 0.426, 0.579, 0.579, 0.426, 0.426, 0.963, 0.426, 0.963, 0.579, 0.426, 0.579, 0.579, 0.426, 0.579, 0.426, 0.579, 0.963, 0.579, 0.426, 0.963, 0.963, 0.426, 0.963, 0.426, 0.579, 0.426, 0.426, 0.579, 0.963, 0.963, 0.426, 0.579, 0.426, 0.579, 0.963, 0.426, 0.963, 0.963, 0.963, 0.579, 0.579, 0.426, 0.426, 0.963, 0.579, 0.426, 0.426, 0.963, 0.963, 0.579, 0.426, 0.426, 0.426, 0.426, 0.579, 0.963, 0.579, 0.579, 0.426, 0.579, 0.579, 0.426, 0.963, 0.963, 0.426, 0.579, 0.579, 0.963, 0.579, 0.426, 0.426, 0.963, 0.426, 0.963, 0.963, 0.426, 0.426, 0.579, 0.579, 0.426, 0.963, 0.426, 0.426, 0.426 ]