3
[ 2.384, 2.384, 1.751, 3.972, 1.751, 3.972, 3.972, 3.972, 2.384, 3.972, 2.384, 2.384, 1.751, 3.972, 3.972, 2.384, 2.384, 2.384, 2.384, 1.751, 1.751, 1.751, 3.972, 1.751, 3.972, 1.751, 2.384, 3.972, 2.384, 1.751, 1.751, 3.972, 1.751, 3.972, 3.972, 1.751, 2.384, 1.751, 3.972, 3.972, 1.751, 2.384, 1.751, 1.751, 2.384, 1.751, 3.972, 3.972, 1.751, 2.384 ]
3
[ 0.769, 0.019, 0.769, 0.769, 0.019, 0.769, 0.466, 0.466, 0.019, 0.019, 0.466, 0.019, 0.019, 0.769, 0.466, 0.019, 0.019, 0.466, 0.019, 0.466, 0.019, 0.769, 0.769, 0.466, 0.466, 0.466, 0.769, 0.019, 0.019, 0.019, 0.019, 0.019, 0.769, 0.769, 0.466, 0.019, 0.019, 0.019, 0.466, 0.466, 0.769, 0.769, 0.466, 0.019, 0.466, 0.769, 0.769, 0.466, 0.769, 0.466 ]