5
[ 1.999, 1.999, 1.999, 3.227, 3.227, 6.450, 1.999, 1.999, 3.227, 1.999, 3.227, 1.999, 1.999, 1.999, 3.227, 3.227, 3.227, 1.999, 1.999, 1.999, 6.320, 1.599, 1.999, 3.227, 1.999, 1.999, 1.999, 1.999, 1.999, 3.227, 3.227, 3.227, 3.227, 1.999, 1.999, 1.999, 3.227, 3.227, 1.999, 1.999, 6.320, 6.320, 3.227, 1.999, 1.999, 3.227, 1.999, 3.227, 1.999, 3.227, 1.999, 3.227, 6.450, 1.999, 1.999, 1.999, 3.227, 1.999, 3.227, 1.999, 1.999, 6.320, 6.320, 3.227, 6.450, 3.227, 3.227, 1.999, 1.999, 1.999, 1.999, 6.450, 3.227, 1.999, 1.999, 1.999, 3.227, 3.227, 1.999, 3.227, 6.320, 1.999, 1.999, 3.227, 1.999, 3.227, 3.227, 1.999, 1.999, 3.227, 3.227, 1.599, 1.999, 6.320, 1.999, 1.999, 3.227, 1.999, 1.999, 3.227 ]
8
[ 0.584, 0.693, 0.584, 0.196, 0.196, 0.196, 0.311, 0.196, 0.196, 0.196, 0.311, 0.196, 0.196, 0.693, 0.196, 0.196, 0.196, 0.196, 0.196, 0.693, 0.751, 0.196, 0.672, 0.672, 0.196, 0.196, 0.196, 0.196, 0.196, 0.196, 0.196, 0.196, 0.196, 0.693, 0.196, 0.196, 0.311, 0.196, 0.311, 0.196, 0.584, 0.196, 0.196, 0.068, 0.196, 0.196, 0.693, 0.196, 0.196, 0.196, 0.672, 0.196, 0.196, 0.196, 0.960, 0.196, 0.196, 0.693, 0.311, 0.693, 0.584, 0.196, 0.196, 0.311, 0.196, 0.693, 0.693, 0.693, 0.196, 0.196, 0.196, 0.196, 0.693, 0.693, 0.196, 0.196, 0.196, 0.196, 0.196, 0.196, 0.196, 0.584, 0.311, 0.196, 0.196, 0.196, 0.960, 0.196, 0.196, 0.672, 0.693, 0.311, 0.693, 0.196, 0.068, 0.196, 0.196, 0.196, 0.196, 0.693 ]