3
[ 1.331, 1.331, 1.331, 1.875, 1.875, 1.331, 1.331, 1.331, 1.331, 1.331, 1.875, 3.841, 1.331, 1.875, 1.875, 1.875, 1.331, 1.331, 3.841, 3.841, 1.331, 1.875, 3.841, 1.331, 1.331, 3.841, 1.331, 1.331, 1.875, 1.331, 3.841, 3.841, 3.841, 1.331, 1.875, 1.875, 3.841, 3.841, 1.331, 3.841, 3.841, 1.331, 3.841, 1.875, 1.875, 3.841, 3.841, 1.331, 1.331, 1.331, 3.841, 1.331, 1.875, 3.841, 1.331, 3.841, 1.331, 1.331, 1.331, 1.875, 1.331, 1.331, 3.841, 3.841, 1.875, 1.875, 1.875, 1.331, 1.875, 3.841, 1.875, 3.841, 3.841, 1.875, 1.875, 1.331, 1.875, 1.875, 1.875, 3.841, 1.331, 1.331, 3.841, 1.331, 1.331, 1.875, 1.331, 1.331, 3.841, 3.841, 1.331, 1.875, 1.331, 1.331, 1.331, 1.875, 1.875, 1.875, 3.841, 3.841 ]
3
[ 0.444, 0.444, 0.333, 0.686, 0.686, 0.686, 0.686, 0.333, 0.444, 0.444, 0.444, 0.444, 0.333, 0.333, 0.686, 0.333, 0.444, 0.444, 0.333, 0.444, 0.686, 0.444, 0.444, 0.686, 0.333, 0.686, 0.444, 0.333, 0.333, 0.686, 0.333, 0.333, 0.444, 0.686, 0.333, 0.333, 0.686, 0.333, 0.686, 0.686, 0.686, 0.686, 0.686, 0.444, 0.686, 0.444, 0.444, 0.444, 0.333, 0.333, 0.686, 0.444, 0.333, 0.686, 0.444, 0.444, 0.444, 0.686, 0.686, 0.333, 0.333, 0.444, 0.686, 0.444, 0.686, 0.333, 0.686, 0.686, 0.333, 0.333, 0.686, 0.444, 0.686, 0.686, 0.686, 0.686, 0.686, 0.333, 0.444, 0.333, 0.333, 0.444, 0.444, 0.333, 0.333, 0.686, 0.444, 0.333, 0.686, 0.444, 0.444, 0.444, 0.444, 0.686, 0.686, 0.686, 0.686, 0.333, 0.686, 0.444 ]