4
[ 9.860, 6.456, 0.681, 9.860, 0.681, 0.349, 0.681, 6.456, 6.456, 0.349, 0.681, 0.349, 0.349, 0.681, 0.349, 0.681, 0.349, 0.349, 0.681, 0.681, 0.349, 9.860, 0.349, 0.349, 0.349, 0.681, 0.349, 0.681, 9.860, 0.681, 0.349, 6.456, 0.681, 0.681, 0.681, 6.456, 0.681, 0.681, 0.681, 0.681, 0.681, 0.349, 9.860, 0.349, 6.456, 0.681, 0.681, 0.349, 0.349, 0.681 ]
5
[ 0.759, 0.327, 0.988, 0.759, 0.759, 0.759, 0.759, 0.988, 0.759, 0.759, 0.327, 0.759, 0.327, 0.327, 0.759, 0.922, 0.759, 0.759, 0.922, 0.327, 0.759, 0.988, 0.988, 0.759, 0.327, 0.988, 0.988, 0.327, 0.759, 0.327, 0.759, 0.759, 0.988, 0.047, 0.759, 0.759, 0.759, 0.759, 0.988, 0.759, 0.047, 0.988, 0.327, 0.759, 0.759, 0.759, 0.988, 0.759, 0.759, 0.327 ]