3
[ 0.956, 0.956, 3.997, 0.956, 3.997, 7.735, 0.956, 0.956, 7.735, 7.735, 0.956, 7.735, 7.735, 0.956, 0.956, 3.997, 0.956, 7.735, 7.735, 7.735, 0.956, 3.997, 0.956, 7.735, 0.956, 3.997, 3.997, 0.956, 0.956, 0.956, 0.956, 3.997, 7.735, 0.956, 0.956, 3.997, 3.997, 0.956, 0.956, 3.997, 3.997, 0.956, 3.997, 7.735, 7.735, 0.956, 3.997, 0.956, 0.956, 3.997 ]
3
[ 0.334, 0.334, 0.588, 0.334, 0.146, 0.146, 0.334, 0.334, 0.334, 0.146, 0.146, 0.146, 0.146, 0.588, 0.588, 0.334, 0.146, 0.146, 0.146, 0.334, 0.334, 0.588, 0.334, 0.146, 0.334, 0.334, 0.334, 0.588, 0.588, 0.334, 0.146, 0.334, 0.588, 0.588, 0.588, 0.146, 0.588, 0.146, 0.334, 0.588, 0.146, 0.334, 0.334, 0.588, 0.588, 0.588, 0.588, 0.334, 0.334, 0.334 ]