3
[ 4.673, 4.673, 4.673, 1.790, 10.525, 4.673, 1.790, 10.525, 1.790, 4.673, 4.673, 10.525, 10.525, 4.673, 10.525, 4.673, 4.673, 4.673, 10.525, 4.673, 4.673, 1.790, 1.790, 10.525, 1.790, 10.525, 10.525, 10.525, 4.673, 10.525, 10.525, 4.673, 4.673, 1.790, 10.525, 10.525, 1.790, 10.525, 4.673, 10.525, 1.790, 10.525, 4.673, 4.673, 10.525, 10.525, 4.673, 10.525, 10.525, 1.790, 4.673, 4.673, 10.525, 4.673, 1.790, 4.673, 4.673, 1.790, 10.525, 1.790, 1.790, 10.525, 10.525, 1.790, 1.790, 1.790, 1.790, 4.673, 4.673, 10.525, 10.525, 10.525, 10.525, 1.790, 1.790, 1.790, 10.525, 4.673, 10.525, 10.525, 10.525, 4.673, 4.673, 10.525, 1.790, 1.790, 1.790, 1.790, 1.790, 4.673, 4.673, 4.673, 4.673, 10.525, 4.673, 4.673, 4.673, 4.673, 1.790, 10.525, 10.525, 4.673, 1.790, 4.673, 4.673, 1.790, 10.525, 1.790, 10.525, 1.790, 10.525, 10.525, 1.790, 4.673, 10.525, 4.673, 10.525, 1.790, 10.525, 10.525, 4.673, 10.525, 10.525, 10.525, 10.525, 10.525, 10.525, 10.525, 1.790, 10.525, 1.790, 4.673, 1.790, 4.673, 1.790, 4.673, 4.673, 4.673, 4.673, 4.673, 4.673, 1.790, 10.525, 4.673, 1.790, 4.673, 1.790, 1.790, 4.673, 4.673, 1.790, 4.673, 1.790, 4.673, 10.525, 4.673, 1.790, 1.790, 4.673, 1.790, 1.790, 1.790, 4.673, 4.673, 1.790, 4.673, 10.525, 1.790, 4.673, 4.673, 10.525, 10.525, 10.525, 10.525, 10.525, 10.525, 10.525, 1.790, 4.673, 10.525, 1.790, 10.525, 10.525, 10.525, 1.790, 1.790, 10.525, 4.673, 1.790, 4.673, 4.673, 1.790, 4.673, 10.525, 1.790, 10.525, 1.790, 1.790, 10.525, 4.673 ]
3
[ 0.637, 0.637, 0.637, 0.161, 0.161, 0.436, 0.161, 0.637, 0.436, 0.436, 0.161, 0.436, 0.436, 0.637, 0.637, 0.436, 0.436, 0.637, 0.637, 0.161, 0.161, 0.436, 0.637, 0.436, 0.436, 0.436, 0.436, 0.637, 0.637, 0.161, 0.637, 0.161, 0.161, 0.436, 0.637, 0.161, 0.436, 0.637, 0.436, 0.436, 0.637, 0.436, 0.436, 0.161, 0.436, 0.161, 0.436, 0.637, 0.637, 0.637, 0.436, 0.637, 0.637, 0.637, 0.637, 0.637, 0.161, 0.637, 0.637, 0.637, 0.161, 0.637, 0.161, 0.436, 0.637, 0.161, 0.161, 0.161, 0.161, 0.637, 0.161, 0.637, 0.637, 0.436, 0.436, 0.161, 0.637, 0.436, 0.436, 0.436, 0.637, 0.161, 0.436, 0.161, 0.161, 0.161, 0.436, 0.161, 0.161, 0.161, 0.637, 0.637, 0.161, 0.436, 0.637, 0.161, 0.436, 0.436, 0.436, 0.436, 0.637, 0.436, 0.161, 0.161, 0.161, 0.161, 0.637, 0.436, 0.637, 0.436, 0.161, 0.161, 0.161, 0.436, 0.161, 0.161, 0.637, 0.161, 0.161, 0.637, 0.637, 0.637, 0.436, 0.637, 0.637, 0.637, 0.161, 0.436, 0.161, 0.161, 0.637, 0.637, 0.161, 0.161, 0.161, 0.436, 0.637, 0.161, 0.436, 0.637, 0.436, 0.436, 0.637, 0.161, 0.161, 0.436, 0.436, 0.436, 0.436, 0.161, 0.637, 0.637, 0.637, 0.637, 0.436, 0.637, 0.161, 0.637, 0.637, 0.436, 0.436, 0.161, 0.161, 0.436, 0.161, 0.161, 0.436, 0.637, 0.161, 0.436, 0.637, 0.161, 0.161, 0.161, 0.637, 0.436, 0.161, 0.161, 0.436, 0.637, 0.637, 0.637, 0.637, 0.161, 0.161, 0.161, 0.436, 0.637, 0.637, 0.161, 0.637, 0.161, 0.637, 0.637, 0.436, 0.436, 0.161, 0.637, 0.637, 0.637 ]