3
[ 1.354, 0.869, 1.354, 2.642, 2.642, 2.642, 1.354, 2.642, 0.869, 2.642, 2.642, 1.354, 1.354, 2.642, 2.642, 0.869, 2.642, 0.869, 0.869, 1.354, 2.642, 0.869, 2.642, 0.869, 2.642, 1.354, 1.354, 1.354, 1.354, 2.642, 1.354, 0.869, 2.642, 0.869, 1.354, 1.354, 0.869, 0.869, 2.642, 0.869, 0.869, 0.869, 2.642, 1.354, 0.869, 0.869, 0.869, 1.354, 1.354, 0.869, 1.354, 0.869, 1.354, 0.869, 2.642, 0.869, 2.642, 1.354, 1.354, 2.642, 1.354, 0.869, 0.869, 0.869, 1.354, 2.642, 2.642, 0.869, 1.354, 0.869, 2.642, 1.354, 2.642, 1.354, 1.354, 1.354, 0.869, 1.354, 2.642, 2.642, 1.354, 0.869, 2.642, 0.869, 2.642, 1.354, 2.642, 1.354, 2.642, 0.869, 0.869, 0.869, 1.354, 2.642, 2.642, 0.869, 2.642, 1.354, 2.642, 1.354 ]
3
[ 0.882, 0.882, 0.882, 0.434, 0.434, 0.434, 0.882, 0.434, 0.434, 0.882, 0.397, 0.882, 0.434, 0.397, 0.397, 0.434, 0.882, 0.882, 0.434, 0.434, 0.882, 0.434, 0.882, 0.882, 0.434, 0.397, 0.397, 0.397, 0.882, 0.397, 0.397, 0.882, 0.397, 0.397, 0.397, 0.882, 0.434, 0.397, 0.882, 0.397, 0.882, 0.434, 0.434, 0.882, 0.397, 0.397, 0.397, 0.882, 0.434, 0.434, 0.434, 0.882, 0.882, 0.397, 0.434, 0.434, 0.397, 0.434, 0.882, 0.882, 0.397, 0.434, 0.882, 0.882, 0.397, 0.397, 0.882, 0.397, 0.397, 0.397, 0.434, 0.397, 0.397, 0.397, 0.882, 0.397, 0.397, 0.882, 0.434, 0.434, 0.882, 0.434, 0.882, 0.434, 0.397, 0.882, 0.434, 0.434, 0.882, 0.882, 0.434, 0.882, 0.434, 0.397, 0.397, 0.397, 0.434, 0.397, 0.434, 0.434 ]