5
[ 6.755, 2.455, 1.085, 7.002, 6.755, 2.455, 6.755, 1.085, 6.755, 2.455, 2.123, 2.455, 7.002, 6.755, 2.455, 1.085, 2.123, 2.455, 1.085, 6.755, 2.123, 2.455, 1.085, 2.123, 7.002, 2.455, 2.455, 1.085, 6.755, 1.085, 1.085, 1.085, 1.085, 2.455, 2.455, 6.755, 1.085, 1.085, 2.455, 2.455, 2.123, 1.085, 6.755, 2.123, 6.755, 6.755, 1.085, 2.455, 6.755, 2.455 ]
4
[ 0.342, 0.961, 0.342, 0.342, 0.961, 0.342, 0.371, 0.483, 0.961, 0.342, 0.342, 0.961, 0.342, 0.961, 0.342, 0.961, 0.371, 0.342, 0.371, 0.961, 0.371, 0.371, 0.342, 0.342, 0.342, 0.342, 0.371, 0.342, 0.342, 0.371, 0.961, 0.961, 0.342, 0.961, 0.961, 0.371, 0.342, 0.961, 0.371, 0.961, 0.961, 0.371, 0.961, 0.342, 0.342, 0.961, 0.371, 0.961, 0.961, 0.342 ]