3
[ 2.379, 0.948, 3.698, 0.948, 0.948, 2.379, 3.698, 0.948, 3.698, 0.948, 3.698, 0.948, 2.379, 2.379, 3.698, 0.948, 3.698, 2.379, 0.948, 3.698, 3.698, 0.948, 2.379, 2.379, 3.698, 0.948, 0.948, 0.948, 2.379, 0.948, 3.698, 3.698, 3.698, 0.948, 2.379, 2.379, 3.698, 2.379, 3.698, 0.948, 0.948, 3.698, 2.379, 3.698, 3.698, 0.948, 2.379, 2.379, 3.698, 2.379, 2.379, 0.948, 0.948, 0.948, 3.698, 3.698, 0.948, 2.379, 3.698, 3.698, 3.698, 3.698, 2.379, 3.698, 3.698, 2.379, 0.948, 0.948, 2.379, 0.948, 3.698, 3.698, 0.948, 3.698, 0.948, 3.698, 2.379, 0.948, 0.948, 0.948, 0.948, 2.379, 3.698, 3.698, 3.698, 3.698, 2.379, 0.948, 3.698, 0.948, 0.948, 2.379, 3.698, 0.948, 3.698, 2.379, 2.379, 2.379, 0.948, 3.698 ]
3
[ 0.793, 0.091, 0.091, 0.231, 0.793, 0.231, 0.091, 0.231, 0.231, 0.231, 0.793, 0.793, 0.091, 0.231, 0.231, 0.793, 0.793, 0.793, 0.231, 0.231, 0.793, 0.793, 0.793, 0.793, 0.793, 0.091, 0.231, 0.091, 0.793, 0.231, 0.091, 0.231, 0.091, 0.231, 0.793, 0.231, 0.793, 0.793, 0.793, 0.091, 0.793, 0.231, 0.091, 0.091, 0.231, 0.793, 0.793, 0.231, 0.793, 0.091, 0.091, 0.793, 0.091, 0.231, 0.091, 0.091, 0.091, 0.231, 0.793, 0.231, 0.091, 0.091, 0.793, 0.231, 0.231, 0.231, 0.793, 0.231, 0.091, 0.793, 0.091, 0.091, 0.793, 0.091, 0.793, 0.231, 0.793, 0.793, 0.231, 0.091, 0.231, 0.231, 0.793, 0.091, 0.091, 0.091, 0.091, 0.231, 0.091, 0.793, 0.231, 0.793, 0.793, 0.231, 0.231, 0.793, 0.091, 0.793, 0.793, 0.091 ]