3
[ 2.458, 2.458, 1.656, 1.656, 2.458, 2.458, 1.116, 1.116, 2.458, 1.116, 1.116, 2.458, 1.656, 2.458, 2.458, 1.116, 1.656, 1.656, 2.458, 2.458, 1.656, 1.656, 2.458, 2.458, 1.656, 2.458, 1.116, 1.656, 1.116, 1.656, 1.116, 2.458, 1.116, 1.656, 1.656, 1.656, 1.116, 2.458, 1.116, 1.116, 1.116, 1.116, 2.458, 2.458, 1.116, 1.656, 1.116, 2.458, 1.656, 1.656, 1.116, 2.458, 1.116, 1.656, 1.656, 2.458, 2.458, 2.458, 1.116, 1.116, 1.116, 1.116, 1.656, 2.458, 1.116, 2.458, 1.116, 1.116, 1.656, 1.656, 1.116, 2.458, 1.656, 1.116, 1.116, 1.656, 2.458, 1.656, 1.656, 1.116, 1.656, 1.656, 2.458, 2.458, 1.116, 2.458, 1.116, 2.458, 1.116, 2.458, 1.656, 2.458, 1.116, 2.458, 1.656, 1.116, 2.458, 1.656, 1.116, 1.656 ]
3
[ 0.004, 0.004, 0.004, 0.243, 0.243, 0.004, 0.004, 0.243, 0.721, 0.004, 0.004, 0.721, 0.243, 0.004, 0.004, 0.004, 0.721, 0.004, 0.721, 0.243, 0.721, 0.721, 0.721, 0.004, 0.721, 0.243, 0.004, 0.721, 0.721, 0.243, 0.243, 0.004, 0.004, 0.243, 0.004, 0.243, 0.243, 0.721, 0.243, 0.243, 0.243, 0.004, 0.243, 0.243, 0.243, 0.721, 0.721, 0.243, 0.004, 0.004, 0.004, 0.004, 0.243, 0.721, 0.004, 0.004, 0.721, 0.243, 0.721, 0.004, 0.004, 0.721, 0.004, 0.243, 0.243, 0.004, 0.721, 0.721, 0.721, 0.004, 0.243, 0.243, 0.243, 0.004, 0.004, 0.004, 0.721, 0.721, 0.004, 0.004, 0.243, 0.243, 0.721, 0.721, 0.721, 0.004, 0.721, 0.243, 0.243, 0.004, 0.004, 0.721, 0.721, 0.004, 0.243, 0.243, 0.243, 0.004, 0.243, 0.721 ]