4
[ 0.927, 0.927, 0.927, 0.927, 2.870, 0.927, 4.048, 4.048, 0.927, 0.927, 0.927, 0.927, 4.048, 4.048, 2.870, 0.927, 0.927, 4.048, 0.927, 0.927, 0.927, 4.048, 0.927, 4.048, 0.927, 0.927, 0.927, 4.048, 0.927, 0.927, 0.927, 0.927, 0.927, 0.927, 0.927, 4.048, 2.210, 0.927, 0.927, 0.927, 0.927, 0.927, 4.048, 0.927, 0.927, 0.927, 0.927, 4.048, 0.927, 4.048, 0.927, 0.927, 4.048, 0.927, 0.927, 0.927, 0.927, 4.048, 2.870, 0.927, 0.927, 2.870, 0.927, 0.927, 0.927, 0.927, 0.927, 2.210, 4.048, 0.927, 0.927, 0.927, 2.870, 0.927, 0.927, 0.927, 0.927, 0.927, 0.927, 0.927, 0.927, 0.927, 0.927, 0.927, 0.927, 0.927, 0.927, 0.927, 0.927, 0.927, 0.927, 0.927, 4.048, 0.927, 0.927, 0.927, 0.927, 0.927, 0.927, 0.927, 0.927, 0.927, 0.927, 2.870, 0.927, 0.927, 0.927, 0.927, 4.048, 0.927, 4.048, 4.048, 0.927, 0.927, 0.927, 0.927, 0.927, 0.927, 0.927, 0.927, 0.927, 0.927, 0.927, 0.927, 0.927, 0.927, 0.927, 0.927, 0.927, 0.927, 0.927, 0.927, 0.927, 0.927, 4.048, 0.927, 0.927, 4.048, 0.927, 0.927, 0.927, 0.927, 4.048, 0.927, 0.927, 0.927, 0.927, 4.048, 0.927, 0.927, 2.870, 0.927, 0.927, 0.927, 0.927, 0.927, 0.927, 0.927, 0.927, 0.927, 0.927, 0.927, 0.927, 0.927, 0.927, 0.927, 0.927, 0.927, 0.927, 0.927, 4.048, 0.927, 0.927, 2.870, 0.927, 0.927, 2.870, 4.048, 0.927, 0.927, 0.927, 0.927, 0.927, 0.927, 0.927, 0.927, 0.927, 0.927, 0.927, 4.048, 0.927, 0.927, 0.927, 0.927, 0.927, 0.927, 0.927, 2.870, 4.048, 2.870 ]
9
[ 0.481, 0.235, 0.481, 0.962, 0.146, 0.146, 0.235, 0.481, 0.247, 0.481, 0.481, 0.481, 0.774, 0.481, 0.481, 0.235, 0.481, 0.235, 0.235, 0.962, 0.235, 0.146, 0.962, 0.235, 0.481, 0.481, 0.962, 0.235, 0.235, 0.962, 0.247, 0.235, 0.481, 0.481, 0.481, 0.235, 0.146, 0.146, 0.481, 0.481, 0.235, 0.146, 0.481, 0.235, 0.962, 0.235, 0.481, 0.481, 0.481, 0.146, 0.481, 0.198, 0.481, 0.247, 0.481, 0.235, 0.481, 0.235, 0.481, 0.481, 0.481, 0.481, 0.235, 0.962, 0.962, 0.235, 0.235, 0.481, 0.481, 0.962, 0.198, 0.235, 0.235, 0.235, 0.481, 0.235, 0.481, 0.235, 0.962, 0.481, 0.962, 0.962, 0.146, 0.235, 0.481, 0.962, 0.235, 0.235, 0.481, 0.962, 0.962, 0.146, 0.962, 0.962, 0.962, 0.235, 0.481, 0.235, 0.146, 0.235, 0.481, 0.198, 0.146, 0.235, 0.962, 0.962, 0.198, 0.146, 0.235, 0.146, 0.481, 0.481, 0.774, 0.962, 0.481, 0.481, 0.481, 0.235, 0.481, 0.962, 0.962, 0.481, 0.481, 0.481, 0.235, 0.235, 0.235, 0.235, 0.247, 0.481, 0.481, 0.235, 0.235, 0.481, 0.962, 0.481, 0.235, 0.235, 0.481, 0.962, 0.962, 0.247, 0.235, 0.481, 0.962, 0.235, 0.235, 0.235, 0.481, 0.962, 0.235, 0.481, 0.235, 0.235, 0.962, 0.146, 0.146, 0.235, 0.146, 0.481, 0.235, 0.146, 0.146, 0.154, 0.235, 0.481, 0.962, 0.146, 0.146, 0.235, 0.154, 0.481, 0.481, 0.235, 0.154, 0.235, 0.481, 0.481, 0.235, 0.481, 0.235, 0.235, 0.146, 0.962, 0.235, 0.146, 0.481, 0.962, 0.481, 0.774, 0.146, 0.962, 0.481, 0.235, 0.146, 0.481, 0.962, 0.146, 0.481, 0.046 ]