2
[ 3.735, 3.735, 3.735, 3.735, 3.735, 3.735, 3.735, 3.735, 3.735, 3.735, 3.735, 3.735, 3.735, 3.735, 3.735, 3.735, 3.735, 3.735, 3.735, 3.735, 3.735, 3.735, 3.735, 3.735, 3.735, 3.735, 3.735, 3.735, 3.735, 3.735, 3.735, 3.735, 3.735, 3.735, 3.735, 3.735, 3.735, 3.735, 3.735, 3.735, 3.735, 3.735, 3.735, 3.735, 3.735, 3.735, 3.735, 3.735, 3.735, 3.735, 3.735, 3.735, 3.735, 3.735, 3.735, 3.735, 1.528, 3.735, 3.735, 3.735, 3.735, 3.735, 3.735, 3.735, 3.735, 3.735, 3.735, 3.735, 3.735, 3.735, 3.735, 3.735, 3.735, 3.735, 3.735, 3.735, 3.735, 3.735, 3.735, 3.735, 3.735, 3.735, 3.735, 3.735, 3.735, 3.735, 3.735, 3.735, 3.735, 3.735, 3.735, 3.735, 3.735, 3.735, 3.735, 3.735, 3.735, 3.735, 3.735, 3.735, 3.735, 3.735, 3.735, 3.735, 3.735, 3.735, 3.735, 3.735, 3.735, 3.735, 3.735, 3.735, 3.735, 3.735, 3.735, 3.735, 3.735, 3.735, 3.735, 3.735, 3.735, 3.735, 3.735, 3.735, 3.735, 3.735, 3.735, 3.735, 3.735, 3.735, 3.735, 3.735, 3.735, 3.735, 3.735, 3.735, 3.735, 3.735, 3.735, 3.735, 3.735, 3.735, 3.735, 3.735, 3.735, 3.735, 3.735, 3.735, 3.735, 3.735, 3.735, 3.735, 3.735, 3.735, 3.735, 3.735, 3.735, 3.735, 3.735, 3.735, 3.735, 3.735, 3.735, 3.735, 3.735, 3.735, 3.735, 3.735, 3.735, 3.735, 3.735, 3.735, 3.735, 3.735, 3.735, 3.735, 3.735, 3.735, 3.735, 3.735, 3.735, 3.735, 3.735, 3.735, 3.735, 3.735, 3.735, 3.735, 3.735, 3.735, 3.735, 3.735, 3.735, 3.735, 3.735, 3.735, 3.735, 3.735, 3.735, 3.735 ]
3
[ 0.050, 0.050, 0.177, 0.050, 0.050, 0.050, 0.050, 0.101, 0.050, 0.050, 0.101, 0.050, 0.050, 0.101, 0.050, 0.050, 0.101, 0.050, 0.050, 0.050, 0.050, 0.050, 0.101, 0.050, 0.050, 0.050, 0.101, 0.050, 0.050, 0.050, 0.050, 0.101, 0.050, 0.050, 0.050, 0.050, 0.050, 0.050, 0.101, 0.050, 0.101, 0.050, 0.101, 0.050, 0.177, 0.050, 0.050, 0.050, 0.050, 0.050, 0.050, 0.050, 0.050, 0.050, 0.050, 0.050, 0.101, 0.050, 0.050, 0.177, 0.050, 0.050, 0.101, 0.050, 0.050, 0.050, 0.050, 0.050, 0.050, 0.177, 0.050, 0.050, 0.050, 0.050, 0.101, 0.050, 0.050, 0.050, 0.050, 0.050, 0.050, 0.050, 0.050, 0.050, 0.050, 0.050, 0.050, 0.101, 0.050, 0.050, 0.101, 0.050, 0.050, 0.050, 0.050, 0.050, 0.050, 0.050, 0.177, 0.050, 0.050, 0.050, 0.050, 0.050, 0.050, 0.050, 0.050, 0.177, 0.050, 0.050, 0.050, 0.050, 0.050, 0.050, 0.050, 0.050, 0.050, 0.050, 0.050, 0.050, 0.050, 0.050, 0.050, 0.101, 0.050, 0.050, 0.101, 0.101, 0.050, 0.050, 0.177, 0.101, 0.101, 0.050, 0.050, 0.101, 0.050, 0.050, 0.101, 0.101, 0.050, 0.177, 0.050, 0.050, 0.101, 0.050, 0.050, 0.050, 0.050, 0.050, 0.050, 0.050, 0.177, 0.050, 0.050, 0.101, 0.050, 0.050, 0.050, 0.177, 0.050, 0.050, 0.101, 0.050, 0.050, 0.050, 0.101, 0.050, 0.050, 0.050, 0.050, 0.050, 0.050, 0.050, 0.050, 0.050, 0.101, 0.101, 0.050, 0.177, 0.050, 0.050, 0.050, 0.050, 0.101, 0.050, 0.177, 0.050, 0.050, 0.050, 0.101, 0.050, 0.050, 0.050, 0.050, 0.177, 0.177, 0.050, 0.050, 0.050 ]