3
[ 3.940, 1.583, 1.340, 1.340, 1.583, 3.940, 1.340, 3.940, 1.340, 1.340, 3.940, 1.583, 1.583, 3.940, 3.940, 1.340, 1.340, 1.583, 1.583, 1.340, 1.340, 1.340, 1.340, 1.583, 1.583, 3.940, 3.940, 1.583, 1.340, 1.583, 1.340, 3.940, 1.340, 1.583, 1.583, 3.940, 1.583, 3.940, 3.940, 1.583, 1.340, 1.340, 1.340, 3.940, 1.340, 3.940, 1.583, 3.940, 1.583, 3.940 ]
3
[ 0.983, 0.858, 0.858, 0.398, 0.983, 0.858, 0.398, 0.398, 0.398, 0.398, 0.983, 0.398, 0.858, 0.858, 0.983, 0.858, 0.983, 0.858, 0.398, 0.983, 0.398, 0.398, 0.858, 0.858, 0.858, 0.398, 0.858, 0.398, 0.398, 0.858, 0.983, 0.983, 0.398, 0.398, 0.858, 0.398, 0.983, 0.983, 0.398, 0.398, 0.858, 0.398, 0.983, 0.983, 0.983, 0.858, 0.983, 0.858, 0.398, 0.983 ]