5
[ 0.692, 10.567, 3.397, 7.464, 0.326, 10.567, 10.567, 10.567, 0.326, 10.567, 10.567, 0.326, 10.567, 10.567, 10.567, 10.567, 10.567, 10.567, 10.567, 10.567, 0.692, 10.567, 10.567, 0.326, 0.326, 10.567, 3.397, 10.567, 10.567, 10.567, 10.567, 10.567, 10.567, 10.567, 3.397, 10.567, 10.567, 3.397, 10.567, 0.692, 10.567, 10.567, 10.567, 7.464, 10.567, 0.692, 10.567, 10.567, 10.567, 10.567, 10.567, 10.567, 10.567, 0.692, 10.567, 3.397, 0.692, 10.567, 10.567, 10.567, 10.567, 10.567, 10.567, 10.567, 0.692, 0.326, 10.567, 10.567, 10.567, 0.692, 10.567, 10.567, 10.567, 10.567, 0.326, 10.567, 10.567, 10.567, 10.567, 3.397, 10.567, 3.397, 10.567, 10.567, 0.692, 0.326, 10.567, 10.567, 10.567, 10.567, 0.326, 3.397, 10.567, 10.567, 10.567, 10.567, 10.567, 0.326, 0.326, 0.692, 10.567, 10.567, 0.692, 10.567, 0.326, 10.567, 10.567, 10.567, 10.567, 3.397, 10.567, 10.567, 0.326, 0.692, 10.567, 10.567, 10.567, 10.567, 10.567, 10.567, 0.326, 0.692, 10.567, 10.567, 10.567, 0.326, 10.567, 10.567, 0.692, 10.567, 10.567, 0.692, 10.567, 0.692, 10.567, 3.397, 10.567, 10.567, 10.567, 10.567, 10.567, 10.567, 10.567, 10.567, 0.326, 3.397, 10.567, 10.567, 10.567, 0.692, 10.567, 10.567, 10.567, 0.692, 10.567, 10.567, 10.567, 10.567, 10.567, 10.567, 0.692, 10.567, 10.567, 0.326, 10.567, 0.692, 0.326, 0.692, 10.567, 10.567, 10.567, 10.567, 10.567, 0.692, 10.567, 10.567, 10.567, 0.326, 10.567, 3.397, 0.692, 0.692, 10.567, 3.397, 10.567, 0.326, 0.326, 10.567, 10.567, 0.692, 0.326, 0.692, 10.567, 10.567, 10.567, 10.567, 10.567, 10.567, 0.326, 10.567 ]
6
[ 0.714, 0.142, 0.714, 0.714, 0.142, 0.142, 0.651, 0.714, 0.142, 0.651, 0.714, 0.142, 0.142, 0.714, 0.142, 0.142, 0.142, 0.714, 0.651, 0.142, 0.714, 0.142, 0.714, 0.651, 0.142, 0.714, 0.714, 0.142, 0.142, 0.714, 0.142, 0.142, 0.142, 0.714, 0.142, 0.714, 0.714, 0.142, 0.714, 0.714, 0.142, 0.142, 0.714, 0.714, 0.142, 0.142, 0.714, 0.714, 0.142, 0.142, 0.714, 0.142, 0.142, 0.714, 0.142, 0.142, 0.714, 0.714, 0.142, 0.651, 0.714, 0.714, 0.142, 0.142, 0.142, 0.142, 0.714, 0.142, 0.781, 0.714, 0.142, 0.142, 0.714, 0.931, 0.714, 0.714, 0.714, 0.142, 0.714, 0.142, 0.714, 0.714, 0.142, 0.714, 0.142, 0.714, 0.142, 0.142, 0.142, 0.781, 0.142, 0.714, 0.142, 0.851, 0.142, 0.142, 0.714, 0.142, 0.714, 0.142, 0.714, 0.714, 0.142, 0.714, 0.714, 0.714, 0.142, 0.931, 0.142, 0.651, 0.142, 0.651, 0.142, 0.651, 0.714, 0.142, 0.651, 0.142, 0.142, 0.714, 0.142, 0.142, 0.142, 0.142, 0.714, 0.142, 0.142, 0.142, 0.714, 0.714, 0.714, 0.714, 0.142, 0.142, 0.714, 0.651, 0.714, 0.142, 0.714, 0.142, 0.714, 0.714, 0.142, 0.651, 0.142, 0.714, 0.714, 0.714, 0.142, 0.142, 0.651, 0.142, 0.651, 0.714, 0.142, 0.651, 0.651, 0.142, 0.142, 0.142, 0.142, 0.142, 0.651, 0.714, 0.142, 0.142, 0.714, 0.142, 0.142, 0.142, 0.142, 0.714, 0.142, 0.651, 0.142, 0.714, 0.714, 0.714, 0.142, 0.651, 0.714, 0.142, 0.714, 0.142, 0.142, 0.714, 0.142, 0.714, 0.714, 0.142, 0.651, 0.714, 0.714, 0.851, 0.714, 0.714, 0.142, 0.142, 0.714, 0.714 ]