3
[ 2.836, 2.836, 2.836, 2.836, 3.995, 3.995, 3.995, 3.995, 2.078, 2.078, 2.836, 2.836, 2.836, 2.836, 2.836, 2.836, 2.836, 2.836, 3.995, 2.078, 2.836, 2.078, 3.995, 3.995, 2.078, 2.078, 3.995, 3.995, 3.995, 3.995, 2.836, 2.078, 2.836, 3.995, 3.995, 2.078, 2.078, 2.078, 2.836, 2.078, 2.078, 2.836, 2.836, 3.995, 3.995, 2.836, 3.995, 3.995, 2.078, 2.836, 2.078, 2.836, 2.078, 2.078, 3.995, 2.078, 3.995, 2.078, 2.836, 2.836, 3.995, 2.078, 2.078, 2.836, 2.836, 2.078, 3.995, 3.995, 2.078, 3.995, 2.836, 3.995, 2.078, 2.078, 2.836, 2.078, 3.995, 2.078, 2.836, 2.078, 2.078, 2.078, 2.836, 2.836, 2.836, 3.995, 2.078, 3.995, 3.995, 2.078, 2.078, 2.836, 2.078, 2.078, 2.078, 3.995, 3.995, 2.836, 2.078, 2.078, 3.995, 2.078, 2.078, 2.836, 3.995, 3.995, 3.995, 2.078, 2.078, 2.078, 3.995, 2.836, 2.078, 2.078, 3.995, 3.995, 2.078, 2.078, 3.995, 2.078, 2.078, 3.995, 3.995, 2.078, 3.995, 3.995, 2.836, 2.836, 2.836, 3.995, 2.836, 3.995, 3.995, 2.078, 2.078, 2.836, 2.836, 3.995, 2.078, 3.995, 2.078, 2.078, 2.078, 2.078, 2.836, 3.995, 2.836, 2.078, 2.836, 2.078, 3.995, 2.078, 3.995, 2.078, 3.995, 2.078, 2.078, 2.078, 2.836, 3.995, 2.836, 2.836, 2.836, 2.078, 2.836, 3.995, 3.995, 3.995, 2.836, 2.078, 2.836, 2.078, 2.836, 3.995, 2.078, 2.836, 3.995, 2.078, 2.078, 3.995, 3.995, 3.995, 3.995, 2.836, 2.836, 3.995, 2.078, 2.836, 2.078, 3.995, 2.836, 3.995, 3.995, 2.836, 3.995, 2.836, 3.995, 3.995, 3.995, 2.078 ]
3
[ 0.986, 0.986, 0.986, 0.827, 0.697, 0.986, 0.986, 0.697, 0.986, 0.986, 0.827, 0.827, 0.697, 0.697, 0.986, 0.697, 0.986, 0.986, 0.697, 0.827, 0.827, 0.986, 0.986, 0.827, 0.986, 0.986, 0.827, 0.827, 0.827, 0.827, 0.697, 0.986, 0.827, 0.827, 0.986, 0.827, 0.827, 0.827, 0.986, 0.827, 0.697, 0.986, 0.827, 0.697, 0.986, 0.827, 0.827, 0.697, 0.986, 0.697, 0.827, 0.986, 0.986, 0.827, 0.986, 0.827, 0.986, 0.697, 0.827, 0.697, 0.827, 0.697, 0.986, 0.827, 0.986, 0.986, 0.986, 0.697, 0.827, 0.827, 0.827, 0.827, 0.697, 0.986, 0.697, 0.986, 0.986, 0.827, 0.827, 0.697, 0.986, 0.827, 0.986, 0.986, 0.697, 0.827, 0.697, 0.986, 0.986, 0.986, 0.697, 0.697, 0.827, 0.986, 0.986, 0.697, 0.697, 0.986, 0.827, 0.697, 0.827, 0.827, 0.986, 0.827, 0.697, 0.986, 0.986, 0.697, 0.827, 0.697, 0.697, 0.697, 0.827, 0.697, 0.697, 0.986, 0.827, 0.697, 0.986, 0.986, 0.986, 0.986, 0.697, 0.986, 0.697, 0.827, 0.827, 0.986, 0.827, 0.986, 0.697, 0.827, 0.697, 0.697, 0.697, 0.986, 0.986, 0.986, 0.986, 0.827, 0.697, 0.986, 0.827, 0.697, 0.986, 0.827, 0.986, 0.986, 0.986, 0.986, 0.827, 0.697, 0.827, 0.827, 0.827, 0.697, 0.697, 0.986, 0.827, 0.697, 0.986, 0.827, 0.986, 0.697, 0.986, 0.697, 0.986, 0.697, 0.986, 0.827, 0.986, 0.827, 0.827, 0.827, 0.827, 0.986, 0.827, 0.986, 0.986, 0.697, 0.697, 0.827, 0.986, 0.986, 0.697, 0.697, 0.697, 0.986, 0.986, 0.986, 0.986, 0.986, 0.697, 0.986, 0.986, 0.697, 0.986, 0.986, 0.986, 0.827 ]