3
[ 3.056, 4.514, 3.056, 5.382, 5.382, 4.514, 5.382, 5.382, 5.382, 5.382, 5.382, 5.382, 5.382, 4.514, 5.382, 3.056, 3.056, 3.056, 5.382, 3.056, 3.056, 4.514, 5.382, 4.514, 4.514, 4.514, 4.514, 4.514, 5.382, 5.382, 4.514, 5.382, 3.056, 5.382, 4.514, 4.514, 3.056, 5.382, 3.056, 3.056, 3.056, 5.382, 5.382, 5.382, 5.382, 4.514, 4.514, 3.056, 4.514, 5.382 ]
3
[ 0.413, 0.091, 0.413, 0.829, 0.413, 0.091, 0.829, 0.829, 0.829, 0.413, 0.829, 0.091, 0.413, 0.413, 0.829, 0.413, 0.091, 0.829, 0.413, 0.829, 0.829, 0.413, 0.413, 0.091, 0.091, 0.413, 0.091, 0.413, 0.829, 0.091, 0.829, 0.413, 0.091, 0.091, 0.413, 0.091, 0.829, 0.829, 0.829, 0.091, 0.829, 0.413, 0.091, 0.829, 0.091, 0.091, 0.091, 0.413, 0.413, 0.091 ]