3
[ 3.503, 3.503, 2.756, 2.756, 2.756, 2.097, 2.097, 3.503, 3.503, 3.503, 2.756, 2.756, 3.503, 2.756, 2.756, 2.756, 2.756, 2.756, 2.756, 2.756, 2.756, 2.756, 2.097, 2.756, 3.503, 2.756, 3.503, 2.756, 2.756, 2.756, 3.503, 2.756, 2.756, 2.756, 2.756, 2.097, 2.756, 2.756, 2.756, 3.503, 2.756, 2.756, 3.503, 3.503, 2.756, 3.503, 3.503, 2.756, 2.756, 2.756, 3.503, 3.503, 2.756, 2.097, 2.756, 3.503, 2.756, 2.756, 2.097, 2.756, 3.503, 2.756, 2.756, 2.756, 2.756, 2.756, 2.756, 2.756, 3.503, 3.503, 3.503, 2.756, 3.503, 2.756, 3.503, 3.503, 2.756, 3.503, 2.756, 2.756, 2.097, 2.756, 2.756, 2.097, 2.756, 3.503, 2.756, 2.756, 3.503, 2.756, 3.503, 2.097, 2.756, 2.756, 2.756, 2.756, 2.756, 3.503, 2.756, 2.097, 2.756, 2.097, 2.097, 2.756, 2.756, 2.756, 2.756, 2.756, 3.503, 2.756, 3.503, 2.756, 3.503, 2.756, 3.503, 2.756, 2.756, 3.503, 2.756, 2.756, 2.756, 2.756, 2.756, 2.756, 2.756, 2.756, 3.503, 2.756, 2.756, 2.756, 2.756, 2.756, 2.756, 3.503, 3.503, 2.756, 2.756, 2.756, 3.503, 3.503, 2.756, 3.503, 2.097, 3.503, 2.756, 2.756, 2.756, 2.756, 2.097, 2.097, 2.756, 2.097, 2.756, 2.097, 2.097, 2.097, 3.503, 3.503, 3.503, 2.097, 3.503, 2.756, 2.097, 2.756, 2.756, 2.097, 2.756, 2.756, 2.097, 2.756, 2.756, 2.097, 2.756, 3.503, 2.756, 2.756, 3.503, 2.756, 3.503, 2.756, 3.503, 3.503, 2.756, 3.503, 2.097, 2.756, 2.756, 3.503, 3.503, 2.756, 2.756, 2.756, 2.097, 2.756, 2.756, 3.503, 2.756, 3.503, 3.503, 3.503 ]
6
[ 0.687, 0.323, 0.687, 0.687, 0.011, 0.323, 0.687, 0.687, 0.323, 0.323, 0.687, 0.382, 0.011, 0.323, 0.687, 0.687, 0.116, 0.011, 0.011, 0.011, 0.323, 0.011, 0.011, 0.011, 0.323, 0.687, 0.687, 0.323, 0.687, 0.011, 0.687, 0.687, 0.687, 0.011, 0.687, 0.011, 0.687, 0.687, 0.323, 0.011, 0.687, 0.323, 0.011, 0.687, 0.011, 0.687, 0.011, 0.011, 0.116, 0.011, 0.981, 0.323, 0.687, 0.687, 0.011, 0.011, 0.011, 0.687, 0.011, 0.687, 0.011, 0.323, 0.011, 0.687, 0.382, 0.323, 0.687, 0.323, 0.687, 0.011, 0.323, 0.011, 0.323, 0.011, 0.011, 0.323, 0.687, 0.687, 0.687, 0.687, 0.011, 0.687, 0.011, 0.687, 0.323, 0.011, 0.011, 0.323, 0.687, 0.011, 0.687, 0.687, 0.687, 0.011, 0.687, 0.011, 0.687, 0.687, 0.687, 0.687, 0.382, 0.687, 0.116, 0.687, 0.011, 0.011, 0.687, 0.687, 0.323, 0.687, 0.687, 0.011, 0.323, 0.011, 0.011, 0.687, 0.382, 0.323, 0.687, 0.323, 0.011, 0.687, 0.382, 0.323, 0.011, 0.687, 0.011, 0.323, 0.687, 0.687, 0.687, 0.011, 0.687, 0.011, 0.011, 0.011, 0.116, 0.011, 0.323, 0.687, 0.011, 0.011, 0.687, 0.687, 0.011, 0.323, 0.687, 0.687, 0.687, 0.116, 0.687, 0.687, 0.011, 0.011, 0.687, 0.323, 0.382, 0.382, 0.687, 0.011, 0.011, 0.323, 0.011, 0.382, 0.687, 0.011, 0.687, 0.687, 0.981, 0.011, 0.687, 0.116, 0.323, 0.687, 0.011, 0.687, 0.011, 0.687, 0.116, 0.011, 0.687, 0.687, 0.323, 0.687, 0.687, 0.687, 0.323, 0.323, 0.687, 0.323, 0.382, 0.687, 0.687, 0.323, 0.011, 0.323, 0.323, 0.687, 0.011, 0.687 ]