8
[ 13.091, 2.743, 2.743, 2.743, 2.540, 13.091, 2.743, 13.091, 2.743, 2.743, 2.743, 13.091, 2.540, 2.743, 2.540, 2.743, 4.888, 13.091, 13.091, 2.743, 2.743, 13.091, 2.743, 2.743, 13.091, 13.091, 2.743, 2.743, 2.540, 2.540, 2.743, 2.540, 2.540, 2.743, 2.743, 2.743, 2.540, 2.743, 13.091, 2.540, 2.743, 2.540, 13.091, 13.091, 2.743, 13.091, 13.091, 13.091, 1.269, 2.743, 2.540, 2.743, 13.091, 2.743, 2.743, 13.091, 2.540, 2.540, 1.269, 1.269, 2.743, 2.743, 2.743, 13.091, 2.743, 13.091, 2.743, 13.091, 2.743, 2.743, 1.269, 2.540, 2.743, 2.743, 2.743, 1.269, 2.743, 1.269, 13.091, 2.540, 13.091, 2.743, 2.540, 13.091, 13.091, 13.091, 2.743, 13.091, 2.743, 2.540, 2.743, 13.091, 2.743, 13.091, 13.091, 13.091, 2.540, 2.540, 2.743, 1.269, 2.743, 2.540, 2.743, 2.540, 13.091, 1.269, 2.743, 4.888, 13.091, 2.743, 2.743, 1.269, 13.091, 1.269, 1.269, 13.091, 2.743, 2.540, 2.540, 2.540, 2.540, 2.540, 2.743, 1.269, 2.540, 2.540, 1.269, 2.743, 2.540, 13.091, 2.540, 2.743, 2.743, 2.540, 13.091, 2.743, 2.743, 2.743, 2.743, 2.540, 13.091, 2.540, 2.743, 1.269, 1.269, 2.540, 2.743, 2.540, 2.743, 2.743, 1.757, 2.743, 2.743, 13.091, 13.091, 2.743, 2.743, 2.540, 13.091, 1.269, 13.091, 2.743, 2.743, 4.888, 2.540, 2.540, 5.800, 2.743, 2.743, 2.743, 13.091, 1.269, 2.743, 13.091, 2.540, 2.540, 2.540, 2.540, 1.269, 13.091, 2.743, 2.540, 1.269, 2.743, 1.269, 1.269, 13.091, 2.743, 2.743, 2.540, 1.269, 2.540, 2.743, 1.269, 10.749, 2.743, 2.540, 13.091, 13.091, 1.269 ]
9
[ 0.770, 0.770, 0.770, 0.770, 0.770, 0.444, 0.381, 0.381, 0.770, 0.381, 0.381, 0.770, 0.770, 0.381, 0.444, 0.381, 0.770, 0.381, 0.381, 0.770, 0.381, 0.381, 0.444, 0.770, 0.381, 0.770, 0.381, 0.381, 0.381, 0.381, 0.770, 0.770, 0.770, 0.779, 0.381, 0.381, 0.770, 0.381, 0.444, 0.770, 0.381, 0.381, 0.779, 0.581, 0.581, 0.381, 0.770, 0.770, 0.444, 0.625, 0.381, 0.770, 0.770, 0.381, 0.770, 0.444, 0.770, 0.381, 0.770, 0.381, 0.381, 0.770, 0.381, 0.381, 0.381, 0.770, 0.770, 0.381, 0.381, 0.381, 0.381, 0.381, 0.770, 0.770, 0.770, 0.381, 0.381, 0.770, 0.381, 0.381, 0.770, 0.779, 0.381, 0.770, 0.381, 0.994, 0.770, 0.381, 0.444, 0.625, 0.444, 0.381, 0.381, 0.625, 0.381, 0.770, 0.770, 0.779, 0.770, 0.381, 0.381, 0.381, 0.381, 0.770, 0.381, 0.109, 0.994, 0.109, 0.381, 0.381, 0.381, 0.381, 0.444, 0.770, 0.381, 0.381, 0.381, 0.770, 0.381, 0.770, 0.770, 0.770, 0.770, 0.770, 0.381, 0.770, 0.770, 0.381, 0.381, 0.770, 0.444, 0.381, 0.386, 0.770, 0.381, 0.770, 0.581, 0.770, 0.770, 0.444, 0.381, 0.444, 0.381, 0.770, 0.581, 0.770, 0.770, 0.770, 0.444, 0.770, 0.381, 0.444, 0.381, 0.381, 0.770, 0.381, 0.770, 0.779, 0.770, 0.770, 0.381, 0.770, 0.770, 0.770, 0.770, 0.770, 0.770, 0.381, 0.381, 0.381, 0.770, 0.381, 0.770, 0.770, 0.770, 0.444, 0.444, 0.381, 0.444, 0.381, 0.770, 0.381, 0.381, 0.770, 0.444, 0.381, 0.381, 0.444, 0.381, 0.625, 0.381, 0.770, 0.381, 0.770, 0.381, 0.625, 0.770, 0.381, 0.770, 0.770 ]