2
[ 6.153, 5.732, 5.732, 5.732, 6.153, 5.732, 5.732, 5.732, 6.153, 5.732, 5.732, 6.153, 6.153, 5.732, 6.153, 5.732, 6.153, 6.153, 5.732, 5.732, 6.153, 6.153, 5.732, 6.153, 5.732, 6.153, 5.732, 6.153, 5.732, 6.153, 5.732, 6.153, 6.153, 6.153, 5.732, 6.153, 5.732, 6.153, 5.732, 5.732, 6.153, 6.153, 5.732, 6.153, 6.153, 5.732, 6.153, 5.732, 5.732, 6.153, 5.732, 5.732, 6.153, 6.153, 5.732, 6.153, 5.732, 5.732, 5.732, 5.732, 5.732, 5.732, 6.153, 6.153, 6.153, 6.153, 6.153, 6.153, 6.153, 6.153, 5.732, 6.153, 6.153, 5.732, 6.153, 6.153, 6.153, 5.732, 6.153, 6.153, 6.153, 6.153, 5.732, 6.153, 5.732, 6.153, 6.153, 5.732, 6.153, 6.153, 6.153, 5.732, 5.732, 5.732, 5.732, 6.153, 6.153, 6.153, 6.153, 5.732, 6.153, 6.153, 5.732, 6.153, 6.153, 5.732, 5.732, 6.153, 6.153, 6.153, 6.153, 5.732, 5.732, 6.153, 6.153, 6.153, 5.732, 6.153, 5.732, 5.732, 6.153, 5.732, 5.732, 6.153, 5.732, 5.732, 6.153, 6.153, 5.732, 6.153, 5.732, 6.153, 5.732, 5.732, 6.153, 5.732, 5.732, 6.153, 6.153, 6.153, 5.732, 6.153, 5.732, 5.732, 6.153, 5.732, 6.153, 5.732, 5.732, 6.153, 6.153, 6.153, 5.732, 6.153, 5.732, 6.153, 5.732, 5.732, 5.732, 5.732, 5.732, 6.153, 6.153, 6.153, 6.153, 5.732, 6.153, 6.153, 6.153, 6.153, 6.153, 5.732, 5.732, 6.153, 5.732, 6.153, 5.732, 5.732, 6.153, 5.732, 6.153, 6.153, 6.153, 6.153, 5.732, 6.153, 5.732, 6.153, 6.153, 5.732, 5.732, 5.732, 6.153, 6.153, 5.732, 6.153, 5.732, 6.153, 5.732, 5.732 ]
3
[ 0.670, 0.444, 0.870, 0.870, 0.870, 0.870, 0.870, 0.870, 0.870, 0.870, 0.870, 0.870, 0.870, 0.870, 0.870, 0.870, 0.870, 0.870, 0.870, 0.870, 0.870, 0.870, 0.870, 0.870, 0.444, 0.870, 0.870, 0.870, 0.870, 0.870, 0.870, 0.444, 0.870, 0.444, 0.870, 0.870, 0.870, 0.870, 0.444, 0.870, 0.870, 0.870, 0.870, 0.444, 0.444, 0.870, 0.870, 0.870, 0.444, 0.444, 0.444, 0.444, 0.444, 0.870, 0.670, 0.870, 0.870, 0.444, 0.870, 0.444, 0.870, 0.444, 0.870, 0.870, 0.870, 0.444, 0.870, 0.870, 0.444, 0.870, 0.870, 0.870, 0.444, 0.870, 0.870, 0.670, 0.870, 0.870, 0.870, 0.870, 0.444, 0.444, 0.870, 0.870, 0.444, 0.870, 0.870, 0.870, 0.870, 0.870, 0.444, 0.870, 0.444, 0.444, 0.870, 0.870, 0.870, 0.870, 0.870, 0.870, 0.870, 0.870, 0.870, 0.870, 0.870, 0.870, 0.670, 0.870, 0.444, 0.870, 0.870, 0.870, 0.870, 0.870, 0.870, 0.870, 0.444, 0.870, 0.870, 0.870, 0.444, 0.870, 0.670, 0.870, 0.444, 0.870, 0.870, 0.870, 0.870, 0.870, 0.870, 0.870, 0.870, 0.870, 0.870, 0.870, 0.444, 0.870, 0.870, 0.444, 0.870, 0.870, 0.870, 0.870, 0.870, 0.870, 0.870, 0.444, 0.444, 0.870, 0.870, 0.870, 0.444, 0.444, 0.870, 0.870, 0.870, 0.444, 0.870, 0.444, 0.870, 0.870, 0.870, 0.444, 0.870, 0.444, 0.444, 0.870, 0.444, 0.444, 0.870, 0.870, 0.870, 0.870, 0.870, 0.444, 0.870, 0.870, 0.444, 0.444, 0.870, 0.870, 0.444, 0.870, 0.870, 0.870, 0.870, 0.870, 0.870, 0.870, 0.670, 0.444, 0.444, 0.444, 0.870, 0.870, 0.870, 0.870, 0.870, 0.444 ]