4
[ 3.386, 3.386, 3.386, 3.386, 3.386, 3.386, 0.718, 3.386, 3.386, 3.386, 3.386, 0.718, 3.386, 0.718, 3.386, 3.386, 3.386, 3.386, 4.460, 3.386, 3.386, 3.386, 0.718, 3.386, 3.386, 0.718, 1.411, 3.386, 0.718, 3.386, 3.386, 0.718, 3.386, 3.386, 0.718, 3.386, 3.386, 3.386, 3.386, 0.718, 0.718, 3.386, 0.718, 3.386, 0.718, 3.386, 3.386, 3.386, 3.386, 0.718 ]
4
[ 0.559, 0.559, 0.390, 0.923, 0.559, 0.559, 0.559, 0.390, 0.923, 0.559, 0.559, 0.390, 0.559, 0.559, 0.390, 0.559, 0.559, 0.559, 0.390, 0.559, 0.559, 0.559, 0.559, 0.559, 0.559, 0.559, 0.559, 0.559, 0.559, 0.559, 0.559, 0.559, 0.559, 0.390, 0.559, 0.559, 0.559, 0.559, 0.211, 0.559, 0.390, 0.559, 0.559, 0.559, 0.559, 0.559, 0.559, 0.559, 0.390, 0.559 ]