3
[ 4.527, 2.146, 2.146, 4.527, 4.527, 4.527, 4.527, 1.378, 1.378, 1.378, 4.527, 2.146, 2.146, 1.378, 4.527, 2.146, 4.527, 1.378, 1.378, 1.378, 2.146, 1.378, 2.146, 1.378, 1.378, 4.527, 4.527, 1.378, 4.527, 2.146, 4.527, 2.146, 1.378, 4.527, 2.146, 1.378, 1.378, 4.527, 2.146, 4.527, 1.378, 2.146, 2.146, 4.527, 2.146, 2.146, 4.527, 1.378, 4.527, 2.146, 4.527, 4.527, 4.527, 1.378, 4.527, 2.146, 4.527, 2.146, 4.527, 2.146, 1.378, 4.527, 4.527, 2.146, 4.527, 2.146, 1.378, 1.378, 4.527, 1.378, 1.378, 2.146, 4.527, 1.378, 2.146, 1.378, 4.527, 2.146, 4.527, 4.527, 1.378, 1.378, 2.146, 4.527, 4.527, 2.146, 4.527, 4.527, 4.527, 4.527, 2.146, 2.146, 4.527, 4.527, 1.378, 2.146, 1.378, 1.378, 2.146, 2.146, 1.378, 2.146, 2.146, 2.146, 1.378, 1.378, 1.378, 1.378, 2.146, 4.527, 2.146, 1.378, 4.527, 1.378, 1.378, 4.527, 4.527, 1.378, 4.527, 1.378, 2.146, 2.146, 2.146, 1.378, 1.378, 1.378, 4.527, 1.378, 4.527, 4.527, 1.378, 1.378, 2.146, 2.146, 1.378, 2.146, 2.146, 2.146, 1.378, 1.378, 1.378, 2.146, 1.378, 2.146, 4.527, 4.527, 2.146, 4.527, 2.146, 4.527, 1.378, 4.527, 4.527, 1.378, 4.527, 1.378, 1.378, 1.378, 1.378, 4.527, 1.378, 2.146, 4.527, 2.146, 2.146, 4.527, 2.146, 2.146, 1.378, 2.146, 4.527, 1.378, 1.378, 1.378, 1.378, 1.378, 1.378, 4.527, 2.146, 4.527, 1.378, 2.146, 4.527, 2.146, 4.527, 4.527, 1.378, 2.146, 2.146, 4.527, 4.527, 1.378, 4.527, 4.527, 1.378, 2.146, 2.146, 2.146, 1.378, 4.527 ]
3
[ 0.301, 0.539, 0.868, 0.539, 0.301, 0.539, 0.868, 0.539, 0.868, 0.539, 0.539, 0.301, 0.868, 0.301, 0.868, 0.539, 0.301, 0.301, 0.868, 0.868, 0.868, 0.539, 0.539, 0.301, 0.539, 0.539, 0.539, 0.868, 0.301, 0.539, 0.868, 0.868, 0.301, 0.539, 0.539, 0.301, 0.301, 0.539, 0.301, 0.868, 0.868, 0.868, 0.301, 0.539, 0.868, 0.868, 0.301, 0.868, 0.301, 0.301, 0.539, 0.539, 0.868, 0.868, 0.868, 0.301, 0.539, 0.301, 0.868, 0.539, 0.539, 0.301, 0.301, 0.301, 0.539, 0.539, 0.539, 0.301, 0.539, 0.868, 0.868, 0.868, 0.539, 0.301, 0.539, 0.539, 0.539, 0.868, 0.539, 0.539, 0.301, 0.539, 0.868, 0.539, 0.301, 0.539, 0.301, 0.868, 0.868, 0.539, 0.301, 0.868, 0.868, 0.539, 0.301, 0.301, 0.301, 0.539, 0.868, 0.301, 0.868, 0.301, 0.301, 0.301, 0.301, 0.539, 0.868, 0.868, 0.301, 0.301, 0.868, 0.301, 0.301, 0.539, 0.301, 0.301, 0.539, 0.868, 0.301, 0.868, 0.868, 0.539, 0.539, 0.301, 0.539, 0.868, 0.301, 0.539, 0.868, 0.301, 0.301, 0.301, 0.539, 0.539, 0.868, 0.539, 0.868, 0.539, 0.868, 0.539, 0.301, 0.868, 0.868, 0.301, 0.539, 0.539, 0.539, 0.301, 0.301, 0.868, 0.539, 0.868, 0.868, 0.868, 0.301, 0.868, 0.868, 0.301, 0.539, 0.539, 0.868, 0.868, 0.868, 0.868, 0.868, 0.539, 0.301, 0.539, 0.868, 0.868, 0.868, 0.301, 0.301, 0.539, 0.868, 0.868, 0.539, 0.301, 0.539, 0.868, 0.539, 0.539, 0.868, 0.539, 0.539, 0.301, 0.301, 0.868, 0.539, 0.539, 0.539, 0.868, 0.301, 0.539, 0.539, 0.868, 0.868, 0.539, 0.301, 0.539 ]