6
[ 4.592, 4.592, 2.081, 2.081, 3.529, 2.081, 3.923, 3.923, 4.592, 3.852, 3.529, 3.923, 2.081, 2.081, 2.081, 2.081, 2.081, 2.721, 2.081, 2.081, 3.923, 2.081, 3.923, 2.081, 2.081, 4.592, 2.081, 4.592, 4.592, 3.923, 2.721, 2.081, 3.529, 3.529, 2.081, 4.592, 4.592, 2.081, 2.081, 3.923, 2.721, 2.721, 2.081, 3.529, 3.923, 3.529, 3.529, 2.081, 2.721, 2.081 ]
8
[ 0.964, 0.964, 0.964, 0.706, 0.952, 0.964, 0.964, 0.964, 0.964, 0.964, 0.952, 0.362, 0.964, 0.213, 0.964, 0.670, 0.964, 0.964, 0.964, 0.964, 0.964, 0.530, 0.964, 0.964, 0.964, 0.530, 0.964, 0.362, 0.964, 0.964, 0.964, 0.362, 0.964, 0.213, 0.964, 0.964, 0.952, 0.706, 0.964, 0.068, 0.952, 0.706, 0.964, 0.964, 0.964, 0.964, 0.964, 0.964, 0.362, 0.964 ]