8
[ 9.822, 0.749, 0.749, 0.749, 0.749, 0.749, 6.100, 0.749, 9.822, 0.749, 9.822, 0.749, 0.749, 0.749, 9.822, 9.822, 0.749, 16.858, 8.944, 6.100, 0.749, 0.749, 6.100, 0.749, 6.100, 0.749, 0.749, 0.749, 0.749, 0.749, 0.749, 0.749, 0.749, 0.749, 0.799, 0.749, 0.749, 0.749, 0.749, 0.749, 0.749, 0.749, 0.749, 0.749, 0.749, 0.749, 2.150, 0.749, 0.749, 0.749, 0.749, 6.100, 2.150, 0.749, 0.749, 0.749, 0.749, 0.749, 0.799, 0.749, 0.749, 6.100, 0.749, 6.100, 0.749, 2.064, 0.749, 0.749, 6.100, 0.799, 0.749, 0.749, 0.749, 0.749, 0.799, 0.749, 0.749, 9.822, 0.799, 0.749, 6.100, 0.749, 8.944, 0.749, 0.799, 9.822, 0.749, 0.749, 0.749, 2.150, 6.100, 6.100, 0.749, 0.799, 0.749, 2.150, 0.749, 0.749, 6.100, 6.100 ]
5
[ 0.051, 0.150, 0.051, 0.150, 0.051, 0.051, 0.150, 0.150, 0.051, 0.836, 0.051, 0.150, 0.051, 0.836, 0.051, 0.836, 0.051, 0.051, 0.836, 0.150, 0.150, 0.150, 0.150, 0.836, 0.836, 0.198, 0.051, 0.836, 0.150, 0.051, 0.836, 0.150, 0.150, 0.150, 0.051, 0.150, 0.836, 0.150, 0.051, 0.836, 0.150, 0.051, 0.836, 0.051, 0.836, 0.051, 0.051, 0.150, 0.051, 0.051, 0.051, 0.836, 0.150, 0.051, 0.051, 0.051, 0.051, 0.150, 0.150, 0.836, 0.836, 0.150, 0.836, 0.150, 0.150, 0.150, 0.051, 0.150, 0.150, 0.051, 0.836, 0.836, 0.051, 0.051, 0.150, 0.051, 0.524, 0.051, 0.051, 0.150, 0.150, 0.836, 0.051, 0.150, 0.150, 0.150, 0.051, 0.150, 0.150, 0.051, 0.836, 0.198, 0.836, 0.150, 0.051, 0.836, 0.836, 0.198, 0.150, 0.836 ]