3
[ 4.066, 4.066, 4.066, 2.462, 2.462, 4.066, 4.066, 4.066, 2.462, 2.462, 5.515, 4.066, 4.066, 4.066, 5.515, 2.462, 4.066, 4.066, 5.515, 2.462, 4.066, 2.462, 4.066, 5.515, 2.462, 4.066, 4.066, 5.515, 2.462, 5.515, 2.462, 2.462, 5.515, 2.462, 4.066, 4.066, 2.462, 4.066, 4.066, 2.462, 4.066, 2.462, 4.066, 4.066, 4.066, 2.462, 2.462, 2.462, 2.462, 4.066, 4.066, 4.066, 5.515, 4.066, 5.515, 4.066, 5.515, 5.515, 4.066, 5.515, 4.066, 5.515, 5.515, 5.515, 4.066, 4.066, 5.515, 5.515, 5.515, 4.066, 5.515, 5.515, 4.066, 2.462, 2.462, 5.515, 2.462, 4.066, 2.462, 4.066, 2.462, 2.462, 2.462, 2.462, 2.462, 2.462, 2.462, 5.515, 5.515, 4.066, 2.462, 5.515, 4.066, 4.066, 2.462, 2.462, 5.515, 2.462, 5.515, 5.515 ]
3
[ 0.379, 0.370, 0.370, 0.370, 0.370, 0.685, 0.370, 0.379, 0.685, 0.370, 0.379, 0.370, 0.379, 0.370, 0.685, 0.379, 0.379, 0.685, 0.370, 0.370, 0.685, 0.370, 0.370, 0.685, 0.370, 0.685, 0.379, 0.370, 0.379, 0.370, 0.379, 0.379, 0.685, 0.370, 0.685, 0.370, 0.370, 0.685, 0.685, 0.370, 0.370, 0.370, 0.370, 0.379, 0.379, 0.379, 0.370, 0.370, 0.379, 0.379, 0.379, 0.379, 0.379, 0.685, 0.685, 0.379, 0.379, 0.379, 0.379, 0.370, 0.685, 0.370, 0.685, 0.379, 0.379, 0.379, 0.685, 0.370, 0.379, 0.370, 0.379, 0.370, 0.379, 0.685, 0.379, 0.370, 0.370, 0.685, 0.379, 0.370, 0.685, 0.379, 0.685, 0.370, 0.370, 0.370, 0.379, 0.370, 0.685, 0.685, 0.379, 0.685, 0.370, 0.685, 0.685, 0.379, 0.370, 0.379, 0.370, 0.379 ]