3
[ 1.541, 1.541, 4.772, 1.541, 0.981, 4.772, 0.981, 4.772, 4.772, 0.981, 0.981, 1.541, 0.981, 1.541, 1.541, 1.541, 4.772, 1.541, 4.772, 4.772, 0.981, 1.541, 1.541, 0.981, 1.541, 4.772, 1.541, 1.541, 1.541, 1.541, 4.772, 0.981, 0.981, 4.772, 4.772, 0.981, 1.541, 1.541, 1.541, 0.981, 1.541, 4.772, 0.981, 1.541, 4.772, 4.772, 4.772, 4.772, 0.981, 4.772, 0.981, 4.772, 4.772, 4.772, 0.981, 0.981, 4.772, 1.541, 1.541, 4.772, 0.981, 4.772, 0.981, 1.541, 4.772, 0.981, 1.541, 0.981, 4.772, 0.981, 0.981, 0.981, 4.772, 0.981, 4.772, 1.541, 1.541, 1.541, 0.981, 0.981, 4.772, 4.772, 0.981, 0.981, 4.772, 1.541, 4.772, 1.541, 1.541, 4.772, 0.981, 0.981, 0.981, 0.981, 0.981, 1.541, 1.541, 0.981, 0.981, 0.981, 1.541, 0.981, 0.981, 1.541, 1.541, 4.772, 0.981, 0.981, 4.772, 1.541, 4.772, 4.772, 0.981, 1.541, 1.541, 0.981, 0.981, 0.981, 1.541, 4.772, 4.772, 4.772, 4.772, 4.772, 1.541, 0.981, 4.772, 4.772, 1.541, 4.772, 0.981, 0.981, 0.981, 1.541, 1.541, 0.981, 4.772, 1.541, 1.541, 0.981, 4.772, 4.772, 1.541, 1.541, 0.981, 1.541, 1.541, 0.981, 1.541, 0.981, 4.772, 1.541, 0.981, 4.772, 4.772, 0.981, 0.981, 4.772, 4.772, 1.541, 0.981, 4.772, 0.981, 1.541, 1.541, 4.772, 1.541, 0.981, 1.541, 1.541, 0.981, 1.541, 1.541, 1.541, 0.981, 4.772, 0.981, 4.772, 1.541, 1.541, 4.772, 1.541, 1.541, 0.981, 0.981, 0.981, 0.981, 1.541, 4.772, 0.981, 1.541, 1.541, 0.981, 0.981, 1.541, 4.772, 1.541, 1.541, 4.772, 0.981 ]
3
[ 0.851, 0.851, 0.402, 0.440, 0.851, 0.402, 0.440, 0.851, 0.851, 0.402, 0.440, 0.440, 0.851, 0.851, 0.440, 0.440, 0.851, 0.402, 0.440, 0.402, 0.851, 0.402, 0.851, 0.402, 0.851, 0.851, 0.402, 0.402, 0.440, 0.402, 0.440, 0.402, 0.402, 0.402, 0.402, 0.440, 0.851, 0.402, 0.440, 0.851, 0.851, 0.851, 0.440, 0.851, 0.440, 0.402, 0.440, 0.851, 0.851, 0.440, 0.402, 0.440, 0.851, 0.440, 0.402, 0.851, 0.440, 0.440, 0.851, 0.440, 0.440, 0.402, 0.440, 0.402, 0.851, 0.402, 0.851, 0.851, 0.851, 0.402, 0.402, 0.402, 0.440, 0.402, 0.851, 0.440, 0.440, 0.402, 0.440, 0.851, 0.402, 0.402, 0.402, 0.851, 0.402, 0.402, 0.402, 0.851, 0.851, 0.851, 0.440, 0.402, 0.402, 0.440, 0.851, 0.440, 0.851, 0.851, 0.851, 0.851, 0.851, 0.851, 0.440, 0.402, 0.851, 0.402, 0.440, 0.402, 0.402, 0.402, 0.851, 0.440, 0.440, 0.851, 0.851, 0.440, 0.402, 0.402, 0.440, 0.851, 0.402, 0.440, 0.440, 0.402, 0.851, 0.440, 0.402, 0.402, 0.440, 0.851, 0.402, 0.851, 0.851, 0.402, 0.440, 0.402, 0.851, 0.851, 0.402, 0.851, 0.440, 0.402, 0.402, 0.440, 0.851, 0.851, 0.440, 0.851, 0.402, 0.440, 0.440, 0.440, 0.440, 0.402, 0.440, 0.440, 0.440, 0.440, 0.440, 0.440, 0.440, 0.402, 0.402, 0.851, 0.402, 0.440, 0.851, 0.851, 0.402, 0.440, 0.851, 0.851, 0.851, 0.851, 0.440, 0.402, 0.851, 0.440, 0.402, 0.851, 0.851, 0.851, 0.851, 0.402, 0.440, 0.851, 0.402, 0.851, 0.851, 0.851, 0.402, 0.440, 0.402, 0.402, 0.440, 0.440, 0.851, 0.851, 0.851, 0.440 ]