3
[ 2.692, 2.692, 2.105, 1.305, 1.305, 2.692, 2.692, 2.692, 1.305, 1.305, 1.305, 1.305, 2.692, 1.305, 2.105, 2.692, 1.305, 2.692, 2.692, 1.305, 2.692, 2.105, 2.692, 2.692, 2.105, 2.105, 2.692, 2.105, 1.305, 2.692, 2.692, 2.105, 2.105, 2.105, 2.692, 2.692, 2.692, 2.692, 1.305, 2.692, 2.105, 2.692, 1.305, 2.692, 2.692, 2.105, 1.305, 2.105, 1.305, 2.692, 1.305, 2.692, 2.105, 2.692, 1.305, 2.692, 1.305, 2.105, 2.105, 2.105, 1.305, 2.692, 1.305, 2.692, 2.692, 1.305, 2.105, 2.692, 1.305, 2.692, 1.305, 1.305, 1.305, 2.692, 1.305, 1.305, 2.105, 1.305, 2.692, 1.305, 2.105, 1.305, 2.692, 2.105, 2.105, 1.305, 2.105, 2.105, 2.105, 1.305, 2.105, 1.305, 1.305, 2.105, 2.692, 1.305, 2.105, 2.105, 1.305, 1.305 ]
3
[ 0.862, 0.945, 0.590, 0.590, 0.590, 0.945, 0.862, 0.590, 0.945, 0.945, 0.590, 0.945, 0.862, 0.945, 0.862, 0.862, 0.945, 0.945, 0.945, 0.945, 0.862, 0.862, 0.945, 0.590, 0.590, 0.945, 0.862, 0.590, 0.590, 0.590, 0.945, 0.590, 0.590, 0.945, 0.862, 0.590, 0.590, 0.945, 0.590, 0.945, 0.590, 0.862, 0.945, 0.590, 0.590, 0.862, 0.862, 0.945, 0.945, 0.945, 0.945, 0.945, 0.945, 0.862, 0.590, 0.862, 0.590, 0.862, 0.945, 0.945, 0.862, 0.862, 0.590, 0.590, 0.862, 0.945, 0.590, 0.590, 0.945, 0.945, 0.945, 0.945, 0.945, 0.862, 0.590, 0.862, 0.590, 0.590, 0.945, 0.862, 0.945, 0.590, 0.862, 0.945, 0.862, 0.945, 0.862, 0.862, 0.945, 0.862, 0.862, 0.862, 0.862, 0.590, 0.945, 0.945, 0.862, 0.945, 0.945, 0.862 ]