pars_sum	pars_var	pars_disp	obs_disp	sim_disp
-4	-0.154545454545455	-0.0957575757575758	0.0909090909090909	0.186666666666667
0	0.4	0.333333333333333	0.333333333333333	0
-1	0.0944444444444445	0.0712250712250713	0.148148148148148	0.0769230769230769
-5	-0.0469696969696967	0.0178253119429592	0.333333333333333	0.315508021390374
-3	-0.118181818181818	-0.0805194805194805	0.0909090909090909	0.171428571428571
-4	-0.0949494949494949	-0.0393518518518518	0.148148148148148	0.1875
-2	-0.133333333333333	-0.0885780885780886	0.0909090909090909	0.17948717948718
-3	-0.0545454545454545	5.55111512312578e-17	0.333333333333333	0.333333333333333
0	0	0	0.0909090909090909	0.0909090909090909
-2	0.0262626262626263	0.0182780182780184	0.148148148148148	0.12987012987013
-1	0.316666666666667	0.256410256410256	0.333333333333333	0.0769230769230769
-2	-0.0636363636363636	-0.0475524475524475	0.0909090909090909	0.138461538461538
0	0.309090909090909	0.25	0.333333333333333	0.0833333333333333
-5	-0.142424242424242	-0.090909090909091	0.0909090909090909	0.181818181818182
-2	0.0287878787878788	0.0158508158508159	0.17948717948718	0.163636363636364
1	0.1	0.0909090909090909	0.0909090909090909	0
-3	0.145454545454545	0.146666666666667	0.333333333333333	0.186666666666667
-2	-0.0636363636363637	-0.0475524475524476	0.0909090909090909	0.138461538461539
-2	-0.0404040404040404	-0.0232804232804232	0.148148148148148	0.171428571428571
-2	0.0262626262626263	0.0182780182780184	0.148148148148148	0.12987012987013
-2	-0.0636363636363637	-0.0475524475524476	0.0909090909090909	0.138461538461538
-2	0.0166666666666667	0.013986013986014	0.0909090909090909	0.0769230769230769
-4	-0.0949494949494949	-0.0393518518518518	0.148148148148148	0.1875
-1	0.237373737373737	0.178998778998779	0.35042735042735	0.171428571428571
0	0.177777777777778	0.148148148148148	0.148148148148148	0
-4	-0.0949494949494949	-0.0393518518518518	0.148148148148148	0.1875
-5	-0.142424242424243	-0.090909090909091	0.0909090909090909	0.181818181818182
-1	0.0944444444444445	0.0712250712250713	0.148148148148148	0.0769230769230769
-1	0.00909090909090908	0.00757575757575756	0.0909090909090909	0.0833333333333333
-2	-0.263636363636364	-0.216783216783217	0.0909090909090909	0.307692307692308
-2	0.248484848484849	0.203463203463204	0.333333333333333	0.12987012987013
-1	0.284343434343435	0.185569985569986	0.349206349206349	0.163636363636364
-3	-0.118181818181818	-0.0805194805194805	0.0909090909090909	0.171428571428571
-4	-0.154545454545455	-0.0957575757575758	0.0909090909090909	0.186666666666667
-2	0.0166666666666667	0.013986013986014	0.0909090909090909	0.0769230769230769
-3	-0.0267676767676767	-0.0154882154882154	0.148148148148148	0.163636363636364
-1	0.304040404040404	0.220557220557221	0.35042735042735	0.12987012987013
-3	0.195454545454545	0.16969696969697	0.333333333333333	0.163636363636364
-4	-0.154545454545455	-0.0957575757575758	0.0909090909090909	0.186666666666667
-2	0.248484848484848	0.203463203463203	0.333333333333333	0.12987012987013
1	0.1	0.0909090909090909	0.0909090909090909	0
-2	-0.0636363636363637	-0.0475524475524476	0.0909090909090909	0.138461538461539
1	-0.0166666666666667	-0.00801282051282057	0.17948717948718	0.1875
-3	-0.0767676767676768	-0.0385185185185185	0.148148148148148	0.186666666666667
-1	0.0151515151515152	0.00805860805860806	0.17948717948718	0.171428571428571
-1	0.00909090909090908	0.00757575757575756	0.0909090909090909	0.0833333333333333
-4	0.157575757575758	0.151515151515151	0.333333333333333	0.181818181818182
0	0.309090909090909	0.25	0.333333333333333	0.0833333333333333
-1	0.236363636363636	0.194871794871795	0.333333333333333	0.138461538461538
-3	-0.0515151515151516	-0.038961038961039	0.0909090909090909	0.12987012987013
-5	-0.269191919191919	-0.167359873242226	0.148148148148148	0.315508021390374
-1	0.0141414141414141	0.00968660968660967	0.148148148148148	0.138461538461539
-2	0.0262626262626263	0.0182780182780183	0.148148148148148	0.12987012987013
-3	-0.0515151515151516	-0.038961038961039	0.0909090909090909	0.12987012987013
-1	-0.0777777777777778	-0.0572390572390573	0.0909090909090909	0.148148148148148
-5	-0.324242424242424	-0.227272727272727	0.0909090909090909	0.318181818181818
-1	0.00909090909090908	0.00757575757575756	0.0909090909090909	0.0833333333333333
-1	-0.0555555555555555	-0.0313390313390313	0.148148148148148	0.17948717948718
-2	-0.0636363636363636	-0.0475524475524475	0.0909090909090909	0.138461538461538
2	0.288888888888889	0.233333333333333	0.333333333333333	0.1
1	0.1	0.0909090909090909	0.0909090909090909	0
-1	0.0141414141414142	0.00968660968660975	0.148148148148148	0.138461538461538
0	0.1	0.0909090909090909	0.0909090909090909	0
-5	-0.0873737373737373	-0.0390176272529213	0.148148148148148	0.18716577540107
-1	0.0944444444444445	0.0712250712250713	0.148148148148148	0.0769230769230769
-6	-0.346969696969697	-0.224598930481283	0.0909090909090909	0.315508021390374
-1	0.00909090909090908	0.00757575757575756	0.0909090909090909	0.0833333333333333
1	0.4	0.333333333333333	0.333333333333333	0
1	0.3	0.242424242424242	0.333333333333333	0.0909090909090909
0	0	0	0.0909090909090909	0.0909090909090909
-2	-0.0404040404040404	-0.0232804232804232	0.148148148148148	0.171428571428571
1	-0.0111111111111112	-0.00909090909090914	0.0909090909090909	0.1
-6	0.127272727272727	0.151515151515152	0.333333333333333	0.181818181818182
-1	0.316666666666667	0.256410256410256	0.333333333333333	0.0769230769230769
-3	0.195454545454545	0.16969696969697	0.333333333333333	0.163636363636364
-4	-0.0646464646464646	-0.0336700336700337	0.148148148148148	0.181818181818182
-1	0.00909090909090909	0.00757575757575757	0.0909090909090909	0.0833333333333333
-3	0.0136363636363637	0.0242424242424243	0.333333333333333	0.309090909090909
-4	-0.286363636363636	-0.218181818181818	0.0909090909090909	0.309090909090909
-1	0.0141414141414142	0.00968660968660975	0.148148148148148	0.138461538461538
0	0.1	0.0909090909090909	0.0909090909090909	0
-2	0.0262626262626263	0.0182780182780184	0.148148148148148	0.12987012987013
-4	-0.104545454545455	-0.0727272727272727	0.0909090909090909	0.163636363636364
0	0.309090909090909	0.25	0.333333333333333	0.0833333333333333
-1	0.0944444444444445	0.0712250712250713	0.148148148148148	0.0769230769230769
-4	-0.104545454545455	-0.0727272727272727	0.0909090909090909	0.163636363636364
0	0.1	0.0909090909090909	0.0909090909090909	0
3	0.455555555555555	0.35042735042735	0.35042735042735	0
1	0.1	0.0909090909090909	0.0909090909090909	0
-3	-0.208585858585859	-0.160942760942761	0.148148148148148	0.309090909090909
-8	-0.246464646464646	-0.106397306397306	0.148148148148148	0.254545454545455
-1	0.0141414141414142	0.00968660968660975	0.148148148148148	0.138461538461538
-2	0.181818181818182	0.161904761904762	0.333333333333333	0.171428571428571
0	0.291919191919192	0.211965811965812	0.35042735042735	0.138461538461538
-1	0.237373737373737	0.178998778998779	0.35042735042735	0.171428571428571
0	-1.38777878078145e-17	-1.38777878078145e-17	0.0909090909090909	0.0909090909090909
2	0.355555555555556	0.259518259518259	0.35042735042735	0.0909090909090909
0	0.4	0.333333333333333	0.333333333333333	0
-1	0.0141414141414142	0.00968660968660973	0.148148148148148	0.138461538461538
-4	-0.104545454545455	-0.0727272727272727	0.0909090909090909	0.163636363636364
-4	-0.0646464646464646	-0.0336700336700337	0.148148148148148	0.181818181818182
-1	0.00909090909090908	0.00757575757575756	0.0909090909090909	0.0833333333333333
-4	-0.0646464646464646	-0.0336700336700337	0.148148148148148	0.181818181818182
-2	-0.0212121212121212	-0.00717948717948722	0.17948717948718	0.186666666666667
-2	0.0262626262626263	0.0182780182780183	0.148148148148148	0.12987012987013
-1	0.0944444444444445	0.0712250712250713	0.148148148148148	0.0769230769230769
-2	0.0262626262626263	0.0182780182780184	0.148148148148148	0.12987012987013
-4	-0.0727272727272726	0.00833333333333341	0.333333333333333	0.325
-2	0.0166666666666667	0.013986013986014	0.0909090909090909	0.0769230769230769
-3	-0.0267676767676767	-0.0154882154882154	0.148148148148148	0.163636363636364
-3	-0.0515151515151516	-0.038961038961039	0.0909090909090909	0.12987012987013
-5	-0.269191919191919	-0.167359873242226	0.148148148148148	0.315508021390374
0	0.177777777777778	0.148148148148148	0.148148148148148	0
-2	0.0691919191919191	0.0413364413364413	0.35042735042735	0.309090909090909
-4	-0.0646464646464646	-0.0336700336700337	0.148148148148148	0.181818181818182
-1	0.00909090909090909	0.00757575757575757	0.0909090909090909	0.0833333333333333
-5	0.0419191919191922	0.0669096984886461	0.349206349206349	0.282296650717703
-1	-0.0555555555555555	-0.0313390313390313	0.148148148148148	0.17948717948718
-3	-0.190909090909091	-0.138694638694639	0.17948717948718	0.318181818181818
-1	-0.0777777777777778	-0.0572390572390573	0.0909090909090909	0.148148148148148
0	0.177777777777778	0.148148148148148	0.148148148148148	0
0	0.0868686868686869	0.0648148148148149	0.148148148148148	0.0833333333333333
-5	0.134848484848485	0.146167557932264	0.333333333333333	0.18716577540107
-3	-0.0767676767676767	-0.0385185185185185	0.148148148148148	0.186666666666667
-2	0.248484848484849	0.203463203463204	0.333333333333333	0.12987012987013
-1	0.0141414141414141	0.0096866096866097	0.148148148148148	0.138461538461538
0	0.177777777777778	0.148148148148148	0.148148148148148	0
-3	-0.276767676767677	-0.185185185185185	0.148148148148148	0.333333333333333
-1	0.316666666666667	0.256410256410256	0.333333333333333	0.0769230769230769
0	0.0868686868686869	0.0648148148148149	0.148148148148148	0.0833333333333333
-3	0.213131313131313	0.168609168609168	0.35042735042735	0.181818181818182
-3	-0.0767676767676768	-0.0385185185185185	0.148148148148148	0.186666666666667
-4	0.216161616161616	0.167388167388167	0.349206349206349	0.181818181818182
-2	0.248484848484848	0.203463203463203	0.333333333333333	0.12987012987013
-1	0.316666666666667	0.256410256410256	0.333333333333333	0.0769230769230769
-4	-0.0646464646464646	-0.0336700336700337	0.148148148148148	0.181818181818182
-3	-0.0515151515151515	-0.0389610389610389	0.0909090909090909	0.12987012987013
-1	0.00909090909090909	0.00757575757575757	0.0909090909090909	0.0833333333333333
-2	0.0262626262626263	0.0182780182780183	0.148148148148148	0.12987012987013
-2	0.181818181818182	0.161904761904762	0.333333333333333	0.171428571428571
-3	-0.0267676767676767	-0.0154882154882154	0.148148148148148	0.163636363636364
1	0.4	0.333333333333333	0.333333333333333	0
-5	-0.142424242424243	-0.090909090909091	0.0909090909090909	0.181818181818182
-1	0.00909090909090908	0.00757575757575756	0.0909090909090909	0.0833333333333333
-1	0.0818181818181818	0.0496170496170496	0.17948717948718	0.12987012987013
-3	0.145454545454545	0.146666666666667	0.333333333333333	0.186666666666667
0	2.77555756156289e-17	2.77555756156289e-17	0.148148148148148	0.148148148148148
-2	0.0166666666666667	0.013986013986014	0.0909090909090909	0.0769230769230769
-2	-0.0636363636363636	-0.0475524475524475	0.0909090909090909	0.138461538461538
-1	0.316666666666667	0.256410256410256	0.333333333333333	0.0769230769230769
-1	0.0944444444444445	0.0712250712250713	0.148148148148148	0.0769230769230769
-4	-0.0646464646464646	-0.0336700336700337	0.148148148148148	0.181818181818182
-1	0.0944444444444445	0.0712250712250713	0.148148148148148	0.0769230769230769
-2	-0.0636363636363637	-0.0475524475524476	0.0909090909090909	0.138461538461538
-4	-0.104545454545455	-0.0727272727272727	0.0909090909090909	0.163636363636364
-2	0.251010101010101	0.186790986790987	0.35042735042735	0.163636363636364
0	0.1	0.0909090909090909	0.0909090909090909	0
-2	-0.133333333333333	-0.0885780885780886	0.0909090909090909	0.17948717948718
0	-1.38777878078145e-17	-1.38777878078145e-17	0.0909090909090909	0.0909090909090909
0	0	0	0.0909090909090909	0.0909090909090909
1	0.1	0.0909090909090909	0.0909090909090909	0
0	-0.222222222222222	-0.185185185185185	0.148148148148148	0.333333333333333
-4	-0.104545454545455	-0.0727272727272727	0.0909090909090909	0.163636363636364
-5	-0.0469696969696969	0.0178253119429591	0.333333333333333	0.315508021390374
-2	0.181818181818182	0.161904761904762	0.333333333333333	0.171428571428571
-3	0.195454545454545	0.16969696969697	0.333333333333333	0.163636363636364
-4	-0.0646464646464647	-0.0336700336700337	0.148148148148148	0.181818181818182
-3	-0.118181818181818	-0.0805194805194805	0.0909090909090909	0.171428571428571
-2	-0.0636363636363636	-0.0475524475524475	0.0909090909090909	0.138461538461538
1	0.0777777777777778	0.0572390572390573	0.148148148148148	0.0909090909090909
-1	-0.0777777777777778	-0.0572390572390573	0.0909090909090909	0.148148148148148
-4	-0.0242424242424242	0.0151515151515151	0.333333333333333	0.318181818181818
-2	-0.0636363636363637	-0.0475524475524476	0.0909090909090909	0.138461538461538
1	0.177777777777778	0.148148148148148	0.148148148148148	0
-4	-0.104545454545455	-0.0727272727272727	0.0909090909090909	0.163636363636364
0	0.0696969696969697	0.041025641025641	0.17948717948718	0.138461538461538
-1	0.00909090909090909	0.00757575757575757	0.0909090909090909	0.0833333333333333
-4	-0.286363636363636	-0.218181818181818	0.0909090909090909	0.309090909090909
-3	-0.118181818181818	-0.0805194805194805	0.0909090909090909	0.171428571428571
0	0	0	0.0909090909090909	0.0909090909090909
-2	0.248484848484848	0.203463203463203	0.333333333333333	0.12987012987013
-2	0.0262626262626263	0.0182780182780184	0.148148148148148	0.12987012987013
-2	-0.0404040404040404	-0.0232804232804232	0.148148148148148	0.171428571428571
-4	-0.246464646464646	-0.17003367003367	0.148148148148148	0.318181818181818
0	0.1	0.0909090909090909	0.0909090909090909	0
-2	0.248484848484849	0.203463203463204	0.333333333333333	0.12987012987013
-2	-0.0636363636363637	-0.0475524475524476	0.0909090909090909	0.138461538461539
-2	-0.133333333333333	-0.0885780885780886	0.0909090909090909	0.17948717948718
-3	-0.166666666666667	-0.0995670995670996	0.0909090909090909	0.190476190476191
-2	-0.0636363636363637	-0.0475524475524476	0.0909090909090909	0.138461538461538
-2	-0.0636363636363637	-0.0475524475524476	0.0909090909090909	0.138461538461538
0	0	0	0.0909090909090909	0.0909090909090909
-4	-0.104545454545455	-0.0727272727272727	0.0909090909090909	0.163636363636364
0	0.309090909090909	0.25	0.333333333333333	0.0833333333333333
-1	0.236363636363636	0.194871794871795	0.333333333333333	0.138461538461538
-5	-0.0873737373737373	-0.0390176272529213	0.148148148148148	0.18716577540107
-1	0.316666666666667	0.256410256410256	0.333333333333333	0.0769230769230769
-2	-0.0181818181818181	0.0047619047619048	0.333333333333333	0.328571428571429
-3	0.145454545454545	0.146666666666667	0.333333333333333	0.186666666666667
-3	-0.0515151515151515	-0.0389610389610389	0.0909090909090909	0.12987012987013
-1	0.00909090909090908	0.00757575757575756	0.0909090909090909	0.0833333333333333
-1	0.00909090909090908	0.00757575757575756	0.0909090909090909	0.0833333333333333
-5	-0.324242424242424	-0.227272727272727	0.0909090909090909	0.318181818181818
-2	0.0262626262626263	0.0182780182780184	0.148148148148148	0.12987012987013
-7	-0.269191919191919	-0.134148502569555	0.148148148148148	0.282296650717703
-5	-0.324242424242424	-0.227272727272727	0.0909090909090909	0.318181818181818
-5	-0.172727272727273	-0.0965909090909091	0.0909090909090909	0.1875
-1	0.316666666666667	0.256410256410256	0.333333333333333	0.0769230769230769
-1	0.00909090909090908	0.00757575757575756	0.0909090909090909	0.0833333333333333
-2	0.00101010101010091	0.017094017094017	0.35042735042735	0.333333333333333
-1	0.0944444444444445	0.0712250712250713	0.148148148148148	0.0769230769230769
-6	-0.0949494949494949	-0.0336700336700336	0.148148148148148	0.181818181818182
-1	0.00909090909090909	0.00757575757575757	0.0909090909090909	0.0833333333333333
-3	-0.0515151515151516	-0.038961038961039	0.0909090909090909	0.12987012987013
-2	-0.0636363636363636	-0.0475524475524475	0.0909090909090909	0.138461538461538
-1	-0.0777777777777778	-0.0572390572390573	0.0909090909090909	0.148148148148148
1	0.4	0.333333333333333	0.333333333333333	0
-3	-0.0515151515151516	-0.038961038961039	0.0909090909090909	0.12987012987013
0	0.177777777777778	0.148148148148148	0.148148148148148	0
-1	0.00909090909090908	0.00757575757575756	0.0909090909090909	0.0833333333333333
-4	-0.104545454545455	-0.0727272727272727	0.0909090909090909	0.163636363636364
1	0.177777777777778	0.148148148148148	0.148148148148148	0
-5	-0.142424242424243	-0.090909090909091	0.0909090909090909	0.181818181818182
-5	-0.142424242424243	-0.090909090909091	0.0909090909090909	0.181818181818182
-3	-0.0267676767676767	-0.0154882154882154	0.148148148148148	0.163636363636364
-5	0.134848484848485	0.146167557932264	0.333333333333333	0.18716577540107
-5	-0.269191919191919	-0.167359873242226	0.148148148148148	0.315508021390374
-1	0.00909090909090908	0.00757575757575756	0.0909090909090909	0.0833333333333333
-1	0.0141414141414141	0.00968660968660973	0.148148148148148	0.138461538461538
0	0	0	0.148148148148148	0.148148148148148
-2	0.0287878787878788	0.0158508158508159	0.17948717948718	0.163636363636364
-1	0.0944444444444445	0.0712250712250713	0.148148148148148	0.0769230769230769
-5	-0.0873737373737373	-0.0390176272529213	0.148148148148148	0.18716577540107
-1	0.00909090909090908	0.00757575757575756	0.0909090909090909	0.0833333333333333
-5	-0.269191919191919	-0.167359873242226	0.148148148148148	0.315508021390374
-4	-0.154545454545455	-0.0957575757575758	0.0909090909090909	0.186666666666667
-2	-0.0636363636363636	-0.0475524475524475	0.0909090909090909	0.138461538461538
0	0	0	0.0909090909090909	0.0909090909090909
-2	0.0166666666666667	0.013986013986014	0.0909090909090909	0.0769230769230769
-7	0.0313131313131311	0.0958818958818957	0.35042735042735	0.254545454545455
-2	-0.0404040404040404	-0.0232804232804232	0.148148148148148	0.171428571428571
-3	-0.0515151515151516	-0.038961038961039	0.0909090909090909	0.12987012987013
-1	0.00909090909090908	0.00757575757575756	0.0909090909090909	0.0833333333333333
-1	0.304040404040404	0.22055722055722	0.35042735042735	0.12987012987013
-2	0.0262626262626263	0.0182780182780184	0.148148148148148	0.12987012987013
-2	0.0262626262626263	0.0182780182780184	0.148148148148148	0.12987012987013
2	0.288888888888889	0.233333333333333	0.333333333333333	0.1
-3	0.195454545454545	0.16969696969697	0.333333333333333	0.163636363636364
1	0.177777777777778	0.148148148148148	0.148148148148148	0
0	0.1	0.0909090909090909	0.0909090909090909	0
-3	-0.0515151515151515	-0.038961038961039	0.0909090909090909	0.12987012987013
-4	-0.0646464646464646	-0.0336700336700337	0.148148148148148	0.181818181818182
-3	-0.0267676767676767	-0.0154882154882154	0.148148148148148	0.163636363636364
-1	0.00909090909090908	0.00757575757575756	0.0909090909090909	0.0833333333333333
-2	0.0262626262626262	0.0182780182780183	0.148148148148148	0.12987012987013
-1	0.236363636363636	0.194871794871795	0.333333333333333	0.138461538461538
0	0.1	0.0909090909090909	0.0909090909090909	0
0	0.1	0.0909090909090909	0.0909090909090909	0
-1	0.1	0.0909090909090909	0.0909090909090909	0
-5	-0.142424242424242	-0.090909090909091	0.0909090909090909	0.181818181818182
-5	-0.372727272727273	-0.234090909090909	0.0909090909090909	0.325
-4	-0.294949494949495	-0.176851851851852	0.148148148148148	0.325
-2	0.0166666666666667	0.013986013986014	0.0909090909090909	0.0769230769230769
0	0.0868686868686869	0.0648148148148149	0.148148148148148	0.0833333333333333
1	0.0777777777777778	0.0572390572390573	0.148148148148148	0.0909090909090909
0	0.177777777777778	0.148148148148148	0.148148148148148	0
-1	0.0818181818181818	0.0496170496170496	0.17948717948718	0.12987012987013
1	0.1	0.0909090909090909	0.0909090909090909	0
-2	-0.0636363636363636	-0.0475524475524475	0.0909090909090909	0.138461538461538
-1	0.0944444444444445	0.0712250712250713	0.148148148148148	0.0769230769230769
-5	-0.142424242424243	-0.090909090909091	0.0909090909090909	0.181818181818182
-3	0.213131313131313	0.168609168609168	0.35042735042735	0.181818181818182
-4	0.19040404040404	0.163261575026281	0.35042735042735	0.18716577540107
-4	-0.0646464646464647	-0.0336700336700337	0.148148148148148	0.181818181818182
2	0.4	0.333333333333333	0.333333333333333	0
-1	0.316666666666667	0.256410256410256	0.333333333333333	0.0769230769230769
-2	0.248484848484849	0.203463203463204	0.333333333333333	0.12987012987013
-3	0.0419191919191921	0.033698327815975	0.349206349206349	0.315508021390374
0	0.1	0.0909090909090909	0.0909090909090909	0
0	0.309090909090909	0.25	0.333333333333333	0.0833333333333333
-1	0.00909090909090908	0.00757575757575756	0.0909090909090909	0.0833333333333333
-3	-0.0767676767676767	-0.0385185185185185	0.148148148148148	0.186666666666667
-3	-0.0515151515151516	-0.038961038961039	0.0909090909090909	0.12987012987013
-4	-0.0646464646464646	-0.0336700336700337	0.148148148148148	0.181818181818182
-2	-0.0636363636363637	-0.0475524475524476	0.0909090909090909	0.138461538461539
-3	-0.0515151515151515	-0.0389610389610389	0.0909090909090909	0.12987012987013
0	0.0868686868686869	0.0648148148148149	0.148148148148148	0.0833333333333333
0	0	0	0.148148148148148	0.148148148148148
1	0.3	0.242424242424242	0.333333333333333	0.0909090909090909
-1	0.0944444444444445	0.0712250712250713	0.148148148148148	0.0769230769230769
-4	0.00858585858585859	0.0349193290369761	0.35042735042735	0.315508021390374
-2	0.181818181818182	0.161904761904762	0.333333333333333	0.171428571428571
-2	-0.0404040404040404	-0.0232804232804232	0.148148148148148	0.171428571428571
1	0.177777777777778	0.148148148148148	0.148148148148148	0
-2	0.251010101010101	0.186790986790987	0.35042735042735	0.163636363636364
-5	0.134848484848485	0.146167557932264	0.333333333333333	0.18716577540107
-1	0.0141414141414141	0.00968660968660967	0.148148148148148	0.138461538461539
-1	0.236363636363636	0.194871794871795	0.333333333333333	0.138461538461538
-4	-0.104545454545455	-0.0727272727272727	0.0909090909090909	0.163636363636364
-9	0.0136363636363637	0.112554112554113	0.333333333333333	0.220779220779221
-5	-0.0873737373737373	-0.0390176272529213	0.148148148148148	0.18716577540107
-2	0.0166666666666667	0.013986013986014	0.0909090909090909	0.0769230769230769
-4	0.127272727272727	0.145833333333333	0.333333333333333	0.1875
-2	0.0262626262626262	0.0182780182780183	0.148148148148148	0.12987012987013
-1	-0.0777777777777778	-0.0572390572390573	0.0909090909090909	0.148148148148148
-2	-0.133333333333333	-0.0885780885780886	0.0909090909090909	0.17948717948718
2	0.1	0.0909090909090909	0.0909090909090909	0
-2	-0.0636363636363636	-0.0475524475524475	0.0909090909090909	0.138461538461538
-6	-0.346969696969697	-0.224598930481283	0.0909090909090909	0.315508021390374
-4	0.157575757575758	0.151515151515151	0.333333333333333	0.181818181818182
-1	0.00909090909090909	0.00757575757575757	0.0909090909090909	0.0833333333333333
-3	-0.0267676767676767	-0.0154882154882154	0.148148148148148	0.163636363636364
0	0.1	0.0909090909090909	0.0909090909090909	0
0	0	0	0.0909090909090909	0.0909090909090909
-2	0.0262626262626262	0.0182780182780183	0.148148148148148	0.12987012987013
-2	-0.155555555555555	-0.137566137566137	0.148148148148148	0.285714285714286
-1	0.236363636363636	0.194871794871795	0.333333333333333	0.138461538461538
1	0.4	0.333333333333333	0.333333333333333	0
-2	0.0262626262626263	0.0182780182780183	0.148148148148148	0.12987012987013
-5	-0.324242424242424	-0.227272727272727	0.0909090909090909	0.318181818181818
1	0.0777777777777778	0.0572390572390573	0.148148148148148	0.0909090909090909
-4	-0.0318181818181818	-0.00767859591389	0.17948717948718	0.18716577540107
-1	0.0363636363636365	0.0256410256410258	0.333333333333333	0.307692307692308
-6	0.064646464646465	0.0946608946608949	0.349206349206349	0.254545454545455
-1	0.0944444444444445	0.0712250712250713	0.148148148148148	0.0769230769230769
0	0.4	0.333333333333333	0.333333333333333	0
-3	0.145454545454545	0.146666666666667	0.333333333333333	0.186666666666667
0	0.309090909090909	0.25	0.333333333333333	0.0833333333333333
-4	0.157575757575758	0.151515151515151	0.333333333333333	0.181818181818182
1	0.3	0.242424242424242	0.333333333333333	0.0909090909090909
-3	-0.208585858585859	-0.160942760942761	0.148148148148148	0.309090909090909
-5	-0.0873737373737373	-0.0390176272529213	0.148148148148148	0.18716577540107
0	2.77555756156289e-17	0	0.148148148148148	0.148148148148148
0	0.0868686868686869	0.0648148148148149	0.148148148148148	0.0833333333333333
-5	0.182828282828283	0.168609168609169	0.35042735042735	0.181818181818182
-3	-0.0267676767676767	-0.0154882154882154	0.148148148148148	0.163636363636364
-6	-0.165151515151515	-0.0962566844919786	0.0909090909090909	0.18716577540107
-4	-0.0646464646464647	-0.0336700336700337	0.148148148148148	0.181818181818182
1	0.177777777777778	0.148148148148148	0.148148148148148	0
-2	0.248484848484848	0.203463203463203	0.333333333333333	0.12987012987013
0	0.4	0.333333333333333	0.333333333333333	0
-7	-0.0469696969696968	0.0510366826156301	0.333333333333333	0.282296650717703
0	0.177777777777778	0.148148148148148	0.148148148148148	0
-1	0.1	0.0909090909090909	0.0909090909090909	0
-3	-0.118181818181818	-0.0805194805194805	0.0909090909090909	0.171428571428571
1	0.3	0.242424242424242	0.333333333333333	0.0909090909090909
3	0.4	0.333333333333333	0.333333333333333	0
-3	-0.0515151515151516	-0.038961038961039	0.0909090909090909	0.12987012987013
-6	-0.0949494949494949	-0.0336700336700336	0.148148148148148	0.181818181818182
-3	-0.00909090909090915	-0.00233100233100239	0.17948717948718	0.181818181818182
-1	0.00909090909090909	0.00757575757575757	0.0909090909090909	0.0833333333333333
0	-1.38777878078145e-17	-1.38777878078145e-17	0.0909090909090909	0.0909090909090909
-4	0.157575757575758	0.151515151515152	0.333333333333333	0.181818181818182
-2	0.201010101010101	0.163760683760684	0.35042735042735	0.186666666666667
0	0.1	0.0909090909090909	0.0909090909090909	0
-2	0.0262626262626262	0.0182780182780183	0.148148148148148	0.12987012987013
-4	-0.213636363636364	-0.136020841903195	0.17948717948718	0.315508021390374
-2	0.0166666666666667	0.013986013986014	0.0909090909090909	0.0769230769230769
-2	0.0262626262626262	0.0182780182780183	0.148148148148148	0.12987012987013
-1	0.0141414141414142	0.00968660968660975	0.148148148148148	0.138461538461538
-1	0.236363636363636	0.194871794871795	0.333333333333333	0.138461538461538
-2	-0.0888888888888889	-0.0423280423280423	0.148148148148148	0.190476190476191
-2	0.0287878787878788	0.0158508158508159	0.17948717948718	0.163636363636364
-3	-0.208585858585859	-0.160942760942761	0.148148148148148	0.309090909090909
-1	0.0141414141414142	0.00968660968660975	0.148148148148148	0.138461538461538
-2	-0.0636363636363637	-0.0475524475524476	0.0909090909090909	0.138461538461538
-1	0.0141414141414141	0.00968660968660973	0.148148148148148	0.138461538461538
-6	-0.346969696969697	-0.224598930481283	0.0909090909090909	0.315508021390374
-5	-0.0469696969696969	0.0178253119429591	0.333333333333333	0.315508021390374
-4	-0.104545454545455	-0.0727272727272727	0.0909090909090909	0.163636363636364
-1	0.0944444444444445	0.0712250712250713	0.148148148148148	0.0769230769230769
-2	-0.0636363636363637	-0.0475524475524476	0.0909090909090909	0.138461538461538
-1	0.236363636363636	0.194871794871795	0.333333333333333	0.138461538461538
-6	-0.0949494949494949	-0.0336700336700336	0.148148148148148	0.181818181818182
-3	-0.0267676767676767	-0.0154882154882154	0.148148148148148	0.163636363636364
1	0.455555555555555	0.35042735042735	0.35042735042735	0
1	0.3	0.242424242424242	0.333333333333333	0.0909090909090909
-4	-0.0242424242424242	0.0151515151515151	0.333333333333333	0.318181818181818
-3	-0.0267676767676767	-0.0154882154882154	0.148148148148148	0.163636363636364
-2	-0.0888888888888889	-0.0423280423280423	0.148148148148148	0.190476190476191
-4	-0.0646464646464647	-0.0336700336700337	0.148148148148148	0.181818181818182
-1	0.0944444444444445	0.0712250712250713	0.148148148148148	0.0769230769230769
0	0.0868686868686869	0.0648148148148149	0.148148148148148	0.0833333333333333
-3	0.213131313131313	0.168609168609168	0.35042735042735	0.181818181818182
-3	-0.0515151515151515	-0.0389610389610389	0.0909090909090909	0.12987012987013
-3	-0.0515151515151516	-0.038961038961039	0.0909090909090909	0.12987012987013
-2	0.248484848484848	0.203463203463203	0.333333333333333	0.12987012987013
-6	0.127272727272727	0.151515151515152	0.333333333333333	0.181818181818182
-1	0.00909090909090908	0.00757575757575756	0.0909090909090909	0.0833333333333333
-1	-0.0777777777777778	-0.0572390572390573	0.0909090909090909	0.148148148148148
-1	0.316666666666667	0.256410256410256	0.333333333333333	0.0769230769230769
-2	-0.0404040404040404	-0.0232804232804232	0.148148148148148	0.171428571428571
0	0.0868686868686869	0.0648148148148149	0.148148148148148	0.0833333333333333
-1	0.0944444444444445	0.0712250712250713	0.148148148148148	0.0769230769230769
-3	-0.0267676767676767	-0.0154882154882154	0.148148148148148	0.163636363636364
-5	-0.0393939393939394	-0.00233100233100231	0.17948717948718	0.181818181818182
-5	-0.269191919191919	-0.167359873242226	0.148148148148148	0.315508021390374
0	0	0	0.0909090909090909	0.0909090909090909
-5	0.134848484848485	0.146167557932264	0.333333333333333	0.18716577540107
-1	0.0944444444444445	0.0712250712250713	0.148148148148148	0.0769230769230769
-6	-0.165151515151515	-0.0962566844919786	0.0909090909090909	0.18716577540107
-2	0.248484848484849	0.203463203463204	0.333333333333333	0.12987012987013
-5	0.134848484848485	0.146167557932264	0.333333333333333	0.18716577540107
-1	0.236363636363636	0.194871794871795	0.333333333333333	0.138461538461538
-6	-0.0545454545454545	0.0303030303030303	0.333333333333333	0.303030303030303
-3	-0.0267676767676767	-0.0154882154882154	0.148148148148148	0.163636363636364
-1	0.0141414141414141	0.00968660968660973	0.148148148148148	0.138461538461538
-2	0.0262626262626263	0.0182780182780183	0.148148148148148	0.12987012987013
-3	-0.0515151515151515	-0.038961038961039	0.0909090909090909	0.12987012987013
2	0.4	0.333333333333333	0.333333333333333	0
-4	-0.0727272727272726	0.00833333333333341	0.333333333333333	0.325
-2	0.0262626262626263	0.0182780182780184	0.148148148148148	0.12987012987013
-7	-0.269191919191919	-0.134148502569555	0.148148148148148	0.282296650717703
0	0.0868686868686869	0.0648148148148149	0.148148148148148	0.0833333333333333
-1	0.236363636363636	0.194871794871795	0.333333333333333	0.138461538461538
0	0.1	0.0909090909090909	0.0909090909090909	0
2	0.0666666666666667	0.0481481481481482	0.148148148148148	0.1
-1	0.0141414141414141	0.00968660968660967	0.148148148148148	0.138461538461539
2	0.4	0.333333333333333	0.333333333333333	0
-3	-0.0515151515151516	-0.038961038961039	0.0909090909090909	0.12987012987013
-5	-0.0873737373737373	-0.0390176272529213	0.148148148148148	0.18716577540107
-3	-0.118181818181818	-0.0805194805194805	0.0909090909090909	0.171428571428571
0	0.309090909090909	0.25	0.333333333333333	0.0833333333333333
-4	0.182828282828283	0.173956762192056	0.35042735042735	0.176470588235294
-1	0.236363636363636	0.194871794871795	0.333333333333333	0.138461538461538
-1	0.0818181818181818	0.0496170496170496	0.17948717948718	0.12987012987013
1	0.0777777777777778	0.0572390572390573	0.148148148148148	0.0909090909090909
1	0.1	0.0909090909090909	0.0909090909090909	0
-1	0.0141414141414142	0.00968660968660973	0.148148148148148	0.138461538461538
0	0.1	0.0909090909090909	0.0909090909090909	0
-2	-0.0636363636363636	-0.0475524475524475	0.0909090909090909	0.138461538461538
2	0.1	0.0909090909090909	0.0909090909090909	0
-2	0.0166666666666667	0.013986013986014	0.0909090909090909	0.0769230769230769
2	0.177777777777778	0.148148148148148	0.148148148148148	0
-8	-0.165151515151515	-0.076555023923445	0.0909090909090909	0.167464114832536
-5	-0.142424242424242	-0.090909090909091	0.0909090909090909	0.181818181818182
-3	-0.118181818181818	-0.0805194805194805	0.0909090909090909	0.171428571428571
0	0.4	0.333333333333333	0.333333333333333	0
-6	-0.0949494949494949	-0.0336700336700336	0.148148148148148	0.181818181818182
-3	-0.0515151515151516	-0.038961038961039	0.0909090909090909	0.12987012987013
-6	-0.254545454545455	-0.0666666666666666	0.333333333333333	0.4
-4	0.157575757575758	0.151515151515152	0.333333333333333	0.181818181818182
-2	-0.0636363636363636	-0.0475524475524475	0.0909090909090909	0.138461538461538
0	0	0	0.0909090909090909	0.0909090909090909
-2	0.246464646464646	0.167388167388167	0.349206349206349	0.181818181818182
-6	-0.0545454545454545	0.0303030303030303	0.333333333333333	0.303030303030303
-2	0.248484848484848	0.203463203463203	0.333333333333333	0.12987012987013
-1	0.00909090909090908	0.00757575757575756	0.0909090909090909	0.0833333333333333
-1	0.00909090909090908	0.00757575757575756	0.0909090909090909	0.0833333333333333
-4	-0.0646464646464647	-0.0336700336700337	0.148148148148148	0.181818181818182
-2	0.0262626262626263	0.0182780182780183	0.148148148148148	0.12987012987013
-2	0.181818181818182	0.161904761904762	0.333333333333333	0.171428571428571
-4	-0.104545454545455	-0.0727272727272727	0.0909090909090909	0.163636363636364
-2	0.0166666666666667	0.013986013986014	0.0909090909090909	0.0769230769230769
-6	-0.346969696969697	-0.224598930481283	0.0909090909090909	0.315508021390374
1	0.3	0.242424242424242	0.333333333333333	0.0909090909090909
-5	-0.142424242424242	-0.090909090909091	0.0909090909090909	0.181818181818182
-1	0.0944444444444445	0.0712250712250713	0.148148148148148	0.0769230769230769
-6	-0.276767676767677	-0.154882154882155	0.148148148148148	0.303030303030303
0	0.1	0.0909090909090909	0.0909090909090909	0
-3	-0.0515151515151516	-0.038961038961039	0.0909090909090909	0.12987012987013
-3	-0.0515151515151516	-0.038961038961039	0.0909090909090909	0.12987012987013
0	0.4	0.333333333333333	0.333333333333333	0
0	0.0868686868686869	0.0648148148148149	0.148148148148148	0.0833333333333333
-1	0.0141414141414142	0.00968660968660975	0.148148148148148	0.138461538461538
1	0.0777777777777778	0.0572390572390573	0.148148148148148	0.0909090909090909
1	0.4	0.333333333333333	0.333333333333333	0
-2	0.0262626262626263	0.0182780182780184	0.148148148148148	0.12987012987013
0	0.0868686868686869	0.0648148148148149	0.148148148148148	0.0833333333333333
0	0.1	0.0909090909090909	0.0909090909090909	0
-1	0.0141414141414141	0.00968660968660967	0.148148148148148	0.138461538461539
-1	0.0818181818181818	0.0496170496170496	0.17948717948718	0.12987012987013
-6	-0.0949494949494949	-0.0336700336700336	0.148148148148148	0.181818181818182
1	-0.0111111111111112	-0.00909090909090914	0.0909090909090909	0.1
-5	-0.0873737373737373	-0.0390176272529213	0.148148148148148	0.18716577540107
-3	-0.0267676767676767	-0.0154882154882154	0.148148148148148	0.163636363636364
-2	-0.0636363636363636	-0.0475524475524475	0.0909090909090909	0.138461538461538
2	0.4	0.333333333333333	0.333333333333333	0
-4	-0.104545454545455	-0.0727272727272727	0.0909090909090909	0.163636363636364
-2	0.0166666666666667	0.013986013986014	0.0909090909090909	0.0769230769230769
-2	0.0166666666666667	0.013986013986014	0.0909090909090909	0.0769230769230769
1	0.1	0.0909090909090909	0.0909090909090909	0
-2	0.0166666666666667	0.013986013986014	0.0909090909090909	0.0769230769230769
-2	0.0166666666666667	0.013986013986014	0.0909090909090909	0.0769230769230769
-3	0.145454545454545	0.146666666666667	0.333333333333333	0.186666666666667
-3	-0.0545454545454546	0	0.333333333333333	0.333333333333333
-1	-0.0555555555555555	-0.0313390313390313	0.148148148148148	0.17948717948718
-3	-0.00909090909090912	-0.00233100233100236	0.17948717948718	0.181818181818182
-3	-0.118181818181818	-0.0805194805194805	0.0909090909090909	0.171428571428571
-2	0.0166666666666667	0.013986013986014	0.0909090909090909	0.0769230769230769
-2	-0.0636363636363636	-0.0475524475524475	0.0909090909090909	0.138461538461538
-4	-0.154545454545455	-0.0957575757575758	0.0909090909090909	0.186666666666667
1	0.4	0.333333333333333	0.333333333333333	0
-3	-0.00909090909090915	-0.00233100233100239	0.17948717948718	0.181818181818182
-4	-0.294949494949495	-0.176851851851852	0.148148148148148	0.325
-4	-0.104545454545455	-0.0727272727272727	0.0909090909090909	0.163636363636364
-3	-0.276767676767677	-0.185185185185185	0.148148148148148	0.333333333333333
-4	-0.246464646464646	-0.17003367003367	0.148148148148148	0.318181818181818
-1	0.0141414141414141	0.00968660968660973	0.148148148148148	0.138461538461538
0	0.0868686868686869	0.0648148148148149	0.148148148148148	0.0833333333333333
-3	-0.118181818181818	-0.0805194805194805	0.0909090909090909	0.171428571428571
-4	0.157575757575758	0.151515151515151	0.333333333333333	0.181818181818182
-4	-0.0242424242424242	0.0151515151515151	0.333333333333333	0.318181818181818
-4	0.19040404040404	0.163261575026281	0.35042735042735	0.18716577540107
-2	0.248484848484849	0.203463203463204	0.333333333333333	0.12987012987013
-6	-0.528787878787879	-0.352941176470588	0.0909090909090909	0.443850267379679
-2	-0.0404040404040404	-0.0232804232804232	0.148148148148148	0.171428571428571
0	0	0	0.0909090909090909	0.0909090909090909
-5	-0.142424242424243	-0.090909090909091	0.0909090909090909	0.181818181818182
-2	0.0262626262626263	0.0182780182780183	0.148148148148148	0.12987012987013
-1	0.00909090909090909	0.00757575757575757	0.0909090909090909	0.0833333333333333
-2	0.251010101010101	0.186790986790987	0.35042735042735	0.163636363636364
-2	0.216161616161616	0.161706349206349	0.349206349206349	0.1875
0	0.0696969696969697	0.041025641025641	0.17948717948718	0.138461538461538
-8	-0.0646464646464646	0.00269360269360272	0.148148148148148	0.145454545454545
-2	0.246464646464647	0.167388167388168	0.349206349206349	0.181818181818182
0	0.1	0.0909090909090909	0.0909090909090909	0
-3	-0.0515151515151515	-0.0389610389610389	0.0909090909090909	0.12987012987013
-4	-0.0646464646464647	-0.0336700336700337	0.148148148148148	0.181818181818182
-1	0.236363636363636	0.194871794871795	0.333333333333333	0.138461538461538
1	0.4	0.333333333333333	0.333333333333333	0
-4	-0.104545454545455	-0.0727272727272727	0.0909090909090909	0.163636363636364
0	0	0	0.0909090909090909	0.0909090909090909
0	0.0696969696969696	0.041025641025641	0.17948717948718	0.138461538461539
-6	-0.346969696969697	-0.224598930481283	0.0909090909090909	0.315508021390374
-1	0.00909090909090908	0.00757575757575756	0.0909090909090909	0.0833333333333333
-1	0.236363636363636	0.194871794871795	0.333333333333333	0.138461538461538
-2	-0.0636363636363636	-0.0475524475524475	0.0909090909090909	0.138461538461538
1	0.364646464646465	0.267094017094017	0.35042735042735	0.0833333333333333
0	-0.222222222222222	-0.170940170940171	0.17948717948718	0.35042735042735
0	0	0	0.0909090909090909	0.0909090909090909
1	0.177777777777778	0.148148148148148	0.148148148148148	0
-2	-0.0404040404040404	-0.0232804232804232	0.148148148148148	0.171428571428571
-2	0.0166666666666667	0.013986013986014	0.0909090909090909	0.0769230769230769
2	0.0666666666666667	0.0481481481481482	0.148148148148148	0.1
0	0.0868686868686869	0.0648148148148149	0.148148148148148	0.0833333333333333
-1	0.00909090909090908	0.00757575757575756	0.0909090909090909	0.0833333333333333
0	0.1	0.0909090909090909	0.0909090909090909	0
2	0.4	0.333333333333333	0.333333333333333	0
-3	-0.0515151515151516	-0.038961038961039	0.0909090909090909	0.12987012987013
-5	-0.0873737373737373	-0.0390176272529213	0.148148148148148	0.18716577540107
1	0.1	0.0909090909090909	0.0909090909090909	0
-5	0.182828282828283	0.168609168609169	0.35042735042735	0.181818181818182
-1	0.00909090909090908	0.00757575757575756	0.0909090909090909	0.0833333333333333
-5	0.134848484848485	0.146167557932264	0.333333333333333	0.18716577540107
-2	0.181818181818182	0.161904761904762	0.333333333333333	0.171428571428571
-1	0.00909090909090909	0.00757575757575757	0.0909090909090909	0.0833333333333333
-3	-0.0267676767676767	-0.0154882154882154	0.148148148148148	0.163636363636364
0	0	0	0.0909090909090909	0.0909090909090909
-1	0.00909090909090908	0.00757575757575756	0.0909090909090909	0.0833333333333333
-3	-0.0515151515151515	-0.038961038961039	0.0909090909090909	0.12987012987013
-3	0.195454545454545	0.16969696969697	0.333333333333333	0.163636363636364
-2	0.248484848484848	0.203463203463203	0.333333333333333	0.12987012987013
-1	0.0141414141414141	0.00968660968660967	0.148148148148148	0.138461538461539
-3	-0.0267676767676767	-0.0154882154882154	0.148148148148148	0.163636363636364
0	0.1	0.0909090909090909	0.0909090909090909	0
-1	0.00909090909090909	0.00757575757575757	0.0909090909090909	0.0833333333333333
-3	-0.00909090909090915	-0.00233100233100239	0.17948717948718	0.181818181818182
-3	-0.0515151515151516	-0.038961038961039	0.0909090909090909	0.12987012987013
1	0.1	0.0909090909090909	0.0909090909090909	0
-4	-0.0646464646464646	-0.0336700336700337	0.148148148148148	0.181818181818182
-3	0.0161616161616163	0.0433239962651728	0.349206349206349	0.305882352941176
-3	-0.0767676767676767	-0.0385185185185185	0.148148148148148	0.186666666666667
-5	-0.0873737373737373	-0.0390176272529213	0.148148148148148	0.18716577540107
-1	0.00909090909090909	0.00757575757575757	0.0909090909090909	0.0833333333333333
0	0.1	0.0909090909090909	0.0909090909090909	0
-3	-0.0515151515151516	-0.038961038961039	0.0909090909090909	0.12987012987013
0	-2.77555756156289e-17	0	0.148148148148148	0.148148148148148
-5	-0.0393939393939394	-0.00233100233100231	0.17948717948718	0.181818181818182
-1	0.236363636363636	0.194871794871795	0.333333333333333	0.138461538461538
-1	0.1	0.0909090909090909	0.0909090909090909	0
-1	0.00909090909090908	0.00757575757575756	0.0909090909090909	0.0833333333333333
-3	-0.0767676767676767	-0.0385185185185185	0.148148148148148	0.186666666666667
-2	0.0262626262626263	0.0182780182780184	0.148148148148148	0.12987012987013
0	-1.38777878078145e-17	-1.38777878078145e-17	0.0909090909090909	0.0909090909090909
-4	-0.104545454545455	-0.0727272727272727	0.0909090909090909	0.163636363636364
-3	-0.118181818181818	-0.0805194805194805	0.0909090909090909	0.171428571428571
-2	0.181818181818182	0.161904761904762	0.333333333333333	0.171428571428571
-1	-0.0777777777777778	-0.0572390572390573	0.0909090909090909	0.148148148148148
-3	0.195454545454545	0.16969696969697	0.333333333333333	0.163636363636364
-2	0.0262626262626262	0.0182780182780183	0.148148148148148	0.12987012987013
-2	0.248484848484848	0.203463203463203	0.333333333333333	0.12987012987013
-1	-0.184848484848485	-0.149084249084249	0.17948717948718	0.328571428571429
-6	-0.213636363636364	-0.102809471230524	0.17948717948718	0.282296650717703
-2	0.248484848484849	0.203463203463204	0.333333333333333	0.12987012987013
-2	0.0166666666666667	0.013986013986014	0.0909090909090909	0.0769230769230769
-3	-0.0515151515151515	-0.038961038961039	0.0909090909090909	0.12987012987013
-3	-0.0515151515151515	-0.0389610389610389	0.0909090909090909	0.12987012987013
-4	-0.0646464646464647	-0.0336700336700337	0.148148148148148	0.181818181818182
-2	-0.0636363636363636	-0.0475524475524475	0.0909090909090909	0.138461538461538
-5	-0.0873737373737373	-0.0390176272529213	0.148148148148148	0.18716577540107
-4	-0.0646464646464646	-0.0336700336700337	0.148148148148148	0.181818181818182
0	0.267676767676768	0.148148148148148	0.481481481481481	0.333333333333333
-1	0.00909090909090909	0.00757575757575757	0.0909090909090909	0.0833333333333333
-2	0.0262626262626262	0.0182780182780183	0.148148148148148	0.12987012987013
0	0.15	0.102564102564103	0.17948717948718	0.0769230769230769
-2	0.133333333333333	0.142857142857143	0.333333333333333	0.190476190476191
-4	-0.354545454545455	-0.242424242424242	0.0909090909090909	0.333333333333333
-3	-0.233333333333333	-0.194805194805195	0.0909090909090909	0.285714285714286
-3	0.213131313131313	0.168609168609168	0.35042735042735	0.181818181818182
-2	-0.0636363636363636	-0.0475524475524475	0.0909090909090909	0.138461538461538
-3	-0.118181818181818	-0.0805194805194805	0.0909090909090909	0.171428571428571
-2	0.248484848484848	0.203463203463203	0.333333333333333	0.12987012987013
-6	-0.0545454545454545	0.0303030303030303	0.333333333333333	0.303030303030303
2	0.133333333333333	0.0885780885780886	0.17948717948718	0.0909090909090909
0	0.309090909090909	0.25	0.333333333333333	0.0833333333333333
-1	0.00909090909090908	0.00757575757575756	0.0909090909090909	0.0833333333333333
-2	0.0166666666666667	0.013986013986014	0.0909090909090909	0.0769230769230769
-1	0.00909090909090908	0.00757575757575756	0.0909090909090909	0.0833333333333333
-3	-0.0515151515151516	-0.038961038961039	0.0909090909090909	0.12987012987013
-2	0.0166666666666667	0.013986013986014	0.0909090909090909	0.0769230769230769
-5	-0.0873737373737373	-0.0390176272529213	0.148148148148148	0.18716577540107
0	0.0868686868686869	0.0648148148148149	0.148148148148148	0.0833333333333333
-1	0.00909090909090908	0.00757575757575756	0.0909090909090909	0.0833333333333333
-1	0.00909090909090908	0.00757575757575756	0.0909090909090909	0.0833333333333333
-1	0.1	0.0909090909090909	0.0909090909090909	0
-4	0.157575757575758	0.151515151515152	0.333333333333333	0.181818181818182
2	0.4	0.333333333333333	0.333333333333333	0
-1	0.0944444444444445	0.0712250712250713	0.148148148148148	0.0769230769230769
-3	0.195454545454545	0.16969696969697	0.333333333333333	0.163636363636364
-1	0.236363636363636	0.194871794871795	0.333333333333333	0.138461538461539
-2	-0.0636363636363637	-0.0475524475524476	0.0909090909090909	0.138461538461538
-1	0.304040404040404	0.22055722055722	0.35042735042735	0.12987012987013
-2	0.0262626262626262	0.0182780182780183	0.148148148148148	0.12987012987013
1	0.325252525252525	0.210744810744811	0.349206349206349	0.138461538461538
-2	0.246464646464647	0.167388167388168	0.349206349206349	0.181818181818182
-2	0.181818181818182	0.161904761904762	0.333333333333333	0.171428571428571
-3	0.213131313131313	0.168609168609168	0.35042735042735	0.181818181818182
-1	0.1	0.0909090909090909	0.0909090909090909	0
-1	0.0944444444444445	0.0712250712250713	0.148148148148148	0.0769230769230769
-4	-0.294949494949495	-0.176851851851852	0.148148148148148	0.325
-1	0.316666666666667	0.256410256410256	0.333333333333333	0.0769230769230769
-2	0.251010101010101	0.186790986790987	0.35042735042735	0.163636363636364
0	0.1	0.0909090909090909	0.0909090909090909	0
1	0.1	0.0909090909090909	0.0909090909090909	0
-1	-0.0777777777777778	-0.0572390572390573	0.0909090909090909	0.148148148148148
-7	-0.0873737373737373	-0.0193159666843877	0.148148148148148	0.167464114832536
-1	0.0944444444444445	0.0712250712250713	0.148148148148148	0.0769230769230769
0	0.0868686868686869	0.0648148148148149	0.148148148148148	0.0833333333333333
0	0	0	0.0909090909090909	0.0909090909090909
-3	-0.276767676767677	-0.185185185185185	0.148148148148148	0.333333333333333
-1	0.0944444444444445	0.0712250712250713	0.148148148148148	0.0769230769230769
-4	-0.0646464646464647	-0.0336700336700337	0.148148148148148	0.181818181818182
-2	-0.24040404040404	-0.18042328042328	0.148148148148148	0.328571428571429
1	0.1	0.0909090909090909	0.0909090909090909	0
-2	0.00101010101010102	0.017094017094017	0.35042735042735	0.333333333333333
-1	0.00909090909090908	0.00757575757575756	0.0909090909090909	0.0833333333333333
-3	-0.0515151515151515	-0.0389610389610389	0.0909090909090909	0.12987012987013
0	0.309090909090909	0.25	0.333333333333333	0.0833333333333333
-2	0.181818181818182	0.161904761904762	0.333333333333333	0.171428571428571
1	0.3	0.242424242424242	0.333333333333333	0.0909090909090909
2	0.455555555555555	0.35042735042735	0.35042735042735	0
-7	-0.451010101010101	-0.248981038454723	0.148148148148148	0.397129186602871
-2	0.248484848484849	0.203463203463204	0.333333333333333	0.12987012987013
-5	-0.142424242424242	-0.090909090909091	0.0909090909090909	0.181818181818182
-4	-0.104545454545455	-0.0727272727272727	0.0909090909090909	0.163636363636364
-1	0.236363636363636	0.194871794871795	0.333333333333333	0.138461538461538
0	0.222222222222222	0.185185185185185	0.333333333333333	0.148148148148148
-1	-0.0777777777777778	-0.0572390572390573	0.0909090909090909	0.148148148148148
0	0.0868686868686869	0.0648148148148149	0.148148148148148	0.0833333333333333
-1	0.0141414141414142	0.00968660968660975	0.148148148148148	0.138461538461538
-3	-0.0515151515151516	-0.038961038961039	0.0909090909090909	0.12987012987013
-4	-0.0242424242424242	0.0151515151515151	0.333333333333333	0.318181818181818
-2	0.251010101010101	0.186790986790987	0.35042735042735	0.163636363636364
-2	0.0166666666666667	0.013986013986014	0.0909090909090909	0.0769230769230769
0	0	0	0.0909090909090909	0.0909090909090909
-1	0.00909090909090909	0.00757575757575757	0.0909090909090909	0.0833333333333333
0	0.222222222222222	0.185185185185185	0.333333333333333	0.148148148148148
-3	0.195454545454545	0.16969696969697	0.333333333333333	0.163636363636364
-3	-0.0767676767676767	-0.0385185185185185	0.148148148148148	0.186666666666667
-3	0.195454545454545	0.16969696969697	0.333333333333333	0.163636363636364
-1	0.0944444444444445	0.0712250712250713	0.148148148148148	0.0769230769230769
-2	0.133333333333333	0.142857142857143	0.333333333333333	0.190476190476191
-1	0.1	0.0909090909090909	0.0909090909090909	0
-4	-0.0646464646464646	-0.0336700336700337	0.148148148148148	0.181818181818182
-1	0.00909090909090908	0.00757575757575756	0.0909090909090909	0.0833333333333333
-5	-0.269191919191919	-0.167359873242226	0.148148148148148	0.315508021390374
-2	-0.0636363636363636	-0.0475524475524475	0.0909090909090909	0.138461538461538
-2	-0.0404040404040403	-0.0232804232804232	0.148148148148148	0.171428571428571
1	0.0555555555555555	0.0313390313390313	0.17948717948718	0.148148148148148
-2	0.248484848484849	0.203463203463204	0.333333333333333	0.12987012987013
-1	0.00909090909090909	0.00757575757575757	0.0909090909090909	0.0833333333333333
-5	-0.0873737373737373	-0.0390176272529213	0.148148148148148	0.18716577540107
-2	0.248484848484848	0.203463203463203	0.333333333333333	0.12987012987013
-2	0.248484848484849	0.203463203463204	0.333333333333333	0.12987012987013
-6	-0.0767676767676768	-0.00740740740740736	0.148148148148148	0.155555555555556
-2	0.248484848484848	0.203463203463203	0.333333333333333	0.12987012987013
-2	-0.0636363636363637	-0.0475524475524476	0.0909090909090909	0.138461538461538
1	0.1	0.0909090909090909	0.0909090909090909	0
-4	-0.0727272727272726	0.00833333333333341	0.333333333333333	0.325
-1	0.0944444444444445	0.0712250712250713	0.148148148148148	0.0769230769230769
-1	-0.0777777777777778	-0.0572390572390573	0.0909090909090909	0.148148148148148
2	0.355555555555556	0.259518259518259	0.35042735042735	0.0909090909090909
2	0.177777777777778	0.148148148148148	0.148148148148148	0
-5	-0.0469696969696968	0.0178253119429592	0.333333333333333	0.315508021390374
0	0.222222222222222	0.185185185185185	0.333333333333333	0.148148148148148
-2	-0.0636363636363637	-0.0475524475524476	0.0909090909090909	0.138461538461538
1	0.0777777777777778	0.0572390572390573	0.148148148148148	0.0909090909090909
-6	0.127272727272727	0.151515151515152	0.333333333333333	0.181818181818182
-5	-0.142424242424242	-0.090909090909091	0.0909090909090909	0.181818181818182
-8	-0.165151515151515	-0.076555023923445	0.0909090909090909	0.167464114832536
-3	-0.0515151515151515	-0.038961038961039	0.0909090909090909	0.12987012987013
1	-0.166666666666667	-0.153846153846154	0.17948717948718	0.333333333333333
-2	0.248484848484848	0.203463203463203	0.333333333333333	0.12987012987013
-1	0.00909090909090909	0.00757575757575757	0.0909090909090909	0.0833333333333333
-5	-0.172727272727273	-0.0965909090909091	0.0909090909090909	0.1875
-5	0.134848484848485	0.146167557932264	0.333333333333333	0.18716577540107
-1	0.236363636363636	0.194871794871795	0.333333333333333	0.138461538461538
-3	-0.00909090909090915	-0.00233100233100239	0.17948717948718	0.181818181818182
-1	0.00909090909090908	0.00757575757575756	0.0909090909090909	0.0833333333333333
0	0	0	0.0909090909090909	0.0909090909090909
-2	0.0262626262626263	0.0182780182780184	0.148148148148148	0.12987012987013
-6	-0.346969696969697	-0.224598930481283	0.0909090909090909	0.315508021390374
-1	0.00909090909090909	0.00757575757575757	0.0909090909090909	0.0833333333333333
-3	-0.0515151515151516	-0.038961038961039	0.0909090909090909	0.12987012987013
0	0	0	0.0909090909090909	0.0909090909090909
-5	-0.142424242424242	-0.090909090909091	0.0909090909090909	0.181818181818182
-3	-0.239393939393939	-0.145512820512821	0.17948717948718	0.325
0	0.309090909090909	0.25	0.333333333333333	0.0833333333333333
1	0.0777777777777778	0.0572390572390573	0.148148148148148	0.0909090909090909
-1	0.316666666666667	0.256410256410256	0.333333333333333	0.0769230769230769
-2	0.0166666666666667	0.013986013986014	0.0909090909090909	0.0769230769230769
-3	0.213131313131313	0.168609168609168	0.35042735042735	0.181818181818182
-3	0.195454545454545	0.16969696969697	0.333333333333333	0.163636363636364
-2	0.0166666666666667	0.013986013986014	0.0909090909090909	0.0769230769230769
-5	0.182828282828283	0.168609168609169	0.35042735042735	0.181818181818182
-3	-0.0267676767676767	-0.0154882154882154	0.148148148148148	0.163636363636364
-4	-0.0646464646464647	-0.0336700336700337	0.148148148148148	0.181818181818182
-1	0.1	0.0909090909090909	0.0909090909090909	0
-3	-0.118181818181818	-0.0805194805194805	0.0909090909090909	0.171428571428571
3	0.177777777777778	0.148148148148148	0.148148148148148	0
0	0.1	0.0909090909090909	0.0909090909090909	0
-1	0.00909090909090908	0.00757575757575756	0.0909090909090909	0.0833333333333333
0	0.1	0.0909090909090909	0.0909090909090909	0
0	0	0	0.148148148148148	0.148148148148148
1	0.177777777777778	0.148148148148148	0.148148148148148	0
-4	-0.0949494949494949	-0.0393518518518518	0.148148148148148	0.1875
-5	-0.324242424242424	-0.227272727272727	0.0909090909090909	0.318181818181818
-2	-0.0404040404040404	-0.0232804232804232	0.148148148148148	0.171428571428571
0	0.1	0.0909090909090909	0.0909090909090909	0
0	0.1	0.0909090909090909	0.0909090909090909	0
-5	-0.142424242424242	-0.090909090909091	0.0909090909090909	0.181818181818182
1	0.0777777777777778	0.0572390572390573	0.148148148148148	0.0909090909090909
0	0.309090909090909	0.25	0.333333333333333	0.0833333333333333
-6	-0.165151515151515	-0.0962566844919786	0.0909090909090909	0.18716577540107
-5	-0.269191919191919	-0.167359873242226	0.148148148148148	0.315508021390374
1	0.3	0.242424242424242	0.333333333333333	0.0909090909090909
0	0.1	0.0909090909090909	0.0909090909090909	0
-4	-0.0646464646464646	-0.0336700336700337	0.148148148148148	0.181818181818182
-5	0.00101010101010096	0.0473970473970473	0.35042735042735	0.303030303030303
-1	0.316666666666667	0.256410256410256	0.333333333333333	0.0769230769230769
-2	0.0166666666666667	0.013986013986014	0.0909090909090909	0.0769230769230769
-1	-0.0777777777777778	-0.0572390572390573	0.0909090909090909	0.148148148148148
-1	0.00909090909090909	0.00757575757575757	0.0909090909090909	0.0833333333333333
-4	-0.104545454545455	-0.0727272727272727	0.0909090909090909	0.163636363636364
-3	-0.276767676767677	-0.185185185185185	0.148148148148148	0.333333333333333
-5	-0.142424242424243	-0.090909090909091	0.0909090909090909	0.181818181818182
-1	0.00909090909090908	0.00757575757575756	0.0909090909090909	0.0833333333333333
0	0.1	0.0909090909090909	0.0909090909090909	0
-1	0.00909090909090908	0.00757575757575756	0.0909090909090909	0.0833333333333333
-7	-0.190909090909091	-0.0750582750582751	0.17948717948718	0.254545454545455
-5	0.134848484848485	0.146167557932264	0.333333333333333	0.18716577540107
0	0.0868686868686869	0.0648148148148149	0.148148148148148	0.0833333333333333
-1	0.0141414141414142	0.00968660968660975	0.148148148148148	0.138461538461538
-4	0.157575757575758	0.151515151515152	0.333333333333333	0.181818181818182
0	0.0868686868686869	0.0648148148148149	0.148148148148148	0.0833333333333333
-1	0.0944444444444445	0.0712250712250713	0.148148148148148	0.0769230769230769
-1	0.00909090909090908	0.00757575757575756	0.0909090909090909	0.0833333333333333
-4	-0.246464646464646	-0.17003367003367	0.148148148148148	0.318181818181818
-3	-0.0515151515151516	-0.038961038961039	0.0909090909090909	0.12987012987013
-2	-0.0636363636363636	-0.0475524475524475	0.0909090909090909	0.138461538461538
-1	0.00909090909090909	0.00757575757575757	0.0909090909090909	0.0833333333333333
-2	0.251010101010101	0.186790986790987	0.35042735042735	0.163636363636364
-2	-0.0636363636363636	-0.0475524475524475	0.0909090909090909	0.138461538461538
-2	0.0166666666666667	0.013986013986014	0.0909090909090909	0.0769230769230769
-1	0.316666666666667	0.256410256410256	0.333333333333333	0.0769230769230769
-1	0.316666666666667	0.256410256410256	0.333333333333333	0.0769230769230769
-1	0.316666666666667	0.256410256410256	0.333333333333333	0.0769230769230769
0	0.1	0.0909090909090909	0.0909090909090909	0
-2	0.0166666666666667	0.013986013986014	0.0909090909090909	0.0769230769230769
-1	0.00909090909090908	0.00757575757575756	0.0909090909090909	0.0833333333333333
2	0.177777777777778	0.148148148148148	0.148148148148148	0
-2	-0.0636363636363636	-0.0475524475524475	0.0909090909090909	0.138461538461538
-1	0.00909090909090908	0.00757575757575756	0.0909090909090909	0.0833333333333333
-3	-0.0515151515151515	-0.0389610389610389	0.0909090909090909	0.12987012987013
-2	0.0262626262626263	0.0182780182780183	0.148148148148148	0.12987012987013
-1	0.0141414141414142	0.00968660968660975	0.148148148148148	0.138461538461538
-1	0.0141414141414142	0.00968660968660975	0.148148148148148	0.138461538461538
-2	0.0166666666666667	0.013986013986014	0.0909090909090909	0.0769230769230769
-1	0.00909090909090908	0.00757575757575756	0.0909090909090909	0.0833333333333333
-4	-0.104545454545455	-0.0727272727272727	0.0909090909090909	0.163636363636364
-4	-0.104545454545455	-0.0727272727272727	0.0909090909090909	0.163636363636364
-1	0.236363636363636	0.194871794871795	0.333333333333333	0.138461538461539
-6	-0.276767676767677	-0.154882154882155	0.148148148148148	0.303030303030303
-1	0.00909090909090909	0.00757575757575757	0.0909090909090909	0.0833333333333333
0	0.222222222222222	0.185185185185185	0.333333333333333	0.148148148148148
-1	-0.0777777777777778	-0.0572390572390573	0.0909090909090909	0.148148148148148
0	0.177777777777778	0.148148148148148	0.148148148148148	0
-3	-0.0515151515151516	-0.038961038961039	0.0909090909090909	0.12987012987013
0	0.1	0.0909090909090909	0.0909090909090909	0
-2	-0.0636363636363637	-0.0475524475524476	0.0909090909090909	0.138461538461538
-3	-0.276767676767677	-0.185185185185185	0.148148148148148	0.333333333333333
-1	0.316666666666667	0.256410256410256	0.333333333333333	0.0769230769230769
1	0.3	0.242424242424242	0.333333333333333	0.0909090909090909
-1	0.236363636363636	0.194871794871795	0.333333333333333	0.138461538461538
-6	-0.0545454545454545	0.0303030303030303	0.333333333333333	0.303030303030303
-2	0.0262626262626263	0.0182780182780183	0.148148148148148	0.12987012987013
-1	0.00909090909090909	0.00757575757575757	0.0909090909090909	0.0833333333333333
0	0.0868686868686869	0.0648148148148149	0.148148148148148	0.0833333333333333
-4	-0.246464646464646	-0.17003367003367	0.148148148148148	0.318181818181818
-3	0.213131313131313	0.168609168609168	0.35042735042735	0.181818181818182
-6	-0.213636363636364	-0.102809471230524	0.17948717948718	0.282296650717703
-2	0.248484848484849	0.203463203463204	0.333333333333333	0.12987012987013
-3	0.182828282828283	0.16292735042735	0.35042735042735	0.1875
0	0.222222222222222	0.185185185185185	0.333333333333333	0.148148148148148
-2	0.0166666666666667	0.013986013986014	0.0909090909090909	0.0769230769230769
-3	-0.0267676767676767	-0.0154882154882154	0.148148148148148	0.163636363636364
-2	0.248484848484849	0.203463203463204	0.333333333333333	0.12987012987013
-4	-0.0646464646464647	-0.0336700336700337	0.148148148148148	0.181818181818182
-4	-0.154545454545455	-0.0957575757575758	0.0909090909090909	0.186666666666667
-6	-0.165151515151515	-0.0962566844919786	0.0909090909090909	0.18716577540107
0	0.0868686868686869	0.0648148148148149	0.148148148148148	0.0833333333333333
-5	-0.142424242424243	-0.090909090909091	0.0909090909090909	0.181818181818182
1	0.1	0.0909090909090909	0.0909090909090909	0
-6	-0.165151515151515	-0.0962566844919786	0.0909090909090909	0.18716577540107
-2	-0.0636363636363637	-0.0475524475524476	0.0909090909090909	0.138461538461538
-4	-0.154545454545455	-0.0957575757575758	0.0909090909090909	0.186666666666667
-3	0.0136363636363637	0.0242424242424243	0.333333333333333	0.309090909090909
-1	0.00909090909090908	0.00757575757575756	0.0909090909090909	0.0833333333333333
0	0.4	0.333333333333333	0.333333333333333	0
-3	0.195454545454545	0.16969696969697	0.333333333333333	0.163636363636364
-3	-0.0515151515151516	-0.038961038961039	0.0909090909090909	0.12987012987013
1	0.4	0.333333333333333	0.333333333333333	0
-2	-0.0404040404040403	-0.0232804232804232	0.148148148148148	0.171428571428571
-2	0.0166666666666667	0.013986013986014	0.0909090909090909	0.0769230769230769
-3	-0.118181818181818	-0.0805194805194805	0.0909090909090909	0.171428571428571
-2	-0.133333333333333	-0.0885780885780886	0.0909090909090909	0.17948717948718
0	0.0868686868686869	0.0648148148148149	0.148148148148148	0.0833333333333333
-2	-0.0636363636363636	-0.0475524475524475	0.0909090909090909	0.138461538461538
-5	-0.0873737373737373	-0.0390176272529213	0.148148148148148	0.18716577540107
-6	0.19040404040404	0.182963235594814	0.35042735042735	0.167464114832536
-1	0.237373737373737	0.178998778998779	0.35042735042735	0.171428571428571
-1	0.0944444444444445	0.0712250712250713	0.148148148148148	0.0769230769230769
0	0.309090909090909	0.25	0.333333333333333	0.0833333333333333
-2	0.0262626262626263	0.0182780182780184	0.148148148148148	0.12987012987013
-2	0.181818181818182	0.161904761904762	0.333333333333333	0.171428571428571
-1	0.236363636363636	0.194871794871795	0.333333333333333	0.138461538461539
-3	-0.190909090909091	-0.138694638694639	0.17948717948718	0.318181818181818
-1	-0.0777777777777778	-0.0572390572390573	0.0909090909090909	0.148148148148148
-1	0.316666666666667	0.256410256410256	0.333333333333333	0.0769230769230769
-3	-0.0515151515151516	-0.038961038961039	0.0909090909090909	0.12987012987013
0	0.0868686868686869	0.0648148148148149	0.148148148148148	0.0833333333333333
-2	0.0166666666666667	0.013986013986014	0.0909090909090909	0.0769230769230769
1	0.4	0.333333333333333	0.333333333333333	0
-2	-0.0636363636363637	-0.0475524475524476	0.0909090909090909	0.138461538461538
0	0.222222222222222	0.185185185185185	0.333333333333333	0.148148148148148
-3	0.195454545454545	0.16969696969697	0.333333333333333	0.163636363636364
0	0.309090909090909	0.25	0.333333333333333	0.0833333333333333
-2	-0.0636363636363636	-0.0475524475524475	0.0909090909090909	0.138461538461538
-1	0.0141414141414142	0.00968660968660975	0.148148148148148	0.138461538461538
-4	-0.104545454545455	-0.0727272727272727	0.0909090909090909	0.163636363636364
-3	-0.0515151515151516	-0.038961038961039	0.0909090909090909	0.12987012987013
-1	-0.0555555555555555	-0.0313390313390313	0.148148148148148	0.17948717948718
-3	-0.118181818181818	-0.0805194805194805	0.0909090909090909	0.171428571428571
-1	0.00909090909090908	0.00757575757575756	0.0909090909090909	0.0833333333333333
-2	0.181818181818182	0.161904761904762	0.333333333333333	0.171428571428571
-3	-0.118181818181818	-0.0805194805194805	0.0909090909090909	0.171428571428571
0	-1.38777878078145e-17	-1.38777878078145e-17	0.0909090909090909	0.0909090909090909
-2	0.248484848484848	0.203463203463203	0.333333333333333	0.12987012987013
-4	-0.0242424242424242	0.0151515151515152	0.333333333333333	0.318181818181818
1	0.177777777777778	0.148148148148148	0.148148148148148	0
1	0.4	0.333333333333333	0.333333333333333	0
-5	0.182828282828283	0.168609168609169	0.35042735042735	0.181818181818182
1	0.3	0.242424242424242	0.333333333333333	0.0909090909090909
-3	0.195454545454545	0.16969696969697	0.333333333333333	0.163636363636364
-2	0.0166666666666667	0.013986013986014	0.0909090909090909	0.0769230769230769
-2	-0.0404040404040404	-0.0232804232804232	0.148148148148148	0.171428571428571
-4	-0.246464646464646	-0.17003367003367	0.148148148148148	0.318181818181818
2	0.455555555555555	0.35042735042735	0.35042735042735	0
-5	0.00101010101010096	0.0473970473970473	0.35042735042735	0.303030303030303
-4	-0.0242424242424243	0.0151515151515151	0.333333333333333	0.318181818181818
0	0.0868686868686869	0.0648148148148149	0.148148148148148	0.0833333333333333
-1	0.00909090909090908	0.00757575757575756	0.0909090909090909	0.0833333333333333
-1	0.297979797979798	0.163299663299663	0.481481481481481	0.318181818181818
-3	0.195454545454545	0.16969696969697	0.333333333333333	0.163636363636364
-3	0.182828282828283	0.16292735042735	0.35042735042735	0.1875
-3	-0.00909090909090912	-0.00233100233100236	0.17948717948718	0.181818181818182
-5	0.134848484848485	0.146167557932264	0.333333333333333	0.18716577540107
-1	0.237373737373737	0.178998778998779	0.35042735042735	0.171428571428571
-2	0.181818181818182	0.161904761904762	0.333333333333333	0.171428571428571
-1	0.236363636363636	0.194871794871795	0.333333333333333	0.138461538461538
-1	0.0141414141414141	0.00968660968660967	0.148148148148148	0.138461538461539
-1	0.0944444444444445	0.0712250712250713	0.148148148148148	0.0769230769230769
-6	-0.165151515151515	-0.0962566844919786	0.0909090909090909	0.18716577540107
0	0.372222222222222	0.273504273504273	0.35042735042735	0.0769230769230769
-3	0.182828282828283	0.16292735042735	0.35042735042735	0.1875
-6	-0.165151515151515	-0.0962566844919786	0.0909090909090909	0.18716577540107
0	0.222222222222222	0.185185185185185	0.333333333333333	0.148148148148148
0	0.291919191919192	0.211965811965812	0.35042735042735	0.138461538461538
-1	0.0818181818181818	0.0496170496170497	0.17948717948718	0.12987012987013
-3	0.213131313131313	0.168609168609168	0.35042735042735	0.181818181818182
-3	-0.0515151515151515	-0.038961038961039	0.0909090909090909	0.12987012987013
-4	-0.0646464646464646	-0.0336700336700337	0.148148148148148	0.181818181818182
-2	-0.0636363636363636	-0.0475524475524475	0.0909090909090909	0.138461538461538
-2	0.0166666666666667	0.013986013986014	0.0909090909090909	0.0769230769230769
0	0.1	0.0909090909090909	0.0909090909090909	0
-5	-0.294949494949495	-0.157734204793028	0.148148148148148	0.305882352941176
-2	-0.0636363636363636	-0.0475524475524475	0.0909090909090909	0.138461538461538
-5	0.182828282828283	0.168609168609169	0.35042735042735	0.181818181818182
-2	0.0166666666666667	0.013986013986014	0.0909090909090909	0.0769230769230769
1	0.3	0.242424242424242	0.333333333333333	0.0909090909090909
1	0.1	0.0909090909090909	0.0909090909090909	0
-2	-0.0404040404040403	-0.0232804232804232	0.148148148148148	0.171428571428571
-3	-0.118181818181818	-0.0805194805194805	0.0909090909090909	0.171428571428571
-5	-0.142424242424243	-0.090909090909091	0.0909090909090909	0.181818181818182
-5	-0.0469696969696967	0.0178253119429592	0.333333333333333	0.315508021390374
-1	0.236363636363636	0.194871794871795	0.333333333333333	0.138461538461538
2	0.177777777777778	0.148148148148148	0.148148148148148	0
-1	0.00909090909090909	0.00757575757575757	0.0909090909090909	0.0833333333333333
-4	-0.104545454545455	-0.0727272727272727	0.0909090909090909	0.163636363636364
-1	0.00909090909090909	0.00757575757575757	0.0909090909090909	0.0833333333333333
-2	-0.0636363636363637	-0.0475524475524476	0.0909090909090909	0.138461538461539
0	0.309090909090909	0.25	0.333333333333333	0.0833333333333333
-2	0.0262626262626263	0.0182780182780184	0.148148148148148	0.12987012987013
-1	0.316666666666667	0.256410256410256	0.333333333333333	0.0769230769230769
-2	-0.0636363636363637	-0.0475524475524476	0.0909090909090909	0.138461538461538
-2	0.251010101010101	0.186790986790987	0.35042735042735	0.163636363636364
-3	-0.0267676767676767	-0.0154882154882154	0.148148148148148	0.163636363636364
-3	-0.00909090909090915	-0.00233100233100239	0.17948717948718	0.181818181818182
-2	0.248484848484848	0.203463203463203	0.333333333333333	0.12987012987013
-1	0.00909090909090908	0.00757575757575756	0.0909090909090909	0.0833333333333333
-2	-0.0181818181818182	0.00476190476190474	0.333333333333333	0.328571428571429
0	0.1	0.0909090909090909	0.0909090909090909	0
1	0.4	0.333333333333333	0.333333333333333	0
-1	0.316666666666667	0.256410256410256	0.333333333333333	0.0769230769230769
-2	-0.133333333333333	-0.0885780885780886	0.0909090909090909	0.17948717948718
-2	0.251010101010101	0.186790986790987	0.35042735042735	0.163636363636364
-2	-0.0404040404040403	-0.0232804232804232	0.148148148148148	0.171428571428571
-1	0.0944444444444445	0.0712250712250713	0.148148148148148	0.0769230769230769
-3	0.195454545454545	0.16969696969697	0.333333333333333	0.163636363636364
1	0.177777777777778	0.148148148148148	0.148148148148148	0
-4	0.157575757575758	0.151515151515151	0.333333333333333	0.181818181818182
-2	0.248484848484849	0.203463203463204	0.333333333333333	0.12987012987013
1	0.1	0.0909090909090909	0.0909090909090909	0
-1	0.1	0.0909090909090909	0.0909090909090909	0
-2	0.0166666666666667	0.013986013986014	0.0909090909090909	0.0769230769230769
-5	0.127272727272727	0.156862745098039	0.333333333333333	0.176470588235294
-5	-0.324242424242424	-0.227272727272727	0.0909090909090909	0.318181818181818
-1	-0.0555555555555555	-0.0313390313390313	0.148148148148148	0.17948717948718
-2	-0.0636363636363636	-0.0475524475524475	0.0909090909090909	0.138461538461538
-1	0.236363636363636	0.194871794871795	0.333333333333333	0.138461538461538
2	0.177777777777778	0.148148148148148	0.148148148148148	0
0	0	0	0.148148148148148	0.148148148148148
-1	0.0141414141414142	0.00968660968660973	0.148148148148148	0.138461538461538
-3	0.213131313131313	0.168609168609168	0.35042735042735	0.181818181818182
-1	0.236363636363636	0.194871794871795	0.333333333333333	0.138461538461538
-5	-0.142424242424243	-0.090909090909091	0.0909090909090909	0.181818181818182
-1	0.0141414141414142	0.00968660968660975	0.148148148148148	0.138461538461538
-3	-0.0515151515151516	-0.038961038961039	0.0909090909090909	0.12987012987013
-1	0.236363636363636	0.194871794871795	0.333333333333333	0.138461538461538
-1	0.00909090909090908	0.00757575757575756	0.0909090909090909	0.0833333333333333
1	0.1	0.0909090909090909	0.0909090909090909	0
-1	0.237373737373737	0.178998778998779	0.35042735042735	0.171428571428571
1	0.4	0.333333333333333	0.333333333333333	0
-2	0.248484848484848	0.203463203463203	0.333333333333333	0.12987012987013
-5	-0.0873737373737373	-0.0390176272529213	0.148148148148148	0.18716577540107
-3	-0.233333333333333	-0.194805194805195	0.0909090909090909	0.285714285714286
-2	0.24949494949495	0.175599128540305	0.481481481481481	0.305882352941176
-1	0.0141414141414142	0.00968660968660975	0.148148148148148	0.138461538461538
1	0.3	0.242424242424242	0.333333333333333	0.0909090909090909
-2	-0.0404040404040403	-0.0232804232804232	0.148148148148148	0.171428571428571
-1	0.0944444444444445	0.0712250712250713	0.148148148148148	0.0769230769230769
0	0.222222222222222	0.185185185185185	0.333333333333333	0.148148148148148
-1	0.236363636363636	0.194871794871795	0.333333333333333	0.138461538461539
-5	-0.269191919191919	-0.167359873242226	0.148148148148148	0.315508021390374
1	0.1	0.0909090909090909	0.0909090909090909	0
-3	-0.0515151515151515	-0.038961038961039	0.0909090909090909	0.12987012987013
-2	0.0166666666666667	0.013986013986014	0.0909090909090909	0.0769230769230769
-3	-0.118181818181818	-0.0805194805194805	0.0909090909090909	0.171428571428571
-3	-0.0515151515151515	-0.038961038961039	0.0909090909090909	0.12987012987013
-1	0.0944444444444445	0.0712250712250713	0.148148148148148	0.0769230769230769
-4	-0.154545454545455	-0.0957575757575758	0.0909090909090909	0.186666666666667
0	0.0868686868686869	0.0648148148148149	0.148148148148148	0.0833333333333333
0	0.1	0.0909090909090909	0.0909090909090909	0
1	0.1	0.0909090909090909	0.0909090909090909	0
1	0.177777777777778	0.148148148148148	0.148148148148148	0
-1	0.316666666666667	0.256410256410256	0.333333333333333	0.0769230769230769
-1	0.00909090909090909	0.00757575757575757	0.0909090909090909	0.0833333333333333
1	0.3	0.242424242424242	0.333333333333333	0.0909090909090909
-1	0.1	0.0909090909090909	0.0909090909090909	0
-1	0.236363636363636	0.194871794871795	0.333333333333333	0.138461538461538
-3	-0.0515151515151515	-0.038961038961039	0.0909090909090909	0.12987012987013
-3	0.195454545454545	0.16969696969697	0.333333333333333	0.163636363636364
-7	-0.172727272727273	-0.0909090909090909	0.0909090909090909	0.181818181818182
-5	-0.142424242424243	-0.090909090909091	0.0909090909090909	0.181818181818182
-4	0.127272727272727	0.145833333333333	0.333333333333333	0.1875
1	0.1	0.0909090909090909	0.0909090909090909	0
-1	0.236363636363636	0.194871794871795	0.333333333333333	0.138461538461538
-2	0.0262626262626263	0.0182780182780183	0.148148148148148	0.12987012987013
-2	0.251010101010101	0.186790986790987	0.35042735042735	0.163636363636364
