3
[ 2.535, 2.535, 2.394, 2.394, 2.535, 2.394, 2.394, 3.472, 2.394, 3.472, 3.472, 2.394, 2.394, 2.535, 2.394, 2.535, 2.394, 2.394, 3.472, 3.472, 2.535, 2.535, 2.394, 2.394, 3.472, 2.535, 2.394, 3.472, 2.535, 3.472, 2.394, 3.472, 3.472, 2.535, 2.394, 2.394, 3.472, 2.535, 2.535, 2.394, 2.394, 2.535, 2.394, 2.394, 2.535, 2.535, 3.472, 2.535, 2.535, 3.472, 3.472, 2.535, 3.472, 2.394, 3.472, 3.472, 3.472, 3.472, 2.535, 3.472, 2.394, 3.472, 2.394, 2.535, 2.535, 3.472, 3.472, 2.394, 3.472, 3.472, 2.535, 3.472, 2.535, 2.535, 3.472, 2.394, 3.472, 2.394, 3.472, 2.394, 3.472, 2.394, 2.535, 3.472, 2.535, 2.394, 2.394, 2.535, 2.394, 3.472, 2.394, 2.394, 3.472, 3.472, 2.394, 2.394, 2.394, 2.394, 2.394, 3.472 ]
3
[ 0.968, 0.968, 0.968, 0.968, 0.843, 0.968, 0.828, 0.843, 0.828, 0.968, 0.828, 0.968, 0.968, 0.843, 0.828, 0.828, 0.968, 0.828, 0.968, 0.828, 0.828, 0.968, 0.843, 0.968, 0.828, 0.843, 0.968, 0.968, 0.843, 0.968, 0.968, 0.843, 0.968, 0.828, 0.828, 0.968, 0.828, 0.843, 0.828, 0.843, 0.828, 0.828, 0.968, 0.968, 0.843, 0.828, 0.828, 0.968, 0.828, 0.968, 0.828, 0.828, 0.843, 0.843, 0.843, 0.843, 0.828, 0.843, 0.843, 0.843, 0.843, 0.828, 0.968, 0.968, 0.828, 0.843, 0.968, 0.843, 0.968, 0.843, 0.968, 0.828, 0.828, 0.968, 0.843, 0.968, 0.828, 0.828, 0.968, 0.968, 0.843, 0.828, 0.828, 0.843, 0.843, 0.828, 0.843, 0.843, 0.968, 0.968, 0.968, 0.968, 0.968, 0.843, 0.843, 0.968, 0.968, 0.968, 0.828, 0.828 ]