3
[ 5.387, 5.387, 5.276, 12.310, 5.387, 12.310, 12.310, 5.387, 5.387, 5.387, 12.310, 5.387, 5.276, 5.387, 5.387, 12.310, 5.276, 5.276, 5.276, 12.310, 5.276, 12.310, 12.310, 12.310, 12.310, 12.310, 12.310, 5.387, 5.387, 12.310, 5.387, 5.387, 5.276, 5.276, 5.276, 5.387, 5.276, 5.276, 5.276, 5.276, 12.310, 12.310, 12.310, 12.310, 5.387, 5.387, 5.387, 12.310, 12.310, 5.387 ]
3
[ 0.939, 0.939, 0.939, 0.989, 0.939, 0.683, 0.683, 0.683, 0.939, 0.989, 0.989, 0.989, 0.683, 0.989, 0.989, 0.683, 0.989, 0.683, 0.989, 0.683, 0.989, 0.989, 0.683, 0.989, 0.683, 0.939, 0.989, 0.939, 0.939, 0.683, 0.683, 0.683, 0.989, 0.683, 0.939, 0.683, 0.939, 0.683, 0.939, 0.939, 0.683, 0.683, 0.683, 0.683, 0.939, 0.989, 0.989, 0.939, 0.939, 0.989 ]