4
[ 4.729, 6.655, 4.682, 4.682, 4.729, 19.680, 4.729, 6.655, 19.680, 6.655, 4.729, 19.680, 4.729, 4.729, 4.729, 4.682, 4.682, 4.682, 19.680, 4.729, 4.729, 4.729, 19.680, 19.680, 19.680, 4.729, 4.729, 4.729, 4.682, 19.680, 4.682, 4.729, 4.729, 4.729, 19.680, 4.729, 4.729, 4.729, 4.729, 4.682, 4.729, 4.729, 4.729, 4.729, 4.682, 4.729, 19.680, 6.655, 4.729, 4.729, 4.729, 4.729, 19.680, 19.680, 6.655, 19.680, 19.680, 4.729, 6.655, 4.682, 4.729, 4.729, 4.729, 4.729, 4.729, 4.729, 4.682, 4.682, 4.729, 4.729, 4.729, 4.729, 4.729, 6.655, 4.729, 6.655, 4.729, 6.655, 4.729, 6.655, 4.682, 4.682, 4.729, 4.729, 4.729, 4.729, 4.729, 4.729, 4.682, 4.729, 4.682, 4.729, 4.682, 4.729, 6.655, 4.729, 4.729, 4.729, 4.682, 4.729 ]
6
[ 0.399, 0.159, 0.399, 0.196, 0.399, 0.399, 0.399, 0.399, 0.399, 0.399, 0.399, 0.196, 0.399, 0.399, 0.399, 0.399, 0.399, 0.679, 0.399, 0.399, 0.399, 0.196, 0.454, 0.399, 0.399, 0.159, 0.399, 0.196, 0.399, 0.399, 0.399, 0.159, 0.399, 0.399, 0.159, 0.399, 0.399, 0.454, 0.399, 0.399, 0.399, 0.196, 0.399, 0.399, 0.891, 0.399, 0.399, 0.196, 0.679, 0.399, 0.159, 0.454, 0.399, 0.891, 0.399, 0.399, 0.399, 0.196, 0.399, 0.399, 0.399, 0.196, 0.399, 0.196, 0.399, 0.399, 0.891, 0.399, 0.399, 0.399, 0.399, 0.399, 0.399, 0.891, 0.399, 0.399, 0.399, 0.399, 0.399, 0.891, 0.399, 0.196, 0.399, 0.196, 0.196, 0.399, 0.399, 0.196, 0.159, 0.399, 0.399, 0.891, 0.399, 0.399, 0.399, 0.399, 0.196, 0.399, 0.399, 0.399 ]