3
[ 1.680, 1.680, 3.971, 1.680, 1.680, 2.984, 3.971, 1.680, 2.984, 3.971, 2.984, 3.971, 2.984, 3.971, 2.984, 2.984, 1.680, 3.971, 2.984, 2.984, 1.680, 1.680, 3.971, 1.680, 2.984, 3.971, 3.971, 2.984, 3.971, 3.971, 3.971, 1.680, 3.971, 3.971, 3.971, 2.984, 2.984, 1.680, 2.984, 1.680, 3.971, 3.971, 3.971, 2.984, 1.680, 1.680, 1.680, 2.984, 1.680, 2.984, 1.680, 1.680, 2.984, 3.971, 1.680, 1.680, 2.984, 1.680, 1.680, 1.680, 3.971, 1.680, 1.680, 2.984, 1.680, 1.680, 3.971, 2.984, 1.680, 2.984, 3.971, 2.984, 1.680, 2.984, 2.984, 2.984, 2.984, 3.971, 2.984, 1.680, 3.971, 1.680, 2.984, 1.680, 2.984, 2.984, 1.680, 2.984, 3.971, 2.984, 3.971, 3.971, 2.984, 1.680, 1.680, 1.680, 1.680, 2.984, 3.971, 1.680, 1.680, 3.971, 1.680, 2.984, 3.971, 2.984, 2.984, 3.971, 1.680, 2.984, 1.680, 2.984, 2.984, 3.971, 2.984, 1.680, 2.984, 1.680, 1.680, 3.971, 2.984, 3.971, 3.971, 3.971, 2.984, 1.680, 3.971, 1.680, 2.984, 3.971, 2.984, 1.680, 1.680, 2.984, 2.984, 1.680, 1.680, 1.680, 1.680, 3.971, 2.984, 2.984, 1.680, 1.680, 2.984, 2.984, 3.971, 3.971, 1.680, 2.984, 2.984, 2.984, 2.984, 1.680, 3.971, 3.971, 3.971, 2.984, 3.971, 3.971, 3.971, 3.971, 2.984, 2.984, 1.680, 1.680, 1.680, 1.680, 3.971, 2.984, 1.680, 2.984, 2.984, 2.984, 1.680, 1.680, 2.984, 2.984, 2.984, 1.680, 2.984, 1.680, 2.984, 1.680, 3.971, 3.971, 1.680, 3.971, 3.971, 2.984, 3.971, 3.971, 2.984, 2.984, 1.680, 2.984, 3.971, 3.971, 2.984, 1.680 ]
3
[ 0.827, 0.827, 0.675, 0.593, 0.593, 0.827, 0.593, 0.593, 0.675, 0.827, 0.827, 0.593, 0.827, 0.675, 0.593, 0.675, 0.675, 0.675, 0.675, 0.827, 0.827, 0.827, 0.675, 0.675, 0.675, 0.593, 0.675, 0.675, 0.675, 0.675, 0.827, 0.675, 0.593, 0.675, 0.827, 0.827, 0.593, 0.827, 0.593, 0.827, 0.827, 0.593, 0.827, 0.827, 0.675, 0.827, 0.593, 0.827, 0.593, 0.675, 0.593, 0.593, 0.593, 0.827, 0.827, 0.827, 0.675, 0.827, 0.675, 0.675, 0.827, 0.675, 0.827, 0.593, 0.675, 0.827, 0.593, 0.593, 0.827, 0.675, 0.675, 0.593, 0.827, 0.827, 0.593, 0.675, 0.675, 0.827, 0.827, 0.593, 0.675, 0.675, 0.827, 0.827, 0.593, 0.827, 0.827, 0.593, 0.593, 0.675, 0.675, 0.593, 0.827, 0.675, 0.827, 0.593, 0.593, 0.593, 0.675, 0.593, 0.827, 0.675, 0.827, 0.827, 0.593, 0.593, 0.675, 0.593, 0.827, 0.827, 0.827, 0.675, 0.827, 0.675, 0.827, 0.827, 0.827, 0.675, 0.675, 0.593, 0.593, 0.675, 0.827, 0.675, 0.593, 0.675, 0.593, 0.675, 0.675, 0.675, 0.593, 0.827, 0.675, 0.675, 0.827, 0.827, 0.827, 0.593, 0.827, 0.675, 0.827, 0.593, 0.593, 0.675, 0.827, 0.675, 0.593, 0.675, 0.827, 0.675, 0.827, 0.827, 0.675, 0.675, 0.593, 0.675, 0.675, 0.827, 0.827, 0.675, 0.593, 0.593, 0.827, 0.675, 0.675, 0.827, 0.827, 0.827, 0.675, 0.827, 0.593, 0.827, 0.827, 0.675, 0.827, 0.675, 0.675, 0.675, 0.675, 0.675, 0.675, 0.675, 0.675, 0.675, 0.593, 0.593, 0.593, 0.593, 0.593, 0.827, 0.593, 0.675, 0.675, 0.827, 0.827, 0.675, 0.675, 0.675, 0.593, 0.675 ]