9
[ 1.286, 1.476, 1.286, 1.476, 1.286, 1.691, 1.691, 1.286, 1.691, 2.818, 1.286, 2.818, 1.286, 1.691, 1.476, 1.286, 1.286, 1.476, 1.286, 1.286, 1.476, 1.286, 2.818, 2.818, 2.818, 1.691, 5.315, 1.691, 1.286, 1.691, 1.691, 1.476, 5.405, 6.054, 2.818, 5.315, 6.054, 1.691, 2.818, 1.412, 1.691, 1.691, 1.691, 1.286, 2.818, 1.412, 1.691, 1.691, 1.412, 1.476, 1.691, 1.412, 1.691, 1.476, 2.818, 5.405, 1.476, 1.476, 1.691, 2.818, 5.405, 2.818, 2.818, 1.691, 1.412, 2.818, 1.412, 2.818, 2.818, 1.691, 1.691, 2.818, 1.691, 2.818, 1.286, 1.476, 1.476, 2.683, 1.691, 2.818, 2.818, 1.286, 1.691, 5.405, 1.286, 1.286, 1.691, 5.405, 1.412, 5.405, 1.476, 1.691, 1.476, 1.691, 1.691, 1.691, 1.286, 2.818, 1.691, 1.691, 2.818, 2.818, 1.476, 1.691, 2.818, 1.691, 2.818, 5.315, 1.286, 6.054, 1.286, 6.054, 1.691, 1.412, 5.405, 1.476, 1.691, 2.818, 1.691, 1.691, 1.286, 2.818, 1.286, 2.818, 6.054, 1.691, 1.476, 1.286, 1.476, 1.286, 2.818, 1.691, 2.818, 1.691, 2.818, 1.412, 1.476, 1.691, 2.818, 1.286, 1.691, 1.691, 1.412, 1.286, 2.818, 2.818, 6.054, 2.818, 2.818, 1.691, 1.691, 2.683, 2.818, 1.691, 1.691, 5.315, 1.286, 2.818, 6.054, 1.691, 1.691, 2.818, 2.818, 1.691, 2.818, 1.691, 1.691, 2.818, 1.691, 2.818, 1.412, 1.691, 2.683, 1.691, 6.054, 1.286, 1.691, 6.054, 2.818, 1.412, 1.286, 1.691, 6.054, 1.691, 2.818, 1.412, 1.691, 1.691, 1.476, 5.315, 2.818, 1.476, 1.286, 1.691, 1.476, 1.691, 1.691, 1.286, 1.412, 2.818 ]
6
[ 0.906, 0.906, 0.906, 0.520, 0.906, 0.520, 0.534, 0.534, 0.263, 0.263, 0.263, 0.906, 0.263, 0.263, 0.906, 0.906, 0.906, 0.520, 0.520, 0.906, 0.263, 0.534, 0.263, 0.534, 0.906, 0.906, 0.906, 0.534, 0.263, 0.906, 0.906, 0.263, 0.534, 0.906, 0.263, 0.263, 0.906, 0.263, 0.520, 0.534, 0.906, 0.263, 0.906, 0.906, 0.906, 0.263, 0.906, 0.263, 0.906, 0.906, 0.263, 0.263, 0.933, 0.520, 0.906, 0.263, 0.906, 0.263, 0.906, 0.534, 0.906, 0.263, 0.906, 0.906, 0.906, 0.263, 0.263, 0.906, 0.906, 0.906, 0.263, 0.906, 0.520, 0.520, 0.263, 0.263, 0.906, 0.906, 0.906, 0.263, 0.906, 0.520, 0.906, 0.906, 0.906, 0.912, 0.534, 0.906, 0.906, 0.906, 0.906, 0.263, 0.906, 0.906, 0.906, 0.906, 0.534, 0.906, 0.906, 0.906, 0.906, 0.263, 0.906, 0.520, 0.906, 0.906, 0.263, 0.263, 0.906, 0.263, 0.534, 0.933, 0.906, 0.263, 0.534, 0.534, 0.263, 0.263, 0.906, 0.520, 0.906, 0.534, 0.520, 0.906, 0.906, 0.906, 0.534, 0.906, 0.520, 0.263, 0.906, 0.906, 0.906, 0.263, 0.263, 0.534, 0.906, 0.534, 0.906, 0.906, 0.906, 0.263, 0.520, 0.263, 0.906, 0.263, 0.263, 0.263, 0.534, 0.520, 0.534, 0.912, 0.906, 0.906, 0.263, 0.906, 0.263, 0.906, 0.520, 0.906, 0.906, 0.906, 0.263, 0.906, 0.520, 0.906, 0.906, 0.906, 0.906, 0.263, 0.263, 0.534, 0.534, 0.906, 0.906, 0.906, 0.263, 0.906, 0.906, 0.263, 0.906, 0.520, 0.263, 0.263, 0.520, 0.906, 0.906, 0.906, 0.906, 0.906, 0.534, 0.906, 0.263, 0.520, 0.906, 0.263, 0.906, 0.520, 0.520, 0.263 ]