8
[ 14.163, 14.163, 5.181, 5.181, 5.181, 14.163, 14.163, 14.163, 14.163, 14.163, 14.163, 14.163, 14.163, 14.163, 4.951, 14.163, 1.912, 14.163, 14.163, 1.912, 14.163, 14.163, 1.912, 14.163, 14.163, 1.912, 14.163, 2.626, 14.163, 1.912, 9.496, 5.181, 14.163, 14.163, 2.626, 9.496, 14.163, 1.912, 14.163, 14.163, 14.163, 5.181, 14.163, 14.163, 5.181, 14.163, 9.496, 1.912, 9.496, 14.163, 14.163, 14.163, 14.163, 2.876, 1.912, 1.912, 9.496, 2.626, 14.163, 14.163, 2.626, 14.163, 14.163, 14.163, 9.496, 2.626, 14.163, 14.163, 14.163, 5.181, 5.181, 9.496, 14.163, 14.163, 14.163, 14.163, 14.163, 4.951, 14.163, 5.181, 14.163, 14.163, 14.163, 14.163, 9.496, 1.912, 1.912, 5.181, 9.496, 9.496, 14.163, 14.163, 1.912, 1.912, 5.181, 14.163, 1.912, 14.163, 5.181, 14.163, 14.163, 5.181, 2.626, 14.163, 1.912, 5.181, 4.951, 1.912, 14.163, 14.163, 14.163, 14.163, 9.496, 14.163, 4.951, 1.912, 14.163, 5.181, 14.163, 9.496, 5.181, 14.163, 14.163, 5.181, 14.163, 14.163, 1.912, 10.006, 14.163, 1.912, 1.912, 14.163, 5.181, 1.912, 14.163, 9.496, 14.163, 14.163, 1.912, 14.163, 14.163, 5.181, 5.181, 14.163, 1.912, 1.912, 9.496, 2.626, 9.496, 1.912, 5.181, 5.181, 5.181, 14.163, 14.163, 1.912, 2.626, 14.163, 14.163, 14.163, 1.912, 14.163, 14.163, 14.163, 10.006, 14.163, 14.163, 14.163, 2.626, 2.876, 1.912, 14.163, 14.163, 1.912, 5.181, 14.163, 14.163, 9.496, 5.181, 14.163, 14.163, 4.951, 5.181, 1.912, 5.181, 1.912, 1.912, 14.163, 14.163, 14.163, 14.163, 14.163, 14.163, 14.163, 14.163, 14.163, 14.163, 1.912, 5.181, 5.181 ]
3
[ 0.013, 0.013, 0.013, 0.013, 0.013, 0.013, 0.013, 0.013, 0.013, 0.013, 0.013, 0.013, 0.013, 0.013, 0.013, 0.013, 0.632, 0.013, 0.013, 0.013, 0.013, 0.013, 0.013, 0.013, 0.013, 0.013, 0.013, 0.013, 0.013, 0.013, 0.013, 0.013, 0.013, 0.013, 0.013, 0.013, 0.013, 0.013, 0.013, 0.013, 0.013, 0.013, 0.013, 0.013, 0.013, 0.013, 0.013, 0.013, 0.013, 0.013, 0.013, 0.013, 0.013, 0.013, 0.013, 0.013, 0.013, 0.013, 0.013, 0.013, 0.013, 0.013, 0.013, 0.013, 0.013, 0.013, 0.013, 0.013, 0.013, 0.013, 0.013, 0.013, 0.013, 0.013, 0.013, 0.013, 0.710, 0.013, 0.013, 0.013, 0.013, 0.013, 0.013, 0.013, 0.013, 0.013, 0.013, 0.013, 0.013, 0.013, 0.013, 0.013, 0.013, 0.013, 0.013, 0.013, 0.013, 0.013, 0.013, 0.013, 0.013, 0.013, 0.013, 0.013, 0.013, 0.013, 0.013, 0.013, 0.013, 0.013, 0.013, 0.013, 0.013, 0.013, 0.013, 0.013, 0.013, 0.013, 0.013, 0.013, 0.013, 0.013, 0.013, 0.013, 0.013, 0.013, 0.013, 0.013, 0.013, 0.013, 0.013, 0.013, 0.013, 0.013, 0.013, 0.013, 0.013, 0.013, 0.013, 0.710, 0.013, 0.013, 0.013, 0.013, 0.013, 0.013, 0.013, 0.013, 0.013, 0.013, 0.013, 0.013, 0.013, 0.013, 0.013, 0.013, 0.013, 0.013, 0.013, 0.013, 0.013, 0.013, 0.013, 0.013, 0.013, 0.013, 0.013, 0.013, 0.013, 0.013, 0.013, 0.013, 0.013, 0.013, 0.013, 0.013, 0.013, 0.710, 0.013, 0.013, 0.013, 0.013, 0.013, 0.013, 0.013, 0.013, 0.013, 0.013, 0.013, 0.710, 0.013, 0.013, 0.013, 0.013, 0.013, 0.013, 0.013, 0.013, 0.013, 0.013 ]