10
[ 3.350, 6.604, 6.604, 8.839, 3.350, 3.350, 3.350, 3.350, 8.089, 4.186, 8.089, 6.604, 3.350, 3.350, 3.350, 8.839, 3.350, 6.604, 8.839, 8.839, 6.604, 7.050, 8.839, 3.350, 8.089, 8.839, 6.604, 8.089, 3.350, 8.839, 3.350, 6.604, 6.604, 8.839, 4.186, 8.839, 8.839, 3.350, 3.350, 8.839, 3.350, 3.350, 3.350, 0.326, 4.186, 8.839, 3.350, 6.604, 3.350, 4.186, 0.326, 3.350, 6.604, 3.350, 3.350, 6.604, 3.350, 4.186, 3.350, 6.604, 6.604, 6.604, 4.186, 4.186, 3.350, 3.350, 3.350, 8.839, 3.350, 8.839, 3.350, 8.839, 3.350, 8.839, 3.350, 6.604, 3.350, 1.602, 3.350, 3.350, 3.350, 6.604, 8.839, 3.350, 4.186, 8.839, 3.350, 3.350, 9.207, 6.604, 3.350, 3.350, 0.326, 6.604, 8.839, 3.350, 8.089, 8.839, 8.839, 8.089, 6.604, 3.350, 3.350, 6.604, 6.604, 8.089, 3.350, 8.089, 0.326, 8.089, 3.350, 0.326, 8.839, 8.089, 3.350, 6.604, 6.604, 6.604, 6.604, 8.839, 3.350, 3.350, 6.604, 4.186, 3.350, 3.350, 7.050, 6.604, 8.839, 3.350, 3.350, 6.604, 3.350, 3.350, 6.604, 6.604, 6.604, 6.604, 3.350, 4.186, 8.089, 6.604, 6.604, 6.604, 6.604, 4.186, 4.186, 6.604, 3.350, 3.350, 3.350, 4.186, 3.350, 6.604, 6.604, 6.604, 3.350, 3.350, 6.604, 3.350, 9.207, 0.326, 3.350, 8.839, 6.604, 3.350, 3.350, 3.350, 3.350, 3.350, 3.350, 3.350, 0.326, 6.604, 6.604, 8.839, 3.350, 6.604, 4.186, 8.089, 8.839, 8.839, 3.350, 3.350, 6.604, 3.350, 1.602, 0.326, 8.089, 3.350, 3.350, 3.350, 6.604, 9.679, 3.350, 6.604, 6.604, 3.350, 8.839, 4.186 ]
7
[ 0.117, 0.117, 0.117, 0.117, 0.117, 0.657, 0.657, 0.117, 0.416, 0.262, 0.117, 0.262, 0.117, 0.117, 0.262, 0.117, 0.117, 0.605, 0.605, 0.117, 0.262, 0.117, 0.262, 0.262, 0.657, 0.605, 0.262, 0.117, 0.117, 0.262, 0.262, 0.117, 0.117, 0.416, 0.657, 0.020, 0.117, 0.117, 0.117, 0.262, 0.262, 0.117, 0.262, 0.117, 0.117, 0.117, 0.117, 0.262, 0.117, 0.262, 0.117, 0.117, 0.416, 0.262, 0.117, 0.117, 0.262, 0.262, 0.117, 0.117, 0.262, 0.262, 0.117, 0.262, 0.117, 0.117, 0.117, 0.657, 0.416, 0.262, 0.117, 0.117, 0.262, 0.117, 0.416, 0.117, 0.117, 0.262, 0.262, 0.117, 0.416, 0.262, 0.117, 0.117, 0.262, 0.117, 0.117, 0.262, 0.657, 0.657, 0.117, 0.416, 0.117, 0.262, 0.117, 0.117, 0.117, 0.117, 0.117, 0.117, 0.117, 0.117, 0.262, 0.262, 0.262, 0.262, 0.117, 0.262, 0.117, 0.117, 0.262, 0.262, 0.117, 0.262, 0.117, 0.262, 0.117, 0.605, 0.117, 0.117, 0.117, 0.416, 0.657, 0.117, 0.657, 0.262, 0.117, 0.262, 0.117, 0.117, 0.117, 0.117, 0.117, 0.117, 0.262, 0.657, 0.553, 0.117, 0.117, 0.117, 0.117, 0.262, 0.262, 0.117, 0.117, 0.262, 0.117, 0.117, 0.117, 0.117, 0.262, 0.262, 0.117, 0.262, 0.117, 0.262, 0.117, 0.117, 0.117, 0.605, 0.117, 0.262, 0.657, 0.416, 0.262, 0.657, 0.262, 0.262, 0.262, 0.262, 0.262, 0.657, 0.657, 0.020, 0.262, 0.117, 0.117, 0.262, 0.657, 0.117, 0.605, 0.262, 0.117, 0.262, 0.117, 0.117, 0.117, 0.657, 0.117, 0.262, 0.262, 0.657, 0.262, 0.262, 0.117, 0.117, 0.262, 0.416, 0.117, 0.657 ]