3
[ 1.094, 1.022, 1.094, 1.022, 4.868, 1.022, 1.094, 4.868, 1.094, 4.868, 1.022, 1.094, 4.868, 4.868, 1.022, 1.022, 4.868, 4.868, 1.022, 1.022, 1.094, 1.094, 1.094, 1.094, 4.868, 1.022, 4.868, 1.022, 4.868, 1.094, 1.022, 1.022, 1.022, 1.094, 1.022, 4.868, 1.094, 1.022, 1.094, 1.022, 4.868, 4.868, 1.094, 1.022, 1.094, 1.022, 1.094, 1.022, 4.868, 1.022, 1.022, 1.094, 1.094, 1.094, 4.868, 4.868, 1.094, 4.868, 4.868, 1.094, 1.094, 1.022, 1.094, 4.868, 1.022, 1.022, 4.868, 4.868, 1.022, 1.094, 1.094, 1.022, 1.022, 4.868, 1.094, 4.868, 1.022, 1.094, 4.868, 1.022, 1.022, 1.094, 4.868, 1.094, 1.022, 1.022, 4.868, 1.094, 1.094, 1.022, 1.022, 4.868, 1.022, 1.094, 4.868, 4.868, 4.868, 4.868, 1.094, 1.094 ]
3
[ 0.339, 0.105, 0.339, 0.532, 0.339, 0.532, 0.105, 0.532, 0.532, 0.105, 0.532, 0.532, 0.105, 0.105, 0.105, 0.339, 0.532, 0.532, 0.339, 0.532, 0.339, 0.339, 0.339, 0.105, 0.339, 0.339, 0.339, 0.532, 0.532, 0.105, 0.532, 0.532, 0.105, 0.339, 0.105, 0.105, 0.105, 0.339, 0.339, 0.532, 0.339, 0.532, 0.532, 0.532, 0.339, 0.105, 0.339, 0.339, 0.339, 0.532, 0.105, 0.532, 0.339, 0.532, 0.105, 0.339, 0.339, 0.105, 0.105, 0.532, 0.532, 0.532, 0.339, 0.532, 0.339, 0.532, 0.339, 0.532, 0.532, 0.339, 0.532, 0.339, 0.532, 0.532, 0.105, 0.339, 0.532, 0.532, 0.105, 0.105, 0.339, 0.105, 0.339, 0.532, 0.105, 0.105, 0.105, 0.339, 0.105, 0.532, 0.105, 0.339, 0.339, 0.532, 0.105, 0.532, 0.339, 0.105, 0.532, 0.105 ]