4
[ 17.705, 17.705, 17.705, 17.705, 17.705, 0.936, 17.705, 17.705, 4.412, 17.705, 17.705, 17.705, 0.936, 0.936, 0.936, 0.936, 17.705, 0.936, 4.412, 17.705, 4.412, 4.412, 17.705, 4.412, 4.412, 17.705, 17.705, 17.705, 0.936, 17.705, 17.705, 1.402, 4.412, 0.936, 17.705, 4.412, 0.936, 4.412, 4.412, 17.705, 4.412, 17.705, 4.412, 17.705, 4.412, 17.705, 4.412, 17.705, 17.705, 0.936, 4.412, 17.705, 17.705, 4.412, 17.705, 4.412, 17.705, 4.412, 17.705, 17.705, 17.705, 17.705, 17.705, 17.705, 17.705, 17.705, 17.705, 17.705, 0.936, 17.705, 17.705, 4.412, 17.705, 17.705, 17.705, 17.705, 17.705, 4.412, 4.412, 4.412, 17.705, 4.412, 4.412, 17.705, 17.705, 4.412, 17.705, 0.936, 17.705, 0.936, 17.705, 4.412, 0.936, 4.412, 17.705, 17.705, 17.705, 17.705, 4.412, 17.705 ]
3
[ 0.329, 0.329, 0.329, 0.329, 0.329, 0.329, 0.329, 0.329, 0.329, 0.329, 0.329, 0.643, 0.329, 0.329, 0.329, 0.329, 0.329, 0.329, 0.329, 0.329, 0.329, 0.329, 0.329, 0.642, 0.329, 0.329, 0.329, 0.329, 0.643, 0.643, 0.643, 0.329, 0.329, 0.329, 0.329, 0.329, 0.329, 0.329, 0.329, 0.329, 0.329, 0.329, 0.329, 0.329, 0.329, 0.329, 0.329, 0.329, 0.329, 0.329, 0.329, 0.329, 0.643, 0.329, 0.329, 0.643, 0.329, 0.329, 0.329, 0.329, 0.329, 0.329, 0.329, 0.329, 0.329, 0.329, 0.329, 0.329, 0.329, 0.329, 0.329, 0.329, 0.329, 0.329, 0.329, 0.329, 0.329, 0.329, 0.329, 0.643, 0.329, 0.329, 0.329, 0.329, 0.329, 0.329, 0.643, 0.643, 0.329, 0.329, 0.329, 0.329, 0.643, 0.329, 0.329, 0.329, 0.329, 0.329, 0.329, 0.329 ]