8
[ 1.070, 1.070, 9.307, 1.070, 0.980, 1.070, 1.070, 1.070, 0.980, 0.980, 1.070, 1.070, 1.070, 3.402, 1.903, 1.070, 1.070, 9.307, 1.070, 1.070, 1.903, 3.402, 1.903, 1.070, 1.070, 1.903, 1.070, 1.070, 1.070, 1.070, 3.402, 3.245, 2.078, 1.070, 3.402, 3.245, 0.980, 1.070, 1.070, 1.070, 1.070, 1.070, 1.070, 1.070, 1.070, 2.078, 0.980, 1.070, 3.402, 1.070, 1.070, 1.070, 0.980, 1.070, 3.245, 1.903, 1.070, 3.402, 1.070, 1.903, 1.070, 2.078, 1.119, 3.245, 3.245, 3.245, 1.070, 2.078, 1.070, 1.070, 1.070, 3.245, 1.070, 1.070, 1.070, 1.070, 1.070, 3.402, 1.070, 1.070, 0.980, 0.980, 1.070, 1.070, 1.070, 1.070, 0.980, 1.070, 1.070, 1.070, 1.070, 0.980, 2.078, 2.078, 1.070, 1.070, 0.980, 1.070, 1.070, 1.070, 1.070, 1.070, 1.070, 1.070, 1.070, 1.070, 1.903, 1.070, 1.070, 1.070, 1.070, 3.402, 2.078, 1.070, 0.980, 1.070, 1.070, 1.070, 1.070, 1.070, 1.070, 1.070, 1.070, 1.070, 0.980, 1.070, 1.070, 1.070, 1.070, 1.070, 1.070, 1.070, 1.070, 1.070, 1.070, 1.070, 2.078, 1.070, 1.070, 0.980, 1.070, 2.078, 1.070, 3.245, 1.070, 1.070, 1.070, 2.078, 1.070, 1.070, 2.078, 1.070, 1.903, 1.903, 1.070, 1.070, 1.903, 1.070, 1.070, 1.070, 2.078, 0.980, 1.070, 1.119, 3.245, 1.070, 1.070, 1.070, 1.070, 1.070, 1.070, 1.070, 1.903, 1.070, 1.070, 1.070, 1.070, 1.070, 2.078, 0.980, 1.070, 1.070, 1.070, 1.070, 0.980, 2.078, 1.903, 0.980, 3.402, 1.070, 1.070, 1.119, 1.070, 1.070, 0.980, 1.903, 1.070, 1.070, 1.070, 1.070 ]
10
[ 0.056, 0.710, 0.895, 0.056, 0.532, 0.710, 0.056, 0.056, 0.056, 0.532, 0.532, 0.056, 0.895, 0.549, 0.620, 0.895, 0.286, 0.710, 0.532, 0.895, 0.056, 0.710, 0.710, 0.056, 0.718, 0.532, 0.710, 0.056, 0.549, 0.710, 0.532, 0.532, 0.532, 0.710, 0.056, 0.286, 0.710, 0.620, 0.532, 0.286, 0.056, 0.532, 0.710, 0.056, 0.056, 0.532, 0.532, 0.532, 0.710, 0.710, 0.532, 0.532, 0.710, 0.056, 0.710, 0.710, 0.056, 0.532, 0.056, 0.710, 0.532, 0.710, 0.710, 0.710, 0.532, 0.532, 0.056, 0.056, 0.710, 0.620, 0.056, 0.710, 0.286, 0.532, 0.532, 0.056, 0.895, 0.532, 0.710, 0.056, 0.620, 0.056, 0.532, 0.710, 0.895, 0.532, 0.532, 0.532, 0.286, 0.532, 0.895, 0.286, 0.286, 0.532, 0.532, 0.056, 0.286, 0.710, 0.056, 0.532, 0.286, 0.532, 0.710, 0.532, 0.532, 0.895, 0.710, 0.532, 0.710, 0.286, 0.286, 0.532, 0.532, 0.532, 0.710, 0.286, 0.532, 0.710, 0.710, 0.895, 0.056, 0.710, 0.532, 0.286, 0.056, 0.532, 0.532, 0.056, 0.532, 0.532, 0.710, 0.710, 0.549, 0.056, 0.532, 0.710, 0.286, 0.286, 0.710, 0.534, 0.286, 0.710, 0.532, 0.532, 0.710, 0.532, 0.710, 0.056, 0.895, 0.710, 0.532, 0.532, 0.286, 0.532, 0.710, 0.532, 0.532, 0.558, 0.710, 0.532, 0.286, 0.549, 0.710, 0.532, 0.895, 0.532, 0.895, 0.056, 0.532, 0.532, 0.532, 0.286, 0.056, 0.532, 0.710, 0.710, 0.532, 0.532, 0.056, 0.710, 0.532, 0.710, 0.056, 0.286, 0.710, 0.056, 0.286, 0.056, 0.286, 0.532, 0.895, 0.532, 0.056, 0.056, 0.286, 0.532, 0.056, 0.532, 0.286, 0.532 ]