3
[ 17.084, 0.854, 17.084, 17.084, 0.854, 17.084, 17.084, 17.084, 6.505, 0.854, 17.084, 17.084, 0.854, 17.084, 17.084, 17.084, 0.854, 17.084, 17.084, 17.084, 17.084, 17.084, 0.854, 17.084, 17.084, 17.084, 17.084, 0.854, 17.084, 6.505, 0.854, 17.084, 17.084, 17.084, 17.084, 17.084, 17.084, 17.084, 17.084, 0.854, 17.084, 17.084, 0.854, 17.084, 17.084, 17.084, 0.854, 17.084, 17.084, 17.084, 17.084, 17.084, 17.084, 17.084, 17.084, 17.084, 17.084, 17.084, 0.854, 17.084, 17.084, 17.084, 17.084, 0.854, 17.084, 0.854, 17.084, 17.084, 17.084, 17.084, 0.854, 17.084, 17.084, 17.084, 17.084, 17.084, 6.505, 17.084, 17.084, 17.084, 17.084, 0.854, 17.084, 6.505, 17.084, 6.505, 17.084, 6.505, 6.505, 17.084, 17.084, 17.084, 6.505, 17.084, 0.854, 17.084, 17.084, 17.084, 0.854, 17.084, 17.084, 17.084, 17.084, 17.084, 17.084, 17.084, 0.854, 17.084, 0.854, 17.084, 17.084, 17.084, 17.084, 17.084, 0.854, 17.084, 17.084, 17.084, 17.084, 17.084, 17.084, 17.084, 0.854, 17.084, 6.505, 17.084, 17.084, 6.505, 17.084, 6.505, 17.084, 6.505, 17.084, 17.084, 6.505, 17.084, 17.084, 6.505, 17.084, 17.084, 17.084, 17.084, 17.084, 6.505, 17.084, 6.505, 0.854, 17.084, 17.084, 0.854, 17.084, 17.084, 17.084, 17.084, 17.084, 0.854, 17.084, 17.084, 0.854, 0.854, 17.084, 17.084, 17.084, 17.084, 17.084, 17.084, 17.084, 6.505, 17.084, 17.084, 17.084, 17.084, 17.084, 17.084, 17.084, 0.854, 17.084, 17.084, 17.084, 0.854, 6.505, 17.084, 17.084, 17.084, 17.084, 17.084, 17.084, 17.084, 17.084, 17.084, 17.084, 0.854, 17.084, 17.084, 17.084, 17.084, 17.084, 17.084, 17.084, 0.854 ]
8
[ 0.557, 0.557, 0.867, 0.867, 0.867, 0.557, 0.557, 0.557, 0.557, 0.557, 0.557, 0.557, 0.557, 0.867, 0.557, 0.316, 0.557, 0.374, 0.557, 0.557, 0.867, 0.557, 0.557, 0.557, 0.557, 0.557, 0.374, 0.557, 0.557, 0.557, 0.557, 0.374, 0.867, 0.557, 0.742, 0.867, 0.867, 0.557, 0.557, 0.557, 0.557, 0.557, 0.557, 0.557, 0.557, 0.557, 0.867, 0.557, 0.867, 0.557, 0.557, 0.557, 0.557, 0.557, 0.316, 0.557, 0.557, 0.557, 0.557, 0.867, 0.557, 0.557, 0.867, 0.867, 0.557, 0.557, 0.557, 0.557, 0.557, 0.557, 0.557, 0.867, 0.557, 0.557, 0.374, 0.557, 0.374, 0.557, 0.557, 0.374, 0.557, 0.557, 0.557, 0.374, 0.867, 0.867, 0.557, 0.557, 0.867, 0.557, 0.557, 0.491, 0.374, 0.557, 0.374, 0.557, 0.557, 0.557, 0.557, 0.557, 0.557, 0.557, 0.867, 0.557, 0.557, 0.374, 0.557, 0.557, 0.867, 0.867, 0.557, 0.867, 0.557, 0.557, 0.557, 0.374, 0.374, 0.867, 0.867, 0.557, 0.557, 0.557, 0.557, 0.557, 0.557, 0.374, 0.867, 0.557, 0.867, 0.374, 0.557, 0.557, 0.557, 0.557, 0.557, 0.557, 0.557, 0.867, 0.557, 0.557, 0.833, 0.557, 0.867, 0.557, 0.867, 0.374, 0.374, 0.557, 0.557, 0.374, 0.557, 0.557, 0.557, 0.557, 0.557, 0.557, 0.557, 0.867, 0.557, 0.867, 0.374, 0.557, 0.557, 0.374, 0.557, 0.374, 0.557, 0.557, 0.557, 0.374, 0.557, 0.557, 0.557, 0.557, 0.557, 0.557, 0.557, 0.557, 0.557, 0.557, 0.557, 0.867, 0.557, 0.557, 0.557, 0.557, 0.374, 0.557, 0.557, 0.557, 0.557, 0.712, 0.557, 0.867, 0.867, 0.557, 0.557, 0.557, 0.557, 0.557 ]