3
[ 1.334, 1.334, 1.334, 1.334, 9.114, 1.908, 1.908, 1.334, 1.334, 1.334, 1.908, 9.114, 9.114, 9.114, 1.908, 1.908, 1.334, 1.334, 9.114, 1.334, 1.334, 9.114, 1.908, 1.908, 1.334, 1.908, 9.114, 1.908, 1.334, 9.114, 1.334, 1.334, 1.908, 1.334, 9.114, 1.334, 9.114, 1.908, 1.908, 1.908, 1.334, 1.334, 9.114, 9.114, 1.908, 1.334, 1.908, 1.908, 1.334, 1.334 ]
3
[ 0.233, 0.596, 0.233, 0.226, 0.226, 0.596, 0.233, 0.596, 0.233, 0.226, 0.233, 0.596, 0.233, 0.233, 0.226, 0.226, 0.233, 0.226, 0.226, 0.226, 0.233, 0.596, 0.226, 0.233, 0.233, 0.233, 0.226, 0.226, 0.596, 0.596, 0.226, 0.596, 0.233, 0.233, 0.233, 0.233, 0.226, 0.233, 0.226, 0.233, 0.596, 0.226, 0.233, 0.233, 0.596, 0.233, 0.226, 0.233, 0.226, 0.226 ]