pars_sum	pars_var	pars_disp	obs_disp	sim_disp
-6	0.34090909090909	0.2125	0.4625	0.25
-8	-0.173203812316716	-0.0196928368121443	0.428125	0.447817836812144
6	0.338123885918004	0.136063880233031	0.511270491803279	0.375206611570248
6	0.212671065493647	0.0853974654377882	0.490927419354839	0.405529953917051
-1	-0.13511119257087	-0.0507552483358933	0.391129032258065	0.441884280593958
8	0.344672531769306	0.168326631611506	0.40983606557377	0.241509433962264
10	0.311003176930596	0.118825240302361	0.477459016393443	0.358633776091082
1	0.28592375366569	0.169002291556496	0.524193548387097	0.355191256830601
5	0.370142961876832	0.184622434017595	0.53125	0.346627565982405
1	0.162878787878787	0.0801651305683561	0.404761904761905	0.324596774193549
10	0.395833333333333	0.155	0.53125	0.37625
7	0.179924242424243	0.0554315476190479	0.404761904761905	0.349330357142857
10	0.381687565308255	0.181799221357063	0.457661290322581	0.275862068965517
14	0.36947091886608	0.136852757181273	0.443647540983606	0.306794783802334
17	0.399914467253177	0.155256782945736	0.428125	0.272868217054264
0	-0.141348973607038	-0.0469945355191257	0.40983606557377	0.456830601092896
-7	-0.225378787878788	-0.0647352734922861	0.424395161290323	0.489130434782609
7	-0.0679985337243403	-0.0786290322580646	0.4375	0.516129032258065
-2	0.234848484848485	0.138173302107728	0.477459016393443	0.339285714285714
2	0.255904634581105	0.118531978579908	0.443647540983606	0.325115562403698
15	0.299511241446725	0.101140413399857	0.40983606557377	0.308695652173913
6	0.419391495601173	0.209840629800307	0.557459677419355	0.347619047619048
1	0.33166221033868	0.16687986421593	0.443647540983606	0.276767676767677
5	-0.127050679205852	-0.0637416215779698	0.443647540983606	0.507389162561576
0	-0.237933773216031	-0.117653089119737	0.376059322033898	0.493712411153636
15	0.306426332288401	0.10617816091954	0.4625	0.35632183908046
8	0.202132209188661	0.0744739231513725	0.40983606557377	0.335362142422398
7	0.209188660801564	0.0784148108976243	0.477459016393443	0.399044205495818
10	0.314393939393939	0.116441658630665	0.443647540983607	0.327205882352941
1	0.0202101661779084	0.0319034608378873	0.477459016393443	0.445555555555555
-3	0.329545454545455	0.188430521091812	0.457661290322581	0.269230769230769
-2	0.0628947033358802	0.0227407495256169	0.424395161290323	0.401654411764706
3	0.242535650623886	0.105089547253199	0.443647540983607	0.338557993730408
-15	0.285058568882099	0.209072108000324	0.480932203389831	0.271860095389507
2	0.212009803921569	0.0921790383766301	0.515889830508475	0.423710792131845
-12	0.209991723962312	0.151141497470311	0.443647540983607	0.292506043513296
3	0.0791788856304987	0.0348694316436253	0.404761904761905	0.36989247311828
6	0.457442067736185	0.214649099038071	0.477459016393443	0.262809917355372
18	0.222169353634871	0.0570877130875223	0.376024590163934	0.318936877076412
0	0.0826307429130011	0.0572717331875343	0.411016949152542	0.353745215965008
-3	-0.0511363636363639	-0.00398629610655749	0.477459016393443	0.4814453125
1	0.447550097751711	0.241852855631941	0.490927419354839	0.249074563722898
-3	0.261363636363636	0.160316342213115	0.545081967213115	0.384765625
13	0.235592998955067	0.0706094093910486	0.496875	0.426265590608951
-3	0.379739623121976	0.202838717454195	0.443647540983607	0.240808823529412
0	-0.0398032746823069	-0.0084611316763617	0.40983606557377	0.418297197250132
-2	-0.370139199880579	-0.109060552534434	0.445974576271187	0.555035128805621
-9	-0.0852272727272722	0.0226175601999093	0.490927419354839	0.46830985915493
1	0.378543499511241	0.209598096245373	0.545081967213115	0.335483870967742
11	0.392320381231671	0.175985434496379	0.428125	0.252139565503621
-7	0.153409090909091	0.110314207650273	0.443647540983607	0.333333333333333
-9	-0.0210561497326199	0.0420064225392096	0.511270491803279	0.469264069264069
17	0.130795130795131	0.025220680958386	0.40983606557377	0.384615384615384
2	0.187722816399287	0.0789406158357773	0.424395161290323	0.345454545454545
7	0.158266129032258	0.0487629852378349	0.4375	0.388737014762165
8	0.25097751710655	0.0968488649940265	0.457661290322581	0.360812425328554
5	0.0727639296187682	0.0321022727272727	0.359375	0.327272727272727
16	0.219370629370629	0.0952272727272726	0.4625	0.367272727272727
0	0.149376832844574	0.0926411290322579	0.428125	0.335483870967742
7	0.268939393939394	0.106841985428051	0.443647540983607	0.336805555555556
-9	-0.0577094474153294	0.0190596440596443	0.470238095238095	0.451178451178451
-1	-0.335166177908113	-0.154159772095324	0.40983606557377	0.563995837669095
-3	0.0937194525904205	0.0801116421806382	0.411016949152542	0.330905306971904
8	0.231060606060607	0.0702380952380955	0.470238095238095	0.4
4	0.0681818181818186	0.0110169491525426	0.411016949152542	0.4
-5	-0.107954545454545	-0.0239829080404429	0.391129032258065	0.415111940298508
-9	0.262254901960784	0.170210254721124	0.39375	0.223539745278876
15	0.0410654160654165	-0.0301243676758431	0.457661290322581	0.487785657998424
3	0.17061339198436	0.0965211042019976	0.443647540983606	0.347126436781609
-3	0.29590017825312	0.163820588014137	0.524193548387097	0.36037296037296
6	0.396719208211144	0.186620785835557	0.50297619047619	0.316355404640634
14	0.107144723092998	-0.00965610944527778	0.428125	0.437781109445278
6	0.371100713012478	0.151567365383155	0.50297619047619	0.351408825093036
3	0.448863636363636	0.233717105263158	0.496875	0.263157894736842
7	0.531769305962854	0.269573711733944	0.477459016393443	0.207885304659498
9	0.1761119257087	0.0544494319334554	0.490927419354839	0.436477987421384
13	0.234995112414467	0.0723360655737705	0.40983606557377	0.3375
11	0.107432079414838	0.0160613340870548	0.443647540983606	0.427586206896552
11	0.481060606060607	0.205136037797328	0.457661290322581	0.252525252525253
-7	-0.375222816399286	-0.152813852813853	0.404761904761905	0.557575757575757
17	0.356097925063442	0.145225675963381	0.40983606557377	0.26461038961039
-4	-0.0373289345063534	0.0197030791788858	0.424395161290323	0.404692082111437
10	0.00326541274817127	-0.0338362068965518	0.39375	0.427586206896552
2	0.393939393939394	0.199193548387097	0.524193548387097	0.325
0	0.207844574780058	0.126948924731183	0.53125	0.404301075268817
5	0.0685972629521014	0.028901515151515	0.39375	0.364848484848485
-4	-0.11319073083779	-0.045641789904085	0.40983606557377	0.455477855477856
14	0.859115347018573	0.379289314516129	0.70703125	0.327741935483871
6	0.29855816226784	0.146947004608295	0.457661290322581	0.310714285714286
-1	0.183437194525905	0.114087301587302	0.457661290322581	0.343573988735279
10	-0.062585532746823	-0.0889166666666666	0.39375	0.482666666666666
2	0.0413000977517111	0.0212365591397851	0.391129032258065	0.36989247311828
-1	0.0246212121212124	0.0196332565284179	0.424395161290323	0.404761904761905
6	0.279203323558163	0.125864055299539	0.457661290322581	0.331797235023041
3	0.448863636363636	0.233717105263158	0.496875	0.263157894736842
8	0.42524817136886	0.221012931034482	0.496875	0.275862068965517
-3	0.255681818181818	0.155952380952381	0.4625	0.306547619047619
17	0.528934506353862	0.210119474313023	0.524193548387097	0.314074074074074
11	0.10824780058651	0.00231420765027335	0.443647540983607	0.441333333333333
4	0.252993646138808	0.124061457174639	0.424395161290323	0.300333704115684
2	-0.0435606060606055	-0.0369959677419353	0.391129032258065	0.428125
-9	0.106455309396486	0.0899509803921567	0.4625	0.372549019607843
10	0.234848484848485	0.083436724565757	0.391129032258065	0.307692307692308
18	0.258658008658009	0.0880987292277616	0.391129032258065	0.303030303030303
6	0.278409090909091	0.118647540983607	0.443647540983607	0.325
10	0.229875366568915	0.0781069065343261	0.490927419354839	0.412820512820513
5	0.217803030303031	0.0859507640067915	0.457661290322581	0.371710526315789
14	0.321114369501466	0.119047619047619	0.404761904761905	0.285714285714286
-14	0.0144703335879809	0.075613911689589	0.480932203389831	0.405318291700242
1	0.127565982404692	0.0727354937812795	0.470238095238095	0.397502601456816
19	0.467299223764741	0.201803799164077	0.424395161290323	0.222591362126246
-21	-0.204469060351414	0.0107933914306462	0.4625	0.451706608569354
-2	0.130816226783969	0.104536290322581	0.457661290322581	0.353125
-12	-0.267045454545454	-0.0502670008718393	0.424395161290323	0.474662162162162
13	0.323014629049112	0.125410509031199	0.470238095238095	0.344827586206896
16	0.27810867293626	0.0785290948275866	0.44921875	0.370689655172414
7	0.0180596285434997	-0.0188372799028535	0.477459016393443	0.496296296296296
8	0.487188057040999	0.229108966004128	0.424395161290323	0.195286195286195
1	0.315493646138808	0.180598499274147	0.480932203389831	0.300333704115684
6	0.0397727272727267	-0.0270833333333336	0.4625	0.489583333333333
-5	0.363636363636364	0.225072828389831	0.480932203389831	0.255859375
-5	0.151960784313725	0.10212703962704	0.4625	0.36037296037296
9	0.607731729055259	0.289097802430882	0.490927419354839	0.201829616923956
-5	-0.0923573975044565	-0.0273528554778555	0.428125	0.455477855477855
7	0.453097147950089	0.201506182038969	0.511270491803279	0.30976430976431
3	-0.105663489736071	-0.067483729485003	0.39375	0.461233729485003
-2	0.0262923351158654	0.0139570420110197	0.44921875	0.43526170798898
-8	0.157196969696969	0.134742647058823	0.496875	0.362132352941177
9	0.208852639296187	0.0755969323213154	0.39375	0.318153067678684
4	0.24810606060606	0.110714285714285	0.496875	0.386160714285714
3	0.255681818181818	0.124275720746184	0.40983606557377	0.285560344827586
-11	-0.117739368474662	-0.0122348119575698	0.443647540983607	0.455882352941176
8	0.165292033235582	0.057906254355214	0.376059322033898	0.318153067678684
-10	-0.0720613391984359	0.0584849658500979	0.545081967213115	0.486597001363017
5	-0.403714565004888	-0.253758404472313	0.40983606557377	0.663594470046083
-4	0.414772727272727	0.237878310214376	0.443647540983606	0.205769230769231
11	0.0274560117302062	-0.0435786949188273	0.424395161290323	0.46797385620915
-6	-0.0846407624633428	0.0150336810082574	0.376059322033898	0.361025641025641
24	0.610179172679173	0.260907926177451	0.490927419354839	0.230019493177388
6	0.183934169278997	0.0945575144758447	0.470238095238095	0.375680580762251
7	0.179875366568915	0.0824695784441549	0.376059322033898	0.293589743589744
-11	-0.0728609625668447	0.0262805652149916	0.477459016393443	0.451178451178451
14	0.299511241446725	0.107708405999302	0.40983606557377	0.302127659574468
4	0.291555258467023	0.128389699409976	0.443647540983607	0.315257841573631
3	0.472751710654936	0.259734046707803	0.48093220338983	0.221198156682028
-12	-0.0397727272727275	0.0493908600943183	0.40983606557377	0.360445205479452
-4	-0.00233957219251302	0.0119419579165344	0.376059322033898	0.364117364117364
6	0.44367201426025	0.18595825426945	0.524193548387097	0.338235294117647
11	0.251828631138976	0.106387789711702	0.40983606557377	0.303448275862069
-4	0.399907690348867	0.217403197092204	0.443647540983607	0.226244343891403
4	0.322763929618768	0.165077764976958	0.496875	0.331797235023041
-4	-0.0666030048382978	-0.0334802119377157	0.44921875	0.482698961937716
11	0.309995112414467	0.123384452670545	0.40983606557377	0.286451612903226
12	0.39450146627566	0.164355742296919	0.470238095238095	0.305882352941176
4	0.203598484848485	0.101926040061633	0.411016949152542	0.309090909090909
-2	0.289772727272727	0.170238260627952	0.411016949152542	0.24077868852459
4	0.327651515151514	0.142137096774193	0.5	0.357862903225807
11	0.43399947753396	0.179684323153871	0.6748046875	0.495120364346129
10	0.488880742913001	0.229373449131514	0.457661290322581	0.228287841191067
8	0.360789345063539	0.180615099147004	0.445974576271187	0.265359477124183
7	0.220949413489736	0.0881847230675591	0.4625	0.374315276932441
17	0.399767839687195	0.130927419354839	0.490927419354839	0.36
14	0.445344574780058	0.188179347826087	0.496875	0.308695652173913
11	0.19580889540567	0.0585016214622645	0.4169921875	0.358490566037736
13	0.426661779081134	0.183014571948998	0.477459016393443	0.294444444444444
-17	-0.209826203208556	-0.0210728609625669	0.428125	0.449197860962567
2	-0.196053274682307	-0.0946479885057471	0.359375	0.454022988505747
13	0.439393939393939	0.181928790983606	0.443647540983606	0.26171875
-3	0.245937194525905	0.157924937965261	0.490927419354839	0.333002481389578
5	0.364081996434938	0.177571382373642	0.411016949152542	0.2334455667789
2	0.0683162267839693	0.0477284946236562	0.424395161290323	0.376666666666667
0	0.25	0.1375	0.428125	0.290625
7	0.0745662267839692	0.00696480938416444	0.391129032258065	0.3841642228739
1	0.131598240469208	0.0738565977900006	0.404761904761905	0.330905306971904
-18	0.297571301247772	0.240014190996471	0.515889830508475	0.275875639512003
7	-0.167827468230694	-0.125334119496855	0.428125	0.553459119496855
-3	0.127565982404692	0.096826560536238	0.470238095238095	0.373411534701857
0	0.0160984848484851	0.0222457627118646	0.445974576271187	0.423728813559322
3	0.00568181818181845	-0.0179656585641604	0.40983606557377	0.427801724137931
6	0.396719208211144	0.186620785835557	0.502976190476191	0.316355404640634
0	0.346145276292335	0.171566859066859	0.502976190476191	0.331409331409331
18	0.552526496492014	0.254867654267197	0.477459016393443	0.222591362126246
11	0.408101173020528	0.194585687382298	0.445974576271187	0.251388888888889
4	0.289661319073084	0.130729207519544	0.40983606557377	0.279106858054227
11	0.518462854349951	0.253337585034013	0.496875	0.243537414965986
1	0.22689393939394	0.136309523809524	0.502976190476191	0.366666666666667
12	0.1933284457478	0.0562499999999999	0.39375	0.3375
0	-0.0231729055258464	-0.0247715247715246	0.404761904761905	0.429533429533429
3	-0.0347751710654939	-0.0143058918482649	0.48093220338983	0.495238095238095
11	0.4375	0.183709016393443	0.477459016393443	0.29375
-7	-0.137366310160428	-0.0312508854321619	0.490927419354839	0.522178304787001
2	0.147727272727272	0.0664420672409001	0.477459016393443	0.411016949152542
-11	0.194852941176471	0.153333883630494	0.445974576271187	0.292640692640693
-5	0.0700757575757575	0.0660860655737704	0.40983606557377	0.34375
11	0.0625000000000001	-0.0489139344262294	0.40983606557377	0.45875
7	-0.01707157784744	-0.0245309330628803	0.427801724137931	0.452332657200811
20	0.17929292929293	0.0207586618876943	0.391129032258065	0.37037037037037
0	-0.172867790811339	-0.076216287678477	0.477459016393443	0.55367530407192
-9	0.257451617010441	0.152689206033441	0.4169921875	0.264302981466559
0	-0.154789833822092	-0.0519444444444446	0.4625	0.514444444444444
-12	-0.152053093964859	-0.0161968954248368	0.496875	0.513071895424837
3	-0.218743469174503	-0.0983603990982714	0.445974576271187	0.544334975369458
2	0.123962312197606	0.0339636827223249	0.40983606557377	0.375872382851446
-3	0.080981028775147	0.0368341541374015	0.4169921875	0.380158033362599
-9	-0.0113636363636364	0.0488845962113659	0.411016949152542	0.362132352941177
2	0.0776515151515155	0.0265905542544888	0.470238095238095	0.443647540983607
12	0.539772727272728	0.238427419354839	0.490927419354839	0.2525
16	0.397629521016617	0.169507575757576	0.39375	0.224242424242424
6	0.0954423264907136	0.0351608187134503	0.4375	0.40233918128655
-6	0.0113636363636368	0.0334188660801566	0.457661290322581	0.424242424242424
1	0.146419843597263	0.0991348870056496	0.496875	0.39774011299435
8	0.0967436461388076	0.00637938335531052	0.445974576271187	0.439595192915876
2	0.0384897360703809	0.0197858731924359	0.4625	0.442714126807564
10	0.34469696969697	0.108258928571429	0.53125	0.422991071428571
20	0.506344230482161	0.232135717141715	0.40983606557377	0.177700348432056
2	0.0777629233511585	0.0196643155694879	0.39375	0.374085684430512
13	0.032514181221078	-0.0242730288836845	0.376024590163934	0.400297619047619
7	0.529753176930596	0.265153406976516	0.511270491803279	0.246117084826762
8	0.407441348973607	0.199837158808933	0.428125	0.228287841191067
-1	0.145833333333333	0.0870389344262292	0.496875	0.409836065573771
3	0.0386241446725313	0.02578581871345	0.428125	0.40233918128655
-14	0.21464858670741	0.175924085850556	0.53125	0.355325914149444
-7	-0.0871212121212123	-0.00738946845504229	0.477459016393443	0.484848484848485
-2	-0.234909579667644	-0.0917338709677417	0.424395161290323	0.516129032258065
-2	-0.0882575757575761	-0.00520833333333348	0.428125	0.433333333333333
-10	0.148729946524065	0.125607554034974	0.490927419354839	0.365319865319865
4	0.303030303030303	0.144305435720449	0.443647540983607	0.299342105263158
-2	-0.102161319073084	-0.0556346670371398	0.376059322033898	0.431693989071038
-5	-0.0767602495543673	-0.0160829831779519	0.490927419354839	0.507010402532791
11	0.4375	0.19858606557377	0.40983606557377	0.21125
0	0.307710166177908	0.189097222222222	0.496875	0.307777777777778
11	0.146019928347514	0.0590834548104955	0.359375	0.300291545189504
4	0.372525659824047	0.184222773308339	0.50297619047619	0.318753417167851
10	0.312683284457478	0.131053787635273	0.477459016393443	0.34640522875817
16	0.4308284457478	0.175499392835458	0.443647540983606	0.268148148148148
-7	0.0739241151005868	0.0621304622830905	0.524193548387097	0.462063086104006
3	-0.0263074291300092	-0.00837320029159799	0.424395161290323	0.432768361581921
10	-0.232198835647111	-0.145103324348607	0.404761904761905	0.549865229110512
7	-0.111375855327468	-0.108323785181268	0.443647540983607	0.551971326164875
24	-0.0386130536130531	-0.157075551782682	0.457661290322581	0.614736842105263
10	0.583333333333333	0.27875	0.53125	0.2525
-20	-0.242869875222817	0.00189393939393928	0.4625	0.46060606060606
8	-0.0578239289446183	-0.0507006241502903	0.424395161290323	0.475095785440613
11	0.179081133919844	0.0511693989071039	0.40983606557377	0.358666666666667
9	0.216340125391849	0.0974961967545638	0.428125	0.330628803245436
-3	0.107508912655971	0.0673415704665702	0.496875	0.42953342953343
-2	0.14572192513369	0.0812683284457477	0.4625	0.381231671554252
21	0.504804821615166	0.215076112412178	0.443647540983606	0.228571428571429
12	0.228552769070011	0.0770367785327812	0.477459016393443	0.400422237860661
7	-0.0531806156806148	-0.00860147170631004	0.424395161290323	0.432996632996633
-6	0.114461143695015	0.110736826287317	0.50297619047619	0.392239364188873
1	0.00152737047898321	0.00613211704565475	0.376024590163934	0.36989247311828
-19	-0.355057932263814	-0.0593309891024943	0.424395161290323	0.483726150392817
-5	-0.0454545454545449	0.00928322099181539	0.424395161290323	0.415111940298507
10	0.304875366568915	0.130805417700579	0.424395161290323	0.293589743589744
-3	0.105169340463458	0.0632451564828616	0.40983606557377	0.346590909090909
10	0.320075757575757	0.110314207650273	0.443647540983607	0.333333333333333
-2	0.227272727272728	0.138719088635732	0.48093220338983	0.342213114754098
-2	0.176136363636364	0.106161794354839	0.490927419354839	0.384765625
10	0.0273249738766979	-0.021551724137931	0.392241379310345	0.413793103448276
4	0.0630193059628543	0.018633392709696	0.443647540983607	0.425014148273911
2	0.164283968719453	0.0866263440860217	0.490927419354839	0.404301075268817
13	0.493462854349951	0.210195222986074	0.511270491803279	0.301075268817204
2	0.124780058651026	0.0797413793103448	0.4625	0.382758620689655
1	0.0599951124144671	0.0387493389740877	0.477459016393443	0.438709677419355
6	-0.215542521994135	-0.158221326164875	0.39375	0.551971326164875
-8	0.054924242424242	0.0726325757575755	0.496875	0.424242424242424
2	0.432040998217469	0.215237047898338	0.457661290322581	0.242424242424243
-7	-0.0378787878787874	0.0249386395511924	0.424395161290323	0.39945652173913
-8	0.0795454545454547	0.0882557551226917	0.411016949152542	0.322761194029851
2	0.193535141329258	0.0751838235294115	0.428125	0.352941176470588
5	-0.0109054252199416	-0.0311125366568916	0.428125	0.459237536656891
3	0.211204789833822	0.107718731194952	0.443647540983607	0.335928809788654
-1	-0.0855021994134902	-0.0234862506610262	0.4625	0.485986250661026
9	0.323435972629521	0.144125683060109	0.477459016393443	0.333333333333333
-2	-0.0605144183773215	-0.00839334851078699	0.376059322033898	0.384452670544685
-3	-0.0166177908113393	0.0227392913802221	0.40983606557377	0.387096774193548
1	0.535984848484849	0.272600446428572	0.513671875	0.241071428571428
-15	-0.190886809269162	-0.024802699672244	0.424395161290323	0.449197860962567
-7	0.116854469060351	0.0859882572431958	0.496875	0.410886742756804
19	0.440334378265413	0.183235080352095	0.40983606557377	0.226600985221675
6	0.238892961876833	0.115393518518518	0.496875	0.381481481481481
3	0.0841886608015641	0.0383121501121465	0.40983606557377	0.371523915461624
11	0.266745036572623	0.110242548217417	0.480932203389831	0.370689655172414
9	0.285182489923869	0.145334383753501	0.496875	0.351540616246499
-1	0.2370784457478	0.145736382866208	0.4625	0.316763617133792
2	-0.138269794721407	-0.0638368520170482	0.411016949152542	0.474853801169591
1	0.123961388074291	0.0744506608095625	0.445974576271187	0.371523915461624
7	0.130681818181819	0.0286290322580648	0.391129032258065	0.3625
-21	-0.125	0.0806302479008397	0.511270491803279	0.430640243902439
20	0.111742424242424	0.0114583333333332	0.428125	0.416666666666667
-3	-0.222598973607039	-0.0776945724526372	0.4625	0.540194572452637
4	0.211571358748778	0.109816384180791	0.4375	0.327683615819209
7	0.408369990224829	0.201230449657869	0.490927419354839	0.28969696969697
-4	0.00612745098039236	0.0156516297909742	0.376024590163934	0.36037296037296
23	0.632906445406445	0.281250998625891	0.511270491803279	0.230019493177388
21	0.527690700104493	0.237422272470322	0.40983606557377	0.172413793103448
-2	0.27038770053476	0.147153127685915	0.511270491803279	0.364117364117364
13	0.376893939393939	0.14811731557377	0.40983606557377	0.26171875
1	0.199359979101359	0.135359301774285	0.490927419354839	0.355568117580554
-11	0.110131779984721	0.105822804473902	0.496875	0.391052195526098
-10	0.00612745098039247	0.0461056827802385	0.376024590163934	0.329918907383696
12	0.46845063538612	0.222776175021036	0.480932203389831	0.258156028368794
4	0.0129521016617783	0.00416666666666626	0.4625	0.458333333333334
16	0.46845063538612	0.193893174380552	0.457661290322581	0.263768115942029
-5	-0.514143450635386	-0.205404429465575	0.391129032258065	0.59653346172364
6	0.038489736070381	-0.0130077658303466	0.4625	0.475507765830346
-13	-0.303141711229946	-0.0826158684765242	0.376024590163934	0.458640458640459
2	-0.0710532746823069	-0.0258979885057471	0.428125	0.454022988505747
-7	-0.176136363636364	-0.03632774831244	0.477459016393443	0.513786764705883
2	-0.213831867057674	-0.12388765294772	0.392241379310345	0.516129032258065
7	0.331439393939394	0.136270491803279	0.511270491803279	0.375
-6	0.236519607843137	0.148969811753903	0.428125	0.279155188246097
2	0.202762923351158	0.0884143155694878	0.4625	0.374085684430512
11	0.389759665621735	0.189146410401357	0.40983606557377	0.220689655172414
2	0.151515151515151	0.0702586206896549	0.4625	0.392241379310345
0	0.276392961876832	0.161424731182796	0.4625	0.301075268817204
14	0.451972309299895	0.215231446776612	0.428125	0.212893553223388
5	0.162433155080214	0.0402295791640054	0.477459016393443	0.437229437229437
11	0.0987597751710659	-0.00798545224541408	0.391129032258065	0.399114484503479
9	0.445075757575758	0.203578184110971	0.511270491803279	0.307692307692308
5	0.235398338220919	0.105740537886228	0.511270491803279	0.405529953917051
4	0.255681818181819	0.120974576271187	0.445974576271187	0.325
14	0.185025659824047	-0.0113561553653718	0.535714285714286	0.547070441079658
-5	0.113636363636364	0.0934355137711865	0.445974576271186	0.3525390625
12	0.477272727272728	0.189193548387097	0.524193548387097	0.335
-5	0.123106060606061	0.0954326923076923	0.428125	0.332692307692308
5	0.0173458725182865	0.0132843414358396	0.40983606557377	0.396551724137931
-2	0.113636363636364	0.0739352318548389	0.490927419354839	0.4169921875
-6	0.123997326203208	0.0904137101378353	0.443647540983606	0.353233830845771
10	0.312683284457478	0.131053787635273	0.477459016393443	0.34640522875817
10	0.579349951124144	0.293145290903246	0.477459016393443	0.184313725490196
-6	0.260360962566845	0.154232542819499	0.4375	0.283267457180501
4	0.0368599791013587	0.0319775804533775	0.457661290322581	0.425683709869203
2	0.000586510263929862	0.0120959525794204	0.40983606557377	0.39774011299435
16	0.442051564027371	0.174830336682531	0.443647540983607	0.268817204301075
10	-0.142773175100762	-0.106160714285715	0.428125	0.534285714285714
11	0.312414467253177	0.13383606557377	0.40983606557377	0.276
4	0.522727272727273	0.242244640605296	0.618269230769231	0.376024590163934
7	0.107832355816227	0.0286647810909704	0.376059322033898	0.347394540942928
-7	0.297701807995926	0.176420954109706	0.477459016393443	0.301038062283737
0	-0.235367790811339	-0.110027763088313	0.443647540983606	0.55367530407192
11	0.375	0.15733606557377	0.40983606557377	0.2525
4	0.43560606060606	0.226116071428571	0.428125	0.202008928571429
3	0.267045454545455	0.131601846246973	0.480932203389831	0.349330357142857
17	0.237619420809077	0.0496575780849978	0.490927419354839	0.441269841269841
11	0.372495112414467	0.157195928080381	0.443647540983607	0.286451612903226
-2	-0.116416177908114	-0.0299654587729681	0.477459016393443	0.507424475166411
-6	0.00623167155425175	0.0578079178885628	0.4625	0.404692082111437
15	0.316894312583967	0.136607142857143	0.39375	0.257142857142857
-11	0.0328079178885633	0.0905078465562338	0.4375	0.346992153443766
5	0.542669340463457	0.265349517906336	0.565625	0.300275482093664
-9	0.172794117647059	0.131985891399226	0.490927419354839	0.358941527955612
7	0.467253176930596	0.23134193156668	0.477459016393443	0.246117084826762
1	0.227272727272728	0.115448175568482	0.457661290322581	0.342213114754098
-3	0.226381461675579	0.127639095876801	0.40983606557377	0.28219696969697
1	-3.05474095791958e-05	0.00609796404019058	0.424395161290323	0.418297197250132
9	0.0173253470667261	-0.00464810924369763	0.428125	0.432773109243697
-2	0.310131779984721	0.161960388994307	0.496875	0.334914611005693
6	0.436203164651441	0.23827353522054	0.457661290322581	0.219387755102041
16	0.357960372960373	0.174347905282332	0.477459016393443	0.303111111111111
22	0.478260165760166	0.213126343422954	0.445974576271187	0.232848232848233
-1	0.0189393939393943	0.0172669491525425	0.411016949152542	0.39375
-5	-0.193181818181818	-0.0752164502164501	0.470238095238095	0.545454545454545
1	0.106060606060606	0.0520656779661016	0.428125	0.376059322033898
-4	0.0653966131907308	0.0493371212121212	0.428125	0.378787878787879
-16	0.409202317290553	0.279293399253077	0.557459677419355	0.278166278166278
7	0.22694618599791	0.111617074527253	0.490927419354839	0.379310344827586
8	0.339015151515151	0.154567307692308	0.39375	0.239182692307692
-14	-0.161096256684492	-0.00919840294840313	0.39375	0.402948402948403
1	0.188691348973607	0.108754784034992	0.4625	0.353745215965008
10	0.234042033235582	0.0845843672456579	0.457661290322581	0.373076923076923
-2	0.106060606060605	0.071370967741935	0.4625	0.391129032258065
10	0.424364613880743	0.189671215880894	0.457661290322581	0.267990074441687
2	0.101783968719453	0.0533602150537636	0.457661290322581	0.404301075268817
-7	-0.020088489941431	0.00885789600894299	0.376059322033898	0.367201426024955
5	0.030359008807285	0.0361324857811979	0.477459016393443	0.441326530612245
13	0.442489550679205	0.202671038151137	0.496875	0.294203961848863
6	0.0147058823529413	-0.0461004049713727	0.391129032258065	0.437229437229437
11	0.360948191593353	0.137034739454094	0.459615384615385	0.32258064516129
12	0.392202194357366	0.186745689655172	0.428125	0.241379310344828
-10	-0.0625000000000002	0.0381984530131608	0.477459016393443	0.439260563380282
1	0.168560606060606	0.0870233050847456	0.428125	0.341101694915254
14	0.443181818181818	0.199162888036275	0.376024590163934	0.17686170212766
9	0.320075757575757	0.135955233291299	0.443647540983606	0.307692307692308
11	0.520833333333333	0.23922193877551	0.496875	0.25765306122449
0	0.164884135472371	0.0794833581718827	0.40983606557377	0.330352707401888
6	0.220277370478983	0.0895696120378827	0.511270491803279	0.421700879765396
5	0.511363636363637	0.237023305084746	0.578125	0.341101694915254
14	0.398333706523362	0.188831719128329	0.445974576271187	0.257142857142857
10	0.179349951124145	0.050008036001286	0.477459016393443	0.427450980392157
-8	0.341911764705883	0.201984033038721	0.4814453125	0.279461279461279
-6	0.113413547237076	0.0833735078053258	0.39375	0.310376492194674
-6	0.424019607843137	0.252094811753902	0.53125	0.279155188246097
-4	-0.0413611925708696	0.0236742424242426	0.490927419354839	0.467253176930596
10	0.266312316715542	0.100383064516129	0.428125	0.327741935483871
-7	0.205436720142602	0.140021483491632	0.4625	0.322478516508367
11	-0.0760449320794149	-0.0911198099929627	0.39375	0.484869809992963
-9	-0.14605614973262	-0.0256165282804626	0.443647540983607	0.469264069264069
-2	0.27038770053476	0.147153127685915	0.511270491803279	0.364117364117364
3	0.430290811339198	0.239565058479532	0.496875	0.257309941520468
3	0.0176564027370479	0.000933414176042646	0.443647540983607	0.442714126807564
6	0.286809628543499	0.130831450411038	0.477459016393443	0.346627565982405
-10	0.103163992869875	0.108073178356892	0.480932203389831	0.372859025032938
-2	0.234848484848485	0.137099921935988	0.443647540983607	0.306547619047619
-3	-0.124682306940372	-0.0126322751322753	0.4625	0.475132275132275
2	0.167521994134897	0.0909760845383759	0.4625	0.371523915461624
6	-0.0454545454545449	-0.0722566244239629	0.424395161290323	0.496651785714286
13	0.28222751710655	0.0879896313364057	0.424395161290323	0.336405529953917
-2	0.168560606060605	0.104637096774193	0.4625	0.357862903225807
2	-0.0367032392894459	0.00938542825361527	0.457661290322581	0.448275862068966
8	0.165190700104493	0.0760896519726528	0.376024590163934	0.299934938191282
10	0.342283724340176	0.134875952815697	0.470238095238095	0.335362142422398
3	0.227495543672014	0.0904401154401155	0.470238095238095	0.37979797979798
6	-0.0197230929989548	-0.0147039930109459	0.477459016393443	0.492163009404389
8	0.25097751710655	0.0968488649940265	0.457661290322581	0.360812425328554
4	0.323099951124145	0.165919823355321	0.40983606557377	0.243916242218449
4	0.178030303030303	0.0719370146678173	0.443647540983607	0.371710526315789
17	0.519331243469175	0.21384872080089	0.524193548387097	0.310344827586207
2	0.0265151515151512	-0.000862068965517382	0.4625	0.463362068965517
14	0.383614369501466	0.151785714285714	0.4375	0.285714285714286
0	-0.00119745845552288	0.0279100529100529	0.470238095238095	0.442328042328042
10	0.375183284457478	0.164865263045109	0.511270491803279	0.34640522875817
4	0.13324780058651	0.0594614055299538	0.428125	0.368663594470046
7	0.295454545454546	0.136876629726206	0.376059322033898	0.239182692307692
5	0.374175219941349	0.190945747800586	0.4625	0.271554252199413
-3	0.127565982404692	0.0968265605362381	0.470238095238095	0.373411534701857
8	0.410935972629521	0.203285256410256	0.496875	0.293589743589744
2	0.133712121212122	0.0814453125000003	0.4814453125	0.4
-3	0.0113636363636359	0.0250704405737703	0.40983606557377	0.384765625
27	0.288409090909091	0.077004982320797	0.376024590163934	0.299019607843137
5	0.315896871945259	0.16110285795133	0.490927419354839	0.329824561403509
0	0.102161319073084	0.0431634897360706	0.424395161290323	0.381231671554252
-11	0.0639483065953661	0.0869680566156486	0.457661290322581	0.370693233706932
0	-0.0236217214158391	-0.0404411764705882	0.443647540983607	0.484088717454195
19	0.41317920585162	0.183597035323801	0.359375	0.175777964676198
6	0.176392961876833	0.0810185185185184	0.4625	0.381481481481481
1	0.100378787878788	0.0463709677419353	0.4375	0.391129032258065
10	0.183516617790812	0.0567194364084433	0.443647540983607	0.386928104575163
15	0.316894312583968	0.136607142857143	0.39375	0.257142857142857
10	0.281799853372434	0.108352896849549	0.404761904761905	0.296409007912355
-4	0.116043499511241	0.107291666666666	0.428125	0.320833333333333
11	0.352456011730206	0.144522190596669	0.490927419354839	0.34640522875817
-2	0.164772727272727	0.10261530980828	0.411016949152542	0.308401639344262
-5	0.178921568627451	0.110948994016249	0.513671875	0.402722880983751
12	0.360566875653083	0.162326195773081	0.424395161290323	0.262068965517241
7	0.203598484848485	0.0820381231671556	0.391129032258065	0.309090909090909
-1	0.0192570869990228	0.0490612732548218	0.524193548387097	0.475132275132275
0	-0.0736408199643495	-0.0547032828282829	0.428125	0.482828282828283
5	0.0208333333333337	-0.028684318555008	0.470238095238095	0.498922413793103
-4	-0.272727272727273	-0.113240857503153	0.40983606557377	0.523076923076923
1	0.446266233766233	0.225688559322034	0.496875	0.271186440677966
0	0.123802541544477	0.0933862433862434	0.535714285714286	0.442328042328042
8	0.160935972629521	0.0657852564102563	0.359375	0.293589743589744
3	0.293695014662756	0.159047619047619	0.535714285714286	0.376666666666667
6	0.110263929618768	0.0449875807252856	0.40983606557377	0.364848484848485
15	0.211610149110149	0.0732771706132362	0.443647540983607	0.37037037037037
5	0.102272727272728	0.0236753512880564	0.40983606557377	0.386160714285714
-2	0.00421554252199374	0.0327751040582724	0.496875	0.464099895941727
9	0.34599380504553	0.175563537953222	0.490927419354839	0.315363881401617
5	0.125977517106549	0.0502045238239881	0.411016949152542	0.360812425328554
2	0.401515151515151	0.210129310344828	0.53125	0.321120689655172
-1	-0.21878054740958	-0.0959609075997812	0.445974576271187	0.541935483870968
5	0.102272727272727	0.0266942330210773	0.376024590163934	0.349330357142857
12	0.3125	0.110091167614587	0.40983606557377	0.299744897959184
2	0.140151515151516	0.060402029664325	0.470238095238095	0.40983606557377
7	0.371212121212121	0.181478194726166	0.427801724137931	0.246323529411765
1	0.443517839687195	0.240696060285563	0.557459677419355	0.316763617133792
12	0.477187194525905	0.214927419354839	0.490927419354839	0.276
6	0.407642602495544	0.1946794332211	0.428125	0.2334455667789
5	0.290872434017595	0.137166295884316	0.4375	0.300333704115684
-3	-0.113123167155424	-0.00483265027322372	0.477459016393443	0.482291666666666
9	0.372953323558163	0.172626293365794	0.391129032258065	0.21850273889227
1	0.229166666666667	0.118084016393443	0.477459016393443	0.359375
4	0.170454545454546	0.063125695216908	0.490927419354839	0.427801724137931
9	0.400384897360703	0.19093334914611	0.428125	0.23719165085389
0	0.281219452590421	0.160022112382935	0.490927419354839	0.330905306971904
4	-0.187047898338222	-0.106547619047619	0.4625	0.569047619047619
11	0.206215479922377	0.0888317191283295	0.445974576271187	0.357142857142857
14	0.055615680615681	-0.011474512146555	0.457661290322581	0.469135802469136
14	0.306517556517556	0.137218196457327	0.4625	0.325281803542673
2	0.143939393939394	0.0628024193548389	0.490927419354839	0.428125
-3	0.0393270944741531	0.0279656685906685	0.359375	0.331409331409331
14	0.568181818181818	0.266785838855947	0.443647540983606	0.17686170212766
3	0.117535650623886	0.0374665964335268	0.376024590163934	0.338557993730408
-2	0.00378787878787867	0.0165441176470588	0.5	0.483455882352941
-5	0.0063152533740769	0.0114403436486368	0.40983606557377	0.398395721925134
16	0.287132407822063	0.106661462399167	0.40983606557377	0.303174603174603
12	0.30697091886608	0.115563517845002	0.40983606557377	0.294272547728769
0	0.227161319073084	0.109695747800587	0.490927419354839	0.381231671554252
6	0.0503726783968721	-0.00225146228994083	0.411016949152542	0.413268411442483
5	-0.0321969696969688	-0.0617041595925292	0.490927419354839	0.552631578947368
2	0.128946725317693	0.0809985632183906	0.428125	0.347126436781609
10	0.250183284457478	0.0972423122254367	0.443647540983607	0.34640522875817
1	-0.0227272727272724	-0.0187070333157058	0.391129032258065	0.409836065573771
-6	-0.05425219941349	0.0203384652981425	0.39375	0.373411534701857
1	-0.079545454545454	-0.0535505552308588	0.480932203389831	0.53448275862069
6	-0.086107038123167	-0.0681712962962961	0.428125	0.496296296296296
2	-0.00178253119429594	-0.0269320843091335	0.404761904761905	0.431693989071038
14	0.295034706672637	0.113334627329192	0.496875	0.383540372670807
9	0.493921065493647	0.227784540474742	0.524193548387097	0.296409007912355
12	0.161880504552919	0.0558237327188942	0.424395161290323	0.368571428571429
7	0.179924242424243	0.043154761904762	0.50297619047619	0.459821428571428
3	-0.02938660801564	-0.0103754475221404	0.443647540983607	0.454022988505747
-2	0.231060606060605	0.137903225806451	0.4625	0.324596774193549
-9	0.136382734912147	0.100140056022409	0.470238095238095	0.370098039215686
1	0.102272727272728	0.0472798783712324	0.490927419354839	0.443647540983607
-3	-0.119318181818182	-0.0404761904761907	0.4625	0.50297619047619
7	0.434720185728251	0.201309489070459	0.4814453125	0.280135823429542
6	0.0912756598240468	0.031641604010025	0.470238095238095	0.43859649122807
1	-0.0693731671554257	-0.0312124111536361	0.4625	0.493712411153636
1	-0.0710532746823069	-0.030664992067689	0.511270491803279	0.541935483870968
-5	-0.0738636363636366	-0.00870630296610181	0.376059322033898	0.384765625
3	0.193181818181818	0.086966506500848	0.443647540983607	0.356681034482759
7	0.170332355816227	0.0636224082096144	0.411016949152542	0.347394540942928
1	0.224376832844575	0.135869763205829	0.443647540983606	0.307777777777778
9	0.304737647410061	0.160260290556901	0.445974576271187	0.285714285714286
-5	0.0824420677361857	0.0644260400616334	0.411016949152542	0.346590909090909
23	0.614718614718614	0.291328828828829	0.4625	0.171171171171171
-3	0.0170454545454548	0.0313120347394542	0.490927419354839	0.459615384615385
-4	-0.164076246334311	-0.0313110931755001	0.411016949152542	0.442328042328043
-6	-0.136363636363636	-0.0316650853889943	0.391129032258065	0.422794117647059
-5	-0.284103128054741	-0.0672815358690418	0.490927419354839	0.558208955223881
-7	-0.102272727272727	-0.0297619047619047	0.470238095238095	0.5
-4	0.289772727272727	0.176497477931904	0.477459016393443	0.300961538461538
6	0.1261119257087	0.0565624666879865	0.376059322033898	0.319496855345912
-5	-0.0816622103386807	-0.0176551280314319	0.511270491803279	0.528925619834711
4	0.380009775171066	0.192922691879867	0.457661290322581	0.264738598442714
-7	-0.385472370766489	-0.160913128479749	0.391129032258065	0.552042160737813
6	0.267045454545455	0.108330933179724	0.457661290322581	0.349330357142857
4	0.328598484848485	0.171841294298922	0.480932203389831	0.309090909090909
6	0.0347934995112413	-0.00813963270996593	0.376024590163934	0.3841642228739
4	0.12310606060606	0.0395089285714285	0.4625	0.422991071428571
11	0.189296187683284	0.0502551020408161	0.4625	0.412244897959184
5	0.151403743315508	0.0310656437035892	0.490927419354839	0.45986177565125
12	0.425457157784744	0.214908170914543	0.427801724137931	0.212893553223388
-5	-0.0210561497326199	0.0135661759171448	0.511270491803279	0.497704315886134
10	0.187683284457478	0.0634308368156006	0.40983606557377	0.34640522875817
15	0.392463427377221	0.152702914585947	0.490927419354839	0.338224504768892
6	0.431891495601173	0.220756528417819	0.457661290322581	0.236904761904762
1	0.229166666666667	0.118084016393443	0.477459016393443	0.359375
-13	-0.206439393939394	-0.00483732876712362	0.496875	0.501712328767123
-4	-0.289119644723093	-0.0682887985389401	0.443647540983606	0.511936339522547
10	-0.00966562173458729	-0.0478448275862069	0.4625	0.510344827586207
11	0.193536348708762	0.0826932084309133	0.40983606557377	0.327142857142857
9	-0.320650048875855	-0.236315359477124	0.39375	0.630065359477124
0	0.325642984466514	0.162005785920926	0.40983606557377	0.247830279652845
-9	-0.160093582887701	-0.034325592885376	0.428125	0.462450592885376
-8	0.0946969696969692	0.100367647058823	0.4625	0.362132352941177
6	0.290841886608016	0.138281813374357	0.40983606557377	0.271554252199413
19	0.213594276094276	0.0550369358429467	0.376024590163934	0.320987654320988
-7	-0.12689393939394	-0.0177705223880598	0.428125	0.44589552238806
-2	0.109848484848485	0.0705503512880563	0.40983606557377	0.339285714285714
-1	0.083333333333333	0.0521004098360655	0.428125	0.376024590163934
5	0.184659090909091	0.0846590909090907	0.39375	0.309090909090909
-8	-0.302139037433156	-0.11234223921323	0.40983606557377	0.522178304787001
3	0.293783422459893	0.134205125337575	0.424395161290323	0.290190035952748
-6	0.134469696969697	0.096988025415445	0.490927419354839	0.393939393939394
-1	0.189505347593582	0.0989614381520117	0.496875	0.397913561847988
-1	-0.0507575757575757	0.010792349726776	0.477459016393443	0.466666666666667
-7	-0.25189393939394	-0.0793376865671643	0.428125	0.507462686567164
5	0.320063538611926	0.164094038860593	0.457661290322581	0.293567251461988
3	0.321524064171123	0.154092376550004	0.480932203389831	0.326839826839827
-2	-0.0113636363636364	0.0063634072580645	0.391129032258065	0.384765625
3	0.181929590017825	0.0695618565530944	0.443647540983606	0.374085684430512
4	0.185025659824047	0.0860084875940535	0.404761904761905	0.318753417167851
-6	-0.0753119429590015	-0.0127592746236812	0.411016949152542	0.423776223776224
-7	0.0550547491723966	0.0482443700720406	0.40983606557377	0.36159169550173
6	0.457442067736185	0.214649099038071	0.477459016393443	0.262809917355372
5	0.307642961876832	0.150247434017595	0.496875	0.346627565982405
12	0.191771159874608	0.0661637931034482	0.39375	0.327586206896552
4	0.357954545454546	0.172100945494995	0.457661290322581	0.285560344827586
-13	0.0661764705882353	0.102356641291067	0.477459016393443	0.375102375102375
12	0.312072336265885	0.115885416666667	0.44921875	0.333333333333333
9	0.0651026392961879	-0.00298444724674218	0.40983606557377	0.412820512820513
8	0.273839198435972	0.124150685637694	0.443647540983607	0.319496855345912
-1	0.0145898641588298	0.0516529609619154	0.424395161290323	0.372742200328407
1	0.0614613880742916	0.0394930336909185	0.411016949152542	0.371523915461624
-4	-0.0487967914438504	-0.0097204707860446	0.477459016393443	0.487179487179487
6	0.293597262952102	0.142657724788872	0.545081967213115	0.402424242424242
-5	0.18560606060606	0.129807692307692	0.4625	0.332692307692308
5	0.20366568914956	0.106078677547604	0.411016949152542	0.304938271604938
-8	0.24520944741533	0.160380083803106	0.443647540983607	0.283267457180501
12	0.477272727272728	0.197177419354839	0.490927419354839	0.29375
4	0.380681818181818	0.190889830508475	0.515889830508474	0.325
10	0.344299853372434	0.141090992087645	0.4375	0.296409007912355
6	0.528409090909091	0.264959016393443	0.477459016393443	0.2125
-8	-0.155303030303031	-0.0250000000000005	0.428125	0.453125
-6	0.102272727272727	0.0901027648642035	0.443647540983606	0.353544776119403
8	0.34090909090909	0.154807692307692	0.4625	0.307692307692308
0	-0.0168226381461681	-0.0204229797979801	0.359375	0.37979797979798
7	0.211436950146628	0.094047619047619	0.404761904761905	0.310714285714286
7	0.0433254963427381	0.0109613136717172	0.445974576271187	0.435013262599469
-3	0.318181818181818	0.187053571428571	0.428125	0.241071428571428
6	0.109726295210166	0.0427469135802469	0.4625	0.419753086419753
13	0.368462854349951	0.142572272166402	0.443647540983607	0.301075268817204
-6	-0.0752199413489736	0.0321969696969697	0.4625	0.43030303030303
11	0.462748171368861	0.230972906403941	0.4625	0.231527093596059
-1	-0.0791177908113394	-0.0204523549581209	0.443647540983606	0.464099895941727
5	-0.0580851619644719	-0.0267958087700877	0.443647540983607	0.470443349753694
-2	0.231060606060606	0.13679435483871	0.428125	0.29133064516129
6	0.176930596285435	0.0825633383010434	0.40983606557377	0.327272727272727
-2	0.0856729055258468	0.0454254079254079	0.4375	0.392074592074592
21	0.330047267547268	0.112878310214376	0.443647540983606	0.33076923076923
15	0.068844230482162	-0.0299549434884427	0.443647540983607	0.473602484472049
6	0.494318181818182	0.2314453125	0.4814453125	0.25
3	0.0680704099821744	0.00441420786815511	0.428125	0.423710792131845
-4	0.134915329768271	0.087494268027055	0.511270491803279	0.423776223776224
4	0.282308377896614	0.119103296592173	0.457661290322581	0.338557993730408
13	0.248852440662785	0.101377279635258	0.428125	0.326747720364742
4	-0.034312957157785	-0.00897988505747144	0.427801724137931	0.436781609195402
-23	-0.112662337662338	0.0443524096385541	0.39375	0.349397590361446
-8	0.0869174942704354	0.0788278546712803	0.53125	0.45242214532872
13	-0.0279332736229292	-0.0652165653495443	0.39375	0.458966565349544
17	0.247996089931574	0.0511387163561076	0.404761904761905	0.353623188405797
-8	-0.265151515151515	-0.0832145402708483	0.376024590163934	0.459239130434783
16	0.348092998955068	0.121137177312983	0.477459016393443	0.35632183908046
6	0.1886119257087	0.0915200938066305	0.411016949152542	0.319496855345912
4	0.164298446651388	0.0455429799184557	0.40983606557377	0.364293085655315
-2	0.026960784313726	0.01476023976024	0.470238095238095	0.455477855477855
5	0.232063279857397	0.0903839531680439	0.428125	0.337741046831956
14	0.191197691197691	0.0727453442142709	0.411016949152542	0.338271604938272
5	0.414772727272727	0.198770491803279	0.511270491803279	0.3125
9	0.341914838035527	0.167785472018089	0.443647540983607	0.275862068965517
2	0.167521994134897	0.0909760845383757	0.4625	0.371523915461624
6	0.349309628543499	0.164642925820874	0.511270491803279	0.346627565982405
2	0.00058651026392964	0.0120959525794203	0.40983606557377	0.39774011299435
5	0.301270772238514	0.146410256410257	0.523076923076923	0.376666666666667
-10	0.0624999999999997	0.0962970445624565	0.477459016393443	0.381161971830986
2	0.414864369501467	0.216737805645791	0.601190476190476	0.384452670544685
9	0.443181818181818	0.198612862547289	0.477459016393443	0.278846153846154
-8	-0.170677361853832	-0.048697807568775	0.391129032258065	0.43982683982684
0	-0.1875	-0.0982142857142859	0.470238095238095	0.568452380952381
7	0.238208699902249	0.112641242937853	0.445974576271187	0.333333333333333
12	0.310305642633228	0.126185344827586	0.496875	0.370689655172414
11	0.113897596656217	0.0236291690220464	0.40983606557377	0.386206896551724
4	0.0948274764451238	0.000460070012432257	0.424395161290323	0.42393509127789
2	-0.0108504398826972	0.00974910394265271	0.524193548387097	0.514444444444444
-4	-0.0852272727272726	-0.0180485498108448	0.40983606557377	0.427884615384615
13	0.408235581622679	0.171947004608295	0.457661290322581	0.285714285714286
16	0.340759814897746	0.142681827289121	0.391129032258065	0.248447204968944
1	-0.195595063538611	-0.0960140137493387	0.457661290322581	0.55367530407192
13	0.287722048066876	0.117378152595855	0.391129032258065	0.27375087966221
1	0.295454545454546	0.1604142314436	0.445974576271187	0.285560344827586
7	0.359402852049911	0.143398268398269	0.470238095238095	0.326839826839827
-9	0.18789470333588	0.128872738327498	0.490927419354839	0.36205468102734
8	0.100775904203324	0.0174255459428168	0.376059322033898	0.358633776091082
4	0.000183284457477728	-0.0192540322580647	0.496875	0.516129032258065
2	0.296554252199413	0.162166295884316	0.4625	0.300333704115684
7	0.294672531769305	0.143003144654088	0.4625	0.319496855345912
1	0.289772727272728	0.14871430460074	0.490927419354839	0.342213114754098
7	0.103005865102639	0.035259433962264	0.39375	0.358490566037736
2	0.265151515151515	0.128024980483997	0.470238095238095	0.342213114754098
0	0.0625000000000001	0.0338114754098361	0.477459016393443	0.443647540983607
-4	0.126002673796791	0.0815340909090908	0.428125	0.346590909090909
11	0.4375	0.183709016393443	0.477459016393443	0.29375
-3	0.10199780058651	0.0845510112647208	0.428125	0.343573988735279
12	0.259995112414467	0.0993055555555555	0.39375	0.294444444444444
10	0.458333333333333	0.203125	0.496875	0.29375
6	0.238892961876832	0.115393518518518	0.496875	0.381481481481481
1	0.0416666666666667	0.0160860655737705	0.40983606557377	0.39375
1	0.33355614973262	0.166347905282331	0.477459016393443	0.311111111111111
4	0.31347751710655	0.154998609566185	0.490927419354839	0.335928809788654
3	0.121323529411764	0.0340341658529899	0.443647540983606	0.409613375130617
-5	-0.0643939393939401	0.000240384615384226	0.428125	0.427884615384615
7	0.497214795008913	0.228117501999467	0.490927419354839	0.262809917355372
1	0.262442704354469	0.122043245264207	0.428125	0.306081754735793
3	0.216703323558162	0.114177341248145	0.445974576271187	0.331797235023041
-8	-0.3125	-0.0950172811059908	0.457661290322581	0.552678571428572
0	-0.0756461675579325	-0.0556073025335321	0.443647540983607	0.499254843517139
-3	0.105169340463458	0.0632451564828614	0.40983606557377	0.346590909090909
8	0.128665689149561	0.0379082039028278	0.457661290322581	0.419753086419753
6	0.148154936461389	0.0485311059907836	0.490927419354839	0.442396313364055
7	0.303005865102639	0.152240566037736	0.39375	0.241509433962264
13	0.238636363636364	0.0451593588798821	0.445974576271187	0.400815217391304
4	0.0554130009775176	0.012618186874305	0.490927419354839	0.478309232480534
-2	0.0226158645276289	0.0136577468230693	0.428125	0.414467253176931
6	0.0870652336169582	0.0565695097994429	0.411016949152542	0.3544474393531
11	0.583333333333333	0.27359693877551	0.53125	0.25765306122449
6	-0.0679579041648007	-0.0255952380952381	0.4625	0.488095238095238
4	-0.087121212121212	-0.0761702986279257	0.404761904761905	0.480932203389831
8	0.223435972629521	0.100160256410256	0.39375	0.293589743589744
-5	0.278186274509804	0.164492352737509	0.443647540983607	0.279155188246097
-10	0.189839572192513	0.137962399333907	0.40983606557377	0.271873666239863
5	0.570063538611926	0.297158554989625	0.590725806451613	0.293567251461988
-7	-0.43939393939394	-0.175279850746269	0.39375	0.569029850746269
4	0.123106060606061	0.0370535714285717	0.496875	0.459821428571428
1	0.0868768328445751	0.0663479052823317	0.477459016393443	0.411111111111111
1	0.374697606315254	0.183843619414979	0.443647540983607	0.259803921568627
-2	0.168560606060605	0.103528225806451	0.428125	0.324596774193549
-8	0.0774286987522289	0.0805378089652286	0.490927419354839	0.41038961038961
14	0.211940836940837	0.0779318296322134	0.477459016393443	0.399527186761229
0	-0.1066715542522	-0.044959677419355	0.39375	0.438709677419355
16	0.314041274817136	0.111510579937304	0.428125	0.316614420062696
4	0.0630193059628543	0.018633392709696	0.443647540983607	0.425014148273911
5	0.0397727272727273	-0.0191927693208431	0.477459016393443	0.496651785714286
0	0.343805704099822	0.167080965909091	0.513671875	0.346590909090909
-8	-0.301897122485358	-0.121042687908497	0.44921875	0.570261437908497
1	0.33355614973262	0.166347905282331	0.477459016393443	0.311111111111111
-5	-0.011363636363636	0.0262513241525426	0.411016949152542	0.384765625
8	0.340505865102639	0.163144396329518	0.443647540983607	0.280503144654088
5	0.270833333333333	0.119201559934319	0.404761904761905	0.285560344827586
-2	0.0702476445123509	0.0249347722960154	0.490927419354839	0.465992647058824
0	0.25	0.135245901639344	0.443647540983607	0.308401639344262
-8	0.00467914438502581	0.0448722794588791	0.477459016393443	0.432586736934564
-2	0.121151026392961	0.0997321970682625	0.443647540983607	0.343915343915344
6	0.240224828934507	0.117319508448541	0.391129032258065	0.273809523809524
13	0.329820381231671	0.130881091283459	0.39375	0.262868908716541
11	0.326796187683284	0.142410714285714	0.428125	0.285714285714286
16	0.404799223764741	0.188425587026297	0.411016949152542	0.222591362126246
-10	-0.00328176725235518	0.0333483245914432	0.376059322033898	0.342710997442455
8	0.336339198435972	0.157962161047531	0.477459016393443	0.319496855345912
8	0.391648338220919	0.181050008481087	0.477459016393443	0.296409007912355
12	0.185305642633228	0.057435344827586	0.428125	0.370689655172414
13	0.327651515151515	0.0939880952380954	0.470238095238095	0.37625
9	0.278840125391849	0.131871196754564	0.4625	0.330628803245436
11	0.352792033235582	0.139508222643896	0.457661290322581	0.318153067678684
-1	0.0890151515151515	0.052734375	0.4375	0.384765625
10	0.258006792058516	0.113018737738171	0.443647540983607	0.330628803245436
9	0.127602639296188	0.0308270281630938	0.443647540983606	0.412820512820513
2	-0.217772482893451	-0.123917896847093	0.445974576271187	0.56989247311828
14	0.221068443051202	0.0538591056034486	0.4814453125	0.427586206896552
-12	-0.053921568627451	0.0399410774410774	0.4625	0.422558922558922
-7	-0.412878787878788	-0.157784011220196	0.391129032258065	0.548913043478261
5	-0.0419932079414839	-0.0199353448275862	0.359375	0.379310344827586
3	0.231283422459894	0.100938996305317	0.391129032258065	0.290190035952748
1	0.0853386809269163	0.0259673012515424	0.457661290322581	0.431693989071038
13	0.36213954056696	0.122811536408919	0.4814453125	0.358633776091082
5	0.294324291300098	0.138352433503113	0.490927419354839	0.352574985851726
-6	-0.16388146167558	-0.0548144488361885	0.4375	0.492314448836189
-11	-0.195967023172905	-0.0361504388143731	0.443647540983607	0.47979797979798
-1	0.212121212121212	0.118375576036867	0.457661290322581	0.339285714285714
9	0.351356304985337	0.142163765147636	0.502976190476191	0.360812425328554
0	-0.0625	-0.0338114754098361	0.40983606557377	0.443647540983607
3	0.340237047898338	0.178908942540892	0.443647540983607	0.264738598442714
-5	0.0795454545454549	0.0758154790563314	0.490927419354839	0.415111940298508
-2	0.0708110516934045	0.0264786242365798	0.477459016393443	0.450980392156863
3	0.237280058651026	0.132153288110043	0.443647540983606	0.311494252873563
12	0.270472582972583	0.131828703703704	0.428125	0.296296296296296
2	0.193535141329258	0.0751838235294115	0.428125	0.352941176470588
-12	-0.102212248535777	-0.00251245646284792	0.4169921875	0.419504643962848
-5	0.190138782785841	0.110257590368487	0.477459016393443	0.367201426024956
-3	0.193181818181818	0.12485119047619	0.496875	0.37202380952381
1	0.163569189431258	0.129570217917675	0.4625	0.332929782082324
5	-0.00910312805474056	-0.0142013299377474	0.424395161290323	0.43859649122807
1	0.289772727272728	0.149259650978319	0.457661290322581	0.308401639344262
10	0.0569709188660802	-0.0297591273421055	0.40983606557377	0.439595192915876
17	0.399914467253177	0.155256782945736	0.428125	0.272868217054263
6	0.444630124777184	0.200884129311549	0.490927419354839	0.29004329004329
-5	0.206722689075631	0.108947804473903	0.5	0.391052195526097
-4	0.0743092691622106	0.0557926363254234	0.511270491803279	0.455477855477855
11	0.24574780058651	0.0925027322404371	0.40983606557377	0.317333333333333
2	0.125111408199644	0.037501774182102	0.50297619047619	0.465474416294088
15	0.450822884012539	0.209734195402299	0.428125	0.218390804597701
7	0.222965542521994	0.0927628575776018	0.428125	0.335362142422398
4	0.0967023172905529	0.0170433478275526	0.391129032258065	0.374085684430512
0	-0.0624999999999997	-0.0338114754098359	0.40983606557377	0.443647540983606
-4	0.314171122994653	0.174416451909121	0.391129032258065	0.216712580348944
4	0.326796187683284	0.170060483870968	0.428125	0.258064516129032
0	0.233177361853833	0.120859013867489	0.445974576271187	0.325115562403698
9	0.210227272727272	0.0604779411764704	0.428125	0.367647058823529
3	0.0427908113391979	0.0276681286549705	0.39375	0.366081871345029
0	0.153121734587252	0.121784906726964	0.511270491803279	0.389485585076314
6	0.0856549364613886	0.0152649769585256	0.457661290322581	0.442396313364055
-4	0.386140819964349	0.217906706359785	0.590725806451613	0.372819100091827
5	0.239430596285435	0.111850305960565	0.443647540983607	0.331797235023041
12	0.14557210031348	0.045343137254902	0.4375	0.392156862745098
11	0.458333333333333	0.212563775510204	0.428125	0.215561224489796
7	0.402737047898338	0.193110151399416	0.477459016393443	0.284348864994026
-9	-0.0854500891265594	0.00382070115676686	0.443647540983607	0.43982683982684
-18	-0.226632925897632	-0.0228553921568628	0.428125	0.450980392156863
-5	0.0354655425219939	0.0659739454094291	0.4625	0.396526054590571
-7	-0.275018328445748	-0.0795287674530575	0.39375	0.473278767453057
-14	-0.624888591800357	-0.222359248219904	0.376024590163934	0.598383838383838
7	0.166666666666668	0.0413240131578952	0.44921875	0.407894736842105
19	0.338594276094276	0.122659886662619	0.443647540983607	0.320987654320988
-14	0.0469665138782783	0.0828632272581162	0.443647540983606	0.36078431372549
-1	0.124888591800356	0.0624158694293542	0.443647540983606	0.381231671554252
9	0.197518286311389	0.082233552202461	0.477459016393443	0.395225464190982
2	0.12558651026393	0.0797189033990924	0.477459016393443	0.39774011299435
14	0.357844574780059	0.131359725613301	0.477459016393443	0.346099290780142
2	0.00164956011730311	0.013284050179212	0.424395161290323	0.411111111111111
-5	0.203654188948307	0.128819979455573	0.411016949152542	0.28219696969697
11	0.337267839687195	0.143432203389831	0.480932203389831	0.3375
-15	-0.359737076648842	-0.0878345959595961	0.428125	0.515959595959596
5	0.227272727272727	0.0912983021077284	0.477459016393443	0.386160714285714
1	0.269162210338681	0.133068388806094	0.40983606557377	0.276767676767677
-9	-0.323863636363637	-0.10276981555334	0.411016949152542	0.513786764705883
-15	0.187611408199643	0.166338383838384	0.4625	0.296161616161616
17	0.325365726227796	0.101339451242121	0.457661290322581	0.35632183908046
-3	0.230169340463458	0.130868107302534	0.477459016393443	0.346590909090909
8	0.22980816226784	0.0983869627676112	0.376059322033898	0.277672359266287
-6	-0.147727272727273	-0.0300036701737216	0.477459016393443	0.507462686567164
2	0.320298573975044	0.15122940294863	0.511270491803279	0.360041088854648
22	0.395232082732083	0.142913679808841	0.424395161290323	0.281481481481482
9	0.160305642633229	0.0693141480730222	0.359375	0.290060851926978
10	0.341800356506238	0.12310606060606	0.4625	0.339393939393939
11	0.337267839687195	0.143432203389831	0.480932203389831	0.3375
-1	0.397727272727272	0.219939846641988	0.511270491803279	0.29133064516129
1	0.0616752199413487	0.0393879852378348	0.428125	0.388737014762165
-4	0.0476317799847206	0.028676470588235	0.4625	0.433823529411765
-7	-0.0209860703812321	0.0508485796822338	0.4625	0.411651420317766
1	0.14795008912656	0.064381520119225	0.40983606557377	0.345454545454545
7	0.202651515151515	0.0651483050847457	0.40625	0.341101694915254
-1	0.0597201857282508	0.0540870231079407	0.5458984375	0.49181141439206
-4	0.131127450980392	0.0832745806106464	0.443647540983607	0.36037296037296
3	0.125	0.0483358392564244	0.424395161290323	0.376059322033898
4	0.37310606060606	0.186830357142857	0.4625	0.275669642857143
0	0.306256530825497	0.192818409343715	0.490927419354839	0.298109010011123
8	0.360789345063539	0.180615099147004	0.445974576271187	0.265359477124183
-7	-0.265151515151515	-0.0926906779661015	0.376059322033898	0.46875
-8	-0.403347996089932	-0.137572892439411	0.392241379310345	0.529814271749756
4	-0.132086999022482	-0.0871802002224692	0.391129032258065	0.478309232480534
5	0.361742424242424	0.175	0.4625	0.2875
0	0.477495543672014	0.260593220338983	0.48093220338983	0.220338983050847
1	0.138146167557933	0.0567658148303312	0.404761904761905	0.347996089931574
4	0.115530303030304	0.0333800690250219	0.477459016393443	0.444078947368421
4	0.0667155425219937	0.0201036866359445	0.4625	0.442396313364055
20	0.619122678396872	0.267117895545315	0.490927419354839	0.223809523809524
12	0.500519305962854	0.241962464520446	0.40983606557377	0.167873601053325
-3	0.267045454545455	0.158235111662531	0.490927419354839	0.332692307692308
7	0.238208699902249	0.112641242937853	0.445974576271187	0.333333333333333
-4	0.102272727272728	0.0813051702395967	0.477459016393443	0.396153846153846
9	0.075183284457478	0.000674019607843246	0.428125	0.427450980392157
-7	-0.125792589763178	-0.044219161545215	0.428125	0.472344161545215
8	0.442509775171066	0.206578554360813	0.490927419354839	0.284348864994026
-9	-0.343805704099823	-0.128428304787001	0.39375	0.522178304787001
4	0.0681818181818186	0.0135593220338986	0.376059322033898	0.3625
3	-0.0604946524064174	-0.0725489062473236	0.443647540983606	0.51619644723093
-2	0.266648338220919	0.168737881191609	0.545081967213115	0.376344086021505
4	0.274844028520499	0.108009575170592	0.50297619047619	0.394966615305598
11	0.213594276094276	0.105373677248677	0.428125	0.322751322751323
-5	0.221368092691622	0.138451391711451	0.511270491803279	0.372819100091827
-4	0.252896613190731	0.152462121212121	0.53125	0.378787878787879
-2	0.293560606060605	0.172278225806451	0.496875	0.324596774193549
-6	0.247103386809269	0.154980499885075	0.477459016393443	0.322478516508367
-8	-0.499999999999999	-0.18721198156682	0.424395161290323	0.611607142857143
3	0.154203323558162	0.079219714129501	0.411016949152542	0.331797235023041
3	0.198863636363636	0.0907894736842104	0.4625	0.371710526315789
-13	0.00935828877005362	0.0864415085726561	0.545081967213115	0.458640458640459
-6	0.080436720142602	0.0675152142543444	0.470238095238095	0.402722880983751
1	0.104166666666667	0.0498975409836068	0.443647540983607	0.39375
9	0.337121212121212	0.141224747474747	0.39375	0.252525252525253
-3	0.144445505474917	0.0741622468659596	0.443647540983607	0.369485294117647
5	0.255009775171066	0.126668084158516	0.411016949152542	0.284348864994026
5	0.092803030303031	0.01358234295416	0.457661290322581	0.444078947368421
-5	0.329545454545455	0.19894980741454	0.490927419354839	0.291977611940298
9	0.194269305962854	0.0705706179066836	0.443647540983607	0.373076923076923
8	0.276515151515151	0.109615384615384	0.428125	0.318509615384615
15	0.248533724340176	0.0195852534562213	0.535714285714286	0.516129032258065
7	-0.0364681295715773	-0.0287356321839077	0.404761904761905	0.433497536945813
15	0.209235209235209	0.0795798806023342	0.392241379310345	0.31266149870801
10	0.186003176930596	0.051202289482689	0.40983606557377	0.358633776091082
14	0.391745036572623	0.153503893214683	0.524193548387097	0.370689655172414
3	0.137646627565982	0.0642665130568356	0.50297619047619	0.438709677419355
2	0.0265151515151515	0.000323275862068984	0.428125	0.427801724137931
-9	-0.194630124777183	-0.0506368489529549	0.424395161290323	0.475032010243278
1	-0.258553274682307	-0.132099418297197	0.40983606557377	0.541935483870968
9	0.0896871945259043	0.0110169491525424	0.411016949152542	0.4
-16	0.0797682709447414	0.135400739350069	0.545081967213115	0.409681227863046
7	-0.0364681295715777	-0.028735632183908	0.404761904761905	0.433497536945813
9	-0.0630317957904168	-0.0515056022408966	0.4625	0.514005602240896
2	0.191446725317693	0.115373563218391	0.4625	0.347126436781609
0	-0.125	-0.0665322580645162	0.424395161290323	0.490927419354839
-5	0.00757575757575768	0.0399590163934427	0.477459016393443	0.4375
-3	0.136363636363636	0.0911084784836065	0.443647540983606	0.3525390625
8	0.354166666666667	0.159209870388833	0.445974576271187	0.286764705882353
-8	-0.155303030303031	-0.0250000000000003	0.428125	0.453125
16	0.305828445747801	0.107876442015786	0.376024590163934	0.268148148148148
-2	0.109848484848485	0.072697111631538	0.477459016393443	0.404761904761905
3	-0.241966031280547	-0.139300847457627	0.424395161290323	0.56369600874795
14	0.418560606060607	0.134239130434783	0.459239130434783	0.325
13	0.442489550679205	0.202671038151137	0.496875	0.294203961848863
5	0.172898338220919	0.0719290624763919	0.477459016393443	0.405529953917051
8	0.285935972629521	0.134535256410256	0.428125	0.293589743589744
-6	0.0397727272727273	0.065374969415219	0.511270491803279	0.44589552238806
-2	0.0674847211611916	0.0267967267552182	0.428125	0.401328273244782
20	0.639941077441078	0.28585473914775	0.557459677419355	0.271604938271605
3	0.395711143695015	0.201900921658986	0.50297619047619	0.301075268817204
11	0.0816532258064516	-0.0343108504398827	0.5	0.534310850439883
6	0.289772727272727	0.125694444444444	0.4625	0.336805555555556
-7	0.0842245989304805	0.0785108548168246	0.4625	0.383989145183175
7	0.0841886608015641	0.0107918600779521	0.40983606557377	0.399044205495818
4	-0.0457966764418377	-0.0289830508474576	0.411016949152542	0.44
-4	0.286602368220015	0.159558823529411	0.496875	0.337316176470588
-5	0.221368092691622	0.138451391711451	0.511270491803279	0.372819100091827
16	0.308987047898338	0.0589407426993361	0.511270491803279	0.452329749103943
20	0.358245920745921	0.128290056717476	0.490927419354839	0.362637362637363
-3	0.228275401069519	0.129253601589667	0.443647540983607	0.314393939393939
15	0.339283968719453	0.122267501715855	0.424395161290323	0.302127659574468
11	0.333333333333333	0.112065018315018	0.470238095238095	0.358173076923077
11	0.375	0.149897540983607	0.443647540983606	0.29375
-5	0.283235581622679	0.185210497539639	0.411016949152542	0.225806451612903
0	0.110071301247771	0.0483585858585857	0.4625	0.414141414141414
4	0.322937356760887	0.129261026444476	0.470238095238095	0.340977068793619
5	0.361742424242424	0.171875	0.496875	0.325
-9	-0.0568181818181823	0.0286684782608693	0.428125	0.399456521739131
-1	-0.0397727272727276	-0.0145590957165522	0.40983606557377	0.424395161290323
-12	0.0866755793226381	0.10676578268651	0.477459016393443	0.370693233706932
-7	0.100378787878788	0.104166666666667	0.568452380952381	0.464285714285715
-8	-0.128787878787879	-0.0223484848484851	0.4625	0.484848484848485
-1	-0.0416666666666672	-0.0143954918032789	0.496875	0.511270491803279
-7	-0.376893939393939	-0.144496268656716	0.39375	0.538246268656716
6	0.0909090909090913	0.00245901639344287	0.477459016393443	0.475
4	0.36129679144385	0.174878246753247	0.428125	0.253246753246753
4	0.107843137254902	0.0222762569613302	0.40983606557377	0.38755980861244
-4	0.258467023172906	0.143794016928346	0.404761904761905	0.260967887833559
6	-0.354319403714565	-0.237084755540599	0.40983606557377	0.64692082111437
10	0.502535434995113	0.233598132536992	0.511270491803279	0.277672359266287
9	0.0660527690700106	0.00863427838413716	0.443647540983607	0.435013262599469
-18	-0.346479500891266	-0.0693424630924632	0.39375	0.463092463092463
10	0.250519305962854	0.0916829978950861	0.40983606557377	0.318153067678684
5	0.164772727272727	0.0574868266978922	0.443647540983606	0.386160714285714
-1	0.118921065493647	0.0813172043010755	0.457661290322581	0.376344086021505
0	0.17369257086999	0.118290960451978	0.445974576271187	0.327683615819209
-8	0.0549242424242419	0.0726325757575755	0.496875	0.424242424242424
0	-1.11022302462516e-16	-5.55111512312578e-17	0.477459016393443	0.477459016393443
14	0.273210553814003	0.0968089543937711	0.424395161290323	0.327586206896552
3	-0.134378265412748	-0.0515194635582153	0.40983606557377	0.461355529131986
6	0.0611677115987459	0.0296575670498084	0.428125	0.398467432950191
8	0.398839198435973	0.191773636457367	0.511270491803279	0.319496855345912
-2	-0.0189393939393948	0.00372983870967702	0.428125	0.424395161290323
10	0.439393939393939	0.19069431051109	0.477459016393443	0.286764705882353
2	0.272727272727273	0.137503473186996	0.443647540983607	0.30614406779661
-8	0.232954545454545	0.155397727272727	0.428125	0.272727272727273
6	0.106891495601173	0.043509984639017	0.391129032258065	0.347619047619048
7	0.318181818181819	0.141129032258065	0.391129032258065	0.25
2	-0.0240102639296191	-0.0145891268075641	0.428125	0.442714126807564
7	0.223839198435972	0.09939072327044	0.496875	0.39748427672956
-8	0.157642602495544	0.108574478178368	0.490927419354839	0.382352941176471
0	0.288101604278074	0.151325757575757	0.39375	0.242424242424243
1	0.128543499511241	0.0743521946060285	0.40983606557377	0.335483870967742
9	0.320075757575758	0.135955233291299	0.443647540983607	0.307692307692308
-1	-0.0567067736185389	-0.0373494162940887	0.428125	0.465474416294089
8	0.211876832844574	0.0754032258064514	0.4625	0.387096774193548
9	0.585227272727272	0.290992647058823	0.496875	0.205882352941177
3	0.130681818181818	0.053155031091012	0.40983606557377	0.356681034482759
0	0.350490196078431	0.180886736214605	0.477459016393443	0.296572280178838
5	0.189616755793227	0.0488542067925015	0.513671875	0.464817668207499
3	0.267045454545454	0.133474576271186	0.445974576271186	0.3125
1	0.190707478005865	0.109371582832149	0.428125	0.318753417167851
-7	-0.00189393939394011	0.0473880597014922	0.4625	0.415111940298508
-2	0.356302521008404	0.168685121107267	0.5	0.331314878892733
7	0.0413000977517107	-0.0157820582916263	0.411016949152542	0.426799007444169
-5	0.295454545454545	0.176648351648352	0.523076923076923	0.346428571428572
12	0.29751828631139	0.119260564598932	0.477459016393443	0.358198451794511
-5	0.299417494270435	0.170206447963801	0.428125	0.257918552036199
-1	-0.0435606060606055	-0.0176906779661014	0.376059322033898	0.39375
-5	0.0641233766233762	0.0435096153846152	0.428125	0.384615384615385
9	0.222805642633229	0.103689148073022	0.39375	0.290060851926978
-12	0.026464222052458	0.0670774477554182	0.513671875	0.446594427244582
0	0.233177361853832	0.11707702020202	0.496875	0.37979797979798
15	0.329963427377221	0.119436785553689	0.457661290322581	0.338224504768892
5	0.260263929618768	0.135227272727273	0.4625	0.327272727272727
0	0.110071301247771	0.0483585858585857	0.4625	0.414141414141414
1	0.408919843597262	0.238594632768361	0.53125	0.292655367231638
3	0.23952834799609	0.129722222222222	0.4375	0.307777777777778
5	0.121285434995112	0.056030444964871	0.477459016393443	0.421428571428572
-5	0.0606060606060603	0.0610576923076921	0.39375	0.332692307692308
7	0.141703323558163	0.0509274193548388	0.490927419354839	0.44
-4	-0.210227272727273	-0.0815100882723833	0.40983606557377	0.491346153846154
-6	-0.295454545454545	-0.112059973924381	0.411016949152542	0.523076923076923
-4	0.0321969696969693	0.0433593749999998	0.428125	0.384765625
5	0.192118768328445	0.0960284933645587	0.443647540983607	0.347619047619048
16	0.14345063538612	-0.00742169237961643	0.391129032258065	0.398550724637681
7	0.407196969696969	0.196992924528302	0.428125	0.231132075471698
2	0.200868983957219	0.0895670062695923	0.428125	0.338557993730408
-5	-0.0390701368523944	0.0270588622019638	0.44921875	0.422159887798036
0	-0.0755347593582893	-0.0547348484848488	0.39375	0.448484848484849
-1	0.020833333333333	0.0182889344262294	0.428125	0.40983606557377
11	0.223289345063539	0.0707331857474175	0.457661290322581	0.386928104575163
0	0.0247128543499511	0.0253833950290852	0.40983606557377	0.384452670544685
-8	0.13211739241151	0.100774170027232	0.48093220338983	0.380158033362599
2	0.272727272727273	0.137503473186996	0.443647540983607	0.30614406779661
-10	-0.220588235294117	-0.0600494189203863	0.391129032258065	0.451178451178451
-2	0.26849376114082	0.146049684984111	0.477459016393443	0.331409331409331
5	0.217803030303031	0.0859507640067914	0.457661290322581	0.37171052631579
-1	0.0246212121212126	0.0206893241167437	0.490927419354839	0.470238095238095
7	0.146688660801564	0.0446033354877881	0.443647540983606	0.399044205495818
-4	0.373551693404635	0.210081107417173	0.443647540983607	0.233566433566434
9	0.317778592375367	0.143892016636235	0.424395161290323	0.280503144654088
0	0.259848484848485	0.157661290322581	0.457661290322581	0.3
-7	0.0227877514642233	0.0323980879763883	0.4814453125	0.449047224523612
-7	-0.238636363636364	-0.070139223722276	0.443647540983606	0.513786764705882
-1	-0.0329414838035534	0.0400120124364045	0.53125	0.491237987563595
-12	-0.210227272727272	-0.0282436142277392	0.411016949152542	0.439260563380282
13	0.467711388074292	0.17892116524029	0.557459677419355	0.378538512179065
4	0.482954545454546	0.240927419354839	0.490927419354839	0.25
8	0.481060606060606	0.228406950864578	0.480932203389831	0.252525252525253
9	0.135935972629521	0.042691256830601	0.376024590163934	0.333333333333333
9	0.413856304985337	0.174901860385731	0.535714285714286	0.360812425328554
1	-0.230742913000977	-0.0995813502555966	0.391129032258065	0.490710382513661
15	0.44255485893417	0.185755336617406	0.470238095238095	0.28448275862069
-8	0.247103386809269	0.164327703262129	0.477459016393443	0.313131313131313
5	0.469251336898396	0.218242140373288	0.545081967213115	0.326839826839827
2	-0.164772727272727	-0.106053764934704	0.40983606557377	0.515889830508475
11	0.284848484848486	0.112428842504744	0.524193548387097	0.411764705882353
12	0.285520527859238	0.107061827956989	0.424395161290323	0.317333333333333
-26	-0.150302393684747	0.0359299316108578	0.376024590163934	0.340094658553077
0	0.0475713012477718	0.0160182331792501	0.376059322033898	0.360041088854648
