3
[ 2.970, 1.990, 1.990, 2.591, 2.591, 2.591, 2.970, 2.591, 2.970, 2.970, 2.591, 2.970, 1.990, 2.970, 1.990, 2.591, 1.990, 2.591, 2.970, 2.591, 2.591, 2.970, 2.970, 2.591, 1.990, 2.970, 1.990, 2.591, 2.591, 2.970, 2.591, 2.591, 2.970, 2.970, 2.591, 2.970, 2.970, 1.990, 2.591, 1.990, 1.990, 1.990, 2.591, 2.970, 2.591, 2.591, 2.970, 1.990, 2.591, 2.591, 2.970, 1.990, 1.990, 2.591, 1.990, 2.591, 2.591, 1.990, 2.970, 2.970, 2.591, 1.990, 2.591, 2.970, 2.591, 2.591, 2.591, 2.970, 2.970, 1.990, 2.591, 1.990, 2.591, 2.591, 2.591, 2.591, 2.591, 2.970, 2.970, 1.990, 2.970, 1.990, 1.990, 2.970, 2.970, 2.591, 1.990, 1.990, 2.591, 2.970, 2.970, 1.990, 2.591, 2.970, 2.591, 2.970, 2.970, 2.970, 1.990, 2.591, 1.990, 1.990, 2.591, 2.970, 2.970, 2.970, 2.970, 2.591, 2.970, 2.591, 2.591, 2.591, 1.990, 2.970, 2.970, 2.591, 1.990, 2.591, 2.970, 2.591, 2.970, 1.990, 1.990, 1.990, 1.990, 2.591, 2.970, 1.990, 2.591, 2.591, 2.970, 2.591, 1.990, 2.591, 2.591, 2.591, 2.591, 2.591, 2.591, 2.970, 2.591, 2.591, 2.591, 2.591, 2.970, 2.970, 2.970, 1.990, 1.990, 2.591, 2.970, 2.591, 2.591, 1.990, 1.990, 1.990, 2.970, 2.591, 2.591, 2.591, 2.970, 2.591, 1.990, 1.990, 1.990, 2.970, 2.970, 2.591, 1.990, 2.591, 2.970, 1.990, 2.591, 2.970, 2.970, 2.970, 2.591, 2.970, 1.990, 2.970, 2.970, 1.990, 1.990, 2.970, 1.990, 2.591, 2.970, 2.591, 1.990, 2.970, 2.970, 2.970, 1.990, 1.990, 1.990, 2.591, 2.591, 1.990, 2.970, 1.990 ]
3
[ 0.785, 0.972, 0.785, 0.314, 0.314, 0.314, 0.785, 0.972, 0.314, 0.314, 0.785, 0.972, 0.314, 0.785, 0.314, 0.785, 0.785, 0.314, 0.785, 0.785, 0.785, 0.785, 0.785, 0.785, 0.972, 0.972, 0.972, 0.314, 0.972, 0.785, 0.314, 0.785, 0.972, 0.972, 0.785, 0.785, 0.314, 0.972, 0.972, 0.314, 0.972, 0.785, 0.785, 0.314, 0.314, 0.314, 0.785, 0.314, 0.314, 0.314, 0.314, 0.785, 0.972, 0.972, 0.785, 0.785, 0.972, 0.972, 0.785, 0.314, 0.785, 0.785, 0.785, 0.972, 0.785, 0.314, 0.785, 0.785, 0.972, 0.314, 0.972, 0.972, 0.972, 0.972, 0.314, 0.972, 0.972, 0.785, 0.785, 0.972, 0.972, 0.314, 0.314, 0.972, 0.972, 0.314, 0.972, 0.785, 0.785, 0.785, 0.314, 0.785, 0.972, 0.972, 0.785, 0.314, 0.314, 0.314, 0.972, 0.314, 0.785, 0.314, 0.785, 0.972, 0.972, 0.314, 0.314, 0.972, 0.314, 0.785, 0.972, 0.785, 0.972, 0.314, 0.314, 0.972, 0.314, 0.972, 0.972, 0.314, 0.785, 0.314, 0.972, 0.972, 0.314, 0.972, 0.785, 0.314, 0.785, 0.785, 0.314, 0.785, 0.314, 0.314, 0.972, 0.314, 0.785, 0.972, 0.972, 0.785, 0.972, 0.972, 0.972, 0.314, 0.972, 0.785, 0.785, 0.314, 0.972, 0.972, 0.785, 0.314, 0.972, 0.314, 0.785, 0.972, 0.785, 0.314, 0.314, 0.314, 0.785, 0.314, 0.785, 0.785, 0.314, 0.314, 0.972, 0.972, 0.785, 0.972, 0.314, 0.314, 0.972, 0.972, 0.314, 0.785, 0.972, 0.314, 0.785, 0.972, 0.314, 0.972, 0.972, 0.972, 0.972, 0.314, 0.972, 0.785, 0.785, 0.314, 0.972, 0.785, 0.314, 0.972, 0.785, 0.314, 0.972, 0.972, 0.314, 0.314 ]