3
[ 4.152, 3.395, 4.152, 4.152, 4.152, 3.702, 4.152, 3.702, 4.152, 4.152, 3.702, 3.395, 3.395, 3.395, 4.152, 3.395, 4.152, 3.702, 4.152, 4.152, 4.152, 3.395, 4.152, 3.395, 3.702, 3.702, 4.152, 3.395, 3.702, 3.702, 3.395, 4.152, 3.395, 3.702, 3.702, 3.395, 3.702, 4.152, 4.152, 3.702, 3.702, 3.702, 4.152, 3.702, 4.152, 3.702, 4.152, 4.152, 4.152, 3.702 ]
3
[ 0.416, 0.255, 0.255, 0.255, 0.416, 0.255, 0.416, 0.416, 0.255, 0.525, 0.255, 0.525, 0.416, 0.416, 0.255, 0.525, 0.416, 0.255, 0.255, 0.255, 0.525, 0.416, 0.416, 0.255, 0.416, 0.525, 0.416, 0.255, 0.255, 0.416, 0.525, 0.416, 0.416, 0.255, 0.255, 0.255, 0.416, 0.525, 0.255, 0.525, 0.525, 0.416, 0.255, 0.416, 0.416, 0.525, 0.416, 0.416, 0.525, 0.416 ]