3
[ 2.655, 5.486, 1.703, 5.486, 2.655, 1.703, 2.655, 5.486, 5.486, 1.703, 5.486, 2.655, 2.655, 1.703, 5.486, 1.703, 1.703, 1.703, 2.655, 5.486, 5.486, 2.655, 2.655, 1.703, 2.655, 1.703, 2.655, 1.703, 2.655, 5.486, 5.486, 1.703, 5.486, 2.655, 2.655, 2.655, 2.655, 2.655, 2.655, 2.655, 2.655, 5.486, 5.486, 1.703, 5.486, 5.486, 1.703, 1.703, 5.486, 2.655 ]
3
[ 0.534, 0.698, 0.698, 0.315, 0.315, 0.315, 0.698, 0.315, 0.698, 0.534, 0.534, 0.698, 0.315, 0.315, 0.315, 0.315, 0.315, 0.534, 0.315, 0.698, 0.534, 0.315, 0.698, 0.534, 0.315, 0.315, 0.534, 0.315, 0.534, 0.315, 0.315, 0.534, 0.534, 0.698, 0.315, 0.315, 0.315, 0.698, 0.315, 0.315, 0.698, 0.315, 0.534, 0.534, 0.698, 0.315, 0.315, 0.315, 0.698, 0.698 ]