7
[ 7.712, 4.697, 4.697, 1.231, 7.712, 7.712, 7.712, 4.697, 7.712, 7.712, 4.697, 7.712, 4.697, 7.712, 1.231, 4.697, 7.712, 4.697, 1.231, 7.712, 7.712, 1.231, 4.697, 4.697, 7.712, 7.712, 7.712, 7.712, 7.712, 4.697, 4.697, 7.712, 7.712, 7.712, 7.712, 7.712, 4.697, 1.231, 1.231, 4.697, 1.231, 7.712, 4.697, 7.712, 7.712, 1.231, 4.697, 4.697, 7.712, 7.712, 7.712, 7.712, 4.697, 13.855, 4.697, 4.697, 4.697, 7.712, 4.697, 7.712, 4.697, 7.712, 7.712, 7.712, 7.712, 4.697, 7.712, 7.712, 1.231, 4.697, 1.014, 13.855, 7.712, 7.712, 7.712, 7.712, 7.712, 4.697, 7.712, 4.697, 4.697, 4.697, 1.231, 2.987, 7.712, 4.697, 4.697, 7.712, 7.712, 4.697, 7.712, 1.231, 7.712, 7.712, 4.697, 4.697, 4.697, 7.712, 7.712, 7.712, 7.712, 7.712, 7.712, 4.697, 7.712, 7.712, 4.697, 7.712, 1.231, 7.712, 4.697, 4.697, 4.697, 7.712, 7.712, 7.712, 1.231, 1.231, 7.712, 1.231, 4.697, 7.712, 4.697, 4.697, 7.712, 7.712, 7.712, 1.231, 7.712, 7.156, 4.697, 7.712, 4.697, 7.712, 4.697, 4.697, 7.712, 7.712, 7.712, 7.712, 4.697, 7.712, 7.712, 7.712, 7.712, 4.697, 1.231, 4.697, 7.712, 4.697, 1.231, 7.712, 7.712, 4.697, 1.231, 7.712, 1.231, 7.712, 4.697, 4.697, 7.712, 4.697, 7.712, 7.712, 4.697, 7.712, 7.712, 7.712, 1.231, 7.712, 4.697, 1.231, 7.712, 7.712, 7.712, 4.697, 7.712, 7.712, 2.987, 4.697, 7.712, 7.712, 1.231, 1.014, 4.697, 2.987, 1.231, 4.697, 7.712, 7.712, 4.697, 4.697, 7.712, 7.712, 7.712, 2.987, 7.712, 13.855, 7.712, 1.231 ]
3
[ 0.175, 0.175, 0.741, 0.837, 0.741, 0.175, 0.741, 0.175, 0.741, 0.741, 0.741, 0.175, 0.175, 0.175, 0.175, 0.741, 0.175, 0.175, 0.175, 0.175, 0.741, 0.175, 0.741, 0.741, 0.175, 0.175, 0.175, 0.175, 0.175, 0.175, 0.741, 0.837, 0.741, 0.175, 0.175, 0.741, 0.175, 0.175, 0.741, 0.175, 0.837, 0.175, 0.175, 0.741, 0.175, 0.741, 0.175, 0.741, 0.175, 0.175, 0.175, 0.741, 0.175, 0.741, 0.175, 0.175, 0.175, 0.175, 0.741, 0.175, 0.175, 0.175, 0.175, 0.175, 0.837, 0.741, 0.741, 0.175, 0.175, 0.741, 0.741, 0.175, 0.175, 0.741, 0.741, 0.175, 0.175, 0.837, 0.175, 0.175, 0.175, 0.175, 0.741, 0.741, 0.837, 0.175, 0.175, 0.741, 0.175, 0.175, 0.741, 0.175, 0.741, 0.741, 0.175, 0.175, 0.175, 0.175, 0.175, 0.175, 0.741, 0.175, 0.175, 0.175, 0.175, 0.175, 0.741, 0.175, 0.175, 0.741, 0.741, 0.175, 0.175, 0.741, 0.175, 0.175, 0.741, 0.175, 0.175, 0.741, 0.741, 0.741, 0.741, 0.741, 0.741, 0.175, 0.175, 0.175, 0.175, 0.175, 0.741, 0.175, 0.175, 0.175, 0.175, 0.175, 0.175, 0.175, 0.175, 0.175, 0.741, 0.175, 0.741, 0.175, 0.175, 0.175, 0.175, 0.175, 0.175, 0.175, 0.175, 0.741, 0.741, 0.741, 0.175, 0.175, 0.175, 0.741, 0.741, 0.175, 0.175, 0.175, 0.175, 0.175, 0.741, 0.175, 0.741, 0.175, 0.175, 0.175, 0.741, 0.175, 0.175, 0.175, 0.175, 0.175, 0.837, 0.837, 0.175, 0.175, 0.741, 0.175, 0.175, 0.741, 0.741, 0.175, 0.175, 0.175, 0.741, 0.741, 0.175, 0.741, 0.175, 0.741, 0.741, 0.175, 0.741, 0.741, 0.175, 0.741 ]