pars_sum	pars_var	pars_disp	obs_disp	sim_disp
5	0.261175599508305	0.0978222425153186	0.779396934247681	0.681574691732363
-27	0.117883959335995	0.111740996216658	0.772874756651526	0.661133760434868
-23	-0.211817208029793	-0.0538517165400232	0.673773987206823	0.727625703746846
1	0.0629426397424622	0.0244966062909706	0.676542659835152	0.652046053544181
-42	-0.14532972392937	0.0391498214035716	0.793860884257957	0.754711062854386
-3	0.220313465352972	0.107416844581088	0.739769785757558	0.63235294117647
-12	-0.0849518746138602	-0.0118161706905827	0.821556424519468	0.83337259521005
-17	0.080324808380213	0.07136919327429	0.722798646174332	0.651429452900042
-1	0.538636880954701	0.268188063613578	0.850135937413305	0.581947873799727
4	0.130936006243291	0.0498821437801633	0.747204934735914	0.69732279095575
-3	0.164839202679412	0.0855005777511841	0.652523897367097	0.567023319615913
-1	0.246174641795078	0.113900215567617	0.664259927797833	0.550359712230216
-11	0.316307352128246	0.184223596458197	0.87436444152862	0.690140845070423
-1	0.281220347382883	0.1371801571298	0.746947082767979	0.609766925638179
14	0.417559262510972	0.158966198419665	0.747201492537312	0.588235294117647
3	0.324979308884705	0.145767173317754	0.755487269534679	0.609720096216925
7	0.616571821015149	0.295994110783606	0.769843962008142	0.473849851224536
10	0.517465532411411	0.22950125659411	0.784380679627691	0.554879423033581
15	0.727533056534041	0.342529171984749	0.797994759029283	0.455465587044534
6	0.435655342864895	0.18999298760531	0.831278390655419	0.64128540305011
-15	-0.0734301751108022	-0.00809260449559523	0.704017506452699	0.712110110948294
20	0.196241017136539	0.053100421420113	0.636976408281175	0.583875986861062
-52	-0.00895522388059611	0.126126078505829	0.806686126562758	0.680560048056928
-14	0.0279289825382898	0.046465150509323	0.809377027903959	0.762911877394636
17	0.493905472636812	0.2048716114417	0.785118525021947	0.580246913580247
-2	0.233827594055859	0.116018361866539	0.77771071115013	0.661692349283591
4	0.357391961759832	0.168263919884263	0.786257392283865	0.617993472399603
-2	0.0441127694859049	0.0273052591380439	0.681292784199304	0.65398752506126
-11	0.014569785014146	0.0229320398328282	0.711929861183591	0.688997821350763
-1	0.311826559678116	0.145038901053904	0.874898236092266	0.729859335038362
-11	-0.145468117643736	-0.0481889607274795	0.846368862401772	0.894557823129251
7	0.334870581731861	0.145584288107413	0.805970149253731	0.660385861146319
10	0.0544508030905977	-0.0104122225909592	0.725844461901021	0.73625668449198
-5	0.0409065782200071	0.0329644454909329	0.73493844645386	0.701974000962928
19	0.3322966651405	0.108245293984659	0.72561488332983	0.617369589345171
-11	0.280375898286343	0.168267952486004	0.82691022499443	0.658642272508426
4	0.0342211228101679	-0.00379386447482644	0.707170668397145	0.710964532871972
5	0.295782157387289	0.124403125989935	0.77906089988016	0.654657773890225
-2	0.466522796066892	0.2259677197254	0.86698376250615	0.64101604278075
-8	0.17280265339967	0.104526609377356	0.815637720488468	0.711111111111111
-11	-0.0582372475203294	-0.00854506131860222	0.794916395466278	0.80346145678488
-19	-0.248080752195321	-0.0815204816104872	0.676108508552129	0.757628990162616
-15	0.416458070318226	0.234380001246738	0.818547710883784	0.584167709637046
11	0.502991578057424	0.227989093401548	0.737779503967153	0.509790410565604
-1	0.152182713881572	0.0735357652083981	0.76865671641791	0.695120951209512
2	0.416252903698671	0.193661445373473	0.684396200814111	0.490734755440638
-13	0.160303059864076	0.107413116034319	0.791815828606047	0.684402712571727
-2	0.314857917843632	0.152820285209673	0.702594040865781	0.549773755656109
-3	0.0455545373177071	0.0192387073241452	0.802076573653472	0.782837866329327
-3	0.0242122719734639	0.0210341215999624	0.852598322257325	0.831564200657362
-24	0.042695757413497	0.0744545914323517	0.797702935138433	0.723248343706082
5	0.420463281607328	0.195864366802546	0.748239932413406	0.55237556561086
4	0.229443913963884	0.0940172564102436	0.763654256191569	0.669636999781325
-14	-0.0210239058037422	0.015502391044404	0.720442730169378	0.704940339124974
-17	-0.0400912106136022	0.0195387441875572	0.740671641791043	0.721132897603486
-3	-0.0727147858816668	-0.0390396287302408	0.778415614236509	0.81745524296675
-1	0.522937599583777	0.260500572085644	0.790212506242023	0.52971193415638
-1	0.208395988190342	0.0982579894805139	0.78734148804848	0.689083498567966
-22	0.289777497228328	0.182880170060254	0.761194029850746	0.578313859790492
27	0.363765323708257	0.121777880068545	0.650595941157522	0.528818061088977
-23	-0.0657992716157807	0.023535020752578	0.75172644241479	0.728191421662212
-4	0.183713784021071	0.0918568920105356	0.746268656716418	0.654411764705882
6	0.389016678925868	0.167556730970902	0.780645508917505	0.613088777946603
-28	0.119188371866161	0.120092821488243	0.724050203527816	0.603957382039573
7	0.0931795272005986	0.0214511230741834	0.617039358368301	0.595588235294118
-1	0.351133222775014	0.176113895909081	0.85222240446121	0.676108508552129
3	0.189788818893936	0.0757417627860804	0.750973393900065	0.675231631113985
2	-0.074847982310672	-0.0426360842844615	0.703632572431956	0.746268656716418
-5	0.217247097844112	0.120500933316755	0.737779503967153	0.617278570650397
0	0.318655731409263	0.151312685911966	0.781799955446646	0.63048726953468
1	0.114950591729104	0.0451561275997471	0.676108508552129	0.630952380952382
9	0.25249195319144	0.0931631847197207	0.75033921302578	0.65717602830606
3	0.162784403444348	0.0626738640347059	0.763654256191569	0.700980392156863
21	0.502594379813542	0.202818356357686	0.845244580019608	0.642426223661922
-8	0.0502441634677637	0.0345319003796093	0.67910447761194	0.644572577232331
-7	0.365241602445292	0.18995097658292	0.823977936404933	0.634026959822012
17	0.435446948265209	0.180575959792582	0.702594040865782	0.5220180810732
7	0.322771394209717	0.13433116082278	0.729072031148606	0.594740870325825
-3	0.0135483429187735	0.0042602624299557	0.707817788381512	0.703557525951556
-5	0.264650603193183	0.135113302936443	0.752760361759973	0.61764705882353
-16	0.0136246870224033	0.0397877228360022	0.72561488332983	0.685827160493828
-25	-0.0560961532208255	0.0340678903036599	0.76865671641791	0.734588826114251
15	0.288110340430853	0.0989158229829862	0.721031207598372	0.622115384615385
7	-0.0824765063571067	-0.0601984745345706	0.705523477502995	0.765721952037565
-17	0.267417326325772	0.166367947144108	0.786257392283865	0.619889445139758
-16	-0.16645936981758	-0.0431837794436573	0.726750861079218	0.769934640522876
-2	0.186346047540073	0.0869732221246686	0.836973222124669	0.75
6	0.197333593470555	0.0749420574518025	0.760717688154968	0.685775630703166
-14	0.02678988531414	0.0401378106980863	0.767741219552793	0.727603408854707
28	0.398507462686567	0.137156739277713	0.719167321288295	0.582010582010582
1	0.201147487598978	0.0858076339185971	0.702558635394456	0.616751001475859
-31	-0.481242444805694	-0.158392448151377	0.654047281838979	0.812439729990357
-14	0.205927188635798	0.124464319701368	0.740671641791044	0.616207322089676
-34	-0.256607960151538	-0.0421985198640642	0.745269932863562	0.787468452727627
12	0.226211091861905	0.0685359964881471	0.781716417910448	0.713180421422301
5	0.234994307124748	0.0928769272614675	0.772874756651526	0.679997829390058
5	0.325608943024011	0.142274623248594	0.733263827919226	0.590989204670632
16	0.44761697927043	0.176029318685221	0.849465359768321	0.6734360410831
1	0.309630785531338	0.139004674372846	0.823977936404933	0.684973262032087
-22	-0.255437603737432	-0.0752229485128751	0.723880597014925	0.7991035455278
20	0.434187798662336	0.164441613662825	0.721771576898119	0.557329963235294
-28	-0.153511377799237	-0.00449402931117593	0.820174221827664	0.82466825113884
-19	0.016936013126484	0.049125581914562	0.799934152765582	0.75080857085102
23	0.406883038649604	0.143288380673438	0.753731343283582	0.610442962610145
-17	0.238444543182664	0.152997542690122	0.801464376232049	0.648466833541927
-30	-0.49769375060673	-0.162019220042276	0.747204934735914	0.90922415477819
-12	0.0684362406278789	0.0556891402138929	0.774281577188682	0.718592436974789
6	0.126254408507057	0.0379974342966719	0.711989503034279	0.673992068737607
-20	0.407960199004974	0.244737260943196	0.782722077345613	0.537984816402417
3	0.207286607371519	0.0887631315021001	0.685346501692282	0.596583370190182
29	0.533717035736351	0.203296775108349	0.767741219552793	0.564444444444444
-20	0.280631727579364	0.176345121966687	0.758175415059534	0.581830293092847
4	0.316086235489219	0.150964028505809	0.779766580630681	0.628802552124872
-14	0.0342665756186373	0.0495184484463435	0.783582089552239	0.734063641105895
8	0.587674527510334	0.268517040466115	0.799934152765582	0.531417112299467
8	0.676064123825317	0.323400941708582	0.857626366309715	0.534225424601132
2	0.347284877079228	0.161992301164418	0.722798646174332	0.560806345009914
8	0.439298759292602	0.193544310532894	0.755487269534678	0.561942959001784
-6	0.259950403034679	0.130381004770927	0.752067003113927	0.621685998343
16	0.287683843555942	0.097225908968587	0.687530091478093	0.590304182509506
18	0.199369808084711	0.0481060861877356	0.648523118672371	0.600417032484636
-3	0.117144740018242	0.0553698180215526	0.734131540101688	0.678761722080136
-28	-0.034574752780627	0.0434378885328903	0.725429456491131	0.68199156795824
23	0.498344200470857	0.193315107644615	0.767741219552793	0.574426111908178
-7	0.517932557051583	0.265294624773775	0.843283582089552	0.577988957315778
-4	-0.0719734660033182	-0.0252229635835951	0.676108508552129	0.701331472135724
-4	0.0153058238220674	0.0113918379536109	0.684508492022646	0.673116654069035
3	0.480410854225602	0.229051579389775	0.835820895522388	0.606769316132613
-2	0.0914147358717123	0.0373428779855203	0.705352547606793	0.668009669621273
-13	-0.251949403310245	-0.0948763477785032	0.633107191316147	0.72798353909465
-33	0.0297520673907337	0.0889047312729099	0.771050408335682	0.682145677062772
-8	0.0691418509760255	0.0436773117462894	0.735685210312076	0.692007898565786
-2	-0.122280753097265	-0.0607341435563495	0.740671641791043	0.801405785347392
-4	-0.168460782770945	-0.0839655541578982	0.76951038167098	0.853475935828878
-4	0.33099209833187	0.165496049165935	0.753731343283582	0.588235294117647
-15	-0.110307937436996	-0.0195809981533518	0.727989267147409	0.747570265300761
5	0.152735505479141	0.0527638471279805	0.91888384166126	0.866119994533279
-7	0.213412512600395	0.11946305376447	0.813432835820896	0.693969782056425
17	0.149473874841245	0.0271355998818001	0.656998028724304	0.629862428842504
-23	-0.365721307588291	-0.128417089417397	0.656716417910448	0.785133507327845
-12	0.12949874808962	0.090968441100962	0.755843424387498	0.664874983286536
-1	0.0506898502098561	0.0156695856359932	0.684290412345055	0.668620826709062
-18	-0.111823236757393	-0.0110811203927726	0.75172644241479	0.762807562807563
3	-0.113608915016542	-0.0788705187334601	0.775231648449203	0.854102167182663
-26	0.0767307254576761	0.0916514638065526	0.703632572431957	0.611981108625404
3	0.0180390447932057	-0.0092225363000551	0.705349656213316	0.714572192513371
-4	0.217133287809318	0.114719985886957	0.711592413870498	0.59687242798354
-5	-0.0257633401619393	-0.00452539114621953	0.752760361759973	0.757285752906192
3	0.290215588723048	0.135948050841222	0.77906089988016	0.643112849038938
-18	-0.449075883879106	-0.185479792887565	0.641791044776121	0.827270837663686
6	0.179104477611938	0.0729001000676319	0.785796293258979	0.712896193191347
9	0.399794156928725	0.163002213925064	0.84611239829732	0.683110184372257
-3	0.1178104753177	0.0563600870887959	0.753731343283582	0.697371256194786
26	0.489675068197012	0.169008667842731	0.789298189901555	0.620289522058823
-4	-0.167005657984587	-0.0775549128263784	0.695158891887426	0.772713804713804
21	0.558768250252007	0.231117239740788	0.771034935214039	0.53991769547325
-7	-0.0644555002763938	-0.0127431434883335	0.738805970149254	0.751549113637587
2	0.20744931181125	0.0863349920440855	0.703085993519945	0.616751001475859
-11	-0.055425427606494	-0.00768842619642052	0.776119402985075	0.783807829181495
-7	-0.00498162780867406	0.0114691369174004	0.795193706557464	0.783724569640063
-2	0.405178356583093	0.196828358208953	0.77771071115013	0.580882352941177
3	0.147735749951164	0.0538264814480576	0.656716417910448	0.60288993646239
-5	0.325664234051345	0.164558189437107	0.814121275541113	0.649563086104006
-16	0.0950801547816438	0.0827662345135649	0.739282311845029	0.656516077331464
-12	0.163021493837997	0.107413571799848	0.78931833370461	0.681904761904762
-10	0.128191374599736	0.0771959978954522	0.719370182056749	0.642174184161297
-11	0.221818641632729	0.128051483122681	0.759244820672754	0.631193337550074
-22	0.0481237009456796	0.069680374112441	0.750628878081503	0.680948503969062
-25	-0.0495057986153389	0.0304810831949462	0.739314789687925	0.708833706492978
-17	-0.366125991862168	-0.138887466010363	0.743012211668928	0.881899677679291
-23	-0.418021006080707	-0.129551983725891	0.752527684159846	0.882079667885737
7	0.19775956817221	0.0759594483082301	0.741512219124159	0.665552770815929
-4	-0.0218538052545334	-0.0109222849930402	0.765721952037565	0.776644237030605
11	0.186680914876028	0.0589836983603449	0.686567164179104	0.62758346581876
-12	0.20570282028149	0.119349756515472	0.749645930929294	0.630296174413822
17	0.578313497870124	0.249981370817969	0.75699967316701	0.507018302349041
-11	0.12422931291745	0.0954249889432957	0.775231648449203	0.679806659505907
-14	0.34794009770811	0.197007277555672	0.765721952037565	0.568714674481893
-31	0.279731382209226	0.200972485067751	0.828991573497824	0.628019088430073
-28	-0.349760215667048	-0.0966543614214967	0.785796293258979	0.882450654680476
13	0.426527493252691	0.177705125167812	0.785796293258979	0.608091168091168
16	0.233213755657569	0.0648967715210385	0.76951038167098	0.704613610149942
-24	0.269363905153403	0.183889769284912	0.809067868206141	0.625178098921229
-12	-0.016345803068053	0.0106932126525693	0.669742198100407	0.659048985447838
-4	0.144054238610867	0.0766762295578071	0.708955223880597	0.63227899432279
-18	-0.0867925887475025	-0.00503750718562901	0.745269932863562	0.750307440049191
-14	0.121061929510879	0.0860712126692111	0.815319009348859	0.729247796679648
8	0.463819054149606	0.212751650545735	0.762211668928087	0.549460018382353
-2	0.0927270522061707	0.0397512927050785	0.695362473347548	0.655611180642469
6	0.132022079146748	0.0456260413913618	0.732334636779203	0.686708595387841
-1	0.0988904767702887	0.0391928781906123	0.72584446190102	0.686651583710408
6	0.141179781641386	0.0453781133191421	0.719370182056749	0.673992068737607
-9	0.178769610275985	0.100259249075949	0.740671641791043	0.640412392715094
20	0.360919829553155	0.128340791788161	0.660062675944123	0.531721884155961
4	0.349019607843139	0.153510083582548	0.839285714285714	0.685775630703166
-33	0.218273963420815	0.170620536681249	0.745269932863562	0.574649396182313
13	0.435420121614148	0.18230486594116	0.849465359768321	0.667160493827161
-12	-0.177995013720101	-0.0636153703682053	0.799250977584402	0.862866347952607
5	0.149101529706557	0.0542722016996049	0.671641791044776	0.617369589345171
-4	0.0797446976272689	0.0389721938293126	0.699050203527816	0.660078009698503
14	0.528702890774885	0.234231619679382	0.746268656716418	0.512037037037036
3	0.530679933665007	0.259742042227579	0.850135937413305	0.590393895185726
3	0.168822553897184	0.0727987191428124	0.875266524520256	0.802467805377443
3	0.283867243620643	0.12658561846457	0.766763198930718	0.640177580466148
4	0.40194696452379	0.19130660584161	0.793860884257957	0.602554278416347
-22	-0.173229441030147	-0.0262263107562603	0.787919607737484	0.814145918493744
1	0.071263796944858	0.0221459084489196	0.721771576898119	0.699625668449199
5	0.154105290540763	0.0554856972767435	0.86698376250615	0.811498065229407
-16	-0.1461343988516	-0.037750112047742	0.76865671641791	0.806406828465652
-10	-0.348675578740048	-0.15821086585227	0.652523897367097	0.810734763219367
-12	0.156986369616539	0.0980084253982385	0.752760361759973	0.654751936361734
10	0.447232469872382	0.196778881995274	0.75172644241479	0.554947560419516
27	0.606925061729187	0.237725681388124	0.738539445628998	0.500813764240874
4	0.411292742636026	0.203426798938048	0.699097794609043	0.495670995670995
-6	0.0954709895966475	0.0507171486298692	0.671534026617812	0.620816877987943
-1	0.0282202958776081	0.0055165279414392	0.751549113637587	0.746032585696147
-26	-0.148548109127564	-0.00500997428317307	0.780175210902012	0.785185185185186
-13	-0.13101160862355	-0.0256912128717676	0.799250977584402	0.82494219045617
2	0.379092408289168	0.182236448081672	0.708785617367707	0.526549169286035
0	0.40583202255978	0.192666909828021	0.792526338893765	0.599859429065743
-31	-0.228258545068653	-0.0448579387610638	0.664601520698396	0.70945945945946
-10	-0.0764286007584336	-0.0218995089287594	0.713704206241519	0.735603715170279
17	0.3768917447019	0.130116606026216	0.796562959848644	0.666446353822428
-6	0.170837145791482	0.087201203189347	0.723075271126382	0.635874067937035
24	0.224878873605828	0.0509705312641857	0.694029850746269	0.643059319482083
14	0.417998244073745	0.158252853380156	0.761194029850745	0.602941176470588
0	0.347062134582563	0.167183744200347	0.73553580412544	0.568352059925093
-5	0.0171543646207672	0.0101803972685797	0.746899306285474	0.736718909016894
-12	-0.0529230072147708	-0.00545159797884587	0.711592413870497	0.717044011849343
-11	-0.384838046777705	-0.172464681937904	0.746947082767979	0.919411764705883
15	0.561906155497027	0.254391572535646	0.755843424387498	0.501451851851852
11	0.132186106820986	0.0313974450480805	0.648767034393251	0.617369589345171
-30	-0.119810262413425	0.0222700950005803	0.821556424519468	0.799286329518888
-20	0.213737684128376	0.15014104240328	0.8300803673938	0.67993932499052
15	0.284626459800611	0.100350614859384	0.670668397144711	0.570317782285328
0	0.25772938655798	0.121905344395012	0.697803119235285	0.575897774840273
-13	0.309556791207358	0.181764605817874	0.866167318389601	0.684402712571727
13	0.194243728165147	0.053012359258676	0.767741219552793	0.714728860294117
-10	-0.191808988548028	-0.0768233659512787	0.694752046220511	0.771575412171789
9	0.152537275456598	0.046337953259499	0.67285344495236	0.626515491692861
-3	-0.0169560693265698	-0.0109700844594048	0.67285344495236	0.683823529411765
-14	0.0209211682155064	0.0364667746441982	0.72542945649113	0.688962681846932
13	0.352758534506514	0.140656866730663	0.716417910447761	0.575761043717098
-12	-0.110766797186244	-0.0338358329524435	0.712896193191347	0.74673202614379
4	0.27236862061526	0.113333061542746	0.802076573653472	0.688743512110726
-31	-0.391909696781113	-0.1150181439059	0.690815993027562	0.805834136933462
-8	0.125748992264953	0.0727075056372812	0.746268656716418	0.673561151079137
-2	0.184632452925492	0.0893392935061587	0.748239932413406	0.658900638907248
13	0.454849992677708	0.183181498324636	0.781716417910448	0.598534919585811
14	0.335715950565383	0.126744446942427	0.760250790656383	0.633506343713956
20	0.342177998894416	0.121963308146526	0.803454636927721	0.681491328781196
7	0.366058595909341	0.164714311611404	0.800557651303919	0.635843339692515
0	-0.194029850746269	-0.0952510176390777	0.684396200814112	0.779647218453189
9	0.0479530452313592	-0.00388004535687203	0.684396200814111	0.688276246170983
-3	0.234376849116373	0.109639766387742	0.732137186408382	0.62249742002064
16	0.171003766530639	0.0394598836810954	0.650595941157522	0.611136057476426
-5	0.0453672788673376	0.0251623994066608	0.777710711150131	0.75254831174347
-15	0.0384301122126598	0.0507331762241426	0.835820895522388	0.785087719298245
-5	-0.0862387409358438	-0.0347657782212473	0.771050408335681	0.805816186556928
10	0.151207466318046	0.0459911346950819	0.637430823411035	0.591439688715953
5	0.0850803351687726	0.0180602558445675	0.737571137120155	0.719510881275588
1	0.425749538173354	0.199898308062402	0.742292188691577	0.542393880629175
-12	0.223909862452444	0.134448325747151	0.746268656716418	0.611820330969267
1	-0.147536825675543	-0.0796351519249483	0.724597652307856	0.804232804232804
-5	0.249932687120189	0.126181644865498	0.733263827919225	0.607082183053727
-13	0.133129116119703	0.0888971486632558	0.73553580412544	0.646638655462185
-5	-0.279101166558789	-0.133733970516577	0.721771576898119	0.855505547414696
16	0.265961044450947	0.0884614547559659	0.761194029850746	0.67273257509478
7	0.337528046044292	0.149070493112085	0.79590809994969	0.646837606837606
6	0.428428933762559	0.197519611054554	0.739769785757559	0.542250174703005
-9	-0.128178023578969	-0.0491778555064217	0.721771576898119	0.77094943240454
12	0.267475358762695	0.0952668380785147	0.68816631130064	0.592899473222125
-21	0.182830207533012	0.136596020953774	0.873602467367956	0.737006446414182
5	0.101982893604115	0.0263695302143702	0.750973393900066	0.724603863685695
-8	0.161606997691283	0.0958103169205932	0.776119402985075	0.680309086064481
-32	-0.555973555247475	-0.170860207381303	0.803649596540266	0.974509803921569
-19	-0.344612596100647	-0.123209547109134	0.79590809994969	0.919117647058824
-23	0.181513262844689	0.139546699282047	0.835155079620484	0.695608380338437
7	0.26462784118623	0.113499765890295	0.748239932413406	0.634740166523112
6	0.419900497512438	0.19725237449118	0.76865671641791	0.57140434192673
3	0.11537996055693	0.0407167134577078	0.676108508552129	0.635391795094421
-12	-0.186401326699835	-0.0567955650071219	0.710256546449248	0.76705211145637
10	0.330673430234449	0.136457881532509	0.791044776119403	0.654586894586894
7	0.33773337880988	0.124541395346812	0.806755695208171	0.682214299861359
-13	-0.123775201090112	-0.0336215593857361	0.822157594381034	0.85577915376677
11	0.27298847587358	0.107161112201264	0.705708100717786	0.598546988516522
-11	0.156056319708644	0.10170130054278	0.805193364034844	0.703492063492064
9	-0.156611532291316	-0.110484074422208	0.660685932041917	0.771170006464124
1	0.134432472435778	0.0551245655888606	0.744208064156827	0.689083498567966
2	0.203648424543943	0.0900646806518888	0.793768384355592	0.703703703703704
17	0.252569424714603	0.0816918987591556	0.628852142166863	0.547160243407708
4	-0.0357664292914541	-0.0343167637741714	0.744275014817607	0.778591778591779
-9	0.0907842710022246	0.0587550860498272	0.791044776119403	0.732289690069576
9	0.424387805260705	0.185331638390095	0.781799955446646	0.596468317056551
-5	-0.131144288101023	-0.0616615167098039	0.757666214382632	0.819327731092436
13	0.436363119045297	0.181436930993167	0.772874756651526	0.591437825658358
4	0.179546710889994	0.080701843409512	0.67285344495236	0.592151601542848
-39	-0.242017715439785	-0.0284674895315064	0.699619771863117	0.728087261394623
-23	0.0904876647248962	0.0880348894911641	0.736372485399092	0.648337595907928
-4	0.213014195279979	0.106937676884247	0.745269932863563	0.638332255979315
-19	-0.255704647887895	-0.0808939041013116	0.744275014817607	0.825168918918919
-4	0.230659082337462	0.113493083694831	0.830537095544175	0.717044011849345
-29	-0.0409319748283969	0.0395528529632091	0.687411996620671	0.647859143657462
-16	0.0331254609069018	0.0477743025070706	0.770302897278312	0.722528594771242
-2	-0.107807368386821	-0.0546270319247524	0.734317136123892	0.788944168048644
18	0.465765253214865	0.181724962971402	0.731343283582089	0.549618320610688
0	0.0391540579626537	0.0094788424189205	0.73168249660787	0.72220365418895
-18	-0.352156943444605	-0.132807010722574	0.722798646174332	0.855605656896906
-5	0.0761185900562564	0.0460702603135718	0.704017506452699	0.657947246139127
1	0.201437258153675	0.0979236658038217	0.75464008371427	0.656716417910448
19	0.414538988659583	0.155921409565713	0.695362473347548	0.539441063781835
5	0.066616336285275	0.00972495345174429	0.703085993519945	0.6933610400682
9	0.390272208918667	0.163667098415324	0.799934152765582	0.636267054350258
-4	0.198142285566588	0.0967190558897161	0.721771576898119	0.625052521008403
-3	0.112106135986734	0.063778187022465	0.737779503967152	0.674001316944687
-14	0.109923422105161	0.0860865851217647	0.799250977584402	0.713164392462637
6	0.415799271615774	0.19145471562284	0.775231648449203	0.583776932826363
3	0.2417617793386	0.110603569407962	0.692836930588692	0.58223336118073
-18	0.0062754900655313	0.0390023765553552	0.748079455662861	0.709077079107505
3	0.254559717751115	0.112127903421436	0.794776119402986	0.68264821598155
-15	0.0775242982644113	0.0648496856474594	0.707817788381512	0.642968102734053
6	0.268656716417909	0.11817932193582	0.785796293258979	0.66761697132316
7	0.309452736318405	0.140739801093851	0.700327359485102	0.559587558391251
1	0.341223252564998	0.158801988309056	0.805970149253731	0.647168160944676
2	0.275992740367621	0.126528852810851	0.74189204354169	0.61536319073084
-16	-0.0477457483822725	0.0169786914083333	0.799216843538958	0.782238152130624
-13	0.380736909887847	0.215350688381243	0.799216843538958	0.583866155157715
-44	-0.208055311676909	0.0146472932963891	0.782722077345613	0.768074784049224
-16	0.0227691512382291	0.0453668916684731	0.792740841248305	0.747373949579832
-6	-0.186797964758526	-0.0889278040359893	0.681292784199304	0.770220588235294
-8	0.258114726686209	0.139536528336672	0.781799955446646	0.642263427109974
-15	0.211388847945758	0.129266207661383	0.716417910447761	0.587151702786378
20	0.37123418734769	0.131194517608036	0.740671641791043	0.609477124183007
18	0.552430111263254	0.226891821091799	0.786974219810041	0.560082398718242
-7	0.00202807345838729	0.0084063721589801	0.721771576898119	0.713365204739139
11	0.533616386841137	0.2344894843962	0.743012211668928	0.508522727272729
17	0.498393579304815	0.222542040642254	0.771050408335682	0.548508367693427
-20	-0.647709166585376	-0.247121580050685	0.670242537313432	0.917364117364117
-17	-0.043786031438158	0.0174717320177027	0.851788849868303	0.834317117850601
2	0.114203492342209	0.0447379362575667	0.809377027903959	0.764639091646392
15	0.437243520957302	0.167026029024427	0.733202499612662	0.566176470588235
-10	-0.0445247997880915	-0.00535436716583348	0.772874756651526	0.778229123817359
-13	-0.145404685460629	-0.0464104009036105	0.765721952037565	0.812132352941176
3	0.104583352024764	0.0348801267949749	0.716417910447761	0.681537783652786
8	0.256929084836778	0.0989398993123626	0.810066210301874	0.711126310989512
7	0.0178974409000778	-0.0154781647318946	0.728358208955224	0.743836373687118
25	0.214710759925858	0.0422256692901052	0.686082224257771	0.643856554967666
-8	0.0797735358321237	0.0515395270600936	0.771050408335681	0.719510881275588
7	0.448024737245973	0.199150710204721	0.799250977584402	0.600100267379681
4	0.155256029855018	0.0568959934517342	0.741512219124159	0.684616225672425
-22	0.233587857193209	0.16203756599757	0.850746268656716	0.688708702659146
-10	0.151872988001172	0.0925353180620968	0.746947082767979	0.654411764705882
15	0.469534679543461	0.196915345572063	0.743012211668929	0.546096866096865
-7	0.351565700907229	0.183871620088586	0.727989267147409	0.544117647058823
-17	-0.436802023468836	-0.16783064659852	0.838263229308006	1.00609387590653
3	0.10696436120053	0.0394935001389072	0.764353415404727	0.724859915265819
-4	0.122908405351704	0.0609365258108426	0.674001316944687	0.613064791133844
19	0.796115280189865	0.349050348682515	0.838578844905907	0.489528496223392
11	0.173705645238811	0.0483428446005261	0.716417910447761	0.668075065847235
15	0.245243274586463	0.0730515457221634	0.796836711962574	0.72378516624041
0	0.0102605027436613	-0.00558741741972479	0.737926337892286	0.743513755312011
11	0.0803463480270481	-0.00275524863247745	0.77906089988016	0.781816148512637
13	0.633711161287215	0.279502754911714	0.744819070117041	0.465316315205327
8	0.432232568373249	0.191196495277545	0.811001173905753	0.619804678628208
-26	-0.126242469727601	-0.00943847187277325	0.659185689201053	0.668624161073826
-13	0.0460016481686798	0.0488918480838689	0.810066210301874	0.761174362218005
25	0.244422418227073	0.0666389382794373	0.565831556503198	0.499192618223761
-7	-0.392597164553177	-0.160357626361873	0.689266433788503	0.849624060150376
3	0.284720344178632	0.12737945158244	0.773268489015597	0.645889037433157
-4	0.413035313627935	0.205063205143164	0.744275014817607	0.539211809674443
-23	-0.137645107794359	0.000773896731190327	0.817641117719672	0.816867220988482
15	0.300317855168601	0.112905841164548	0.708955223880597	0.59604938271605
6	-0.0182057248702325	-0.0370882267058124	0.732334636779203	0.769422863485015
-15	0.00457435046986965	0.0377770989525426	0.793768384355593	0.75599128540305
-13	-0.301492537313435	-0.110898885381385	0.656985828977853	0.767884714359238
7	0.18755237457102	0.0672280950341129	0.757041858377287	0.689813763343174
-30	-0.168814899311945	-0.013441746638751	0.734131540101689	0.74757328674044
13	0.292751926641304	0.109435970331493	0.756273577169099	0.646837606837606
-28	-0.529177107164908	-0.186417512513609	0.727989267147409	0.914406779661018
13	0.0673592820212674	-0.00851981897897303	0.757666214382633	0.766186033361606
5	0.313761259064155	0.138677506593482	0.743012211668929	0.604334705075447
-16	0.0422332780541728	0.0614244371957465	0.737779503967152	0.676355066771406
15	0.395118629456599	0.161817870478233	0.659185689201053	0.49736781872282
-19	-0.272428136498942	-0.0938274293140173	0.691579416351079	0.785406845665096
-1	0.262839029887537	0.120820135644296	0.737571137120155	0.616751001475859
2	0.0650676534791801	0.0161214553664065	0.743012211668928	0.726890756302522
-12	0.272077520892266	0.159978323424759	0.844381035996486	0.684402712571727
-2	0.224793272794463	0.101794817135559	0.71170463472113	0.609909817585571
-6	0.188498683055309	0.104245652058309	0.729171307640899	0.62492565558259
11	0.135150152106697	0.030029425937928	0.726742228706094	0.696712802768166
11	0.290753984953338	0.108336933364267	0.776945530649335	0.668608597285068
-9	0.0449281370923158	0.0405664255752051	0.810501066098081	0.769934640522876
-4	-0.0375056044618289	-0.0182827987609864	0.690794280346518	0.709077079107505
-27	-0.276331737619334	-0.0779234564089711	0.630802033787108	0.708725490196079
2	0.257561068755738	0.111742588696056	0.786974219810041	0.675231631113985
-11	0.362028035482149	0.189353977505602	0.744819070117041	0.555465092611439
-36	-0.227905152449671	-0.0344878453416654	0.644370061457418	0.678857906799083
-18	-0.190387929632883	-0.0522903678508166	0.688867691617102	0.741158059467919
11	0.281860460590039	0.107190318461168	0.684396200814111	0.577205882352943
2	0.160799759373068	0.0690574571506125	0.821556424519468	0.752498967368856
11	0.536250276217783	0.230835960571473	0.830936227951153	0.600100267379681
-12	0.19875846187696	0.112858544497506	0.760717688154968	0.647859143657462
-27	-0.447761194029854	-0.131451966031394	0.797702935138433	0.929154901169827
3	0.152014437615839	0.0622283508518982	0.771034935214039	0.708806584362141
10	0.248117411131446	0.0876608118313899	0.771707157642443	0.684046345811053
-17	0.034281362615858	0.0513609991523248	0.758175415059534	0.706814415907209
-8	0.0445444346892954	0.0371762217940564	0.734131540101688	0.696955318307632
-13	-0.2229917987943	-0.0824713128495228	0.737571137120155	0.820042449969678
-19	0.0655876668373214	0.0671313393843643	0.684061038093116	0.616929698708752
19	0.137729652391637	0.0145884888312655	0.720442730169378	0.705854241338113
-11	0.132933657175693	0.0849136574967269	0.765721952037565	0.680808294540838
0	0.125748992264952	0.0527501381978991	0.746268656716418	0.693518518518519
7	0.135592462523983	0.0437936612217554	0.736372485399092	0.692578824177337
1	-0.0130348685939126	-0.0207871641138281	0.761194029850746	0.781981193964574
33	0.634825870646767	0.245229548460231	0.835820895522388	0.590591347062157
0	0.351129971059729	0.16883950079287	0.734938446453861	0.566098945660991
-26	-0.169928611795282	-0.0219960459388625	0.758823212457566	0.780819258396429
-5	0.0282509735564349	0.017024734275437	0.727989267147409	0.710964532871972
2	0.0120299580291392	-0.00927708139898686	0.690326990999204	0.69960407239819
-12	-0.161209718783595	-0.0564343962425301	0.743012211668928	0.799446607911458
-24	-0.518981152156302	-0.194824216503655	0.700327359485101	0.895151575988756
-29	-0.165477678161361	-0.0118018953392234	0.765721952037565	0.777523847376789
29	0.770345436597365	0.302178914986073	0.838743346206031	0.536564431219958
1	0.474324171328844	0.233275872219796	0.739314789687925	0.506038917468128
-5	0.0403537866224415	0.0330655600171322	0.748892898146629	0.715827338129497
2	0.522166943062463	0.255542142230025	0.748079455662861	0.492537313432836
5	0.174191135824145	0.0719487323797975	0.737926337892286	0.665977605512489
8	0.197922794785199	0.0689487345879303	0.714471122647632	0.645522388059702
-23	-0.053166434892943	0.0259530993896223	0.783582089552239	0.757628990162617
14	0.444304561349542	0.185928378860776	0.704608824011809	0.518680445151033
-23	-0.0809457613891356	0.0148274104791321	0.729171307640899	0.714343897161767
-17	0.0170154131304241	0.0427374577595684	0.695362473347548	0.65262501558798
-29	-0.510902443557225	-0.172319349543841	0.738805970149254	0.911125319693095
11	0.389216220315341	0.165838732401698	0.762211668928088	0.59637293652639
6	0.278765302346624	0.112787355961754	0.828991573497824	0.71620421753607
0	0.0995504503625662	0.045198213804994	0.692836930588691	0.647638716783697
-21	-0.0531680607505862	0.020613405568024	0.785118525021948	0.764505119453924
-28	-0.00481198083813883	0.0535594427432209	0.695158891887426	0.641599449144205
-26	-0.241569928137093	-0.0422696547656858	0.753572562718322	0.795842217484008
19	0.596683250414593	0.261014259557232	0.805193364034844	0.544179104477612
15	0.128867731377938	0.0200170859670263	0.64498933901919	0.624972253052164
8	0.335749595137715	0.127953362163745	0.738553852359823	0.610600490196078
8	0.156286194617297	0.0501138548697653	0.675086107921928	0.624972253052163
5	0.0284004812538632	-0.00588480568943328	0.774791522812981	0.780676328502415
-32	0.0902907223341289	0.10618828608454	0.720230961978428	0.614042675893888
-8	-0.0481554645075264	-0.00721179032767105	0.758175415059534	0.765387205387205
-28	0.26788684315648	0.184467389604495	0.785796293258979	0.601328903654484
3	-0.0539539315017894	-0.0479743175607884	0.758175415059534	0.806149732620323
-12	0.170079626674603	0.106860957463738	0.794916395466278	0.68805543800254
4	0.335765616362633	0.150545581272383	0.780175210902013	0.62962962962963
-19	0.317124102307031	0.189958798421921	0.736689685898863	0.546730887476942
-10	0.33618134934791	0.180571641168375	0.814749780509217	0.634178139340842
7	0.0352339609143826	-0.0086901946203668	0.645721570085516	0.654411764705882
-10	0.250396946615618	0.134471006381901	0.752067003113927	0.617595996732026
0	0.347008421942571	0.16141784636286	0.815829611068742	0.654411764705882
0	0.0537196774583233	0.017391514803525	0.714942398274785	0.69755088347126
-30	-0.332838597907842	-0.088369431524772	0.743082341103472	0.831451772628244
-25	0.0703215946411753	0.0972894663378685	0.818547710883784	0.721258244545915
13	0.569533623329368	0.245146391395257	0.823183353306459	0.578036961911202
-11	0.337313432835822	0.189780293721951	0.846290132073446	0.656509838351494
6	0.265409190391724	0.109317499954734	0.774281577188682	0.664964077233948
-27	-0.29953284481652	-0.0786595992819066	0.774281577188683	0.852941176470589
-1	0.181744870419149	0.0894901273905144	0.750628878081503	0.661138750690988
-1	0.0743472893630217	0.0289178211173474	0.76951038167098	0.740592560553633
-16	0.266727760937689	0.161585122515763	0.805970149253731	0.644385026737968
8	0.0347437648359521	-0.0112550249394116	0.765721952037565	0.776976976976977
19	0.336501583965104	0.11519211143225	0.714471122647632	0.599279011215382
4	-0.0588170259812058	-0.0402872853776235	0.694029850746269	0.734317136123892
-23	-0.18840197419467	-0.047213002701248	0.614356276173092	0.66156927887434
-6	0.065622937267293	0.0378192159407572	0.723880597014925	0.686061381074168
-3	-0.384273565619732	-0.189478241639314	0.694752046220511	0.884230287859825
35	0.436772835170553	0.130434160438264	0.72561488332983	0.595180722891566
37	0.467678567232538	0.140912386777573	0.684566856439452	0.54365446966188
1	0.0849901416062624	0.0270243225766931	0.782153064464908	0.755128741888215
2	-0.0652320193792748	-0.0493854258121165	0.716417910447761	0.765803336259878
17	0.5551133222775	0.236142646998523	0.85222240446121	0.616079757462686
18	0.365730825382653	0.136401056824423	0.74189204354169	0.605490986717267
-9	-0.276876411796275	-0.121771130934062	0.76951038167098	0.891281512605042
-3	-0.115596039410786	-0.0556319207396615	0.734317136123892	0.789949056863553
0	0.0791150634879587	0.028731742357729	0.721031207598372	0.692299465240643
15	0.16294589145774	0.0411151403279605	0.681409130816504	0.640293990488544
3	0.176392831890353	0.0705417107524212	0.726750861079219	0.656209150326798
12	0.0605428738659632	-0.00432522244153788	0.667705428899458	0.672030651340996
-36	-0.183081800102111	-0.00179891769646823	0.765721952037565	0.767520869734033
-12	0.0451752674535799	0.0442211745104829	0.696851431886504	0.652630257376021
-6	0.144910056843306	0.0719313844940959	0.747201492537312	0.675270108043216
-3	0.241407342373099	0.119701395606346	0.722452718357669	0.602751322751323
11	0.454459668168391	0.194576459062852	0.791044776119403	0.596468317056551
-8	-0.0514818090265261	-0.0147688077763178	0.737779503967152	0.75254831174347
-8	-0.0247234439889685	-0.00109225557883241	0.753248964303954	0.754341219882786
4	0.111718368939613	0.0401230280570033	0.70063042189773	0.660507393840727
11	-0.123439176665694	-0.0942025628576401	0.667831057478563	0.762033620336203
-11	0.210312969288375	0.119252932330253	0.726750861079218	0.607497928748966
5	0.215315578967903	0.0895929151010605	0.805193364034844	0.715600448933783
9	0.422042321667745	0.182131095704708	0.791044776119403	0.608913680414695
8	-0.0331032566759277	-0.0454935024242001	0.654132166024999	0.699625668449199
26	0.505072675836501	0.190825858509488	0.804355090220538	0.61352923171105
30	0.396475140636684	0.119538766926826	0.726020248408307	0.606481481481481
-17	0.256354338227284	0.149478149664009	0.709195955705345	0.559717806041335
-4	0.418199482526306	0.213188207594897	0.733032948465223	0.519844740870326
23	0.529153728044094	0.203248112501831	0.793768384355592	0.590520271853761
-19	-0.00551247032809821	0.0421517723269833	0.788912579957356	0.746760807630373
16	0.45892456993692	0.180409603565882	0.794776119402986	0.614366515837104
-8	0.129081027285688	0.0716458182263411	0.723075271126382	0.651429452900041
-15	-0.147742419527763	-0.0429012810550541	0.70790452071771	0.750805801772764
-30	-0.00955935460335144	0.0597429288783369	0.758823212457566	0.69908028357923
-4	-0.228381766089644	-0.114569127793245	0.737779503967152	0.852348631760397
-19	0.221918999772376	0.155370182186288	0.904074517921341	0.748704335735053
21	0.285640425324358	0.0921977244929411	0.669742198100407	0.577544473607466
5	0.252104140949388	0.118777300897978	0.76865671641791	0.649879415519932
-9	-0.0955223880597016	-0.0247067058454675	0.675163508301191	0.699870214146659
-29	-0.141458752703724	-0.000158075057674512	0.771050408335682	0.771208483393356
-12	-0.00253618363979413	0.019355377215	0.733263827919226	0.713908450704226
1	-0.0439607339952177	-0.0363622239563517	0.771707157642443	0.808069381598795
-20	0.00498862967733626	0.0404424190611974	0.715827338129496	0.675384919068299
-31	-0.244897245797161	-0.0396268490883149	0.74189204354169	0.781518892630005
-2	-0.0434494195688204	-0.0165516363048548	0.640434192672999	0.656985828977853
2	0.354797092966541	0.169911027155229	0.811001173905753	0.641090146750524
7	0.2236916296339	0.0800326259345197	0.740110635633022	0.660078009698503
-26	0.234811855041855	0.166873242948326	0.766763198930718	0.599889955982392
-7	0.29471758852795	0.156202217596749	0.79590809994969	0.639705882352941
-29	-0.118613945681165	0.00174148282563569	0.670365643899461	0.668624161073826
-2	0.141350437355701	0.0646949078138699	0.807341966637399	0.74264705882353
-12	0.101721937519115	0.0708962952429205	0.77771071115013	0.706814415907209
-20	-0.104657144599982	-0.00975081939455158	0.719167321288295	0.728918140682847
-7	-0.0860704646701134	-0.0289301942614327	0.757041858377287	0.785972052638719
1	-0.131453841901605	-0.0729818550714081	0.652944070854518	0.725925925925926
-10	0.00788081680239072	0.0201881436420425	0.75172644241479	0.731538298772748
-4	0.405122092414699	0.207358927288691	0.792740841248305	0.585381913959614
-13	-0.180905358233409	-0.0611695503122427	0.808475868831026	0.869645419143268
30	0.181487984912045	2.88803659898029e-06	0.720591123330717	0.720588235294118
6	0.36769189451815	0.163659536263016	0.75172644241479	0.588066906151774
-36	-0.369608080488737	-0.081819445383177	0.804355090220538	0.886174535603715
-25	-0.115983308019801	0.000379483195121044	0.763654256191569	0.763274772996448
-20	0.153116448671199	0.11309603100118	0.738805970149254	0.625709939148073
-25	-0.0292849478099728	0.048914793258977	0.78389421712729	0.734979423868313
-16	-0.035405684710361	0.0103799223973934	0.665091807151294	0.654711884753901
21	0.243458854290163	0.0623020933020786	0.687530091478093	0.625227998176014
-5	-0.0733772338631296	-0.0336965892558886	0.740671641791043	0.774368231046932
14	0.140519624101711	0.0311672998240149	0.778415614236509	0.747248314412494
-3	0.322813239275684	0.15810200335222	0.725856014047408	0.567754010695188
-2	0.230134476228178	0.109425418270814	0.821556424519468	0.712131006248654
1	0.31962578690916	0.141814610909835	0.760717688154968	0.618903077245133
-3	0.176386328459799	0.0840252054083462	0.75033921302578	0.666314007617434
-3	0.353375434738903	0.167293594064016	0.774791522812981	0.607497928748965
7	0.410607095242742	0.189641688799831	0.727989267147409	0.538347578347578
-1	0.531959115732815	0.262041510513562	0.804355090220538	0.542313579706976
0	0.130949013104412	0.0601848255623985	0.812683792931254	0.752498967368855
-15	0.235401364913419	0.144147057371084	0.859952064495041	0.715805007123957
21	0.412807693558352	0.150971744431119	0.752067003113927	0.601095258682808
2	0.176137857062663	0.074573335156202	0.791555530333124	0.716982195176922
2	0.438471043475432	0.207304655887668	0.699870214146658	0.49256555825899
-6	0.14097730302735	0.0735075559153727	0.732667719423362	0.659160163507989
6	0.322915775115165	0.141104401489124	0.729171307640899	0.588066906151774
11	0.401392469929348	0.169962659062054	0.779766580630681	0.609803921568627
-1	-0.024860158441613	-0.0225038350587107	0.903643546971025	0.926147382029736
-13	0.117994624463675	0.0825215126045687	0.757041858377287	0.674520345772718
12	0.391183786947614	0.16298785823487	0.784380679627691	0.621392821392821
-18	0.377282971146842	0.216367681448282	0.807938330326389	0.591570648878107
-3	0.0710589388822298	0.0332267235252303	0.664179104477612	0.630952380952382
6	0.217746865120988	0.0840518484201532	0.75464008371427	0.670588235294116
-18	0.465230713946129	0.260815219036661	0.851788849868303	0.590973630831643
10	0.0674405749032607	0.00615198909997017	0.75172644241479	0.74557445331482
-11	0.122644132279777	0.0848931753982781	0.757041858377287	0.672148682979009
14	0.264855461255809	0.097342332097103	0.706616172867008	0.609273840769905
3	0.354391073590585	0.160746399208852	0.755487269534678	0.594740870325826
-11	0.0196037784931546	0.0357845239029284	0.802491302884076	0.766706778981148
12	0.0669357639074266	-0.0116416658995755	0.761246034635185	0.772887700534761
17	0.38527191341608	0.148947224996815	0.749466950959488	0.600519725962674
-2	0.293346177608689	0.143920335600922	0.786974219810041	0.643053884209119
-7	0.197538451533184	0.109255378462371	0.702594040865782	0.59333866240341
8	0.492272583459308	0.21375024651043	0.802802534092129	0.5890522875817
8	0.38387172956362	0.169738344812709	0.706616172867008	0.536877828054299
-9	-0.0825870646766111	-0.0151144840458195	0.778653900309774	0.793768384355593
-3	0.0723742577129098	0.0333933274802437	0.711040386303774	0.67764705882353
-3	0.19573618833935	0.101828234175791	0.749466950959489	0.647638716783698
15	0.477403830520599	0.201510309257321	0.784380679627691	0.58287037037037
2	0.2112387587372	0.0885544612311685	0.751549113637587	0.662994652406418
-14	0.237466500805449	0.138328969329678	0.734938446453861	0.596609477124183
-12	0.159273405407484	0.100030199440844	0.798507462686567	0.698477263245724
9	0.187721523103437	0.0708003401162145	0.647894357210231	0.577094017094017
-2	0.167876589572536	0.0772523104545738	0.729072031148606	0.651819720694032
-9	0.240815684470636	0.129818047481953	0.786974219810041	0.657156172328087
-2	0.375427760771543	0.184277618109007	0.752760361759973	0.568482743650966
10	-0.179719864728645	-0.116798421502271	0.633935585231736	0.750734006734007
-14	0.167321519400756	0.107531483204317	0.702618980568855	0.595087497364537
17	0.480001951029167	0.203875792352156	0.710029189844137	0.506153397491981
-26	-0.199178633334925	-0.039508111286314	0.690140845070423	0.729648956356737
28	0.400373947257179	0.136191402948527	0.716417910447761	0.580226507499234
-13	-0.0298027834682777	0.0139508441292659	0.713398655577077	0.699447811447811
-7	0.574665073326179	0.286102684409928	0.803304904051172	0.517202219641244
-2	0.107829762498985	0.0477206494534622	0.693356323077751	0.645635673624289
-28	-0.0802108737359002	0.0275537033421968	0.744275014817607	0.716721311475411
0	-0.0194103014340066	-0.0150487964219309	0.735685210312076	0.750734006734007
-24	0.248251134955441	0.16912233851578	0.830936227951153	0.661813889435373
0	0.420085916488834	0.196313827283024	0.823977936404933	0.627664109121909
0	0.406477701659158	0.194530614899359	0.791044776119403	0.596514161220044
4	0.088779636002519	0.0260543051806902	0.690326990999203	0.664272685818513
-6	0.0840707843825561	0.045146907526187	0.752931769722814	0.707784862196627
-3	-0.213266998341626	-0.0952812297354979	0.67233974014818	0.767620969883678
0	0.322767697460409	0.157552181266324	0.760250790656383	0.602698609390059
4	0.0217038584568638	-0.0107050561324408	0.727584704216144	0.738289760348585
-10	0.282662091479533	0.151743563445995	0.846290132073446	0.694546568627451
1	0.120621393295911	0.046961847769679	0.790212506242023	0.743250658472344
-3	-0.0517412935323374	-0.0171395768410689	0.76865671641791	0.785796293258979
1	0.176574702462117	0.07800774024934	0.676542659835152	0.598534919585812
0	0.28863263236321	0.138470521973928	0.72542945649113	0.586958934517202
0	0.036514768839832	0.00822152086712669	0.700327359485102	0.692105838617975
-37	0.070048794717313	0.114194506750024	0.767741219552793	0.653546712802769
0	0.249012291483758	0.121221607319209	0.758175415059534	0.636953807740325
-7	0.106167851169228	0.0616420446081334	0.843283582089552	0.781641537481419
-1	-0.101909409585818	-0.0600278939576047	0.76865671641791	0.828684610375515
7	0.159860826586026	0.0558762893493746	0.803454636927721	0.747578347578347
-8	0.276174682144833	0.155703804211268	0.792740841248305	0.637037037037037
-6	0.148590381426204	0.0911167294883395	0.78734148804848	0.69622475856014
11	0.173106926129808	0.0463459831380225	0.776945530649335	0.730599547511313
15	0.481800636149437	0.203765687895148	0.773268489015597	0.569502801120449
-10	-0.0788404478252771	-0.0224241189012909	0.753731343283582	0.776155462184873
4	0.484376849116376	0.228927178346842	0.773268489015596	0.544341310668754
6	0.32195692260514	0.139984892561237	0.730289075070742	0.590304182509506
8	0.47200288571929	0.205452516827623	0.866604477611938	0.661151960784315
0	0.352004682470005	0.167402119835606	0.816677482154446	0.64927536231884
1	-0.00072578522396971	-0.013563477381921	0.711040386303774	0.724603863685695
-41	-0.333618000831208	-0.0659389619068852	0.684061038093116	0.750000000000001
-21	-0.163225046467485	-0.0338229301099259	0.737779503967153	0.771602434077079
-4	0.382629336975252	0.194135831923077	0.77771071115013	0.583574879227053
9	0.0537367905000536	-0.0100789157659981	0.76865671641791	0.778735632183909
-8	0.0830660399638163	0.0528621747532965	0.812683792931254	0.759821618177957
17	0.282986212727214	0.0991950027652935	0.726742228706094	0.6275472259408
-13	-0.0146017681261195	0.014620951650098	0.676542659835152	0.661921708185054
-18	0.378534614509152	0.220107116108295	0.730289075070742	0.510181958962447
8	0.41182406748757	0.175661185042268	0.695915440590641	0.520254255548374
-18	0.164163083252693	0.113280106818847	0.723880597014925	0.610600490196078
-4	0.381812343511204	0.197662373851086	0.811001173905752	0.613338800054667
4	0.395181112233777	0.181925854902196	0.766763198930718	0.584837344028522
14	0.0757031834292574	-0.00437133834130898	0.712175424248619	0.716546762589928
-1	-0.0898657445087003	-0.0525145304687296	0.737000915997628	0.789515446466358
-9	0.029546342995201	0.0272137100707724	0.708955223880597	0.681741513809825
2	0.391550702667185	0.181142490163559	0.785118525021947	0.603976034858388
11	0.386277761519202	0.157570570088625	0.78863745787193	0.631066887783305
-16	0.0529323113928009	0.0557657901328246	0.758273848150552	0.702508058017728
-25	-0.351852587641442	-0.113159203754877	0.720442730169378	0.833601933924255
-35	0.0960063358604131	0.134291136870153	0.91126783664097	0.776976699770817
4	0.427194094885046	0.19581060783015	0.867305806732758	0.671495198902607
21	0.0855721393034852	-0.0123612992800426	0.701974000962927	0.71433530024297
3	0.252561698923917	0.105852635046924	0.837890837781892	0.732038202734968
-8	-0.0727181088023945	-0.0187315079735264	0.771707157642443	0.79043866561597
6	0.17777777777778	0.0734637054672574	0.706377204884668	0.63291349941741
3	0.283888890075645	0.125462395671479	0.790212506242024	0.664750110570544
9	0.557838200344112	0.254038678442122	0.819391846736466	0.565353168294344
7	0.211953542720063	0.0854599214006738	0.622337749454972	0.536877828054299
-25	0.0938907627788246	0.101092885421719	0.796836711962574	0.695743826540854
-2	0.258758779927943	0.125590805119849	0.781799955446646	0.656209150326797
9	0.68806514870901	0.319537370618173	0.835820895522388	0.516283524904215
-13	0.0558994244463966	0.0590609965484714	0.828358208955224	0.769297212406752
-9	0.0587601921692551	0.0431622759932355	0.765721952037565	0.72255967604433
26	0.310225362857009	0.0899751382762138	0.69157941635108	0.601604278074866
2	0.335083895440973	0.154864552192004	0.78931833370461	0.634453781512606
-29	-0.289996335293143	-0.0667633852619809	0.779647218453189	0.84641060371517
19	0.237859721002828	0.0636702254937617	0.782722077345613	0.719051851851851
-15	0.0331674958540624	0.0539422240595542	0.722798646174332	0.668856422114778
-11	0.00377214400303783	0.0190765124956515	0.704608824011808	0.685532311516157
-2	0.248459499886192	0.126665215837756	0.786257392283865	0.65959217644611
8	0.230611647644133	0.0935323383084581	0.626865671641791	0.533333333333333
2	0.0180642515204144	-0.00708852724983033	0.723639865190178	0.730728392440009
2	0.163806130361505	0.0659526472474633	0.680308136735677	0.614355489488214
3	0.265355412480082	0.115994879226649	0.732137186408382	0.616142307181733
4	0.139117321887295	0.052552116092016	0.717427099378552	0.664874983286536
-12	0.124322017364158	0.0881798744897037	0.711785898095727	0.623606023606024
-4	0.33099209833187	0.165496049165935	0.753731343283582	0.588235294117647
2	0.245783866317951	0.112371784725382	0.695015488594763	0.582643703869381
-8	-0.122674898965411	-0.0497374812074075	0.665091807151293	0.714829288358701
-4	0.064285070045982	0.031535931319798	0.676108508552129	0.644572577232331
-3	0.311177842479791	0.153735152454178	0.827664650724074	0.673929498269896
6	0.133101648619645	0.047772855106365	0.692836930588692	0.645064075482327
21	0.289203492342207	0.0878931255968614	0.742292188691577	0.654399063094716
-22	-0.169707020453289	-0.020687769522449	0.767741219552793	0.788428989075242
-2	0.0649579614925688	0.0268699219102271	0.720230961978428	0.693361040068201
-18	0.0859840984002311	0.0752555727028014	0.743672939649579	0.668417366946777
6	0.367769567790075	0.165563307135797	0.720442730169378	0.554879423033581
16	0.224973711226659	0.0771314310198842	0.702558635394456	0.625427204374572
-29	0.137034343097736	0.127057267273704	0.76865671641791	0.641599449144206
-4	0.473358696712517	0.235722835099864	0.83127839065542	0.595555555555556
23	0.542524365909588	0.197739565272755	0.788728769943386	0.590989204670632
9	0.168367028936227	0.050275907423293	0.755487269534678	0.705211362111385
18	0.589470945923974	0.263516894198798	0.74189204354169	0.478375149342892
-16	-0.103482587064675	-0.000388404736925363	0.866167318389601	0.866555723126526
-22	-0.308808362652178	-0.100525772199558	0.704608824011809	0.805134596211367
17	0.0877662341885315	-0.00144019724842803	0.646693539601263	0.648133736849691
-25	-0.0391206507418065	0.0372809748999863	0.774281577188682	0.737000602288696
30	0.421279224791078	0.142268691375966	0.74189204354169	0.599623352165725
-37	-0.171433681266868	0.00695999365080591	0.72542945649113	0.718469462840324
-5	0.0476506357103377	0.032249489133608	0.758175415059534	0.725925925925926
-9	0.468328293174652	0.247738830818163	0.733032948465222	0.485294117647059
-24	0.0352965564335181	0.0740488924133672	0.767741219552793	0.693692327139426
12	0.117018825057956	0.0149668340623138	0.739570697748009	0.724603863685695
-9	0.106354492505746	0.0662677843070918	0.799250977584402	0.73298319327731
-26	0.182693231993745	0.146124504662696	0.828358208955224	0.682233704292528
7	0.113687407151065	0.0234885126949854	0.857626366309715	0.834137853614729
3	0.518997161513645	0.24360965953821	0.828991573497824	0.585381913959614
0	0.00983220199750079	-0.00655605860076347	0.781799955446646	0.78835601404741
-11	0.120879821587638	0.072685675253478	0.768190298507462	0.695504623253984
1	0.268960265226039	0.123556361828208	0.803454636927721	0.679898275099514
-2	0.329693097415454	0.155081739465576	0.745305729417428	0.590223989951853
12	0.261085833178463	0.0937743826259635	0.743082341103472	0.649307958477508
12	0.025027639579879	-0.0232472262077045	0.66761697132316	0.690864197530864
0	-0.067428553050787	-0.0441577778360183	0.65398752506126	0.698145302897278
-18	0.0767019347231206	0.0711902508045131	0.76697159364468	0.695781342840167
17	0.490725295093162	0.210927608404082	0.749466950959488	0.538539342555407
3	0.125205955813223	0.0443254914938002	0.67440378180273	0.63007829030893
-17	-0.148288814502933	-0.0375593187932945	0.704330460374186	0.74188977916748
11	0.115195265502552	0.0228744504054299	0.747204934735914	0.724330484330484
-9	0.0853193362418372	0.0551778520449093	0.688867691617103	0.633689839572193
21	0.204371456490742	0.0426129446279679	0.704017506452699	0.661404561824731
-17	0.0569209555485755	0.0593573519514293	0.726750861079219	0.667393509127789
1	0.030832823621028	0.00238657115425067	0.721652929382935	0.719266358228684
-23	-0.160546440071957	-0.0247583458724759	0.772320217096336	0.797078562968812
15	0.536605294694411	0.226016973953761	0.835820895522388	0.609803921568628
-25	-0.145017814415355	-0.0175493282798722	0.698169735265278	0.71571906354515
-1	0.0251611201186015	0.00529117135108981	0.641466580142765	0.636175408791675
2	0.12168651993123	0.044909868311292	0.70790452071771	0.662994652406418
-9	-0.0329634507202574	0.000464113255306042	0.665091807151294	0.664627693895988
7	0.298946444249336	0.122945794567147	0.824290101837382	0.701344307270234
-18	0.136754137807693	0.109072215727228	0.772191673212883	0.663119457485655
-21	0.0680540098040414	0.0723091346993898	0.71370420624152	0.64139507154213
-29	0.0153306863896225	0.0761258534704723	0.819391846736466	0.743265993265993
-13	-0.145235608133654	-0.0491861002615269	0.664179104477612	0.713365204739139
-6	-0.00845525485496545	0.00126517279598515	0.73553580412544	0.734270631329455
-6	0.0963066922911309	0.0521645361489179	0.727584704216144	0.675420168067226
6	-0.0800669259968929	-0.0673125027304224	0.697228144989338	0.764540647719761
-3	0.264423054329042	0.128447427990315	0.741512219124159	0.613064791133844
13	0.352174270102659	0.140011864186114	0.78389421712729	0.643882352941176
-13	0.225241594137984	0.131589628645917	0.724899487800847	0.593309859154931
-14	-0.320120308718323	-0.127310313236709	0.699870214146658	0.827180527383367
3	0.374568334796602	0.173917713022189	0.793176972281449	0.61925925925926
0	0.29367785256723	0.1438608041772	0.773268489015597	0.629407684838397
-15	0.257453868959669	0.151740168316175	0.739769785757558	0.588029617441383
15	0.363714595763134	0.140703426264016	0.758175415059534	0.617471988795518
-1	0.231398562741846	0.118081180811808	0.761194029850746	0.643112849038938
8	0.294319490757651	0.124628075264926	0.661505903319224	0.536877828054299
-10	-0.133495919097324	-0.0433056937534553	0.753731343283582	0.797037037037037
13	0.199718038309001	0.0517145413480407	0.808955223880597	0.757240682532556
-1	0.370618141580633	0.180513904371073	0.811001173905752	0.63048726953468
-4	0.0951633108727634	0.0447614244264734	0.704330460374186	0.659569035947713
15	0.12647546580821	0.0123295155153389	0.810683424980361	0.798353909465022
2	0.162620719929765	0.0722452813135788	0.786257392283865	0.714012110970287
11	-0.00548861057054362	-0.0387927431127455	0.656509838351494	0.695302581464239
40	0.710075973835325	0.252484590402293	0.753298354643167	0.500813764240874
-34	-0.388942850747929	-0.100145680376074	0.737571137120155	0.837716817496229
-2	0.351354339414041	0.17567716970702	0.716417910447761	0.540740740740741
-14	-0.193669396920746	-0.0652124722807803	0.811873468478502	0.877085940759282
-14	-0.0605674456779601	-0.00109149429411637	0.797702935138433	0.79879442943255
0	0.0946022119733845	0.0340070112073082	0.817814840388803	0.783807829181495
-18	0.00210117771430829	0.0384934228731454	0.767741219552793	0.729247796679648
15	0.341276460833087	0.133032434215078	0.718448200175592	0.585415765960513
-1	0.118862215329535	0.0524835751842243	0.750628878081503	0.698145302897279
-38	-0.356163626312881	-0.07247478289408	0.729171307640899	0.80164609053498
2	0.294719214385586	0.138970659985772	0.781799955446646	0.642829295460875
15	0.48664628529505	0.202381176060642	0.770302897278312	0.56792172121767
0	-0.0482595193964839	-0.0296980704940915	0.763654256191569	0.79335232668566
-5	-0.0689404285760726	-0.0252203628323026	0.813432835820896	0.838653198653198
5	0.33586967125159	0.155647339820814	0.748239932413406	0.592592592592592
-3	0.429476146294905	0.2140735646739	0.849465359768321	0.635391795094421
12	0.269387539427046	0.0993432018422004	0.763654256191569	0.664311054349369
-12	0.114277795223112	0.0773238002727293	0.76865671641791	0.691332916145181
19	0.330348258706467	0.125043461668928	0.662415196743555	0.537371735074627
-20	-0.0485556213019154	0.0120388769954	0.639339797363546	0.627300920368146
3	0.121224574612744	0.0432934594837697	0.736689685898863	0.693396226415094
7	0.168837999544756	0.0619566429782257	0.725856014047408	0.663899371069183
11	-0.0403735817359023	-0.0597447681197575	0.676108508552129	0.735853276671886
0	0.477929813268468	0.226545614175113	0.779647218453189	0.553101604278076
0	0.0701289305108446	0.030663991735041	0.682710045279222	0.652046053544181
-30	-0.115121318648872	0.012750304546789	0.754640083714269	0.74188977916748
-16	0.0842932183223022	0.0724317487110383	0.743082341103472	0.670650592392433
-2	0.272367208373946	0.132770155660094	0.744208064156826	0.611437908496733
-12	-0.101803764441952	-0.0267272964342062	0.793768384355593	0.820495680789799
-5	0.21943069585995	0.111428226714035	0.702594040865781	0.591165814151747
-20	-0.149142437234179	-0.027346280965256	0.778415614236509	0.805761895201765
6	0.324523623711506	0.14013825546052	0.83746104641627	0.69732279095575
-3	0.447647383995056	0.228294961130906	0.743082341103472	0.514787379972566
7	0.361450102429027	0.155275531301574	0.852598322257325	0.69732279095575
-11	0.0449178538394361	0.0417301902428512	0.773268489015596	0.731538298772745
-4	0.21244134748233	0.107955480350471	0.734317136123892	0.626361655773421
-25	0.210212824765065	0.160918520883403	0.777476255088196	0.616557734204793
-37	-0.248187981660325	-0.0313086141271232	0.685269305645685	0.716577919772808
-8	-0.0535622540890321	-0.0161267963587636	0.719167321288295	0.735294117647059
-18	0.00415430362143776	0.0400669751731539	0.783582089552239	0.743515114379085
-8	0.105280785614409	0.0674233103605875	0.786414642117876	0.718991331757289
-8	-0.185145333871648	-0.0815294494301322	0.72798926714741	0.809518716577542
-1	0.101074324005184	0.0413872872361156	0.737571137120155	0.696183849884039
-1	0.224956914772541	0.107344886524101	0.71517861953769	0.607833733013589
-20	0.088404383312197	0.0896315358075522	0.776119402985075	0.686487867177522
11	0.470403967472403	0.208285521419796	0.729171307640899	0.520885786221103
-23	0.144497777322062	0.115574576011162	0.720442730169378	0.604868154158215
19	0.277390823659477	0.086082708168905	0.761246216470096	0.675163508301191
19	0.264015367558943	0.0743531580438566	0.761194029850746	0.68684087180689
11	0.388151888807481	0.147965072398435	0.746421476236566	0.59845640383813
4	0.22251819951813	0.0892868503663637	0.716950959488273	0.627664109121909
-14	0.223688745813415	0.139906111445524	0.751726442414791	0.611820330969267
2	0.339097811595617	0.162760254741181	0.750628878081503	0.587868623340322
0	0.198970893236404	0.104002736208386	0.8073419666374	0.703339230429014
6	0.23600130638255	0.0990730571875914	0.672205012672488	0.573131955484896
8	0.40102429031314	0.181390756142949	0.701492537313433	0.520101781170484
5	0.551096397692849	0.264637233391067	0.719167321288295	0.454530087897228
22	0.50984181473245	0.197647936786653	0.785118525021947	0.587470588235294
-13	-0.0137102166283212	0.0172945259774216	0.743082341103471	0.72578781512605
-1	-0.016322637563577	-0.0162029741603776	0.729072031148605	0.745275005308983
10	0.671245971848692	0.317170993065825	0.772191673212883	0.455020680147058
-11	-0.0708329268689238	-0.0120745824064687	0.696442599034901	0.708517181441369
-19	0.182974018794914	0.135244483588381	0.778415614236509	0.643171130648128
-5	0.0988907971947908	0.0529864024014475	0.647727272727273	0.594740870325826
16	0.490910304638252	0.208268906204306	0.750628878081503	0.542359971877197
-32	-0.275558007396344	-0.0585376657112858	0.725429456491131	0.783967122202416
24	0.29361688290573	0.0864286778210974	0.711040386303774	0.624611708482677
-15	-0.208230411797695	-0.070653532081432	0.735685210312076	0.806338742393508
-4	0.21289962572045	0.107313600489007	0.744208064156827	0.636894463667819
-1	0.217524122624317	0.0970821043048695	0.732137186408382	0.635055082103513
-15	-0.0500527157637718	0.00615155581033167	0.784380679627691	0.778229123817359
3	-0.194538245205959	-0.0943893064469954	0.671641791044776	0.766031097491772
-18	0.111411574349992	0.0922387302836711	0.822157594381034	0.729918864097363
-2	0.114756283939773	0.0569192762868518	0.740671641791044	0.683752365504192
-20	0.0203245259319549	0.0495398262238503	0.723880597014925	0.674340770791075
-1	0.263521890096294	0.126739467182626	0.676542659835152	0.549803192652526
-33	-0.129538818953274	0.00861184272336712	0.702594040865781	0.693982198142414
-20	-0.0209397409688339	0.0353985649844093	0.82089552238806	0.78549695740365
-16	-0.366251260039671	-0.142193011117806	0.662875215003051	0.805068226120857
0	0.0110592379450942	-0.00577909250538855	0.777476255088196	0.783255347593585
-8	0.2339794277978	0.124898024568867	0.838263229308006	0.713365204739139
-4	-0.0762884921796279	-0.0317649384868052	0.835820895522388	0.867585834009193
-8	0.276204101860811	0.143681884604569	0.758273848150552	0.614591963545983
-6	0.0656261177771249	0.0383257112156501	0.744208064156827	0.705882352941177
14	0.587811479314465	0.268242006829452	0.705349656213316	0.437107649383864
-14	-0.20546044288362	-0.0693407948399163	0.692836930588692	0.762177725428608
10	0.426870264392932	0.179611554233912	0.800557651303919	0.620946097070007
-16	0.0978094831885137	0.079567076115934	0.749466950959488	0.669899874843554
-7	0.19744415179007	0.111356178776633	0.775231648449203	0.66387546967257
2	0.209802366916435	0.0881115030104421	0.723075271126383	0.634963768115941
-4	-0.167606412382533	-0.0785690123181777	0.706616172867008	0.785185185185185
-10	0.173674113094659	0.106941934835648	0.734317136123892	0.627375201288244
15	0.0182421227197334	-0.0296596532163984	0.688166311300639	0.717825964517038
27	0.432835820895525	0.138993005933861	0.779396934247681	0.64040392831382
-44	-0.0686477445319584	0.0651146664578931	0.746268656716418	0.681153990258525
-12	0.143507665622082	0.0876228695599333	0.667705428899458	0.580082559339525
5	0.357837262805767	0.158889790779731	0.76865671641791	0.609766925638179
-9	0.26420432307239	0.145828036849246	0.772191673212883	0.626363636363637
-1	0.280010151522812	0.132587775945221	0.762075232692625	0.629487456747405
-14	0.218534290524381	0.135577308849248	0.82691022499443	0.691332916145181
-4	0.158152863135304	0.084687911108526	0.712896193191347	0.628208282082821
-11	0.125542223522907	0.0849524725461019	0.745269932863562	0.66031746031746
15	0.226575456053068	0.0720840243228302	0.73134328358209	0.659259259259259
4	0.192703150912108	0.0848127694302735	0.757666214382633	0.672853444952359
2	-0.0174974799206595	-0.0195325322290659	0.706616172867008	0.726148705096073
-6	0.0962130096618659	0.052390026291864	0.734131540101689	0.681741513809825
-10	0.114143964590957	0.0708616267317252	0.741512219124159	0.670650592392434
-15	0.207137515039182	0.133119003736396	0.762075232692625	0.628956228956229
9	0.47449923584691	0.218134892696959	0.772191673212883	0.554056780515924
10	0.167495854063012	0.0586006876260782	0.725856014047408	0.66725532642133
-39	-0.283594253815604	-0.043534172693873	0.721031207598372	0.764565380292245
-15	-0.00216320358989464	0.0330584296852949	0.717853042479907	0.684794612794613
-10	0.201352345661606	0.116230682187912	0.805193364034844	0.688962681846932
15	0.418697362858906	0.167852720815764	0.821556424519468	0.653703703703704
12	0.328421800770583	0.142487395056878	0.765721952037565	0.623234556980688
-15	-0.243781094527362	-0.0802648843693614	0.652944070854518	0.73320895522388
7	0.178993919292429	0.0734712975624189	0.754579375848033	0.681108078285614
13	0.0437380271012626	-0.0203326816584081	0.669658699509444	0.689991381167853
-11	0.0407554446649478	0.0378489105166654	0.687411996620671	0.649563086104006
-12	-0.143897183136364	-0.0522406299518473	0.649394536750212	0.70163516670206
-2	0.361432045915169	0.170659744623716	0.817298400085901	0.646638655462185
4	0.18789611885233	0.0746816975694459	0.745269932863562	0.670588235294117
14	0.581088023932622	0.258189624589013	0.742292188691577	0.484102564102564
-13	0.0513575911293209	0.0553848911319984	0.773268489015597	0.717883597883598
3	-0.0302087553739314	-0.0314243869369573	0.677652692170548	0.709077079107505
-6	-0.00354111793971912	0.00947744602452572	0.766763198930718	0.757285752906192
-24	0.0144557376278764	0.056848874500049	0.716417910447761	0.659569035947712
0	0.322214905862841	0.157550126278972	0.722798646174332	0.56524851989536
14	0.3332057035086	0.134880754541521	0.665418295974004	0.530537541432483
7	0.0658384168086592	0.00380726097105566	0.730289075070742	0.726481814099687
-26	-0.0667533830299825	0.0264851213343009	0.76344691636159	0.736961795027289
9	-0.0711841121191426	-0.061444705484921	0.670242537313432	0.731687242798353
3	0.503379671462827	0.239491896479124	0.752760361759973	0.513268465280849
11	-0.241563139884758	-0.162055618680492	0.703085993519945	0.865141612200436
-13	0.288770272486617	0.165404612816422	0.668974519039781	0.503569906223359
16	0.477397327090038	0.202382694178688	0.774281577188682	0.571898883009994
1	0.268910504488198	0.125161370902525	0.771050408335682	0.645889037433157
6	0.25337137602859	0.103051282966847	0.671534026617812	0.568482743650966
-1	-0.0896387771556812	-0.0530400088229871	0.669024281577188	0.722064290400175
-21	0.000425161772832361	0.051401893886517	0.772191673212883	0.720789779326366
-14	0.0224117117765019	0.0364561003728074	0.766562869107699	0.730106768734892
-8	0.315487551982939	0.164633944974358	0.680288593930715	0.515654648956357
-19	-0.100711971367816	-0.0112894701353712	0.702618980568856	0.713908450704227
4	0.196683250414593	0.0904804166049162	0.711592413870498	0.621111997265581
18	0.345520762202063	0.135540314528804	0.698017545858495	0.562477231329691
-6	0.0369504986873277	0.0231863321727096	0.719370182056749	0.696183849884039
-3	-0.218805482391963	-0.103720653016724	0.650595941157522	0.754316594174246
10	0.432674801651302	0.185388685406637	0.805193364034844	0.619804678628207
7	0.484976262478454	0.224758384045409	0.811873468478502	0.587115084433092
13	0.192575521087372	0.0627067860008209	0.671641791044776	0.608935005043955
7	0.530708386173708	0.251928552949763	0.772191673212883	0.52026312026312
-6	0.420759021551752	0.214641307528852	0.798507462686567	0.583866155157715
-21	-0.0934358786668779	0.00176858030331906	0.786414642117876	0.784646061814557
14	0.273549734985204	0.0900067855291733	0.86698376250615	0.776976976976977
-18	-0.0158426416650097	0.030118236867287	0.765721952037566	0.735603715170279
-12	0.0691900570616677	0.0556311086044988	0.767741219552793	0.712110110948294
-9	0.19173640646536	0.10632303246242	0.702594040865782	0.596271008403361
-25	-0.253438154867571	-0.0587305248433816	0.828358208955224	0.887088733798605
-23	0.10947281625364	0.101937859566503	0.746947082767979	0.645009223201476
-14	0.199247868761722	0.124414429951085	0.749466950959488	0.625052521008403
-7	0.30964140701008	0.162166857315359	0.775231648449203	0.613064791133844
20	0.5257048092869	0.2335588135564	0.687411996620671	0.453853183064271
28	0.409740370709784	0.138545117567852	0.720442730169378	0.581897612601526
-35	-0.0927372583198214	0.0440550382129855	0.843283582089552	0.799228543876567
1	0.0463733405867974	0.010565767459218	0.719167321288296	0.708601553829078
-12	0.191054685543698	0.115029399399025	0.814749780509217	0.699720381110192
-4	-0.0438916528468749	-0.0110578494389358	0.723880597014925	0.734938446453861
2	0.209379572724613	0.0897860442035352	0.670668397144712	0.580882352941177
-9	-0.116428650602244	-0.0440605962327656	0.724899487800847	0.768960084033613
-14	-0.108747927031509	-0.0231486654664881	0.677069199457259	0.700217864923747
-6	0.0669853941019583	0.0376001839433583	0.721031207598372	0.683431023655014
11	0.406837544304621	0.178491654594835	0.78510854816825	0.606616893573416
0	0.0752400988236626	0.0277624257047392	0.628852142166863	0.601089716462124
-10	-0.286039745454777	-0.12476326351436	0.708955223880597	0.833718487394957
-11	0.133995116730644	0.0831752895559876	0.716417910447761	0.633242620891774
3	0.535159325741408	0.256944450672193	0.788361562971659	0.531417112299467
-26	0.240574903261466	0.180271729988496	0.78931833370461	0.609046603716114
27	0.339207055782071	0.107888534149454	0.691370138924752	0.583481604775297
-39	-0.0192872050225477	0.0773301468242936	0.750628878081503	0.673298731257209
-18	0.0886349702752882	0.0829439957135051	0.818547710883784	0.735603715170279
-34	-0.206688778330573	-0.00747284817741545	0.807341966637399	0.814814814814815
19	0.44983578837837	0.17999836106007	0.788361562971659	0.608363201911589
23	0.502130502489697	0.184869734291914	0.726212686567163	0.541342952275249
-1	-0.0418666471563751	-0.0231943666796557	0.699870214146658	0.723064580826314
-10	0.126944970771352	0.0790477985651639	0.775231648449203	0.696183849884039
-15	-0.189370955679117	-0.0602416216228856	0.685888738127544	0.74613035975043
-6	0.240422072643319	0.122498663661886	0.72561488332983	0.603116219667944
-8	0.0374621988098705	0.0335233705899948	0.789409841253098	0.755886470663103
-28	-0.214846441899562	-0.044218030607347	0.685888738127544	0.730106768734891
3	0.378102949305757	0.184608031306856	0.691958458657283	0.507350427350427
-4	0.345911039241081	0.171621114376963	0.755487269534678	0.583866155157714
-5	0.288527948492829	0.150436999916222	0.86698376250615	0.716546762589928
13	0.643959938867752	0.296529629810584	0.818547710883784	0.5220180810732
-5	0.35909342177999	0.188222433401035	0.780815025993628	0.592592592592593
6	0.384231376394114	0.171901345578933	0.780815025993628	0.608913680414695
-6	0.10381426202322	0.0677236330510224	0.734317136123892	0.66659350307287
-7	0.516826285537155	0.263197546760936	0.791815828606047	0.528618281845111
-9	0.107774566412251	0.0646223720541196	0.743672939649579	0.679050567595459
-9	0.149250479628004	0.0911492362972054	0.664601520698396	0.573452284401191
-7	0.456262803628915	0.236890974736365	0.788361562971659	0.551470588235294
-23	0.0162332153933802	0.0478788078084824	0.642437631337894	0.594558823529412
-3	0.210993236432219	0.109657810150164	0.779766580630681	0.670108770480517
-31	-0.123561442346966	0.00916355823993875	0.725429456491131	0.716265898251192
-6	0.360831534802493	0.187817859977502	0.802491302884076	0.614673442906574
6	0.481057191975333	0.20702002972383	0.754225388735762	0.547205359011933
-7	0.36912579414838	0.192836035323421	0.811873468478502	0.619037433155081
0	0.0809472151669473	0.0310227287618088	0.699097794609044	0.668075065847235
-4	0.397037369543262	0.210186376716385	0.73134328358209	0.521156906865704
29	0.285246967775501	0.0672247354364643	0.703085993519945	0.635861258083481
-17	0.0353363899456951	0.053725226756621	0.719370182056749	0.665644955300128
-3	0.0451068093528857	0.0203681233124073	0.778653900309774	0.758285776997366
-13	0.114493132353594	0.0797626173943119	0.816282225237449	0.736519607843137
22	0.379942079118265	0.122000248110329	0.725976282968717	0.603976034858388
16	0.311425714564431	0.117601550672336	0.700327359485102	0.582725808812766
25	0.338925808911644	0.102071276271702	0.738805970149254	0.636734693877552
-17	-0.21662602022567	-0.064817648945287	0.711989503034279	0.776807151979566
-6	0.219998048970834	0.119869252769967	0.791044776119403	0.671175523349436
-9	0.235231539929282	0.131673038850618	0.787341488048479	0.655668449197862
-5	-0.0722009317944448	-0.0325769544053541	0.738083774675012	0.770660729080366
-13	-0.175255431729287	-0.0615034748596732	0.750628878081503	0.812132352941176
-6	0.73808408935713	0.378464699176639	0.826910224994429	0.44844552581779
-9	0.0747718518233709	0.0506972077034501	0.767741219552793	0.717044011849343
-13	0.0396091438233683	0.0508240608587571	0.812683792931254	0.761859732072497
-10	0.132685429063832	0.0871426269274541	0.782722077345613	0.695579450418159
15	0.110890053809953	0.00893041857131571	0.667831057478563	0.658900638907248
1	0.361007869150973	0.174975150026105	0.796836711962574	0.621861561936469
-7	0.0815627743634775	0.0555902105067797	0.873602467367956	0.818012256861177
-15	-0.048002141385056	0.00310816835974959	0.684396200814111	0.681288032454361
13	0.234891984901598	0.0783189226675047	0.708955223880597	0.630636301213092
-10	-0.199544273290294	-0.0775355800322888	0.761246216470096	0.838781796502384
6	-0.197371973204921	-0.128756977243454	0.742292188691577	0.871049165935031
-30	-0.347123074575125	-0.0832170865351599	0.866167318389601	0.949384404924761
-3	0.0407257401271881	0.0174944106297984	0.641466580142765	0.623972169512966
-5	0.26353623799328	0.136097036275835	0.734317136123892	0.598220099848057
-24	0.173198674344514	0.136936365178295	0.767232539592117	0.630296174413822
8	0.417596336812195	0.186008362679368	0.772191673212883	0.586183310533515
-8	0.167716970702045	0.103779662836895	0.776119402985075	0.67233974014818
-6	-0.0988918178061562	-0.0444612324257526	0.620807402103872	0.665268634529624
6	0.234515486116003	0.0917355069571911	0.791044776119403	0.699309269162212
-22	0.24857811035467	0.164833294978261	0.791815828606046	0.626982533627786
-2	-0.0358267581039511	-0.0237965964076127	0.757041858377287	0.780838454784899
-2	0.114092934022694	0.0575078052401206	0.706616172867008	0.649108367626887
-12	0.00807627574640479	0.0246466268619275	0.721652929382935	0.697006302521008
-6	0.229146749910575	0.120531560808773	0.804355090220538	0.683823529411765
1	0.296245241992886	0.134778476296615	0.8073419666374	0.672563490340785
3	0.192469027411962	0.0818207544171003	0.709195955705345	0.627375201288244
24	0.21707529097511	0.0453755292743578	0.649711730157874	0.604336200883516
14	0.35289789542816	0.135030617790325	0.781799955446646	0.646769337656321
3	0.307867809941277	0.138023351961017	0.697228144989338	0.559204793028322
-15	-0.141172649229405	-0.0427584484831438	0.644370061457418	0.687128509940562
9	0.3588850271803	0.150620124049845	0.733263827919226	0.582643703869381
-7	0.0879412987066022	0.0509623256884038	0.710029189844137	0.659066864155733
13	0.388008409837646	0.155429560866841	0.796836711962574	0.641407151095732
