4
[ 6.190, 6.190, 6.190, 2.045, 2.045, 6.190, 6.190, 11.556, 2.045, 6.190, 2.045, 6.190, 6.190, 6.190, 2.045, 6.190, 6.190, 6.190, 6.190, 6.190, 2.045, 6.190, 2.045, 6.190, 6.190, 2.045, 6.190, 2.045, 2.045, 2.045, 6.190, 6.190, 6.190, 2.045, 2.045, 6.190, 2.045, 6.190, 6.190, 6.190, 2.045, 2.045, 6.190, 6.190, 6.190, 6.190, 6.190, 6.190, 6.190, 6.190, 6.190, 6.190, 6.190, 2.045, 2.045, 6.190, 6.190, 6.190, 2.045, 6.190, 6.190, 6.190, 6.190, 6.190, 2.045, 6.190, 6.190, 2.045, 2.045, 2.045, 2.045, 2.045, 6.190, 6.190, 6.190, 2.045, 6.190, 6.190, 6.190, 11.556, 2.045, 6.190, 2.045, 2.045, 1.797, 2.045, 2.045, 2.045, 2.045, 2.045, 6.190, 6.190, 6.190, 2.045, 6.190, 11.556, 6.190, 2.045, 6.190, 2.045, 2.045, 6.190, 2.045, 2.045, 6.190, 6.190, 6.190, 6.190, 6.190, 2.045, 2.045, 6.190, 2.045, 6.190, 2.045, 11.556, 2.045, 2.045, 6.190, 2.045, 2.045, 6.190, 11.556, 6.190, 6.190, 11.556, 6.190, 6.190, 2.045, 2.045, 2.045, 6.190, 2.045, 11.556, 2.045, 6.190, 6.190, 6.190, 2.045, 2.045, 2.045, 2.045, 6.190, 2.045, 6.190, 6.190, 2.045, 6.190, 6.190, 11.556, 6.190, 2.045, 6.190, 6.190, 2.045, 6.190, 2.045, 2.045, 6.190, 6.190, 2.045, 6.190, 6.190, 2.045, 2.045, 6.190, 2.045, 6.190, 6.190, 6.190, 6.190, 2.045, 2.045, 6.190, 2.045, 2.045, 6.190, 6.190, 6.190, 6.190, 2.045, 2.045, 11.556, 2.045, 6.190, 2.045, 2.045, 6.190, 11.556, 6.190, 6.190, 6.190, 6.190, 2.045, 2.045, 6.190, 6.190, 6.190, 6.190, 2.045 ]
6
[ 0.823, 0.324, 0.324, 0.862, 0.569, 0.324, 0.324, 0.324, 0.324, 0.324, 0.823, 0.862, 0.324, 0.823, 0.324, 0.823, 0.324, 0.823, 0.862, 0.324, 0.324, 0.823, 0.324, 0.324, 0.823, 0.862, 0.324, 0.324, 0.862, 0.070, 0.070, 0.324, 0.862, 0.324, 0.862, 0.324, 0.324, 0.070, 0.862, 0.823, 0.324, 0.324, 0.823, 0.324, 0.324, 0.823, 0.823, 0.324, 0.324, 0.569, 0.324, 0.862, 0.324, 0.862, 0.324, 0.823, 0.823, 0.862, 0.324, 0.324, 0.862, 0.862, 0.862, 0.823, 0.070, 0.862, 0.070, 0.862, 0.324, 0.324, 0.324, 0.324, 0.862, 0.324, 0.324, 0.823, 0.324, 0.324, 0.823, 0.324, 0.324, 0.912, 0.823, 0.823, 0.823, 0.862, 0.324, 0.823, 0.324, 0.862, 0.070, 0.324, 0.823, 0.862, 0.070, 0.324, 0.823, 0.324, 0.862, 0.324, 0.823, 0.324, 0.324, 0.862, 0.862, 0.324, 0.324, 0.862, 0.324, 0.862, 0.324, 0.324, 0.324, 0.324, 0.324, 0.823, 0.569, 0.324, 0.070, 0.324, 0.862, 0.324, 0.862, 0.324, 0.324, 0.862, 0.823, 0.823, 0.823, 0.324, 0.324, 0.823, 0.823, 0.823, 0.862, 0.324, 0.324, 0.324, 0.324, 0.324, 0.862, 0.862, 0.324, 0.324, 0.823, 0.324, 0.070, 0.070, 0.324, 0.823, 0.324, 0.862, 0.324, 0.324, 0.324, 0.324, 0.070, 0.862, 0.324, 0.862, 0.324, 0.569, 0.324, 0.324, 0.324, 0.324, 0.862, 0.823, 0.324, 0.324, 0.070, 0.324, 0.324, 0.862, 0.324, 0.324, 0.823, 0.324, 0.324, 0.324, 0.862, 0.324, 0.862, 0.823, 0.324, 0.324, 0.324, 0.324, 0.324, 0.862, 0.324, 0.324, 0.862, 0.862, 0.862, 0.324, 0.324, 0.324, 0.324, 0.324 ]