3
[ 7.294, 7.294, 1.797, 2.501, 7.294, 2.501, 7.294, 2.501, 2.501, 2.501, 7.294, 1.797, 1.797, 7.294, 7.294, 7.294, 7.294, 1.797, 1.797, 1.797, 2.501, 1.797, 1.797, 2.501, 2.501, 7.294, 1.797, 7.294, 1.797, 7.294, 2.501, 7.294, 7.294, 7.294, 1.797, 7.294, 1.797, 1.797, 1.797, 7.294, 7.294, 7.294, 7.294, 7.294, 1.797, 7.294, 1.797, 1.797, 1.797, 1.797 ]
3
[ 0.381, 0.758, 0.381, 0.758, 0.132, 0.758, 0.758, 0.381, 0.758, 0.381, 0.381, 0.758, 0.132, 0.381, 0.132, 0.758, 0.381, 0.381, 0.758, 0.381, 0.132, 0.381, 0.132, 0.381, 0.132, 0.758, 0.381, 0.758, 0.758, 0.381, 0.758, 0.381, 0.132, 0.758, 0.381, 0.132, 0.381, 0.132, 0.381, 0.758, 0.381, 0.132, 0.132, 0.132, 0.132, 0.381, 0.758, 0.758, 0.132, 0.132 ]