4
[ 0.857, 0.857, 0.857, 0.857, 5.850, 0.857, 0.857, 0.857, 0.857, 5.850, 0.857, 0.857, 0.857, 0.857, 0.857, 5.850, 0.857, 0.857, 0.857, 0.857, 5.850, 5.850, 5.850, 5.850, 5.850, 5.850, 0.857, 0.857, 0.857, 0.857, 5.850, 0.857, 5.850, 0.857, 5.850, 0.857, 0.857, 0.857, 0.857, 0.857, 0.857, 0.857, 5.850, 0.881, 0.881, 0.857, 0.857, 0.857, 0.857, 0.857, 0.857, 5.850, 0.857, 0.881, 5.850, 0.857, 0.857, 0.857, 0.857, 0.857, 0.857, 5.850, 0.857, 5.850, 0.857, 5.850, 0.857, 0.857, 0.857, 0.857, 0.857, 0.857, 0.857, 0.857, 0.857, 5.850, 0.857, 0.857, 0.881, 5.850, 5.850, 0.857, 0.857, 5.850, 5.850, 5.850, 0.857, 0.857, 0.857, 0.857, 0.857, 0.857, 0.857, 5.850, 0.857, 0.857, 5.850, 0.857, 3.861, 0.857 ]
6
[ 0.759, 0.868, 0.013, 0.759, 0.759, 0.759, 0.031, 0.013, 0.759, 0.759, 0.759, 0.013, 0.013, 0.846, 0.759, 0.759, 0.013, 0.013, 0.759, 0.759, 0.759, 0.759, 0.759, 0.759, 0.759, 0.759, 0.759, 0.846, 0.759, 0.759, 0.759, 0.759, 0.013, 0.759, 0.759, 0.846, 0.759, 0.759, 0.759, 0.759, 0.759, 0.759, 0.868, 0.759, 0.759, 0.013, 0.013, 0.013, 0.013, 0.410, 0.759, 0.846, 0.031, 0.759, 0.759, 0.759, 0.759, 0.759, 0.846, 0.031, 0.846, 0.759, 0.759, 0.031, 0.759, 0.031, 0.031, 0.759, 0.846, 0.759, 0.759, 0.013, 0.759, 0.759, 0.846, 0.013, 0.013, 0.759, 0.031, 0.759, 0.031, 0.759, 0.868, 0.759, 0.759, 0.759, 0.846, 0.031, 0.759, 0.759, 0.759, 0.759, 0.759, 0.846, 0.759, 0.759, 0.759, 0.846, 0.759, 0.846 ]