3
[ 1.679, 1.679, 6.195, 6.195, 6.195, 1.703, 1.679, 1.679, 6.195, 1.703, 6.195, 6.195, 6.195, 1.703, 1.679, 1.703, 1.679, 1.679, 1.679, 6.195, 6.195, 1.703, 6.195, 6.195, 1.703, 1.679, 1.703, 1.679, 6.195, 1.703, 1.679, 1.703, 6.195, 1.679, 6.195, 1.679, 1.703, 1.703, 1.679, 1.679, 6.195, 1.703, 6.195, 1.703, 6.195, 1.703, 1.679, 1.679, 6.195, 6.195, 1.679, 1.703, 6.195, 1.703, 6.195, 1.703, 1.703, 1.703, 1.703, 1.679, 6.195, 1.679, 6.195, 6.195, 1.703, 6.195, 1.679, 1.703, 1.703, 1.679, 1.703, 1.703, 1.679, 6.195, 1.703, 1.703, 1.703, 1.679, 1.703, 1.679, 6.195, 6.195, 1.703, 1.703, 1.679, 6.195, 1.703, 6.195, 6.195, 1.703, 1.703, 1.703, 6.195, 1.703, 1.679, 1.679, 6.195, 1.679, 1.679, 1.679, 1.703, 1.703, 1.679, 1.679, 6.195, 1.679, 6.195, 6.195, 1.679, 1.679, 1.679, 6.195, 1.703, 1.703, 1.703, 6.195, 1.679, 1.703, 1.703, 1.679, 1.679, 6.195, 1.679, 6.195, 1.703, 1.703, 1.679, 6.195, 6.195, 1.703, 1.679, 1.679, 6.195, 6.195, 1.679, 1.679, 1.679, 1.703, 6.195, 1.703, 6.195, 1.679, 6.195, 1.703, 1.679, 1.679, 1.703, 6.195, 1.703, 1.679, 1.703, 1.679, 6.195, 1.679, 1.679, 1.703, 1.703, 6.195, 6.195, 1.703, 1.703, 1.703, 1.679, 1.679, 1.703, 1.679, 6.195, 1.703, 1.679, 6.195, 6.195, 6.195, 1.703, 1.679, 1.679, 1.703, 1.679, 1.703, 1.703, 1.703, 6.195, 6.195, 6.195, 1.679, 1.703, 1.679, 6.195, 1.703, 6.195, 1.679, 1.703, 1.703, 1.703, 1.679, 1.703, 1.703, 1.703, 1.679, 6.195, 1.703 ]
3
[ 0.492, 0.463, 0.492, 0.463, 0.463, 0.463, 0.492, 0.994, 0.463, 0.492, 0.994, 0.463, 0.463, 0.994, 0.463, 0.994, 0.994, 0.492, 0.994, 0.994, 0.463, 0.994, 0.492, 0.994, 0.492, 0.463, 0.463, 0.463, 0.463, 0.492, 0.492, 0.492, 0.463, 0.994, 0.463, 0.463, 0.492, 0.994, 0.463, 0.492, 0.492, 0.994, 0.463, 0.463, 0.463, 0.463, 0.492, 0.492, 0.492, 0.492, 0.492, 0.463, 0.994, 0.463, 0.492, 0.463, 0.463, 0.994, 0.463, 0.994, 0.492, 0.463, 0.994, 0.492, 0.994, 0.994, 0.994, 0.492, 0.492, 0.492, 0.994, 0.994, 0.463, 0.492, 0.492, 0.492, 0.492, 0.463, 0.492, 0.463, 0.492, 0.994, 0.463, 0.492, 0.994, 0.463, 0.492, 0.994, 0.492, 0.492, 0.492, 0.492, 0.994, 0.492, 0.463, 0.994, 0.994, 0.463, 0.492, 0.994, 0.994, 0.492, 0.994, 0.994, 0.994, 0.463, 0.463, 0.463, 0.463, 0.994, 0.994, 0.994, 0.994, 0.994, 0.463, 0.492, 0.994, 0.463, 0.492, 0.492, 0.994, 0.463, 0.463, 0.492, 0.994, 0.492, 0.492, 0.994, 0.463, 0.463, 0.994, 0.463, 0.994, 0.994, 0.492, 0.994, 0.463, 0.463, 0.994, 0.994, 0.463, 0.492, 0.492, 0.994, 0.994, 0.492, 0.463, 0.463, 0.463, 0.463, 0.994, 0.492, 0.492, 0.463, 0.492, 0.463, 0.492, 0.994, 0.463, 0.994, 0.492, 0.994, 0.463, 0.994, 0.463, 0.463, 0.463, 0.463, 0.492, 0.492, 0.463, 0.994, 0.994, 0.463, 0.994, 0.994, 0.463, 0.492, 0.463, 0.463, 0.463, 0.492, 0.492, 0.994, 0.492, 0.463, 0.463, 0.463, 0.492, 0.463, 0.994, 0.463, 0.994, 0.463, 0.492, 0.463, 0.463, 0.994, 0.492, 0.994 ]