3
[ 0.438, 0.438, 3.704, 4.731, 0.438, 3.704, 0.438, 0.438, 3.704, 4.731, 4.731, 3.704, 3.704, 0.438, 4.731, 0.438, 3.704, 3.704, 3.704, 0.438, 0.438, 0.438, 3.704, 4.731, 3.704, 3.704, 4.731, 3.704, 3.704, 4.731, 0.438, 4.731, 3.704, 0.438, 3.704, 4.731, 0.438, 4.731, 4.731, 3.704, 0.438, 3.704, 3.704, 0.438, 0.438, 4.731, 3.704, 3.704, 0.438, 4.731 ]
3
[ 0.119, 0.119, 0.317, 0.317, 0.008, 0.317, 0.008, 0.317, 0.008, 0.317, 0.008, 0.008, 0.317, 0.317, 0.317, 0.119, 0.317, 0.008, 0.119, 0.008, 0.119, 0.008, 0.008, 0.008, 0.317, 0.008, 0.119, 0.008, 0.008, 0.317, 0.317, 0.008, 0.119, 0.119, 0.008, 0.119, 0.008, 0.119, 0.008, 0.119, 0.317, 0.317, 0.317, 0.317, 0.119, 0.317, 0.008, 0.008, 0.008, 0.008 ]