3
[ 2.071, 3.116, 3.116, 3.116, 2.071, 3.116, 2.166, 2.071, 3.116, 2.166, 2.071, 3.116, 2.071, 2.071, 2.071, 3.116, 2.166, 2.071, 2.071, 3.116, 2.166, 3.116, 3.116, 2.166, 3.116, 3.116, 3.116, 2.071, 2.166, 2.071, 2.071, 3.116, 2.071, 2.071, 2.071, 2.166, 2.166, 3.116, 2.071, 2.166, 2.166, 3.116, 2.071, 3.116, 2.071, 2.166, 2.166, 2.166, 2.071, 2.071, 2.071, 2.166, 2.071, 3.116, 2.166, 3.116, 3.116, 3.116, 3.116, 2.071, 3.116, 2.071, 2.071, 3.116, 2.166, 3.116, 2.071, 2.071, 3.116, 2.071, 2.071, 2.071, 2.166, 3.116, 3.116, 2.166, 2.166, 2.071, 2.071, 2.071, 2.166, 3.116, 2.071, 3.116, 2.166, 3.116, 3.116, 2.166, 2.166, 2.071, 3.116, 3.116, 2.071, 3.116, 2.166, 2.071, 2.166, 2.166, 2.166, 2.166, 3.116, 2.071, 2.071, 3.116, 3.116, 2.166, 2.166, 2.071, 2.166, 2.071, 2.166, 3.116, 2.166, 3.116, 3.116, 2.166, 2.166, 2.166, 2.071, 2.071, 3.116, 2.071, 2.166, 2.166, 2.071, 2.071, 2.071, 2.166, 2.166, 2.071, 2.166, 3.116, 2.071, 2.071, 2.071, 3.116, 2.166, 2.166, 2.166, 2.166, 2.166, 2.166, 3.116, 2.071, 3.116, 2.071, 2.071, 2.071, 2.166, 3.116, 3.116, 2.166, 2.166, 3.116, 2.071, 2.071, 3.116, 3.116, 2.071, 3.116, 3.116, 3.116, 2.071, 2.166, 2.071, 3.116, 2.166, 3.116, 2.071, 3.116, 2.166, 2.071, 3.116, 2.071, 2.166, 2.071, 3.116, 2.071, 2.166, 2.071, 2.166, 3.116, 3.116, 3.116, 2.071, 2.071, 3.116, 3.116, 2.071, 3.116, 2.071, 2.071, 2.071, 2.071, 2.071, 2.166, 2.166, 3.116, 3.116, 2.166 ]
3
[ 0.480, 0.383, 0.480, 0.383, 0.383, 0.878, 0.383, 0.480, 0.383, 0.383, 0.878, 0.383, 0.878, 0.480, 0.878, 0.480, 0.383, 0.383, 0.383, 0.878, 0.878, 0.480, 0.878, 0.383, 0.878, 0.383, 0.480, 0.480, 0.878, 0.383, 0.878, 0.480, 0.383, 0.480, 0.878, 0.383, 0.878, 0.480, 0.878, 0.878, 0.878, 0.480, 0.383, 0.383, 0.480, 0.878, 0.878, 0.383, 0.480, 0.878, 0.480, 0.383, 0.480, 0.383, 0.878, 0.383, 0.383, 0.878, 0.383, 0.878, 0.383, 0.878, 0.383, 0.480, 0.383, 0.383, 0.383, 0.480, 0.383, 0.383, 0.480, 0.383, 0.383, 0.878, 0.878, 0.383, 0.480, 0.480, 0.480, 0.383, 0.480, 0.878, 0.878, 0.383, 0.480, 0.383, 0.480, 0.383, 0.878, 0.480, 0.878, 0.480, 0.480, 0.480, 0.383, 0.878, 0.878, 0.878, 0.878, 0.383, 0.383, 0.480, 0.480, 0.480, 0.878, 0.878, 0.878, 0.480, 0.383, 0.383, 0.480, 0.383, 0.383, 0.383, 0.878, 0.878, 0.383, 0.383, 0.878, 0.878, 0.480, 0.878, 0.383, 0.383, 0.480, 0.480, 0.878, 0.878, 0.878, 0.878, 0.480, 0.878, 0.383, 0.480, 0.480, 0.383, 0.878, 0.480, 0.878, 0.878, 0.480, 0.383, 0.480, 0.383, 0.383, 0.480, 0.878, 0.383, 0.878, 0.878, 0.383, 0.383, 0.878, 0.878, 0.878, 0.480, 0.878, 0.480, 0.383, 0.383, 0.878, 0.878, 0.480, 0.480, 0.878, 0.383, 0.383, 0.383, 0.480, 0.383, 0.480, 0.878, 0.480, 0.878, 0.383, 0.383, 0.480, 0.383, 0.383, 0.878, 0.383, 0.383, 0.480, 0.383, 0.480, 0.480, 0.878, 0.878, 0.878, 0.480, 0.383, 0.383, 0.878, 0.480, 0.878, 0.480, 0.383, 0.480, 0.878, 0.480 ]