3
[ 4.147, 4.147, 0.910, 0.910, 4.147, 3.405, 4.147, 0.910, 3.405, 0.910, 3.405, 4.147, 3.405, 0.910, 0.910, 0.910, 0.910, 4.147, 0.910, 0.910, 0.910, 0.910, 3.405, 4.147, 0.910, 4.147, 3.405, 4.147, 0.910, 4.147, 4.147, 0.910, 3.405, 0.910, 3.405, 0.910, 4.147, 4.147, 3.405, 4.147, 4.147, 3.405, 0.910, 0.910, 3.405, 3.405, 4.147, 3.405, 4.147, 4.147, 4.147, 0.910, 0.910, 4.147, 0.910, 3.405, 0.910, 0.910, 0.910, 0.910, 0.910, 4.147, 0.910, 4.147, 0.910, 3.405, 4.147, 4.147, 4.147, 4.147, 3.405, 4.147, 4.147, 4.147, 0.910, 3.405, 3.405, 4.147, 3.405, 0.910, 4.147, 4.147, 4.147, 0.910, 3.405, 3.405, 0.910, 3.405, 3.405, 0.910, 4.147, 4.147, 3.405, 4.147, 4.147, 4.147, 3.405, 3.405, 4.147, 0.910 ]
3
[ 0.954, 0.311, 0.311, 0.929, 0.954, 0.954, 0.954, 0.311, 0.954, 0.311, 0.954, 0.311, 0.929, 0.954, 0.929, 0.311, 0.954, 0.954, 0.929, 0.311, 0.929, 0.929, 0.929, 0.954, 0.929, 0.311, 0.929, 0.311, 0.311, 0.954, 0.929, 0.929, 0.954, 0.954, 0.311, 0.311, 0.311, 0.954, 0.929, 0.954, 0.929, 0.311, 0.929, 0.954, 0.954, 0.311, 0.954, 0.311, 0.311, 0.954, 0.929, 0.954, 0.954, 0.311, 0.311, 0.929, 0.954, 0.929, 0.929, 0.954, 0.311, 0.311, 0.311, 0.311, 0.929, 0.311, 0.929, 0.311, 0.311, 0.954, 0.311, 0.929, 0.929, 0.954, 0.311, 0.929, 0.311, 0.311, 0.954, 0.954, 0.311, 0.311, 0.929, 0.311, 0.311, 0.954, 0.311, 0.311, 0.954, 0.311, 0.929, 0.954, 0.929, 0.929, 0.954, 0.311, 0.929, 0.311, 0.311, 0.954 ]