2
[ 3.156, 3.156, 3.156, 3.156, 3.156, 3.156, 3.156, 3.156, 3.156, 3.156, 3.156, 3.156, 3.156, 3.156, 3.156, 3.156, 3.156, 3.156, 3.156, 3.156, 3.156, 3.156, 3.156, 2.425, 2.425, 3.156, 3.156, 3.156, 3.156, 3.156, 3.156, 3.156, 3.156, 3.156, 3.156, 3.156, 2.425, 3.156, 3.156, 3.156, 3.156, 3.156, 3.156, 3.156, 3.156, 3.156, 3.156, 3.156, 3.156, 3.156 ]
4
[ 0.214, 0.784, 0.700, 0.214, 0.214, 0.214, 0.214, 0.700, 0.214, 0.784, 0.214, 0.214, 0.214, 0.784, 0.214, 0.214, 0.690, 0.214, 0.784, 0.214, 0.214, 0.690, 0.214, 0.784, 0.214, 0.214, 0.214, 0.214, 0.214, 0.784, 0.690, 0.700, 0.214, 0.214, 0.214, 0.214, 0.214, 0.214, 0.214, 0.690, 0.214, 0.784, 0.214, 0.214, 0.214, 0.784, 0.214, 0.214, 0.214, 0.214 ]