3
[ 2.288, 2.288, 3.142, 2.288, 2.288, 3.393, 3.142, 2.288, 2.288, 3.393, 3.142, 2.288, 3.393, 2.288, 3.393, 3.142, 2.288, 3.393, 3.142, 3.142, 2.288, 2.288, 3.142, 3.393, 3.142, 2.288, 2.288, 3.142, 3.142, 3.142, 2.288, 3.393, 2.288, 3.393, 2.288, 3.142, 2.288, 3.142, 2.288, 3.142, 2.288, 3.142, 3.393, 3.393, 2.288, 3.393, 3.393, 2.288, 3.142, 3.142, 2.288, 3.393, 3.142, 3.393, 3.393, 2.288, 3.142, 3.393, 3.142, 2.288, 3.142, 3.142, 3.393, 3.393, 3.142, 3.142, 3.393, 3.142, 3.142, 3.142, 2.288, 3.393, 3.142, 3.142, 3.142, 3.393, 3.142, 2.288, 2.288, 3.393, 2.288, 3.393, 3.393, 3.393, 3.393, 3.393, 3.142, 2.288, 3.142, 2.288, 3.393, 3.393, 3.393, 3.142, 3.142, 3.142, 3.393, 3.393, 2.288, 3.393, 3.393, 3.393, 3.393, 3.142, 3.142, 3.142, 3.393, 2.288, 2.288, 2.288, 2.288, 2.288, 2.288, 3.393, 3.393, 2.288, 3.393, 3.142, 3.142, 3.393, 3.393, 3.393, 3.393, 2.288, 3.393, 3.393, 2.288, 3.393, 2.288, 3.142, 3.393, 3.142, 2.288, 3.142, 2.288, 3.142, 2.288, 2.288, 2.288, 3.393, 3.393, 3.142, 3.142, 2.288, 2.288, 3.393, 2.288, 3.393, 3.393, 3.393, 3.393, 3.393, 3.393, 3.142, 3.142, 3.393, 2.288, 3.142, 3.142, 2.288, 2.288, 3.393, 3.393, 3.142, 2.288, 2.288, 3.142, 3.393, 2.288, 3.393, 2.288, 2.288, 3.142, 2.288, 2.288, 3.393, 2.288, 3.142, 3.142, 3.393, 3.393, 3.142, 3.393, 2.288, 3.142, 2.288, 3.393, 3.393, 3.393, 2.288, 3.142, 3.393, 3.142, 3.393, 3.142, 3.142, 3.393, 3.142, 3.393, 2.288 ]
3
[ 0.554, 0.329, 0.554, 0.554, 0.329, 0.863, 0.329, 0.554, 0.554, 0.329, 0.554, 0.863, 0.863, 0.554, 0.554, 0.329, 0.863, 0.554, 0.554, 0.554, 0.554, 0.554, 0.863, 0.329, 0.554, 0.554, 0.863, 0.863, 0.863, 0.329, 0.554, 0.554, 0.329, 0.554, 0.554, 0.554, 0.329, 0.554, 0.554, 0.863, 0.329, 0.554, 0.329, 0.329, 0.329, 0.329, 0.863, 0.863, 0.863, 0.863, 0.554, 0.863, 0.863, 0.863, 0.554, 0.863, 0.329, 0.329, 0.554, 0.554, 0.329, 0.329, 0.329, 0.554, 0.329, 0.554, 0.329, 0.329, 0.863, 0.863, 0.863, 0.863, 0.554, 0.554, 0.554, 0.863, 0.329, 0.329, 0.329, 0.554, 0.554, 0.554, 0.329, 0.329, 0.329, 0.329, 0.863, 0.554, 0.863, 0.329, 0.329, 0.329, 0.863, 0.329, 0.329, 0.863, 0.554, 0.863, 0.554, 0.863, 0.554, 0.329, 0.329, 0.554, 0.863, 0.863, 0.863, 0.863, 0.329, 0.329, 0.863, 0.863, 0.329, 0.554, 0.554, 0.329, 0.863, 0.329, 0.863, 0.863, 0.863, 0.863, 0.554, 0.863, 0.329, 0.329, 0.329, 0.863, 0.329, 0.329, 0.554, 0.554, 0.554, 0.554, 0.329, 0.329, 0.329, 0.329, 0.329, 0.329, 0.863, 0.554, 0.329, 0.554, 0.554, 0.554, 0.329, 0.554, 0.329, 0.863, 0.554, 0.863, 0.329, 0.863, 0.329, 0.554, 0.863, 0.554, 0.554, 0.863, 0.554, 0.329, 0.329, 0.863, 0.863, 0.329, 0.554, 0.554, 0.329, 0.863, 0.863, 0.863, 0.554, 0.863, 0.863, 0.554, 0.554, 0.554, 0.863, 0.554, 0.863, 0.863, 0.329, 0.329, 0.329, 0.863, 0.554, 0.863, 0.863, 0.329, 0.329, 0.554, 0.554, 0.329, 0.554, 0.863, 0.863, 0.329, 0.329, 0.554 ]