5
[ 2.627, 3.303, 2.627, 3.303, 2.627, 3.303, 2.627, 3.303, 2.627, 2.627, 5.665, 5.665, 2.627, 1.099, 2.627, 2.627, 3.303, 3.303, 2.627, 3.303, 2.627, 2.627, 3.303, 2.627, 2.627, 2.627, 3.303, 2.510, 2.627, 3.303, 2.627, 3.303, 3.303, 2.627, 3.303, 2.627, 2.627, 3.303, 2.627, 3.303, 3.303, 3.303, 3.303, 2.627, 2.627, 2.627, 3.303, 5.665, 3.303, 3.303 ]
4
[ 0.361, 0.206, 0.361, 0.361, 0.697, 0.361, 0.697, 0.697, 0.697, 0.697, 0.697, 0.361, 0.206, 0.361, 0.697, 0.697, 0.361, 0.697, 0.361, 0.361, 0.697, 0.697, 0.697, 0.697, 0.697, 0.361, 0.361, 0.697, 0.361, 0.361, 0.143, 0.361, 0.697, 0.143, 0.143, 0.361, 0.206, 0.361, 0.697, 0.206, 0.697, 0.361, 0.697, 0.697, 0.361, 0.361, 0.697, 0.361, 0.361, 0.361 ]