3
[ 4.295, 4.295, 3.566, 4.295, 3.566, 3.824, 3.824, 3.824, 3.566, 4.295, 4.295, 4.295, 3.566, 4.295, 3.566, 3.824, 3.566, 3.566, 4.295, 3.824, 3.824, 4.295, 4.295, 4.295, 3.824, 4.295, 3.824, 4.295, 3.824, 3.566, 4.295, 3.566, 4.295, 4.295, 4.295, 3.566, 3.566, 3.566, 3.824, 3.566, 3.824, 3.824, 3.824, 3.566, 3.824, 3.566, 3.824, 3.566, 3.824, 3.566, 4.295, 4.295, 3.824, 3.566, 4.295, 4.295, 4.295, 3.566, 4.295, 4.295, 3.824, 3.566, 3.824, 4.295, 3.566, 4.295, 3.824, 3.824, 3.566, 4.295, 3.566, 3.566, 4.295, 3.824, 3.824, 4.295, 3.566, 4.295, 4.295, 3.824, 3.566, 4.295, 3.824, 4.295, 3.824, 3.566, 3.566, 4.295, 3.566, 4.295, 3.566, 3.566, 3.824, 3.824, 3.824, 4.295, 3.566, 4.295, 4.295, 3.566 ]
3
[ 0.753, 0.328, 0.328, 0.754, 0.754, 0.753, 0.328, 0.754, 0.753, 0.753, 0.754, 0.754, 0.753, 0.753, 0.753, 0.754, 0.753, 0.754, 0.753, 0.754, 0.754, 0.753, 0.753, 0.754, 0.753, 0.328, 0.753, 0.754, 0.328, 0.328, 0.753, 0.753, 0.753, 0.753, 0.328, 0.754, 0.328, 0.754, 0.328, 0.753, 0.754, 0.328, 0.328, 0.328, 0.753, 0.328, 0.753, 0.328, 0.328, 0.328, 0.328, 0.754, 0.328, 0.753, 0.753, 0.754, 0.753, 0.328, 0.328, 0.753, 0.753, 0.328, 0.753, 0.754, 0.328, 0.753, 0.328, 0.754, 0.328, 0.753, 0.754, 0.753, 0.753, 0.754, 0.328, 0.328, 0.753, 0.753, 0.754, 0.328, 0.753, 0.754, 0.753, 0.754, 0.328, 0.753, 0.753, 0.753, 0.328, 0.754, 0.328, 0.753, 0.753, 0.754, 0.328, 0.753, 0.754, 0.328, 0.753, 0.328 ]