3
[ 1.261, 1.261, 3.129, 1.261, 3.129, 1.261, 3.129, 3.129, 1.261, 1.261, 1.261, 3.806, 3.129, 1.261, 1.261, 3.806, 3.129, 1.261, 3.806, 3.806, 1.261, 3.129, 3.129, 3.806, 3.129, 1.261, 3.129, 3.129, 1.261, 3.129, 1.261, 1.261, 3.129, 3.129, 3.129, 1.261, 1.261, 3.129, 1.261, 1.261, 1.261, 3.129, 3.129, 3.129, 3.129, 3.806, 3.129, 1.261, 3.806, 3.806, 1.261, 3.129, 3.806, 3.806, 3.806, 1.261, 3.806, 1.261, 3.129, 3.806, 3.806, 3.806, 3.806, 3.129, 3.129, 3.129, 1.261, 1.261, 1.261, 1.261, 3.129, 1.261, 1.261, 1.261, 3.806, 3.806, 1.261, 3.129, 3.129, 1.261, 3.806, 1.261, 3.129, 3.129, 3.129, 1.261, 3.806, 1.261, 3.129, 1.261, 3.129, 1.261, 1.261, 1.261, 3.129, 1.261, 1.261, 3.129, 3.806, 3.129 ]
3
[ 0.560, 0.244, 0.560, 0.244, 0.560, 0.571, 0.571, 0.244, 0.571, 0.571, 0.244, 0.244, 0.571, 0.560, 0.244, 0.571, 0.560, 0.571, 0.560, 0.571, 0.571, 0.244, 0.560, 0.560, 0.244, 0.571, 0.244, 0.560, 0.560, 0.244, 0.244, 0.571, 0.560, 0.244, 0.571, 0.560, 0.571, 0.244, 0.244, 0.244, 0.244, 0.571, 0.244, 0.560, 0.560, 0.571, 0.560, 0.560, 0.560, 0.571, 0.560, 0.244, 0.244, 0.571, 0.244, 0.244, 0.560, 0.571, 0.571, 0.560, 0.244, 0.244, 0.560, 0.244, 0.560, 0.560, 0.560, 0.571, 0.571, 0.560, 0.560, 0.571, 0.560, 0.571, 0.244, 0.560, 0.244, 0.571, 0.560, 0.560, 0.244, 0.571, 0.244, 0.244, 0.244, 0.560, 0.571, 0.244, 0.571, 0.244, 0.560, 0.571, 0.560, 0.571, 0.571, 0.560, 0.560, 0.560, 0.560, 0.571 ]