4
[ 2.272, 2.272, 2.272, 2.272, 4.128, 2.272, 2.272, 4.128, 2.272, 2.272, 2.272, 2.272, 2.272, 2.272, 2.272, 2.272, 2.272, 2.272, 2.272, 2.272, 2.272, 2.272, 2.272, 2.272, 2.272, 2.272, 2.272, 2.272, 4.128, 2.272, 2.272, 2.272, 2.272, 4.128, 2.272, 4.128, 2.272, 4.128, 4.128, 2.272, 2.277, 2.272, 2.272, 2.272, 2.272, 2.272, 2.272, 2.272, 2.272, 2.272, 2.272, 2.272, 4.128, 2.272, 2.272, 2.272, 2.272, 2.272, 2.272, 2.272, 2.272, 2.272, 2.272, 2.272, 2.272, 2.272, 2.272, 2.278, 2.272, 2.272, 2.272, 2.272, 2.272, 2.272, 2.272, 2.272, 2.272, 2.272, 2.272, 2.272, 2.272, 2.272, 2.272, 2.272, 2.272, 2.272, 2.272, 2.272, 4.128, 2.272, 2.272, 2.272, 2.272, 2.272, 2.272, 2.272, 2.272, 2.272, 2.272, 2.272 ]
5
[ 0.240, 0.240, 0.240, 0.910, 0.240, 0.240, 0.240, 0.910, 0.856, 0.240, 0.240, 0.910, 0.240, 0.240, 0.240, 0.240, 0.910, 0.910, 0.240, 0.240, 0.240, 0.240, 0.240, 0.240, 0.240, 0.856, 0.910, 0.240, 0.240, 0.240, 0.240, 0.240, 0.240, 0.240, 0.089, 0.240, 0.856, 0.240, 0.856, 0.910, 0.856, 0.910, 0.856, 0.910, 0.910, 0.910, 0.910, 0.240, 0.910, 0.240, 0.240, 0.910, 0.910, 0.910, 0.910, 0.240, 0.240, 0.910, 0.240, 0.240, 0.240, 0.910, 0.659, 0.240, 0.910, 0.240, 0.240, 0.240, 0.910, 0.856, 0.240, 0.240, 0.240, 0.240, 0.240, 0.910, 0.910, 0.240, 0.856, 0.856, 0.240, 0.240, 0.240, 0.856, 0.240, 0.910, 0.910, 0.910, 0.240, 0.910, 0.240, 0.240, 0.659, 0.910, 0.240, 0.659, 0.910, 0.910, 0.910, 0.240 ]