3
[ 1.859, 10.701, 1.859, 2.410, 2.410, 10.701, 10.701, 2.410, 2.410, 1.859, 1.859, 2.410, 10.701, 2.410, 1.859, 10.701, 2.410, 1.859, 1.859, 2.410, 1.859, 2.410, 2.410, 2.410, 1.859, 10.701, 1.859, 2.410, 1.859, 10.701, 10.701, 1.859, 1.859, 1.859, 2.410, 1.859, 10.701, 2.410, 10.701, 1.859, 1.859, 2.410, 10.701, 10.701, 1.859, 1.859, 10.701, 2.410, 2.410, 1.859 ]
3
[ 0.189, 0.122, 0.281, 0.281, 0.189, 0.281, 0.122, 0.281, 0.281, 0.122, 0.189, 0.189, 0.189, 0.281, 0.189, 0.189, 0.122, 0.122, 0.122, 0.122, 0.281, 0.122, 0.122, 0.122, 0.122, 0.281, 0.122, 0.281, 0.189, 0.189, 0.189, 0.281, 0.122, 0.189, 0.122, 0.281, 0.189, 0.281, 0.122, 0.281, 0.281, 0.189, 0.189, 0.189, 0.281, 0.281, 0.189, 0.189, 0.189, 0.281 ]