3
[ 1.531, 5.002, 1.531, 1.546, 1.546, 1.546, 5.002, 1.546, 1.546, 5.002, 5.002, 1.531, 1.531, 1.531, 5.002, 1.531, 5.002, 1.546, 5.002, 1.546, 1.531, 1.546, 1.546, 5.002, 1.546, 1.546, 1.546, 5.002, 1.531, 1.531, 1.531, 1.531, 1.531, 1.531, 1.546, 1.531, 1.546, 1.546, 1.531, 1.531, 1.546, 5.002, 1.531, 5.002, 1.531, 1.531, 1.546, 1.546, 1.531, 1.546, 1.531, 5.002, 1.546, 5.002, 1.546, 5.002, 5.002, 5.002, 1.546, 1.531, 5.002, 5.002, 5.002, 5.002, 1.546, 1.531, 5.002, 1.546, 1.531, 1.531, 1.546, 1.531, 1.546, 1.531, 1.531, 1.531, 1.531, 1.531, 5.002, 1.546, 1.531, 5.002, 1.531, 5.002, 5.002, 1.531, 1.531, 5.002, 5.002, 1.546, 1.546, 1.546, 5.002, 1.546, 1.531, 5.002, 5.002, 5.002, 5.002, 1.546, 5.002, 1.546, 5.002, 1.531, 1.546, 1.546, 1.531, 1.546, 1.546, 1.546, 5.002, 5.002, 1.546, 5.002, 1.546, 1.531, 5.002, 1.531, 5.002, 1.546, 1.531, 1.531, 1.546, 1.531, 1.546, 5.002, 5.002, 1.546, 1.546, 1.546, 1.546, 5.002, 1.531, 1.531, 5.002, 5.002, 5.002, 1.531, 5.002, 1.546, 1.546, 1.531, 5.002, 1.531, 1.546, 5.002, 1.531, 5.002, 5.002, 5.002, 1.531, 5.002, 1.546, 1.531, 5.002, 5.002, 1.531, 1.546, 1.546, 1.531, 5.002, 5.002, 1.531, 1.546, 1.546, 1.531, 5.002, 5.002, 1.546, 1.531, 5.002, 1.546, 1.546, 5.002, 1.531, 5.002, 1.546, 1.546, 5.002, 1.531, 1.531, 1.546, 5.002, 5.002, 1.546, 1.546, 5.002, 1.531, 5.002, 5.002, 1.546, 1.546, 1.531, 1.531, 1.531, 1.531, 5.002, 5.002, 1.546, 5.002 ]
3
[ 0.724, 0.724, 0.992, 0.580, 0.580, 0.724, 0.580, 0.724, 0.580, 0.580, 0.992, 0.724, 0.724, 0.724, 0.724, 0.724, 0.724, 0.580, 0.580, 0.724, 0.724, 0.992, 0.580, 0.992, 0.992, 0.724, 0.580, 0.992, 0.724, 0.992, 0.580, 0.724, 0.992, 0.580, 0.992, 0.724, 0.580, 0.992, 0.992, 0.580, 0.724, 0.724, 0.580, 0.580, 0.724, 0.724, 0.580, 0.992, 0.992, 0.992, 0.992, 0.580, 0.992, 0.992, 0.724, 0.580, 0.580, 0.580, 0.580, 0.992, 0.580, 0.580, 0.992, 0.992, 0.992, 0.992, 0.724, 0.580, 0.724, 0.580, 0.992, 0.724, 0.724, 0.580, 0.580, 0.992, 0.724, 0.580, 0.992, 0.580, 0.724, 0.992, 0.580, 0.992, 0.992, 0.992, 0.724, 0.724, 0.992, 0.580, 0.992, 0.724, 0.992, 0.580, 0.580, 0.580, 0.580, 0.580, 0.992, 0.992, 0.580, 0.992, 0.724, 0.580, 0.724, 0.580, 0.992, 0.580, 0.580, 0.580, 0.580, 0.724, 0.580, 0.724, 0.580, 0.992, 0.992, 0.724, 0.724, 0.580, 0.724, 0.580, 0.724, 0.992, 0.992, 0.992, 0.724, 0.724, 0.724, 0.992, 0.992, 0.724, 0.580, 0.580, 0.580, 0.992, 0.992, 0.580, 0.580, 0.992, 0.580, 0.580, 0.992, 0.992, 0.580, 0.724, 0.992, 0.580, 0.992, 0.580, 0.992, 0.580, 0.724, 0.992, 0.992, 0.580, 0.580, 0.992, 0.992, 0.580, 0.724, 0.580, 0.992, 0.580, 0.580, 0.724, 0.724, 0.580, 0.992, 0.992, 0.580, 0.580, 0.992, 0.992, 0.580, 0.580, 0.992, 0.580, 0.992, 0.724, 0.992, 0.580, 0.724, 0.992, 0.580, 0.580, 0.580, 0.992, 0.724, 0.992, 0.580, 0.580, 0.724, 0.992, 0.992, 0.992, 0.992, 0.992, 0.992, 0.580 ]