7
[ 3.266, 7.372, 7.935, 3.266, 3.266, 3.266, 7.372, 3.266, 3.266, 3.266, 3.266, 2.840, 2.840, 7.935, 2.840, 2.840, 3.266, 0.755, 0.755, 7.372, 3.266, 3.266, 0.755, 3.266, 3.266, 3.266, 3.266, 3.266, 7.935, 2.840, 7.372, 2.840, 3.266, 2.840, 7.935, 7.372, 2.840, 3.266, 3.266, 0.755, 7.372, 0.755, 2.840, 3.266, 2.840, 3.266, 3.266, 2.840, 3.266, 7.935, 3.266, 3.266, 3.266, 3.266, 0.755, 3.266, 7.935, 3.266, 2.840, 7.372, 0.755, 3.266, 15.401, 2.051, 3.266, 3.266, 3.266, 2.840, 3.266, 3.266, 3.266, 2.840, 7.372, 3.266, 3.266, 3.266, 7.372, 2.840, 7.372, 7.372, 3.266, 3.266, 3.266, 0.755, 7.372, 3.266, 3.266, 3.266, 2.840, 7.372, 3.266, 3.266, 3.266, 2.840, 2.840, 3.266, 3.266, 2.840, 3.266, 7.372, 3.266, 7.372, 7.372, 3.266, 7.935, 3.266, 2.840, 7.372, 3.266, 2.840, 3.266, 3.266, 7.935, 0.755, 2.840, 2.840, 7.372, 2.840, 3.266, 3.266, 2.840, 3.266, 7.372, 3.266, 7.935, 3.266, 3.266, 7.372, 0.755, 7.372, 3.266, 3.266, 3.266, 2.840, 7.372, 3.266, 3.266, 3.266, 3.266, 3.266, 0.755, 3.266, 7.372, 0.755, 7.372, 7.372, 2.840, 3.266, 3.266, 3.266, 7.372, 7.372, 3.266, 3.266, 3.266, 3.266, 3.266, 0.755, 7.935, 3.266, 7.372, 3.266, 0.755, 3.266, 3.266, 0.755, 3.266, 3.266, 3.266, 3.266, 0.755, 7.372, 0.755, 0.755, 7.372, 7.935, 3.266, 7.935, 0.755, 2.840, 2.840, 2.840, 3.266, 3.266, 7.372, 3.266, 3.266, 7.372, 3.266, 3.266, 3.266, 3.266, 3.266, 3.266, 3.266, 7.935, 0.755, 3.266, 3.266, 7.372 ]
4
[ 0.310, 0.215, 0.215, 0.215, 0.310, 0.310, 0.310, 0.310, 0.310, 0.215, 0.310, 0.832, 0.832, 0.832, 0.310, 0.832, 0.215, 0.310, 0.832, 0.215, 0.310, 0.215, 0.310, 0.310, 0.832, 0.215, 0.310, 0.215, 0.832, 0.832, 0.310, 0.310, 0.310, 0.310, 0.832, 0.832, 0.832, 0.310, 0.832, 0.310, 0.310, 0.215, 0.215, 0.310, 0.310, 0.832, 0.310, 0.310, 0.310, 0.310, 0.832, 0.310, 0.215, 0.215, 0.215, 0.215, 0.215, 0.215, 0.310, 0.310, 0.832, 0.215, 0.215, 0.215, 0.215, 0.832, 0.215, 0.832, 0.832, 0.310, 0.215, 0.832, 0.310, 0.310, 0.832, 0.310, 0.215, 0.832, 0.310, 0.310, 0.832, 0.215, 0.215, 0.832, 0.310, 0.215, 0.310, 0.310, 0.832, 0.832, 0.832, 0.215, 0.310, 0.215, 0.215, 0.310, 0.310, 0.832, 0.215, 0.310, 0.310, 0.310, 0.215, 0.215, 0.215, 0.310, 0.215, 0.832, 0.215, 0.310, 0.310, 0.832, 0.310, 0.215, 0.832, 0.215, 0.310, 0.215, 0.310, 0.832, 0.832, 0.832, 0.215, 0.165, 0.215, 0.310, 0.215, 0.215, 0.832, 0.310, 0.215, 0.310, 0.310, 0.310, 0.310, 0.310, 0.215, 0.310, 0.310, 0.310, 0.832, 0.832, 0.310, 0.310, 0.832, 0.832, 0.215, 0.215, 0.832, 0.215, 0.310, 0.310, 0.310, 0.215, 0.832, 0.310, 0.832, 0.215, 0.832, 0.310, 0.215, 0.832, 0.215, 0.215, 0.215, 0.310, 0.310, 0.832, 0.832, 0.215, 0.310, 0.832, 0.310, 0.310, 0.215, 0.310, 0.832, 0.310, 0.310, 0.215, 0.165, 0.310, 0.832, 0.310, 0.310, 0.215, 0.215, 0.310, 0.832, 0.832, 0.310, 0.310, 0.832, 0.310, 0.215, 0.832, 0.310, 0.310, 0.832, 0.215 ]