7
[ 3.020, 3.020, 3.020, 3.020, 4.397, 4.397, 3.495, 3.020, 3.020, 3.020, 3.020, 3.020, 0.463, 3.020, 4.397, 3.020, 3.020, 3.020, 3.020, 5.671, 3.020, 1.949, 4.397, 3.020, 3.020, 3.020, 3.020, 3.020, 3.020, 0.463, 0.463, 3.020, 3.020, 3.020, 1.774, 3.020, 3.020, 3.020, 3.020, 5.671, 3.020, 0.463, 3.020, 3.020, 0.463, 3.020, 3.020, 3.020, 3.020, 3.020, 1.949, 3.020, 0.463, 3.020, 3.020, 3.020, 3.020, 3.495, 5.671, 3.020, 3.020, 3.020, 3.495, 3.020, 4.397, 1.949, 3.020, 3.020, 3.020, 3.020, 3.020, 4.397, 3.020, 3.020, 1.774, 5.671, 3.020, 3.020, 1.949, 3.020, 3.020, 5.671, 0.463, 3.020, 3.020, 3.020, 3.020, 3.020, 3.020, 3.020, 3.020, 3.020, 0.463, 3.020, 1.949, 3.020, 3.020, 3.020, 3.020, 1.949 ]
5
[ 0.513, 0.513, 0.513, 0.513, 0.513, 0.513, 0.513, 0.513, 0.513, 0.513, 0.513, 0.513, 0.513, 0.513, 0.513, 0.513, 0.513, 0.513, 0.513, 0.513, 0.513, 0.513, 0.513, 0.513, 0.513, 0.513, 0.513, 0.513, 0.513, 0.513, 0.513, 0.513, 0.513, 0.513, 0.513, 0.513, 0.513, 0.513, 0.513, 0.354, 0.513, 0.513, 0.513, 0.513, 0.513, 0.513, 0.513, 0.513, 0.513, 0.513, 0.513, 0.247, 0.513, 0.513, 0.513, 0.513, 0.513, 0.513, 0.007, 0.513, 0.513, 0.513, 0.513, 0.513, 0.513, 0.513, 0.513, 0.747, 0.007, 0.513, 0.513, 0.513, 0.513, 0.513, 0.513, 0.513, 0.513, 0.513, 0.513, 0.747, 0.513, 0.513, 0.007, 0.513, 0.513, 0.007, 0.513, 0.513, 0.513, 0.513, 0.513, 0.513, 0.513, 0.513, 0.513, 0.513, 0.513, 0.513, 0.513, 0.513 ]