5
[ 1.553, 1.553, 1.553, 6.688, 6.688, 6.688, 0.866, 1.553, 1.553, 6.688, 6.688, 6.688, 6.688, 0.866, 1.344, 6.688, 6.688, 1.553, 1.553, 1.553, 6.688, 1.553, 6.688, 1.553, 6.688, 6.688, 0.866, 1.553, 1.061, 6.688, 1.061, 6.688, 1.553, 0.866, 1.553, 6.688, 1.553, 1.553, 0.866, 1.553, 0.866, 6.688, 6.688, 1.553, 0.866, 1.553, 1.553, 0.866, 6.688, 6.688 ]
6
[ 0.159, 0.159, 0.159, 0.159, 0.159, 0.159, 0.220, 0.159, 0.159, 0.220, 0.159, 0.159, 0.867, 0.159, 0.812, 0.159, 0.081, 0.159, 0.220, 0.081, 0.159, 0.159, 0.220, 0.220, 0.159, 0.220, 0.159, 0.159, 0.159, 0.159, 0.159, 0.159, 0.081, 0.867, 0.938, 0.159, 0.159, 0.159, 0.159, 0.159, 0.081, 0.081, 0.159, 0.159, 0.159, 0.159, 0.159, 0.220, 0.159, 0.159 ]