4
[ 0.981, 0.981, 0.981, 2.402, 0.981, 0.981, 0.981, 0.981, 0.981, 0.981, 0.981, 2.402, 0.981, 2.402, 0.981, 0.981, 0.981, 0.981, 0.981, 0.981, 2.402, 0.981, 0.981, 2.402, 0.981, 0.981, 0.981, 0.981, 0.981, 0.981, 0.981, 0.981, 0.981, 0.981, 0.981, 0.981, 0.981, 0.981, 0.981, 0.981, 0.981, 0.981, 0.981, 0.981, 0.981, 0.981, 0.981, 0.981, 0.981, 0.981, 0.981, 2.402, 0.981, 0.981, 0.981, 0.981, 0.981, 0.981, 2.402, 0.981, 0.981, 0.981, 0.981, 0.981, 0.981, 0.981, 0.981, 0.981, 0.981, 2.402, 0.981, 0.981, 2.402, 0.981, 0.981, 0.981, 0.981, 0.981, 0.981, 0.981, 0.981, 0.981, 2.402, 0.981, 0.981, 0.696, 0.981, 0.981, 0.981, 0.981, 0.981, 0.981, 0.981, 2.402, 0.981, 0.981, 0.981, 0.981, 0.981, 0.981, 0.981, 0.981, 0.981, 0.981, 0.981, 0.981, 0.981, 0.981, 0.981, 0.981, 0.981, 0.981, 2.357, 0.981, 0.981, 0.981, 0.981, 0.981, 0.981, 0.981, 0.981, 0.981, 0.981, 0.981, 0.981, 0.981, 2.402, 0.981, 0.981, 0.981, 0.981, 0.981, 0.981, 0.981, 0.981, 0.981, 0.981, 0.981, 0.981, 0.981, 0.981, 0.981, 0.981, 0.981, 0.981, 0.981, 0.981, 0.981, 0.981, 0.981, 0.981, 0.981, 0.981, 0.981, 0.981, 0.981, 2.402, 2.402, 0.981, 0.981, 0.981, 0.981, 0.981, 0.981, 0.981, 0.696, 2.402, 0.981, 0.981, 0.981, 0.981, 0.981, 0.981, 0.981, 0.981, 0.981, 0.981, 0.981, 0.981, 0.981, 0.981, 0.981, 0.981, 2.402, 0.981, 0.981, 2.402, 0.981, 0.981, 0.981, 0.981, 0.981, 0.981, 2.402, 0.981, 0.981, 0.981, 0.981, 0.981, 0.981 ]
5
[ 0.540, 0.540, 0.540, 0.540, 0.540, 0.540, 0.540, 0.540, 0.540, 0.540, 0.540, 0.540, 0.540, 0.540, 0.540, 0.157, 0.157, 0.540, 0.540, 0.540, 0.868, 0.868, 0.540, 0.540, 0.868, 0.540, 0.157, 0.540, 0.540, 0.540, 0.157, 0.540, 0.540, 0.540, 0.540, 0.868, 0.540, 0.540, 0.540, 0.868, 0.540, 0.540, 0.540, 0.157, 0.157, 0.540, 0.540, 0.540, 0.540, 0.540, 0.540, 0.540, 0.540, 0.540, 0.540, 0.157, 0.540, 0.540, 0.540, 0.540, 0.868, 0.540, 0.540, 0.540, 0.540, 0.540, 0.540, 0.157, 0.540, 0.540, 0.540, 0.868, 0.868, 0.540, 0.540, 0.540, 0.540, 0.540, 0.719, 0.540, 0.540, 0.540, 0.540, 0.540, 0.540, 0.540, 0.540, 0.540, 0.540, 0.157, 0.540, 0.540, 0.540, 0.540, 0.540, 0.540, 0.540, 0.540, 0.868, 0.540, 0.868, 0.540, 0.540, 0.540, 0.868, 0.540, 0.540, 0.540, 0.540, 0.540, 0.157, 0.157, 0.540, 0.868, 0.540, 0.540, 0.540, 0.540, 0.540, 0.540, 0.540, 0.540, 0.540, 0.540, 0.540, 0.540, 0.540, 0.540, 0.540, 0.868, 0.540, 0.540, 0.540, 0.540, 0.540, 0.157, 0.540, 0.868, 0.157, 0.157, 0.540, 0.540, 0.540, 0.540, 0.540, 0.540, 0.540, 0.540, 0.540, 0.868, 0.540, 0.540, 0.540, 0.540, 0.868, 0.540, 0.540, 0.540, 0.540, 0.540, 0.868, 0.540, 0.540, 0.540, 0.540, 0.157, 0.540, 0.540, 0.540, 0.540, 0.868, 0.868, 0.868, 0.540, 0.540, 0.709, 0.540, 0.868, 0.540, 0.540, 0.540, 0.540, 0.540, 0.540, 0.540, 0.540, 0.540, 0.540, 0.540, 0.157, 0.709, 0.540, 0.540, 0.540, 0.540, 0.157, 0.868, 0.540, 0.540, 0.540 ]