2
[ 14.967, 14.967, 14.967, 14.967, 14.967, 14.967, 14.967, 14.967, 14.967, 14.967, 14.967, 14.967, 14.967, 14.967, 14.967, 14.967, 14.967, 14.967, 14.967, 14.967, 14.967, 14.967, 14.967, 14.967, 14.967, 14.967, 14.967, 14.967, 14.967, 14.967, 14.967, 14.967, 14.967, 14.967, 14.967, 14.967, 14.967, 14.967, 14.967, 14.967, 14.967, 3.717, 14.967, 14.967, 14.967, 14.967, 14.967, 14.967, 14.967, 14.967 ]
4
[ 0.194, 0.040, 0.928, 0.155, 0.194, 0.194, 0.928, 0.194, 0.194, 0.928, 0.928, 0.194, 0.194, 0.928, 0.928, 0.155, 0.194, 0.928, 0.928, 0.194, 0.194, 0.928, 0.194, 0.194, 0.194, 0.155, 0.194, 0.928, 0.194, 0.928, 0.194, 0.194, 0.194, 0.155, 0.194, 0.194, 0.928, 0.155, 0.194, 0.194, 0.194, 0.194, 0.928, 0.194, 0.928, 0.194, 0.928, 0.194, 0.194, 0.155 ]