10
[ 4.008, 0.923, 4.008, 8.588, 5.543, 1.441, 0.923, 4.663, 1.954, 5.543, 4.008, 1.954, 8.588, 5.543, 5.543, 1.954, 24.935, 4.008, 8.588, 5.543, 4.008, 0.923, 5.543, 1.441, 1.094, 4.008, 1.954, 4.008, 6.033, 4.008, 8.588, 4.008, 0.923, 4.008, 4.008, 4.008, 4.008, 0.923, 4.008, 1.954, 4.008, 1.094, 1.954, 6.033, 4.008, 1.954, 0.923, 1.954, 4.008, 5.543, 4.008, 8.588, 1.954, 4.008, 1.954, 4.008, 4.008, 0.923, 4.008, 4.663, 5.543, 4.008, 1.954, 4.008, 6.033, 1.954, 6.033, 0.923, 4.008, 1.441, 1.441, 4.008, 24.935, 4.008, 1.954, 4.008, 4.008, 1.954, 1.954, 6.033, 1.954, 1.441, 8.588, 5.543, 5.543, 4.008, 4.008, 1.954, 1.954, 5.543, 4.663, 24.935, 24.935, 4.663, 6.033, 6.033, 6.033, 4.008, 0.923, 1.954 ]
3
[ 0.310, 0.310, 0.436, 0.436, 0.820, 0.436, 0.820, 0.310, 0.820, 0.820, 0.436, 0.310, 0.436, 0.310, 0.310, 0.310, 0.310, 0.820, 0.310, 0.820, 0.820, 0.310, 0.820, 0.310, 0.310, 0.310, 0.310, 0.436, 0.310, 0.310, 0.310, 0.310, 0.820, 0.820, 0.820, 0.436, 0.310, 0.436, 0.310, 0.436, 0.310, 0.310, 0.310, 0.820, 0.310, 0.310, 0.820, 0.820, 0.310, 0.310, 0.310, 0.820, 0.436, 0.436, 0.436, 0.820, 0.310, 0.310, 0.436, 0.436, 0.436, 0.820, 0.436, 0.310, 0.436, 0.820, 0.820, 0.436, 0.820, 0.310, 0.310, 0.436, 0.310, 0.820, 0.310, 0.310, 0.436, 0.436, 0.820, 0.436, 0.436, 0.436, 0.436, 0.310, 0.310, 0.820, 0.310, 0.436, 0.310, 0.310, 0.436, 0.310, 0.310, 0.436, 0.436, 0.310, 0.310, 0.310, 0.310, 0.310 ]