pars_sum	pars_var	pars_disp	obs_disp	sim_disp
-4	0.447127712771276	0.203131362141551	0.775533108866442	0.572401746724891
30	0.444091409140912	0.122930261943209	0.639478485293463	0.516548223350255
-9	0.192413241324134	0.101873051048966	0.733421168203777	0.631548117154812
16	0.364909490949094	0.109177151923938	0.743637245820652	0.634460093896714
0	0.264890489048903	0.1129329004329	0.6504329004329	0.5375
13	0.331475147514752	0.102986464419844	0.756413694466792	0.653427230046948
-16	-0.127366736673671	-0.0123255128216316	0.718412192096402	0.730737704918034
-43	-0.500836083608358	-0.0800424390208804	0.709551656920077	0.789594095940958
-12	0.278574857485749	0.146294292341885	0.701775463890002	0.555481171548117
-3	0.111634163416342	0.050821146261592	0.725993560054695	0.675172413793103
1	0.269850985098509	0.111468668990792	0.667024224546348	0.555555555555556
-5	0.34211821182118	0.156169602051689	0.674109516214779	0.517939914163091
-15	-0.100539053905392	-0.0102873097995055	0.6007696007696	0.611056910569106
-1	0.3007700770077	0.129773064944403	0.729596853490659	0.599823788546256
13	0.302692269226921	0.0974347473098995	0.629806840333156	0.532372093023257
-9	0.211403140314031	0.108666912898312	0.689503732981994	0.580836820083682
12	0.218550855085508	0.0596338676178851	0.648378053664397	0.588744186046512
-20	-0.316272627262726	-0.0783128219900765	0.710675032260936	0.788987854251012
-20	0.0708340834083414	0.0791129264975744	0.708349874288739	0.629236947791164
-16	0.223040304030403	0.128723525578365	0.686868686868687	0.558145161290323
-12	0.335226522652265	0.172918211652389	0.730639730639731	0.557721518987342
-13	0.0577657765776565	0.0545883086525142	0.682970051391104	0.628381742738589
5	0.333621362136214	0.129969991833605	0.684902118530437	0.554932126696832
15	0.510214021402143	0.179914513096332	0.731951550133369	0.552037037037037
12	0.0397629762976275	-0.0278989547146509	0.701775463890001	0.729674418604652
21	0.51957795779578	0.174218882108371	0.720657906498614	0.546439024390243
9	0.334604460446044	0.116357196418331	0.725993560054696	0.609636363636364
-19	-0.18877787778778	-0.0303421985739925	0.690706188522783	0.721048387096775
-2	0.0144064406440632	0.0056744636774001	0.667789001122335	0.662114537444934
-24	0.333985398539854	0.193212439354172	0.707070707070707	0.513858267716536
17	0.586493649364937	0.221323275489943	0.685746352413019	0.464423076923077
-6	0.327910791079111	0.149025384818915	0.809108029447014	0.660082644628099
-21	-0.00619561956195547	0.0469861213763656	0.64983164983165	0.602845528455284
26	0.428072807280728	0.120663171538393	0.675963171538393	0.5553
-1	-0.0423052305230527	-0.0220071667563833	0.635751453933272	0.657758620689655
8	0.42909090909091	0.172024704297174	0.675963171538392	0.503938467241219
-51	-0.404182418241827	-0.0146761331481209	0.7538543328017	0.768530465949821
2	0.0941834183418342	0.0308012568797968	0.613390542594082	0.582589285714285
-17	-0.0166956695669596	0.0318946263685682	0.640207383570215	0.608312757201647
-10	0.390243024302431	0.188321475625824	0.75098814229249	0.562666666666667
6	0.639401940194016	0.261129981656296	0.798157008683323	0.537027027027027
5	0.296220622062204	0.111618406285072	0.739618406285073	0.628000000000001
-33	-0.0424532453245317	0.0614925682707946	0.664240659873848	0.602748091603053
-3	-0.248725872587255	-0.107718707543267	0.748597081930415	0.856315789473682
-24	-0.0850125012501235	0.0213273835702161	0.640207383570215	0.618879999999999
-22	0.270046004600459	0.164980482111956	0.717171717171717	0.552191235059761
16	0.214949494949495	0.0483685492603627	0.699528031405761	0.651159482145398
-19	0.148878887888787	0.110708161234476	0.736133262449051	0.625425101214575
-48	-0.147153715371538	0.066496219829553	0.721661054994388	0.655164835164835
-1	0.179355935593557	0.076099114414189	0.667024224546348	0.590925110132159
10	0.286880688068808	0.096283483805608	0.667024224546348	0.57074074074074
-2	0.294340434043404	0.126708873848944	0.661987843806025	0.535278969957082
4	0.565305530553055	0.232970579153985	0.743637245820652	0.510666666666666
-14	0.526632663266327	0.251725497192276	0.747823058167886	0.49609756097561
-12	-0.0644104410441058	-0.00040211740367968	0.658085277554304	0.658487394957983
-17	0.217967796779676	0.13228784585631	0.668470418470418	0.536182572614108
-9	0.412817281728174	0.195506970744373	0.75098814229249	0.555481171548117
22	0.485457545754575	0.150478814115178	0.723206086842451	0.572727272727273
-18	0.464350435043504	0.241582149655557	0.765352641458837	0.523770491803279
-27	0.0508580858085808	0.0894973544973545	0.703703703703704	0.614206349206349
-16	0.117541754175418	0.0866582045267097	0.689503732981994	0.602845528455284
-15	0.265697569756975	0.147767676767677	0.676767676767677	0.529
3	0.660161016101608	0.277414840916019	0.75245908870363	0.475044247787611
17	0.302932293229322	0.0824535057138686	0.693841065522481	0.611387559808613
29	0.387052705270528	0.0960543101828483	0.638667375509481	0.542613065326633
0	0.0224592459245938	0.00319996501814734	0.661987843806026	0.658787878787879
14	0.434000400040005	0.155587481190261	0.657277622035332	0.50169014084507
-6	0.537572757275728	0.243832123584066	0.6750767587772	0.431244635193133
12	0.378348834883487	0.135292438781835	0.639478485293463	0.504186046511629
12	0.32901790179018	0.105054230857469	0.714460623551533	0.609406392694064
4	0.545103510351034	0.224148736271007	0.734815402937674	0.510666666666667
-14	0.00710471047104555	0.0391647568118149	0.731601731601731	0.692436974789916
-21	0.129835983598363	0.104146188522784	0.690706188522783	0.586559999999999
2	0.337785778577857	0.14022113022113	0.704545454545454	0.564324324324324
-15	0.00428342834283413	0.0344169472502804	0.613916947250281	0.5795
-8	-0.0909660966096622	-0.023937672725001	0.621679348551595	0.645617021276596
-33	-0.201448144814481	-0.00257253920970724	0.640207383570215	0.642779922779923
6	0.0961466146614662	0.022008676877814	0.586081075067859	0.564072398190045
-14	0.538011801180114	0.262767547887164	0.789296473506998	0.526528925619835
21	0.498365836583659	0.169853492839032	0.667024224546348	0.497170731707317
-16	0.0811521152115193	0.0745454545454536	0.704545454545454	0.63
-13	-0.0233933393339316	0.022724169002804	0.728474169002804	0.70575
12	0.664833483348337	0.253770980345079	0.77214202106906	0.518371040723982
7	0.625742574257423	0.252085417162816	0.807017543859648	0.554932126696832
28	0.709664966496649	0.255962277643693	0.693841065522481	0.437878787878788
18	0.215000500050003	0.0395764407358601	0.667789001122335	0.628212560386474
9	0.224385438543856	0.0678197440375558	0.659426886894699	0.591607142857143
-14	0.231859185918592	0.133263520157326	0.729596853490659	0.596333333333333
-6	-0.302204220422041	-0.119945541777247	0.720657906498614	0.840603448275861
-29	0.1372097209721	0.131790702443489	0.738535800482703	0.606745098039215
2	0.433597359735975	0.178409610983983	0.72463768115942	0.546228070175438
-4	0.41041504150415	0.181277149047459	0.791361894810171	0.610084745762712
-12	0.0281888188818875	0.0389178671965554	0.686868686868687	0.647950819672132
5	-0.153381338133814	-0.0889419411506368	0.619235836627141	0.708177777777778
2	0.235597559755976	0.0933738858241072	0.675963171538393	0.582589285714286
-36	-0.109354935493552	0.0454891774891765	0.677489177489177	0.632
-46	-0.0241984198419856	0.103674843674843	0.695526695526695	0.591851851851852
-17	0.194208420842085	0.123148031599411	0.725993560054695	0.602845528455284
-6	0.640780078007796	0.288982946877682	0.780435938330674	0.491452991452992
-30	-0.223812381238125	-0.0160226504536519	0.667024224546348	0.683046875
-7	0.175768576857685	0.0886557230958087	0.673062502756826	0.584406779661017
8	0.150463046304627	0.0346787169945049	0.736133262449051	0.701454545454546
-10	-0.0808650865086507	-0.014508584664613	0.613916947250281	0.628425531914894
-9	0.46882188218822	0.21693479509046	0.637775131224914	0.420840336134454
32	0.668487848784877	0.218217758746393	0.728474169002803	0.51025641025641
-2	0.536613661366135	0.234714867978025	0.762714867978025	0.528
-6	0.343064306430643	0.157014450503294	0.739115290839429	0.582100840336135
29	0.722921292129213	0.251493560054695	0.725993560054695	0.4745
38	0.75996499649965	0.254696196282099	0.710675032260936	0.455978835978836
-7	0.255970597059705	0.123155532080482	0.681884345639804	0.558728813559322
1	0.349251925192517	0.146442677131928	0.666177190406265	0.519734513274337
-1	0.522184218421842	0.227940407545101	0.79216948243497	0.564229074889868
1	0.0294569456945672	0.00298187064243094	0.700691121743753	0.697709251101322
-21	0.230039003900388	0.144636982065552	0.6504329004329	0.505795918367347
34	0.472624262426243	0.121860010072141	0.639372447883087	0.517512437810945
8	0.373427342734272	0.140354826990371	0.693841065522481	0.553486238532111
16	0.277338733873387	0.0686944589354737	0.723206086842451	0.654511627906978
-7	0.249239923992399	0.122948951397382	0.650948951397382	0.528
-2	0.0158055805580535	0.00605533596837848	0.727272727272727	0.721217391304348
-13	-0.105615561556155	-0.0162544164108037	0.630578916922529	0.646833333333333
-5	0.423755375537554	0.193575459133336	0.772972010857474	0.579396551724138
-15	0.271244124412442	0.1496527550232	0.692875895519068	0.543223140495868
-4	0.224302430243023	0.105801714828263	0.705978705978706	0.600176991150443
11	0.412234223422343	0.150190710333883	0.692875895519068	0.542685185185185
-36	-0.356498649864985	-0.0529648196912766	0.660008153281696	0.712972972972972
-27	0.0271087108710866	0.084675652291751	0.762714867978025	0.678039215686274
-52	-0.590968096809679	-0.0949052475994613	0.664240659873848	0.759145907473309
3	0.000936093609359423	-0.0150985789479385	0.658085277554304	0.673183856502243
10	0.420533053305332	0.15468784875736	0.699528031405761	0.544840182648401
-8	0.411054105410541	0.193994181197105	0.710675032260936	0.51668085106383
-5	0.35895089508951	0.167137530604607	0.66906735516601	0.501929824561403
-1	0.54117411741174	0.236637743069461	0.747474747474747	0.510837004405287
21	0.565887588758877	0.19447940947941	0.717171717171717	0.522692307692307
-15	0.225091509150914	0.129248316498316	0.64983164983165	0.520583333333334
8	0.214841484148415	0.0639366302466087	0.756413694466792	0.692477064220183
15	0.406565656565657	0.144672202306176	0.636802810715854	0.492130608409678
12	0.555610561056104	0.208469871678774	0.761280931586608	0.552811059907835
2	0.234810481048103	0.090421386789814	0.743637245820651	0.653215859030837
-16	-0.280919091909188	-0.0796331614513422	0.635751453933273	0.715384615384615
-8	0.102936293629364	0.0601240103171201	0.757746961136793	0.697622950819673
-7	0.334820482048203	0.159061780119048	0.719574600631869	0.560512820512821
-6	0.393396339633962	0.186832259042676	0.706567941862059	0.519735682819384
-4	0.287953795379538	0.127422176345956	0.668097281831188	0.540675105485232
0	0.0236983698369848	0.00384547226652532	0.665248981038455	0.66140350877193
-18	-0.206252625262527	-0.0447964214373754	0.619235836627141	0.664032258064516
-15	-0.0189228922892284	0.0268308680725534	0.670733307096944	0.64390243902439
15	0.686504650465046	0.270391945288561	0.71171895950657	0.44132701421801
5	0.077770777077707	0.0132408048061972	0.687185758934638	0.67394495412844
14	0.204860486048606	0.0450849070414292	0.671936758893281	0.626851851851852
-3	0.189428942894289	0.0848145616566666	0.638667375509481	0.553852813852814
-29	0.113424342434242	0.121389183805147	0.743637245820652	0.622248062015504
-30	0.0306440644064423	0.0848086089654724	0.667789001122335	0.582980392156862
7	0.303897389738972	0.112196235482578	0.648378053664397	0.536181818181819
4	0.528324832483245	0.21509575706944	0.824738614212297	0.609642857142857
4	0.211407140714069	0.0793603027547972	0.651378651378651	0.572018348623854
20	0.593609360936096	0.205750047054396	0.75098814229249	0.545238095238094
-10	0.0864986498649833	0.0602979373567596	0.727272727272726	0.666974789915967
13	0.573840384038404	0.220828409885014	0.730639730639731	0.509811320754717
-1	0.140366036603659	0.0585031004757325	0.71171895950657	0.653215859030838
7	0.521725172517252	0.207719243658108	0.708349874288739	0.50063063063063
-14	-0.134511451145117	-0.0244979203802744	0.659451659451659	0.683949579831933
6	0.319149914991498	0.122146330562259	0.64914633056226	0.527000000000001
-4	0.268721872187217	0.123548639319564	0.808570284341209	0.685021645021646
-17	0.607546754675467	0.302740085217961	0.827925270403147	0.525185185185186
23	0.302525252525253	0.0677890011223345	0.667789001122335	0.6
-3	-0.149560956095611	-0.063263714842663	0.682970051391104	0.746233766233767
15	0.436018601860185	0.145003223726627	0.699548678272083	0.554545454545455
-9	0.0051235123512352	0.0230285763619096	0.721661054994388	0.698632478632479
-1	0.440927092709273	0.187575418312096	0.775678866587958	0.588103448275862
8	-0.0159515951595162	-0.0363950907429168	0.628019323671498	0.664414414414414
8	0.352048204820483	0.128615696522281	0.719574600631869	0.590958904109588
-34	-0.427806780678067	-0.0897407177439314	0.620946305156832	0.710687022900763
19	0.573437343734369	0.201261740209107	0.744993797625375	0.543732057416269
2	0.214002400240023	0.0818300505001924	0.708349874288739	0.626519823788547
-23	-0.255509550955097	-0.0478984293201116	0.665248981038455	0.713147410358566
-21	0.526692669266925	0.267649139887567	0.718412192096402	0.450763052208835
5	-0.313172317231722	-0.162218244197326	0.68822423367878	0.850442477876106
-9	0.109023902390239	0.0644961337717567	0.646596974107892	0.582100840336135
4	0.00768476847684663	-0.0160688443874288	0.693841065522481	0.70990990990991
23	0.298131813181316	0.0622661396574433	0.680720245937638	0.618454106280194
-6	0.557610761076107	0.255956389289722	0.748597081930415	0.492640692640693
-11	-0.19708170817082	-0.0580438904200202	0.691830586567428	0.749874476987448
15	0.470074007400742	0.166803912137246	0.721661054994388	0.554857142857142
-24	-0.0604590459045908	0.0318043484851142	0.648378053664397	0.616573705179283
-3	0.207373737373736	0.100546052087902	0.695526695526695	0.594980643438793
3	0.199554955495548	0.0721882503201815	0.725993560054695	0.653805309734514
-48	-0.522866286628664	-0.080947447575537	0.663153271848924	0.744100719424461
14	0.803691369136915	0.317081949222712	0.758187940006123	0.441105990783411
-15	0.116572657265725	0.0846919658319893	0.699528031405761	0.614836065573772
1	0.565123512351235	0.23402899700772	0.690952073930798	0.456923076923078
32	0.642150215021499	0.200606042523334	0.744993797625376	0.544387755102041
-4	0.148023802380238	0.0686938836648698	0.705715160260615	0.637021276595745
-21	-0.59887888788879	-0.195602159867828	0.639478485293463	0.835080645161291
18	0.545326532653263	0.188619629882787	0.762714867978024	0.574095238095237
13	0.244106410641062	0.0655050051720792	0.691830586567428	0.626325581395349
-16	-0.103647364736474	-0.00838409044949773	0.614712143860126	0.623096234309624
-20	0.0621112111211111	0.071300347641641	0.639478485293463	0.568178137651822
-11	-0.16047104710471	-0.0452954413643711	0.621679348551595	0.666974789915967
2	0.494800480048005	0.209298980999421	0.675076758777199	0.465777777777778
0	0.24389838983898	0.102596764101187	0.640207383570215	0.537610619469028
-9	0.315252525252527	0.162169264043014	0.80368906455863	0.641519800515616
11	0.655062506250626	0.256080963823255	0.817469852712143	0.561388888888888
-26	-0.194499449944995	-0.0110782643397648	0.709551656920077	0.720629921259842
6	0.0589748974897495	0.000358290179487741	0.710675032260936	0.710316742081448
1	0.129251925192519	0.0481240930611323	0.666177190406265	0.618053097345133
-13	0.0609410941094111	0.0575638079885797	0.725993560054695	0.668429752066116
4	0.382285228522853	0.150231548661665	0.714460623551534	0.564229074889868
4	0.288088808880888	0.110998238785849	0.71171895950657	0.600720720720721
21	0.715252525252525	0.27029815525759	0.715854194115064	0.445556038857475
17	0.173038303830384	0.0219545106155988	0.649972528633617	0.628018018018018
-11	-0.0606320632063218	-0.000251761481738444	0.693841065522481	0.69409282700422
14	0.0112945784374354	-0.0402589203943586	0.826369421083077	0.866628341477436
-10	0.302536253625362	0.152230896030956	0.693841065522482	0.541610169491526
-35	-0.203799379937994	0.00834041267374597	0.694725028058361	0.686384615384615
-17	-0.134675467546756	-0.0117200189373252	0.729596853490659	0.741316872427984
-8	0.470477047704769	0.221185373132275	0.738535800482703	0.517350427350428
-12	0.450411041104109	0.217490193055484	0.782654127481714	0.56516393442623
11	0.0790909090909115	9.26698174416041e-05	0.717171717171717	0.717079047354276
-14	0.271859185918592	0.150096853490659	0.729596853490659	0.5795
23	0.961454145414542	0.362533006166498	0.813433480100147	0.450900473933649
-20	0.27832883288329	0.16296704301775	0.723206086842451	0.560239043824701
4	0.528290829082908	0.220027275867984	0.720657906498615	0.500630630630631
-7	0.219165916591659	0.108815396674505	0.77733860342556	0.668523206751055
10	0.723765376537653	0.286613590592773	0.840677517533412	0.554063926940639
-10	0.130190019001901	0.0762422558650399	0.679478770387862	0.603236514522822
-29	-0.0519091909190932	0.0570560544347146	0.744993797625376	0.687937743190661
16	0.551656165616563	0.200986017344036	0.728474169002804	0.527488151658768
17	0.254585458545856	0.0618860761938842	0.65638844586213	0.594502369668246
12	0.356375637563757	0.122072479177743	0.674109516214779	0.552037037037037
-10	0.32135713571357	0.161618549561812	0.712682379349046	0.551063829787234
-1	0.320158015801579	0.137189484672821	0.718412192096402	0.581222707423581
-16	-0.0275687568756913	0.0284860831495846	0.709551656920077	0.681065573770493
-16	-0.101525152515251	-0.00773189950223441	0.609515064060519	0.617246963562753
13	0.504712471247121	0.186040099073145	0.718412192096402	0.532372093023257
-11	-0.121642164216422	-0.0279000829398501	0.64914633056226	0.67704641350211
-12	0.517246724672467	0.254181761354757	0.820426487093154	0.566244725738397
-6	0.359411941194121	0.169238447952211	0.79216948243497	0.622931034482758
-4	0.445915591559154	0.202185072461636	0.721661054994388	0.519475982532752
5	0.150835083508349	0.0460193787453633	0.682970051391104	0.63695067264574
4	0.327718771877184	0.125389151540466	0.798157008683323	0.672767857142857
15	0.514005400540053	0.181034653920397	0.750988142292491	0.569953488372094
14	0.392641264126412	0.12931083254251	0.736133262449051	0.606822429906541
-1	0.340163016301632	0.146727663839883	0.710675032260936	0.563947368421052
-3	0.230250025002501	0.103280674974221	0.683976327148134	0.580695652173913
-3	0.351028102810283	0.15495906588852	0.699528031405761	0.544568965517241
-9	0.00724672467246723	0.0209460808394852	0.629806840333156	0.608860759493671
20	0.360736073607362	0.102008512929566	0.682970051391104	0.580961538461538
15	0.684143414341433	0.264418157134473	0.755172874115605	0.490754716981132
-3	0.212771277127712	0.0936102922104388	0.747823058167886	0.654212765957447
0	0.445068506850686	0.185844653430861	0.791361894810171	0.60551724137931
8	0.374235423542352	0.139046394775062	0.729596853490659	0.590550458715597
-10	0.505364536453646	0.243138865783984	0.818986323411103	0.575847457627119
5	0.692653265326529	0.288813522686544	0.762714867978025	0.47390134529148
10	-0.00668166816681759	-0.0360301611638514	0.592024137478682	0.628054298642534
-7	0.0308430843084289	0.0274458874458864	0.677489177489177	0.65004329004329
-15	-0.418854885488548	-0.139905921330347	0.705304162703266	0.845210084033614
-3	0.27045204520452	0.120962852040806	0.692875895519067	0.571913043478261
-13	0.0813451345134506	0.0668603863165192	0.743637245820652	0.676776859504132
-3	0.231963196319631	0.101757946300866	0.712991988854058	0.611234042553192
20	0.4294599459946	0.134387656875534	0.647969052224372	0.513581395348838
-1	0.400562056205615	0.172552476422849	0.736133262449051	0.563580786026202
-4	0.24839483948395	0.111318119830686	0.704284221525601	0.592966101694915
-21	0.178171817181716	0.124141309190214	0.675963171538393	0.551821862348179
13	0.400921092109213	0.13919916045462	0.681884345639804	0.542685185185185
14	0.10187318731873	-0.00365487016513477	0.679478770387861	0.683133640552996
-21	0.190644064406443	0.131353560054696	0.725993560054695	0.594639999999999
31	0.508232823282327	0.155667117339572	0.620946305156832	0.46527918781726
19	0.37242724272427	0.10863370547581	0.700691121743753	0.592057416267944
5	0.469042904290429	0.18703768115942	0.72463768115942	0.5376
18	0.223306330633065	0.0422999924052564	0.674109516214779	0.631809523809523
13	0.388297829782978	0.130011623501681	0.746273305744671	0.61626168224299
-10	0.0292329232923303	0.0349873737373742	0.707070707070707	0.672083333333333
-21	0.327310731073107	0.175898004682318	0.632133298799965	0.456235294117647
-8	0.157968796879689	0.0858483108540168	0.801915256460712	0.716066945606695
-18	-0.187181718171815	-0.0309254488201849	0.717171717171717	0.748097165991902
20	0.139725972597261	-0.000563393721287664	0.638667375509481	0.639230769230768
-11	0.423928392839283	0.206007739436499	0.736133262449051	0.530125523012552
-16	-0.0542164216421634	0.0156388749170179	0.685438071704167	0.669799196787149
21	0.354210421042103	0.0964035116141523	0.683976327148133	0.587572815533981
19	0.33262926292629	0.0884990253411294	0.709551656920077	0.621052631578948
1	0.14824382438244	0.0559572395989321	0.673062502756826	0.617105263157894
-6	-0.141240124012401	-0.0499642852274429	0.691830586567428	0.741794871794871
8	0.333629362936292	0.1214956088448	0.702780012514526	0.581284403669725
-18	0.129140914091409	0.097479434146101	0.735733402400069	0.638253968253968
-9	0.629909990999099	0.292638080951379	0.80857028434121	0.515932203389831
1	0.370666066606658	0.155111337144395	0.728474169002804	0.573362831858409
5	0.132409240924093	0.0397752239084882	0.631268436578171	0.591493212669683
2	0.0931933193319361	0.0279479000531644	0.707070707070707	0.679122807017543
-14	0.0450895089508958	0.0560161666135696	0.784424329878876	0.728408163265307
-13	-0.165024502450245	-0.0382162651633757	0.672145180619757	0.710361445783133
18	0.0762126212621252	-0.0334114087737282	0.721661054994388	0.755072463768116
1	0.390467046704668	0.162967365907314	0.744993797625376	0.582026431718062
10	0.682957295729573	0.269773707645335	0.805390146001499	0.535616438356164
-14	0.0322102210221016	0.0446237135092306	0.639478485293463	0.594854771784233
25	0.224747474747473	0.0299632613725855	0.658085277554304	0.628122016181718
-17	0.260313031303131	0.149370904972078	0.731951550133369	0.582580645161291
-1	-0.0614521452145236	-0.0308461008667636	0.631268436578171	0.662114537444935
9	0.415412541254122	0.151644567950243	0.761280931586608	0.609636363636365
-27	-0.174377437743772	-0.000889523648143209	0.704284221525601	0.705173745173745
31	0.787979797979799	0.278981645160365	0.75098814229249	0.472006497132125
-36	-0.0356855685568556	0.0744441032632617	0.684902118530437	0.610458015267175
-34	0.0946124612461257	0.120958707625375	0.685746352413019	0.564787644787644
-2	0.253772377237723	0.110156083605865	0.637775131224913	0.527619047619048
2	0.274194419441944	0.110778053664397	0.648378053664397	0.5376
24	0.377769776977695	0.0979090179399765	0.691830586567428	0.593921568627452
7	0.383722372237222	0.145199522413144	0.718412192096402	0.573212669683258
6	0.197560756075608	0.066025112487927	0.648378053664397	0.58235294117647
42	0.22779277927793	-0.039131313131312	0.686868686868688	0.726
-12	-0.154372437243725	-0.0377652426137277	0.661987843806026	0.699753086419754
9	-0.22263326332633	-0.137126047689438	0.657277622035331	0.794403669724769
11	0.456984698469848	0.17377702256207	0.676767676767677	0.502990654205607
13	0.352830283028303	0.118765220337547	0.685746352413019	0.566981132075472
-20	-0.0149394939493961	0.0376502861095387	0.612085769980507	0.574435483870968
21	0.377355735573558	0.115305099342225	0.622329489586127	0.507024390243902
-12	-0.0620312031203121	0.00126922739644619	0.6750767587772	0.673807531380753
-13	0.321345134513451	0.167025675572718	0.743637245820652	0.576611570247934
-2	0.254789478947895	0.114207259207259	0.687778687778688	0.573571428571429
-11	-0.0220462046204628	0.0138844703334451	0.631268436578171	0.617383966244726
5	0.117164716471646	0.0323934743826129	0.660008153281696	0.627614678899083
3	0.0553145314531456	0.00990072748445958	0.627005990642354	0.617105263157894
-9	0.41262626262626	0.202058335969061	0.736133262449051	0.53407492647999
12	0.224909490949095	0.0607698265914229	0.685746352413019	0.624976525821596
14	0.40110411041104	0.127241283445016	0.782654127481714	0.655412844036698
-14	0.418011801180115	0.212684903259065	0.789296473506998	0.576611570247934
-10	-0.0366926692669278	0.00580082878638555	0.657277622035331	0.651476793248945
-6	0.159365936593657	0.0802070638912735	0.718412192096402	0.638205128205128
-32	-0.234074407440741	-0.00459546565273328	0.755172874115606	0.759768339768339
-12	0.0682538253825395	0.0593002657649128	0.775678866587958	0.716378600823046
-2	0.217004700470045	0.0939029723309189	0.778924617352564	0.685021645021646
24	0.466836683668366	0.144221233013972	0.663153271848924	0.518932038834952
-12	0.00623362336233457	0.0300349332672558	0.688224233678779	0.658189300411523
-23	-0.224353435343535	-0.0277089049825322	0.751128304319794	0.778837209302326
-36	0.17851885188519	0.156576583481589	0.705715160260616	0.549138576779026
-17	0.170645064506448	0.112446223784568	0.700691121743753	0.588244897959184
6	0.375986598659865	0.143629116274856	0.717171717171717	0.573542600896861
8	0.363865386538653	0.132172559363753	0.705715160260615	0.573542600896861
12	0.405515551555156	0.144607261978154	0.712682379349046	0.568075117370892
-6	-0.104993499349936	-0.0346958372967346	0.705304162703266	0.740000000000001
15	0.334005400540053	0.096476514385513	0.75098814229249	0.654511627906978
5	0.269031903190319	0.0996870884452765	0.664240659873848	0.564553571428571
18	0.631778177817781	0.233951933209295	0.688224233678779	0.454272300469484
18	0.67852485248525	0.263462335016383	0.637775131224913	0.374312796208531
-13	0.256808680868087	0.141040404040404	0.737373737373738	0.596333333333333
-3	0.150826082608262	0.0677751540400241	0.690706188522783	0.622931034482759
35	0.388242824282428	0.085641851494606	0.613390542594082	0.527748691099476
-13	0.314837483748376	0.166637927391066	0.747474747474748	0.580836820083682
14	0.523691369136913	0.18675936857755	0.758187940006122	0.571428571428572
27	0.727876787678766	0.2623874778156	0.709551656920077	0.447164179104478
8	0.228065806580658	0.0708368755427581	0.717171717171717	0.646334841628959
3	0.20174417441744	0.0750069848049921	0.693841065522481	0.618834080717489
-21	0.40039403940394	0.222469726102702	0.774291588450881	0.551821862348179
-11	0.392825282528253	0.197569282118638	0.724178724178724	0.526609442060086
-40	-0.0178447844784488	0.0974486437407782	0.737373737373737	0.639925093632959
-9	-0.14996599659966	-0.0441677610570498	0.690706188522782	0.734873949579832
-11	0.371587158715869	0.18146909710128	0.756530825496343	0.575061728395063
-5	-0.198466846684667	-0.0784577239814207	0.675076758777199	0.75353448275862
3	0.140547054705471	0.0472798985767049	0.683976327148134	0.636696428571429
-20	0.465747574757474	0.247848853622097	0.799670715970275	0.551821862348179
-37	0.254230423042303	0.193095381124015	0.728474169002803	0.535378787878788
-2	-0.0654655465546576	-0.0287033069248004	0.670459872991519	0.699163179916319
4	0.327886788678868	0.129356589091103	0.702780012514526	0.573423423423423
-17	0.417967796779676	0.216105273242202	0.668470418470418	0.452365145228216
-23	-0.408575857585759	-0.112776058071757	0.640852974186307	0.753629032258065
23	0.333022302230222	0.0801527977363683	0.683976327148133	0.603823529411765
-11	0.697417741774176	0.328357618740597	0.767676767676767	0.43931914893617
-34	0.174213421342133	0.153063107301757	0.709551656920077	0.55648854961832
-3	-0.249981998199817	-0.106822562319474	0.65541881699087	0.762241379310344
18	0.539563956395637	0.19620630717718	0.695526695526695	0.499320388349515
6	0.0599579957995784	0.00181120943952739	0.684902118530437	0.68309090909091
7	0.253292329232922	0.086331713197146	0.650756491958209	0.564424778761063
-14	0.099703970397039	0.0726484733291574	0.654369784804568	0.58172131147541
24	0.520404040404042	0.166280729227404	0.685680332739156	0.519399603511752
-9	0.187114711471146	0.101857726198151	0.747474747474747	0.645617021276596
-20	-0.0842044204420405	0.0203951163812049	0.768555116381204	0.748159999999999
-1	0.317492749274927	0.134678404435458	0.627005990642354	0.492327586206896
-4	0.104910491049105	0.0518424850003796	0.695526695526695	0.643684210526316
2	0.0733813381338138	0.0175236926991051	0.782654127481714	0.765130434782609
-17	0.00123812381238331	0.0384302518328286	0.643329850226403	0.604899598393574
-23	-0.134478447844784	0.0081611477345922	0.750600172124836	0.742439024390244
-9	-0.0301270127012718	0.00828493686588216	0.744993797625376	0.736708860759494
-39	-0.171976197619761	0.0315670121124669	0.705715160260615	0.674148148148148
2	0.074789478947894	0.021546669284501	0.640207383570215	0.618660714285714
18	0.16034303430343	0.00778783091579294	0.717171717171717	0.709383886255924
-10	0.090243024302433	0.0620714756258246	0.75098814229249	0.688916666666666
4	0.0864726472647261	0.0212884646512964	0.640207383570215	0.618918918918919
26	0.214628462846286	0.0064851755974038	0.721661054994388	0.715175879396984
-28	0.055803580358035	0.0925024828453158	0.693841065522481	0.601338582677165
-3	0.429652965296528	0.191653045507046	0.667024224546348	0.475371179039302
-18	0.138510851085109	0.0995495348835987	0.688224233678779	0.58867469879518
-11	-0.0757165716571637	-0.00743749724317333	0.673062502756826	0.6805
-4	0.286297629762976	0.13043347254801	0.701775463890002	0.571341991341992
8	-0.126060606060604	-0.0783201472856635	0.617206548241031	0.695526695526695
-3	-0.00974997499749919	-0.00211062937360562	0.683976327148133	0.686086956521739
0	0.326120612061204	0.13835880933226	0.738535800482703	0.600176991150444
6	0.158772877287728	0.0463003507678292	0.701775463890001	0.655475113122172
6	0.27992699269927	0.105971741770829	0.613916947250281	0.507945205479452
-18	0.487109710971097	0.248722285336508	0.746273305744672	0.497551020408164
2	0.0939993999399913	0.0292422595776102	0.674109516214779	0.644867256637169
3	0.179143914391438	0.06480453659401	0.665248981038455	0.600444444444445
1	0.250850085008501	0.103157066698734	0.685746352413019	0.582589285714285
6	0.0569546954695479	0.00276532140227448	0.621679348551595	0.618914027149321
-2	0.233128312831282	0.100244677794423	0.609515064060518	0.509270386266095
-11	0.0995289528952887	0.0650406930894101	0.621679348551595	0.556638655462185
-7	0.115768576857686	0.0629777569941142	0.673062502756826	0.610084745762712
0	-0.0765086508650881	-0.040474615147105	0.673062502756826	0.713537117903931
-29	-0.388797879787978	-0.0852634910083876	0.646596974107892	0.731860465116279
3	0.337941794179417	0.134058145136482	0.698287220026351	0.564229074889869
-10	0.308069806980698	0.153608622816202	0.725993560054695	0.572384937238494
-25	-0.00252525252525193	0.0687252819082412	0.708349874288739	0.639624592380498
-9	0.131605160516051	0.0751909857167267	0.698287220026351	0.623096234309624
-6	-0.0590799079907982	-0.0140610601222241	0.715854194115064	0.729915254237288
-3	0.510856085608562	0.226588075739197	0.710675032260936	0.484086956521739
-3	0.0696589658965874	0.0332920774770985	0.686507936507936	0.653215859030837
-5	0.163206320632064	0.0765314427557992	0.617206548241032	0.540675105485233
-8	0.0476487648764858	0.0356127648163038	0.613390542594082	0.577777777777778
-16	0.413037303730369	0.212362770645772	0.736133262449051	0.523770491803279
-6	0.0827152715271535	0.0440879528934622	0.622179239200516	0.578091286307054
-15	-0.0095639563956389	0.0305834071592984	0.657277622035331	0.626694214876033
-10	0.296673667366735	0.146442709284239	0.75300008633342	0.606557377049181
-6	0.578986898689869	0.262781462695626	0.737373737373738	0.474592274678112
9	0.0393479347934773	-0.0153697984699992	0.64914633056226	0.664516129032259
10	0.327890789078909	0.112922663210274	0.71171895950657	0.598796296296296
-6	0.458178817881788	0.209844133417898	0.701775463890002	0.491931330472103
19	0.628861886188621	0.228850702911839	0.725993560054695	0.497142857142856
5	0.107426742674266	0.0269920070267892	0.654369784804568	0.627377777777778
-9	-0.232110211021101	-0.0788152298766047	0.719574600631869	0.798389830508474
-9	0.112458245824582	0.0701817484966722	0.796568303118521	0.726386554621849
22	0.524303430343036	0.176503543072318	0.630775843541802	0.454272300469484
6	0.47897489748975	0.192303991536954	0.710675032260936	0.518371040723982
9	0.293190319031903	0.100513387146575	0.664240659873848	0.563727272727273
-20	-0.204809480948096	-0.0373520236377385	0.64983164983165	0.687183673469388
39	0.504343434343432	0.124997550154901	0.693841065522481	0.56884351536758
0	0.123693369336932	0.0477358740240831	0.681884345639804	0.634148471615721
-11	0.262312231223125	0.135123458025903	0.665248981038455	0.530125523012551
5	0.592432243224323	0.246839859483032	0.692875895519068	0.446036036036036
8	0.559453945394537	0.214780044603052	0.77026677026677	0.555486725663718
1	0.32838383838384	0.143177809844477	0.7665544332211	0.623376623376623
14	0.491631163116311	0.179400680025372	0.691830586567428	0.512429906542056
16	0.332941294129415	0.0974242424242432	0.686868686868687	0.589444444444444
-21	0.0458845884588457	0.0699580031983328	0.682970051391104	0.613012048192771
-10	0.483142314231422	0.230403669210479	0.720657906498615	0.490254237288136
-2	0.433957395739575	0.188086297760211	0.645586297760211	0.4575
7	0.461138113811381	0.17717073247586	0.759771629336847	0.582600896860987
-7	-0.0626932693269326	-0.0137324094008586	0.653242380515108	0.666974789915967
4	0.264901490149014	0.0986157822769173	0.725993560054695	0.627377777777778
-20	0.194987498749878	0.130701168203778	0.733421168203777	0.602719999999999
0	-0.117513751375135	-0.0581773879142291	0.612085769980507	0.670263157894736
-11	0.32053905390539	0.160462904691979	0.666177190406265	0.505714285714286
-8	-0.0515431543154317	-0.00632375490782577	0.64914633056226	0.655470085470086
-8	-0.0137193719371937	0.0103999353137282	0.659451659451659	0.64905172413793
-35	-0.619708970897088	-0.162436482731242	0.602487759693	0.764924242424242
7	0.461904190419043	0.184278235237988	0.638667375509481	0.454389140271493
17	0.515393539353934	0.18348935433994	0.691830586567428	0.508341232227488
33	0.3710101010101	0.0644266499188775	0.747474747474748	0.68304809755587
4	0.0980148014801476	0.0226796843818118	0.733935095637223	0.711255411255411
1	0.247572757275728	0.0962753539577575	0.77026677026677	0.673991416309013
-12	0.40724372437244	0.198453607746538	0.731951550133369	0.533497942386831
23	0.398381838183817	0.110760308081027	0.702780012514526	0.592019704433498
-29	0.322349234923494	0.203239794002804	0.728474169002804	0.525234375
-9	0.391605160516054	0.185065462704176	0.698287220026351	0.513221757322175
-7	-0.141481148114809	-0.0461335792351825	0.705715160260616	0.751848739495798
-9	0.424921492149213	0.203964430631096	0.712682379349046	0.50871794871795
-10	0.324960496049605	0.165345717562607	0.801108429427014	0.635762711864407
7	0.311073107310728	0.112397615980581	0.632133298799965	0.519735682819384
13	0.503096309630963	0.190318608360224	0.647527910685806	0.457209302325581
-10	0.49292929292929	0.23846843948797	0.770102774469586	0.531634334981616
-42	0.246475647564756	0.189619629470275	0.657277622035331	0.467657992565056
7	0.304907490749074	0.110784986428158	0.692875895519068	0.58209090909091
-5	0.322745274527453	0.149077617278665	0.728474169002803	0.579396551724138
0	0.243093309330932	0.101943665732212	0.621679348551595	0.519735682819384
-21	-0.191578157815778	-0.030326711658064	0.628953288341935	0.659279999999999
-2	0.114406440644063	0.0501678557478848	0.667789001122335	0.61762114537445
6	0.276775677567757	0.100447528868582	0.682970051391104	0.582522522522522
12	0.543954395439546	0.205726473234538	0.765352641458837	0.559626168224299
-26	-0.250358035803581	-0.0401032011124977	0.640852974186307	0.680956175298805
22	0.399159915991597	0.113118306209772	0.700691121743753	0.587572815533981
-17	-0.350971097109713	-0.106846220891334	0.629806840333156	0.73665306122449
-6	0.257997799779979	0.124079612111349	0.729596853490659	0.60551724137931
-18	0.147474747474747	0.112284897429247	0.702780012514526	0.590495115085279
2	0.438974897489749	0.186770982761487	0.723422566471893	0.536651583710406
-16	-0.210736073607363	-0.0484409769089174	0.692875895519067	0.741316872427984
-22	0.155040504050404	0.12397251870936	0.757575757575758	0.633603238866397
-12	-0.162637263726372	-0.0423332434067322	0.648378053664398	0.69071129707113
19	0.355180518051807	0.107074639139618	0.639478485293463	0.532403846153845
-2	0.395805580558053	0.17292490118577	0.727272727272726	0.554347826086957
2	0.419603960396039	0.175894465894465	0.785714285714285	0.60981981981982
17	0.295393539353934	0.0781812974679021	0.691830586567428	0.613649289099526
-4	0.230090009000901	0.102242256986315	0.725338491295938	0.623096234309623
-1	0.239744974497451	0.10130639602787	0.708349874288739	0.607043478260869
-19	-0.0816791679167888	0.014115160260616	0.705715160260615	0.691599999999999
-5	0.360553055305531	0.166528961108671	0.685746352413019	0.519217391304348
-9	0.03023602360236	0.0325532414897941	0.699528031405761	0.666974789915967
4	0.326491649164915	0.128391590586331	0.692875895519067	0.564484304932736
-24	-0.239650965096511	-0.037218891975373	0.683976327148134	0.721195219123506
21	0.47653865386539	0.150858017403473	0.705715160260616	0.554857142857142
6	0.340362036203619	0.129870921605434	0.702780012514526	0.572909090909091
1	0.43162416241624	0.186634922733577	0.66906735516601	0.482432432432433
20	0.750675067506751	0.288244538346781	0.738535800482703	0.450291262135922
14	0.419285928592858	0.141531927947619	0.704284221525601	0.562752293577983
-20	0.0235253525352546	0.0599940873717832	0.701775463890002	0.641781376518218
-1	0.0595569556955702	0.0225728183762036	0.683976327148133	0.66140350877193
15	0.278545854585458	0.0788297604161208	0.65638844586213	0.57755868544601
12	0.574196419641964	0.221187017580876	0.699528031405761	0.478341013824885
-29	-0.124406440644063	0.0206712833698783	0.667024224546348	0.64635294117647
27	0.584311431143114	0.198080808080808	0.676767676767677	0.478686868686869
0	0.284911491149115	0.11974903217194	0.701775463890002	0.582026431718062
-12	0.460344034403439	0.221747253234095	0.691830586567428	0.470083333333334
9	0.460762076207619	0.177525411119473	0.71171895950657	0.534193548387097
2	0.311967196719672	0.123438886617297	0.721699756182515	0.598260869565218
-19	-0.301003100310032	-0.0732061967581099	0.748597081930415	0.821803278688525
-18	0.00152215221521868	0.0419286950456241	0.640207383570215	0.598278688524591
-5	0.222156215621561	0.105787329681135	0.729596853490659	0.623809523809524
-46	0.0625432543254343	0.138402439459709	0.71957460063187	0.581172161172161
-5	0.566508650865086	0.252812977134901	0.812472551602987	0.559659574468086
41	0.537615761576156	0.135513972370621	0.649399982733315	0.513886010362694
-12	0.272637263726371	0.145816640986131	0.704545454545454	0.558728813559322
-16	0.256604660466044	0.148878284673667	0.770102774469586	0.621224489795919
3	0.402567256725673	0.163329153714616	0.772972010857473	0.609642857142857
1	0.150457045704569	0.0574855099669253	0.693841065522481	0.636355555555556
-12	0.236599659965995	0.129166567136374	0.702780012514525	0.573613445378152
-27	-0.32051505150515	-0.062959169872489	0.653242380515108	0.716201550387597
4	0.50887388738874	0.212915073307231	0.694725028058361	0.481809954751131
-2	0.374361436143615	0.162118789090304	0.663153271848924	0.50103448275862
-17	0.0249204920492037	0.053529659095047	0.71171895950657	0.658189300411523
-6	0.174997499749973	0.0877747662965045	0.668470418470418	0.580695652173913
-7	0.129428942894287	0.0692496392496381	0.614357864357864	0.545108225108226
-18	-0.193294329432944	-0.0329135860992377	0.728474169002804	0.761387755102041
-4	0.284103410341032	0.131694838988649	0.678126557050323	0.546431718061674
-14	0.197607760776073	0.119839865964266	0.771575403154349	0.651735537190083
-15	0.155021502150211	0.103430011617144	0.744993797625375	0.641563786008231
8	0.0642694269426933	-0.00432754544454539	0.723206086842451	0.727533632286996
-21	-0.386216621662168	-0.103386086746558	0.698287220026351	0.801673306772909
7	0.288440844084408	0.0997434338948658	0.672145180619758	0.572401746724892
-16	-0.0289438943894385	0.0249939250091834	0.673758865248228	0.648764940239044
17	0.298962896289632	0.0810239461957536	0.683976327148134	0.60295238095238
6	0.241341134113412	0.0858087726580882	0.676767676767677	0.590958904109589
-14	-0.108544854485448	-0.010864373826763	0.71171895950657	0.722583333333333
-13	0.521143114311431	0.250022014507921	0.734815402937674	0.484793388429752
-10	0.379971997199718	0.187967587967587	0.722582972582972	0.534615384615385
-18	0.00549354935493485	0.045607371022097	0.6750767587772	0.629469387755103
17	0.387838783878389	0.121428615611102	0.689503732981994	0.568075117370892
-5	0.282169216921693	0.132967061923584	0.757575757575758	0.624608695652174
35	0.272767276727673	0.0313586551819443	0.576643629275209	0.545284974093264
-8	0.651458145814581	0.297750764747484	0.728474169002804	0.430723404255319
-7	0.455397539753974	0.209797504722476	0.700691121743753	0.490893617021277
-27	0.115605560556056	0.11399916828928	0.693841065522481	0.579841897233201
-9	0.0876877687768767	0.0577936763287314	0.710675032260935	0.652881355932204
9	0.526328632863285	0.207118628141883	0.767676767676767	0.560558139534884
-4	0.244506450645065	0.113541809068125	0.677489177489177	0.563947368421052
16	0.20975197519752	0.0382627325448868	0.702778861577145	0.664516129032259
-13	0.150075007500749	0.0971713518548954	0.731601731601731	0.634430379746835
-4	0.266436643664366	0.119754400189183	0.654369784804568	0.534615384615385
-18	0.198354835483549	0.123980546202769	0.640852974186307	0.516872427983539
-16	0.0377437743774383	0.0543847810019605	0.698287220026351	0.64390243902439
4	0.287684768476848	0.111318542999959	0.693841065522482	0.582522522522522
1	0.467228722872285	0.196640527162645	0.654369784804567	0.457729257641922
23	0.534032403240323	0.174160443512607	0.728474169002803	0.554313725490197
1	0.188847884788476	0.0750152218059887	0.648378053664397	0.573362831858409
4	0.181010101010102	0.0679792916635027	0.718412192096402	0.650432900432899
-31	0.18786778677868	0.139272084143306	0.630775843541801	0.491503759398496
15	0.073752375237526	-0.0131565130965194	0.593665916810022	0.606822429906542
4	0.207684768476847	0.0749221466035626	0.693841065522481	0.618918918918919
10	0.191919191919193	0.0578911646105328	0.645586297760211	0.587695133149678
-26	-0.0221112111211128	0.0491071579575291	0.627005990642354	0.577898832684825
8	0.587257725772578	0.236635476861524	0.681884345639804	0.44524886877828
9	0.344510451045101	0.125949796973051	0.686507936507936	0.560558139534885
2	0.0942014201420114	0.0291647416565896	0.682970051391104	0.653805309734514
-30	-0.547003700370035	-0.141300431606107	0.673062502756826	0.814362934362934
-21	0.028510851085106	0.0715706633017973	0.798157008683323	0.726586345381526
19	0.421315131513152	0.124508694723103	0.758187940006122	0.633679245283019
-18	0.129662966296629	0.0991438994134753	0.718412192096402	0.619268292682927
-4	0.146499649964995	0.0693763309622332	0.710675032260935	0.641298701298702
11	0.278888888888889	0.0874197604394148	0.794905577514274	0.707485817074859
11	0.286659665966596	0.0917780990871008	0.673062502756826	0.581284403669725
-17	-0.377751775177517	-0.11272970670561	0.686868686868687	0.799598393574298
1	0.370262026202617	0.155188306597217	0.710675032260935	0.555486725663718
-14	0.00791279127912703	0.0412902130549184	0.767676767676767	0.726386554621849
-29	0.0959255925592566	0.101243558634863	0.619235836627141	0.517992277992278
-48	0.198345834583458	0.189739086201394	0.715854194115064	0.52611510791367
-22	0.250046004600459	0.156932673347016	0.717171717171717	0.560239043824701
2	0.0951935193519349	0.0304067061257327	0.658085277554304	0.627678571428571
-10	0.30213221322132	0.151471646114663	0.675963171538392	0.524491525423729
-23	-0.367222722272228	-0.0923407992973212	0.663153271848924	0.755494071146245
10	0.131725172517252	0.0251935948487674	0.625914315569489	0.600720720720721
9	0.523547354735474	0.20628507295174	0.739618406285073	0.533333333333333
23	0.397929792979296	0.112033377250768	0.671936758893281	0.559903381642513
1	0.509595959595957	0.221404867127101	0.700691121743752	0.479286254616651
-2	0.153957395739575	0.0661897460360732	0.645586297760211	0.579396551724138
-8	0.0343324332433235	0.0298525657597544	0.64449691722419	0.614644351464435
-23	-0.115509550955097	0.00843623203447008	0.665248981038455	0.656812749003985
9	0.425204520452044	0.151177898644565	0.787533454200121	0.636355555555556
-21	-0.0176667666766663	0.045133960035197	0.692875895519068	0.647741935483871
15	-0.194707470747075	-0.147033205858018	0.658085277554304	0.805118483412322
-19	-0.399859985998602	-0.120486322498965	0.64914633056226	0.769632653061225
12	0.0452105210521054	-0.0228195750609541	0.669453152211773	0.692272727272728
11	0.251022102210222	0.078089596404575	0.639478485293463	0.561388888888888
8	0.464673467346736	0.176212708491551	0.740697013424287	0.564484304932736
10	0.359351935193518	0.12298814229249	0.75098814229249	0.628000000000001
-9	0.363128312831281	0.177586781363604	0.695526695526695	0.517939914163091
0	0.204486448644863	0.0858775252525245	0.632395382395381	0.546517857142857
9	0.416593659365936	0.155124520863526	0.718412192096402	0.563287671232876
-13	0.514029402940295	0.249208499255525	0.71171895950657	0.462510460251046
-7	0.0724212421242127	0.0447805565242614	0.658085277554304	0.613304721030043
-5	0.124216421642166	0.0604078321407004	0.660745384883316	0.600337552742616
8	0.372654265426543	0.136866913050607	0.746273305744671	0.609406392694064
-6	0.318730873087309	0.147333710607891	0.65541881699087	0.508085106382979
-14	-0.174983498349835	-0.0396439585085504	0.67816091954023	0.717804878048781
0	0.343898389838981	0.147287029587913	0.640207383570215	0.492920353982302
-28	0.00135113511351337	0.0722436597119166	0.710675032260935	0.638431372549019
-16	-0.00440544054405612	0.0388098865853069	0.725993560054695	0.687183673469388
1	0.266179617961798	0.106041519980029	0.685438071704167	0.579396551724138
-7	0.0922222222222204	0.0596197072705859	0.667024224546348	0.607404517275762
-11	0.403726372637263	0.197147204260175	0.727272727272727	0.530125523012552
27	0.573830383038304	0.18447460063187	0.71957460063187	0.5351
4	0.432821282128212	0.180124586638348	0.715078715078715	0.534954128440367
-16	0.195998599859984	0.122412756024733	0.743637245820652	0.621224489795919
0	-0.0159025902590264	-0.0140090864981698	0.699528031405761	0.71353711790393
-33	0.17182518251825	0.146878097368115	0.682970051391104	0.536091954022989
-13	0.513468346834683	0.253335313923549	0.784511784511784	0.531176470588236
-4	0.285309530953094	0.13114424203216	0.694725028058361	0.563580786026202
-13	-0.235548554855488	-0.067349536813025	0.688224233678779	0.755573770491804
20	0.534830483048306	0.184200706249487	0.730639730639731	0.546439024390243
-20	-0.264809480948097	-0.0620867175152897	0.64983164983165	0.71191836734694
-2	0.116613661366134	0.0502800853693292	0.762714867978024	0.712434782608695
8	0.362870287028703	0.129162343882172	0.747823058167886	0.618660714285714
0	0.0840974097409724	0.0300957169952795	0.699528031405761	0.669432314410481
15	-0.129987998799876	-0.118738357601992	0.723206086842451	0.841944444444444
0	-0.0133063306330652	-0.0131702676994164	0.71436336458758	0.727533632286996
-3	0.272771277127712	0.119397526252992	0.747823058167886	0.628425531914894
10	0.199320932093211	0.0556380699983027	0.646596974107892	0.590958904109589
1	0.327206720672067	0.132942230183609	0.704284221525601	0.571341991341992
-11	0.327919791979198	0.168189007983768	0.831855674650434	0.663666666666666
17	-0.137875787578759	-0.127273574120337	0.658085277554304	0.785358851674641
1	0.0506330633063283	0.0134822277871595	0.6504329004329	0.63695067264574
-10	0.227665766576658	0.119061171359869	0.708349874288739	0.58928870292887
20	0.534224422442245	0.186825654923216	0.703703703703704	0.516878048780487
7	0.328842884288426	0.12612810128939	0.632395382395382	0.506267281105992
6	0.43836883688369	0.174745557917365	0.683976327148134	0.509230769230768
9	0.615816581658164	0.242742799170746	0.778924617352565	0.536181818181819
4	0.48968196819682	0.203128418422536	0.730639730639731	0.527511312217194
11	0.628073807380735	0.246191549726663	0.734815402937673	0.48862385321101
-16	0.0682538253825387	0.0650035680676896	0.648378053664397	0.583374485596708
-21	0.335016501650166	0.191183378500452	0.703703703703704	0.512520325203252
-11	0.0395699569956989	0.0427800125145256	0.702780012514525	0.66
13	0.487893789378938	0.178287253114953	0.728474169002803	0.55018691588785
28	0.653729372937293	0.222866801893171	0.67816091954023	0.455294117647059
4	0.0660686068606848	0.0125096697663064	0.622329489586127	0.60981981981982
2	0.354385438543855	0.147954489586127	0.622329489586127	0.474375
-30	0.222535253525352	0.163176242100118	0.701775463890002	0.538599221789884
20	0.141342134213422	-0.0073714200029984	0.709551656920077	0.716923076923076
-16	0.183321332133213	0.115439875937801	0.676767676767677	0.561327800829875
-4	0.146280628062806	0.0687459134600693	0.682970051391104	0.614224137931034
5	0.347029702970295	0.132544918208634	0.696969696969697	0.564424778761063
-13	0.103708370837083	0.0761733274776749	0.75098814229249	0.674814814814816
9	0.395785578557855	0.14735361303494	0.682970051391104	0.535616438356164
-9	0.491650165016501	0.230104460998373	0.761280931586608	0.531176470588235
2	0.495353535353536	0.216223017418832	0.658810325476992	0.44258730805816
7	0.284099409940993	0.102732167489876	0.657277622035331	0.554545454545455
-22	0.196979697969796	0.133314547126993	0.667024224546348	0.533709677419355
-5	0.00445544554455557	0.0098510529019008	0.696969696969698	0.687118644067797
-13	0.00485548554855364	0.0329282750147126	0.705715160260615	0.672786885245902
4	0.466674667466746	0.194011195427124	0.649146330562259	0.455135135135135
6	0.119176917691771	0.0275384015368475	0.71957460063187	0.692036199095022
-13	-0.0277437743774396	0.0212279659338475	0.730639730639731	0.709411764705883
-31	-0.0632223222322243	0.0487467561535255	0.658085277554304	0.609338521400778
-34	0.368693869386939	0.233399742526281	0.746273305744672	0.512873563218391
1	-0.0111491149114926	-0.0147010564724458	0.674109516214779	0.688810572687225
-17	-0.246397639763977	-0.0593337572121257	0.699528031405761	0.758861788617886
-12	-0.0509090909090926	0.0148146863154967	0.71436336458758	0.699548678272083
-4	0.105489548954893	0.0511122553413293	0.666177190406265	0.615064935064936
-3	-0.228730873087311	-0.0984947672028873	0.738535800482703	0.837030567685591
-10	0.392496249624962	0.183402969449703	0.64208609702172	0.458683127572017
-17	0.114410441044105	0.0909129639132835	0.734815402937674	0.64390243902439
9	-0.347011701170117	-0.192944819372767	0.65541881699087	0.848363636363637
5	-0.00620362036203725	-0.0236711560044898	0.631874298540965	0.655545454545455
-3	0.393175317531753	0.17119603963331	0.7652385928248	0.59404255319149
-7	0.596436643664365	0.273420720248913	0.790771147599341	0.517350427350428
6	0.157358735873588	0.0479852726237803	0.639478485293463	0.591493212669683
-3	0.190250025002501	0.085715457582916	0.683976327148134	0.598260869565218
5	0.0650095009500917	0.00933807291007471	0.609515064060518	0.600176991150443
-18	0.312818281828181	0.17352799247536	0.717171717171717	0.543643724696357
19	0.632831283128311	0.232670565302143	0.718412192096402	0.485741626794259
23	0.437525752575257	0.133500219587176	0.654369784804568	0.520869565217392
-41	-0.172536253625362	0.0278454553893152	0.640852974186307	0.613007518796992
-4	0.266499649964998	0.121843863429767	0.710675032260936	0.588831168831168
-1	0.0187048704870492	0.00430635659475798	0.679478770387861	0.675172413793103
12	0.2802100210021	0.0827468727468726	0.692566692566692	0.60981981981982
-32	-0.0729032903290339	0.0541892135642131	0.713564213564213	0.659375
21	0.569242924292428	0.202930140458744	0.665248981038455	0.462318840579711
-27	-0.00914191419141952	0.0654497354497353	0.703703703703704	0.638253968253968
-4	0.246297629762975	0.112944295058832	0.701775463890002	0.58883116883117
7	0.645513551355134	0.266029146086414	0.71957460063187	0.453545454545455
10	0.24040404040404	0.0800035755787969	0.675963171538393	0.595959595959596
6	0.355967596759676	0.137798180956076	0.647527910685806	0.50972972972973
5	0.0326342634263432	-0.0081344460199082	0.701775463890002	0.70990990990991
-26	0.44015101510151	0.239865655211374	0.683976327148133	0.444110671936759
-10	0.132698269826985	0.0756947635631479	0.650756491958209	0.575061728395061
23	0.626565656565658	0.218362445635174	0.749442476715205	0.531080031080031
6	0.214572457245725	0.072817920129883	0.65541881699087	0.582600896860987
-26	-0.226212621262126	-0.0328792986757589	0.613390542594082	0.646269841269841
-7	0.0268296829682979	0.0251928429327815	0.633438456967869	0.608245614035087
21	-0.164471447144715	-0.152583584765403	0.661987843806026	0.814571428571429
18	0.370635063506351	0.116742484408414	0.64914633056226	0.532403846153845
-5	0.162670267026702	0.0773309786112746	0.645586297760211	0.568255319148937
-23	0.319532953295332	0.18137891692253	0.630578916922529	0.449199999999999
24	0.483533353335333	0.147456374030884	0.71957460063187	0.572118226600986
-6	-0.283033303330331	-0.112308641614572	0.648378053664397	0.760686695278969
-17	0.267077707770776	0.15130626697392	0.675076758777199	0.523770491803279
-34	-0.567702770277027	-0.130091996634285	0.709833376500043	0.839925373134328
-21	0.185197519751977	0.125298546616516	0.702778861577146	0.57748031496063
0	0.386728672867284	0.163332447279814	0.798157008683323	0.634824561403508
-32	0.0512511251125078	0.103041958041957	0.727272727272726	0.62423076923077
21	0.149242924292427	-0.0019973957731404	0.665248981038455	0.667246376811595
28	0.567676767676768	0.168555116381204	0.768555116381204	0.6
-14	-0.195319531953197	-0.0520855614973269	0.623376623376623	0.67546218487395
28	0.718030803080307	0.237693493678692	0.768321513002364	0.530628019323672
-3	-0.128323832383238	-0.0546674451166691	0.786836979662092	0.841504424778761
-7	0.0133773377337729	0.0180432167890173	0.612085769980507	0.59404255319149
-12	-0.208372837283728	-0.0619042727517305	0.659451659451659	0.721355932203389
28	0.571483148314832	0.17318047733977	0.774291588450881	0.601111111111111
-37	0.469404940494049	0.272655771922533	0.747823058167886	0.475167286245353
13	0.304106410641062	0.0936910516837068	0.691830586567428	0.598139534883721
-8	0.185876587658765	0.0968451758968994	0.641414141414141	0.544568965517241
-28	-0.485206520652065	-0.127152882036165	0.64914633056226	0.776299212598425
15	0.24859785978598	0.06319154750973	0.661987843806026	0.598796296296296
-26	-0.189961996199616	-0.0101974587903164	0.699528031405761	0.709725490196077
-15	-0.246796679667967	-0.0677551341878828	0.665248981038455	0.733004115226338
1	0.627408740874087	0.264074239936309	0.712991988854058	0.448917748917749
13	0.380517051705171	0.130907326540515	0.664240659873848	0.533333333333333
-5	0.183351335133514	0.0887073568742263	0.755172874115605	0.666465517241379
-3	0.0490519051905207	0.0238667375509488	0.64983164983165	0.625964912280701
-1	0.419125912591259	0.179373862852124	0.689503732981994	0.510129870129871
23	0.629072907290729	0.220248337028825	0.727272727272727	0.507024390243902
10	0.303893389338933	0.105284936906366	0.639478485293463	0.534193548387097
-15	0.140741074107409	0.0965975236405195	0.687185758934638	0.590588235294118
8	0.342855285528552	0.124678426765666	0.661987843806025	0.537309417040359
12	0.124604460446042	0.0153298502264009	0.643329850226402	0.628000000000001
-4	0.286095609560956	0.130278492921665	0.692875895519068	0.562597402597403
0	0.0434973497349729	0.0129586615049168	0.639478485293463	0.626519823788547
-22	-0.12934793479348	0.00634640916726514	0.743637245820652	0.737290836653387
-15	0.138725872587258	0.0924753479784535	0.680720245937638	0.588244897959184
14	0.690066006600659	0.266490233912189	0.761280931586608	0.494790697674419
3	0.22113811381138	0.0844233276853612	0.667024224546348	0.582600896860987
-11	-0.0830193019301928	-0.0107703209115637	0.667789001122335	0.678559322033898
6	0.1907600760076	0.0624726573090205	0.627005990642354	0.564533333333333
15	0.15218721872187	0.0174251309863029	0.671936758893281	0.654511627906978
-15	-0.00443744374437438	0.0323040628925088	0.65541881699087	0.623114754098361
-5	0.00388238823882503	0.00969147534549997	0.698287220026351	0.688595744680851
-17	-0.0371457145714564	0.0269678924685159	0.712991988854058	0.686024096385542
-9	0.185498549854985	0.0991121077086052	0.675963171538393	0.576851063829787
-34	0.0225642564256414	0.101106002159099	0.756413694466792	0.655307692307693
13	0.593436343634363	0.231455964254706	0.712682379349046	0.48122641509434
3	0.199756975697568	0.0720720401058145	0.734815402937674	0.662743362831859
-27	-0.109367936793678	0.0243717814057612	0.699528031405761	0.67515625
19	0.57424542454245	0.198043593833066	0.780435938330674	0.582392344497608
18	0.182498249824985	0.0260959469380534	0.638667375509481	0.612571428571428
-5	0.403074307430743	0.180855399508498	0.663153271848924	0.482297872340426
-19	0.372052205220522	0.20666493718267	0.741540970240521	0.534876033057851
-18	0.139566956695669	0.103037785260008	0.694725028058361	0.591687242798354
-3	0.131269126912689	0.060282525373532	0.738535800482703	0.678253275109171
7	0.364328432843283	0.135220041969268	0.744993797625376	0.609773755656108
-12	0.167243724372437	0.0987005213267836	0.731951550133369	0.633251028806585
6	0.532174217421744	0.213468678123225	0.68822423367878	0.474755555555555
15	0.350012001200122	0.105706086842451	0.723206086842451	0.6175
22	0.385457545754577	0.102153455263504	0.723206086842451	0.621052631578948
11	0.386659665966596	0.138108374316459	0.673062502756826	0.534954128440367
-13	0.1116501650165	0.0791658885776528	0.703703703703704	0.624537815126051
14	0.432685268526852	0.147203056203056	0.692566692566693	0.545363636363637
-14	-0.18949494949495	-0.0390036053752871	0.684902118530437	0.723905723905724
-11	-0.0349084908490829	0.0110165409554064	0.708349874288739	0.697333333333333
-11	0.340782078207821	0.173122555226286	0.756413694466792	0.583291139240506
-1	0.659744974497451	0.285741178636565	0.708349874288739	0.422608695652174
17	0.521076107610761	0.17993231432205	0.721699756182515	0.541767441860466
-4	0.266903690369036	0.122153822682456	0.728474169002803	0.606320346320347
-39	-0.0790799079907971	0.0679731532228712	0.715854194115064	0.647881040892193
-6	-0.0422252225222524	-0.00735414495487108	0.683976327148134	0.691330472103005
6	0.25076707670767	0.0864614099493559	0.695576454197144	0.609115044247788
-39	-0.353905390539057	-0.0362910397091368	0.709551656920077	0.745842696629214
26	0.704574457445744	0.245410299576966	0.709833376500043	0.464423076923077
25	0.325404540454046	0.0715666409219633	0.660745384883316	0.589178743961353
3	0.480143014301432	0.200820047549123	0.666177190406266	0.465357142857142
7	0.266492649264927	0.0939432144208484	0.684902118530437	0.590958904109589
18	0.528487848784877	0.184742111586535	0.728474169002803	0.543732057416269
-21	-0.106216621662167	0.00928323596260516	0.698287220026351	0.689003984063746
5	0.488244824482447	0.191156284092635	0.808777429467085	0.61762114537445
-27	-0.0906680668066802	0.0265257227274397	0.650756491958209	0.62423076923077
-12	-0.232619261926194	-0.0704213988385841	0.652037617554859	0.722459016393443
-20	0.0351895189518987	0.066764655248135	0.742204655248134	0.675439999999999
30	0.519896989698969	0.150612293380271	0.688224233678779	0.537611940298508
-5	0.219354935493549	0.105519092267971	0.687185758934638	0.581666666666666
-10	-0.337463746374637	-0.121667409053789	0.693841065522481	0.815508474576271
-24	0.0504300430043003	0.0756493989425716	0.631874298540965	0.556224899598394
0	0.447123712371237	0.193043322109989	0.7665544332211	0.573511111111111
19	0.444109410941094	0.148856962287383	0.667789001122335	0.518932038834951
18	0.323912391239125	0.0881196931723254	0.700691121743753	0.612571428571428
-10	0.00152615261525968	0.0219429407317505	0.64914633056226	0.627203389830509
3	0.420951095109511	0.173293321032859	0.701775463890001	0.528482142857143
-2	0.516627662766278	0.227984220406205	0.765352641458836	0.537368421052631
-4	0.185098509850984	0.0863285723724351	0.667024224546348	0.580695652173913
-7	0.457990799079906	0.211373960910264	0.770102774469586	0.558728813559323
0	0.0438983898389815	0.0132162331277367	0.640207383570215	0.626991150442479
5	0.0878307830783074	0.0176256477821695	0.671936758893281	0.654311111111112
19	0.505523552355235	0.172484390833905	0.730639730639731	0.558155339805826
-24	-0.1519701970197	-0.00594028379484934	0.637775131224913	0.643715415019762
23	0.492820282028202	0.160370876424258	0.675076758777199	0.514705882352942
1	0.19065906590659	0.0754022347367479	0.702780012514526	0.627377777777778
-27	-0.324192419241925	-0.0606982483550396	0.702780012514526	0.763478260869565
-11	0.23960696069607	0.131630428579581	0.784511784511784	0.652881355932203
-4	0.267067706770677	0.1209014219637	0.699528031405761	0.57862660944206
20	0.548856885688567	0.197988190175663	0.658085277554304	0.460097087378641
-2	0.434361436143616	0.188239478745476	0.663153271848924	0.474913793103448
-19	0.239734973497354	0.148053403297042	0.76693340329704	0.618879999999999
30	0.493535353535354	0.136868686868687	0.686868686868687	0.55
-5	0.420966096609658	0.194483827671599	0.731601731601731	0.537117903930132
11	0.554207420742073	0.219210271057976	0.667024224546348	0.447813953488373
6	-0.0628202820282058	-0.0547142836616533	0.700691121743753	0.755405405405406
-19	-0.493545354535454	-0.159181013917856	0.629806840333156	0.788987854251012
-31	0.584131413141314	0.309791998460168	0.728474169002804	0.418682170542636
1	0.552870287028703	0.238033108866442	0.775533108866442	0.5375
-5	0.420769076907691	0.19551245282659	0.750600172124835	0.555087719298245
-9	0.0465086508650856	0.0406579064986141	0.720657906498615	0.68
3	0.761355135513552	0.326360314917584	0.719574600631869	0.393214285714286
-6	-0.000733073307329635	0.00917751131790301	0.609515064060519	0.600337552742616
-2	0.535006500650064	0.235146637877146	0.692875895519068	0.457729257641922
7	0.223722372237223	0.0720773504674431	0.718412192096402	0.646334841628958
-6	0.434984498449843	0.200445727112393	0.631874298540965	0.431428571428572
11	0.453244324432445	0.166632996632997	0.737373737373738	0.57074074074074
7	0.502937293729373	0.196956607262284	0.761280931586608	0.564324324324324
12	0.416375637563756	0.150128034733298	0.674109516214779	0.523981481481481
-5	0.185667566756678	0.0880017987491031	0.749442476715205	0.661440677966102
-10	0.0955875587558745	0.0666663500205816	0.843608498780913	0.776942148760331
1	-0.0723672367236736	-0.0416003590106501	0.671936758893281	0.713537117903931
-27	0.0999449944994506	0.104602387256659	0.666177190406265	0.561574803149606
0	0.344492449244925	0.143942907334212	0.733421168203777	0.589478260869565
3	0.123924392439244	0.0399300699300699	0.704545454545454	0.664615384615384
8	0.410463046304626	0.154042353358141	0.736133262449051	0.58209090909091
-27	0.0920462046204613	0.109796556586608	0.761280931586608	0.651484375
12	0.467880788078807	0.176187072885186	0.695526695526695	0.519339622641509
-11	0.182357235723573	0.104760700702655	0.746273305744672	0.641512605042017
22	0.799967996799676	0.305453650798565	0.736133262449051	0.430679611650486
-7	0.41952895289529	0.192803821253019	0.749442476715205	0.556638655462185
-18	0.394232423242324	0.210746479700743	0.778924617352565	0.568178137651822
3	0.304503450345032	0.123458486207364	0.687185758934637	0.563727272727274
-6	0.357795779577958	0.167382044429649	0.720657906498615	0.553275862068965
-20	0.395997599759979	0.215018603425561	0.77733860342556	0.562319999999999
-15	-0.068755875587559	0.00775192857691842	0.692875895519067	0.685123966942149
5	0.550042004200421	0.224957017145882	0.708349874288739	0.483392857142857
-5	0.0809710971097115	0.0450979705003781	0.75965937400915	0.714561403508771
-10	0.388473847384738	0.188156074272535	0.743637245820651	0.555481171548117
-6	0.116562656265626	0.0606218353774646	0.630578916922529	0.569957081545065
-22	0.0848874887488733	0.0882530512408788	0.660008153281696	0.571755102040817
12	0.577789778977897	0.221503632819422	0.736133262449051	0.514629629629629
-4	-0.014286428642867	-0.000854738554885381	0.712682379349046	0.713537117903931
-13	0.220335033503351	0.122916461157827	0.699528031405761	0.576611570247934
-6	0.17953895389539	0.0880678906504421	0.690706188522783	0.602638297872341
-29	0.111056105610561	0.118270632837562	0.703703703703704	0.585433070866141
6	0.239351935193517	0.0851761866452123	0.658085277554304	0.572909090909091
-25	-0.0134853485348561	0.0631101248950209	0.762714867978025	0.699604743083004
-8	0.229264926492648	0.115756819385137	0.684902118530437	0.5691452991453
-26	-0.0695579557955772	0.0391325014854436	0.717171717171717	0.678039215686273
12	0.5492199219922	0.206037137070762	0.723206086842451	0.517168949771689
16	0.582944294429445	0.205650121696445	0.812472551602987	0.606822429906542
-17	0.188289828982896	0.121916791953622	0.728474169002803	0.606557377049181
11	0.318873887388741	0.105380754021729	0.669453152211773	0.564072398190045
3	0.422331233123312	0.176137046137046	0.676767676767677	0.50063063063063
-13	-0.286374637463749	-0.0898409428457204	0.693841065522481	0.783682008368202
-3	0.0898549854985475	0.0418146999226713	0.675963171538393	0.634148471615722
-25	0.0555935593559376	0.0896539822780241	0.759771629336847	0.670117647058823
-2	0.115186518651864	0.04948474136247	0.699528031405761	0.65004329004329
6	0.376371637163716	0.146420152209626	0.665248981038455	0.518828828828829
-7	0.275162516251625	0.130664770718061	0.646596974107891	0.515932203389831
22	0.426669666966699	0.115965947927671	0.775678866587959	0.659712918660287
-26	0.265500550055005	0.171835121487007	0.709551656920077	0.537716535433071
-25	0.447524752475244	0.251128215796407	0.807017543859648	0.555889328063241
27	0.39917391739174	0.0992624245748278	0.702780012514526	0.603517587939698
-12	0.214418441844185	0.11995709556891	0.694725028058361	0.574767932489451
13	0.301720172017201	0.0957212715107448	0.687778687778688	0.592057416267943
-17	-0.0889508950895124	0.00649382474946236	0.718412192096402	0.711918367346939
9	-0.0990789078907883	-0.0787710437710434	0.622895622895623	0.701666666666666
7	0.318526852685269	0.113563229699594	0.723206086842451	0.609642857142857
0	0.043895389538952	0.0124529134136112	0.690706188522783	0.678253275109171
0	-0.0369066906690678	-0.0226378320651451	0.621679348551595	0.64431718061674
-27	0.587512751275125	0.308357506958125	0.780435938330674	0.472078431372549
8	-0.196153615361537	-0.117971370580067	0.619235836627141	0.737207207207208
-7	0.334416441644163	0.158527600642138	0.701775463890002	0.543247863247864
15	0.439017901790179	0.148316912243853	0.683933350600017	0.535616438356164
6	0.201543154315432	0.0671162154267181	0.685746352413019	0.618630136986301
-1	0.0601540154015372	0.0232190476190464	0.686507936507936	0.663288888888889
-45	0.0911741174117415	0.152970689386844	0.78081241600555	0.627841726618706
-13	0.160537053705372	0.0983498742887395	0.708349874288739	0.609999999999999
-7	0.0751625162516258	0.0450715503790778	0.646596974107892	0.601525423728814
8	0.491811181118111	0.198568021696218	0.622329489586127	0.423761467889908
-19	0.0312221222122204	0.0592545756195563	0.690706188522783	0.631451612903226
-10	0.0755735573557357	0.055354531647635	0.66957866957867	0.614224137931035
0	0.386895689568955	0.167996557503283	0.723422566471894	0.55542600896861
-14	0.159566956695669	0.102582545493753	0.75245908870363	0.649876543209877
30	0.456972697269727	0.129216265216265	0.64983164983165	0.520615384615385
-2	0.295213521352136	0.129972994970666	0.702780012514526	0.572807017543859
-13	0.160537053705371	0.0983498742887391	0.708349874288739	0.61
-5	0.10114611461146	0.0523480059763242	0.684902118530437	0.632554112554113
12	0.55980598059806	0.211065774399108	0.675300008633342	0.464234234234234
13	0.508297829782979	0.186647137520373	0.746273305744671	0.559626168224299
-30	-0.354701470147015	-0.0669990114872009	0.677489177489177	0.744488188976378
-16	0.0421092109210919	0.053186079327158	0.622895622895623	0.569709543568465
0	0.440718071807181	0.181890943331621	0.672145180619757	0.490254237288136
-12	0.117160716071608	0.0755454309001581	0.639478485293463	0.563933054393305
-25	-0.180455045504551	-0.0130398382821294	0.657277622035331	0.67031746031746
20	0.470877087708769	0.150096106698048	0.747474747474748	0.5973786407767
21	0.307876787678765	0.0745867542419253	0.686507936507936	0.611921182266011
11	0.0942074207420724	0.0031172478021616	0.667024224546348	0.663906976744187
19	0.21000300030003	0.0409675704412547	0.594364699627858	0.553397129186603
21	0.384877487748777	0.111524041218365	0.673062502756826	0.561538461538461
-14	0.0636753675367545	0.0607571072506141	0.723206086842451	0.662448979591837
-21	0.113783378337834	0.0978091323769483	0.698287220026351	0.600478087649402
1	0.210262026202618	0.0836838818184565	0.710675032260935	0.626991150442478
3	0.239143914391439	0.0917378699273436	0.665248981038455	0.573511111111111
2	0.0737793779377938	0.0219412200385654	0.595512648609994	0.573571428571428
-1	0.321578157815781	0.13883281767029	0.765352641458837	0.626519823788547
5	0.370633063306329	0.145858395138546	0.674109516214779	0.528251121076234
-26	0.225298529852984	0.15502183040517	0.700691121743753	0.545669291338583
4	0.244295429542954	0.0901058091835384	0.699528031405761	0.609422222222223
-6	0.0573707370737078	0.0355334135822311	0.666177190406265	0.630643776824034
5	0.0924322432243219	0.0193623820055536	0.692875895519067	0.673513513513514
-19	0.218118811881191	0.134649696969698	0.696969696969697	0.562319999999999
-13	0.0753945394539477	0.0619100921105336	0.675076758777199	0.613166666666666
-9	0.049023902390239	0.0390339488978071	0.646596974107892	0.607563025210084
15	0.449401940194018	0.149330884394175	0.7045561096194	0.555225225225225
11	0.289044904490447	0.0938204096098826	0.665248981038455	0.571428571428572
-13	0.115394539453946	0.0787434254438664	0.6750767587772	0.596333333333333
11	0.30111311131113	0.103962623100452	0.632830547628754	0.528867924528302
-2	0.334795479547955	0.146187442695452	0.682970051391104	0.536782608695652
-7	0.017070707070707	0.0254924960483573	0.619235836627141	0.593743340578784
-12	0.103523352335231	0.0733467893891154	0.743637245820651	0.670290456431536
-8	0.048658865886587	0.0371451066141324	0.658085277554304	0.620940170940171
-2	0.335792579257925	0.145906979968115	0.725993560054695	0.58008658008658
-1	0.339557955795579	0.147328810304912	0.675963171538393	0.52863436123348
6	0.0951785178517845	0.0177587851016873	0.681884345639804	0.664125560538117
-15	0.198321832183217	0.116132863685658	0.663153271848924	0.547020408163266
7	0.386321632163214	0.145536510479241	0.755172874115605	0.609636363636364
-19	0.0874647464746461	0.0813969656074914	0.674109516214779	0.592712550607288
20	0.389058905890588	0.118674709983241	0.667024224546348	0.548349514563107
-18	-0.083402340234024	0.0110743801652888	0.704545454545454	0.693471074380165
18	0.403306330633065	0.128871420976685	0.674109516214779	0.545238095238094
-7	0.152442244224423	0.0807726692209454	0.703703703703704	0.622931034482758
-2	0.0948044804480419	0.0410068948337214	0.683976327148133	0.642969432314412
-26	0.301323132313232	0.189920111724145	0.775678866587958	0.585758754863814
-12	-0.164410441044105	-0.0428390921935952	0.658085277554304	0.700924369747899
8	0.287055705570558	0.0998498330735685	0.673062502756826	0.573212669683258
9	0.534200420042003	0.208895328834193	0.708349874288739	0.499454545454546
-21	0.279989998999899	0.171879281511326	0.756413694466792	0.584534412955466
-19	0.224595459545955	0.135358706624801	0.685438071704167	0.550079365079365
-20	0.275189518951899	0.163724655248135	0.742204655248134	0.578479999999999
3	0.0375347534753463	0.00184592768508929	0.637775131224913	0.635929203539824
12	0.457587758775876	0.165883838383838	0.727272727272727	0.561388888888889
-11	-0.0970817081708191	-0.0157844761940784	0.691830586567428	0.707615062761507
6	0.236188618861885	0.0799845914448294	0.725993560054695	0.646008968609866
21	0.700303030303028	0.267427974324525	0.749639249639249	0.482211275314724
6	0.515193519351936	0.204470285149633	0.75098814229249	0.546517857142857
13	0.61026302630263	0.239024143969925	0.702780012514526	0.463755868544601
4	0.242282228222819	0.0897904399905157	0.663153271848924	0.573362831858408
4	0.206087608760876	0.0743592699879615	0.6750767587772	0.600717488789238
-20	-0.0133233323332353	0.0433732771975548	0.682970051391103	0.639596774193549
-21	-0.0584748474847494	0.0258260091321051	0.657277622035331	0.631451612903226
-5	0.304051405140513	0.137868600896335	0.679478770387861	0.541610169491526
-10	-0.190214021402142	-0.0585930690570459	0.661987843806025	0.720580912863071
6	0.430707070707073	0.171440232046294	0.749442476715205	0.578002244668911
30	0.444444444444444	0.109397032074769	0.733935095637224	0.624538063562454
9	0.222335233523354	0.0682463524130198	0.685746352413019	0.617499999999999
-24	0.136199619961999	0.115361065522483	0.693841065522481	0.578479999999999
3	0.322350235023501	0.128998713673502	0.720657906498615	0.591659192825112
0	0.145305530553055	0.0583685746352414	0.685746352413019	0.627377777777778
-15	0.174415441544153	0.110099434894756	0.718412192096402	0.608312757201646
6	0.0269306930693085	-0.0124561403508766	0.666666666666666	0.679122807017543
-2	0.275415541554157	0.121192643717097	0.71171895950657	0.590526315789473
23	0.609088908890889	0.213058301565764	0.74062049062049	0.527562189054726
-26	-0.200455045504551	-0.0183745518777124	0.657277622035331	0.675652173913044
-9	0.556698669866989	0.252667052893351	0.737460441323103	0.484793388429752
-2	0.396218621862184	0.173871559019779	0.746273305744671	0.572401746724892
10	0.483730373037301	0.182647023916941	0.736133262449051	0.553486238532111
6	0.254789478947895	0.0877068824894915	0.733421168203777	0.645714285714286
8	0.134608460846084	0.0303479068499221	0.647969052224372	0.61762114537445
1	0.133057305730571	0.0492409682992632	0.758658008658008	0.709417040358745
-28	-0.488679867986801	-0.123396971042377	0.668097281831188	0.791494252873565
3	0.37953695369537	0.156085628150606	0.639478485293463	0.483392857142857
5	0.36904290429043	0.142148792270532	0.724637681159421	0.582488888888889
0	0.00389838983898216	-0.00465987306695337	0.640207383570215	0.644867256637169
-10	0.0815591559155933	0.0588525443560911	0.721661054994388	0.662808510638297
14	0.494808480848085	0.18170218659888	0.692875895519068	0.511173708920188
-2	0.275186518651864	0.11944145131918	0.699528031405761	0.580086580086581
-9	0.348697869786979	0.170766094454588	0.755172874115606	0.584406779661017
21	0.635826582658265	0.226435010037935	0.755172874115605	0.52873786407767
1	0.290648064806481	0.121231962481963	0.676767676767677	0.555535714285714
-26	0.0910561056105603	0.103225616054301	0.703703703703704	0.600478087649403
-20	-0.16736673667367	-0.0186536323421581	0.695526695526695	0.714180327868853
2	0.270553055305531	0.106397558796359	0.660745384883316	0.554347826086957
0	0.424097409740972	0.180052048873009	0.699528031405761	0.519475982532752
0	0.304501450145012	0.127128049049445	0.717171717171717	0.590043668122272
-12	0.208188818881887	0.113426063917867	0.686868686868687	0.57344262295082
0	0.144302430243022	0.0579082864038606	0.658085277554304	0.600176991150443
1	0.326360636063605	0.131170581127662	0.718466718466718	0.587296137339056
