8
[ 13.449, 6.254, 13.449, 3.115, 6.254, 4.731, 4.731, 4.731, 1.237, 4.731, 3.115, 4.731, 1.237, 4.731, 4.731, 4.731, 6.254, 1.237, 6.254, 6.254, 4.731, 3.115, 3.115, 6.254, 4.731, 4.731, 4.731, 6.254, 1.237, 6.254, 3.115, 1.237, 4.731, 6.254, 4.731, 4.731, 1.237, 1.237, 4.598, 4.731, 6.254, 4.731, 6.254, 4.731, 13.449, 4.731, 3.115, 4.731, 6.254, 4.731, 6.254, 4.731, 6.254, 3.115, 6.254, 6.254, 4.731, 4.731, 6.254, 13.449, 1.237, 6.254, 6.254, 4.731, 4.731, 3.115, 6.254, 4.731, 4.731, 6.254, 4.731, 6.254, 6.254, 4.731, 6.254, 4.731, 4.731, 3.115, 4.731, 4.731, 4.731, 4.731, 6.895, 4.731, 6.254, 3.115, 4.731, 4.731, 13.449, 4.731, 6.254, 2.248, 1.237, 6.254, 4.731, 4.731, 6.254, 4.731, 4.731, 4.731, 3.115, 6.254, 6.254, 4.731, 6.254, 3.115, 3.115, 6.254, 6.254, 6.254, 4.731, 4.731, 1.237, 1.237, 4.731, 4.731, 4.731, 6.254, 4.731, 4.731, 4.598, 4.731, 1.237, 6.254, 3.115, 4.731, 6.254, 3.115, 3.115, 3.115, 6.254, 1.237, 6.254, 4.731, 4.731, 4.731, 3.115, 4.731, 4.731, 6.895, 6.254, 4.731, 4.731, 4.731, 4.731, 3.115, 3.115, 4.731, 6.254, 6.254, 3.115, 4.731, 3.115, 4.731, 4.731, 6.254, 1.237, 4.731, 6.254, 3.115, 3.115, 4.731, 4.731, 6.254, 1.237, 6.254, 4.731, 4.731, 4.731, 4.731, 4.731, 4.731, 4.731, 4.731, 4.731, 1.237, 4.731, 6.254, 1.237, 6.254, 6.254, 6.254, 4.731, 4.731, 4.731, 4.731, 6.254, 3.115, 1.237, 4.731, 3.115, 6.254, 4.731, 6.895, 4.731, 4.731, 6.254, 4.731, 4.731, 4.731 ]
10
[ 0.226, 0.226, 0.857, 0.857, 0.556, 0.857, 0.857, 0.556, 0.556, 0.556, 0.857, 0.556, 0.944, 0.944, 0.226, 0.944, 0.732, 0.427, 0.246, 0.857, 0.944, 0.857, 0.944, 0.857, 0.556, 0.857, 0.226, 0.857, 0.944, 0.944, 0.857, 0.226, 0.226, 0.857, 0.556, 0.857, 0.719, 0.944, 0.857, 0.732, 0.857, 0.556, 0.556, 0.719, 0.556, 0.944, 0.857, 0.944, 0.944, 0.719, 0.857, 0.857, 0.944, 0.857, 0.556, 0.857, 0.857, 0.857, 0.857, 0.857, 0.719, 0.944, 0.732, 0.857, 0.719, 0.857, 0.944, 0.857, 0.857, 0.556, 0.857, 0.944, 0.944, 0.857, 0.857, 0.857, 0.944, 0.556, 0.857, 0.719, 0.944, 0.857, 0.857, 0.732, 0.645, 0.857, 0.857, 0.857, 0.226, 0.556, 0.556, 0.556, 0.226, 0.427, 0.857, 0.556, 0.556, 0.857, 0.857, 0.857, 0.732, 0.944, 0.857, 0.556, 0.857, 0.857, 0.719, 0.857, 0.857, 0.226, 0.556, 0.857, 0.944, 0.857, 0.857, 0.857, 0.944, 0.987, 0.944, 0.556, 0.226, 0.857, 0.556, 0.857, 0.732, 0.226, 0.556, 0.944, 0.556, 0.857, 0.719, 0.944, 0.857, 0.226, 0.732, 0.857, 0.857, 0.944, 0.857, 0.987, 0.857, 0.857, 0.427, 0.857, 0.732, 0.556, 0.732, 0.857, 0.857, 0.857, 0.857, 0.246, 0.944, 0.857, 0.857, 0.987, 0.944, 0.944, 0.732, 0.944, 0.944, 0.427, 0.857, 0.857, 0.857, 0.857, 0.556, 0.857, 0.857, 0.944, 0.556, 0.556, 0.857, 0.556, 0.857, 0.556, 0.719, 0.732, 0.944, 0.857, 0.226, 0.857, 0.857, 0.719, 0.857, 0.857, 0.857, 0.857, 0.556, 0.719, 0.732, 0.944, 0.556, 0.987, 0.857, 0.427, 0.226, 0.857, 0.944, 0.719 ]