3
[ 1.940, 4.272, 1.489, 4.272, 1.489, 1.489, 4.272, 1.940, 1.489, 4.272, 1.940, 1.940, 1.489, 4.272, 1.940, 1.489, 4.272, 1.489, 1.940, 4.272, 1.489, 1.940, 4.272, 1.940, 1.940, 1.489, 4.272, 4.272, 1.940, 4.272, 1.489, 4.272, 4.272, 1.940, 1.940, 1.940, 4.272, 4.272, 1.489, 1.489, 1.940, 4.272, 1.489, 1.940, 4.272, 1.489, 1.940, 1.489, 4.272, 1.940, 1.940, 4.272, 4.272, 1.489, 1.489, 4.272, 1.489, 1.940, 1.489, 1.489, 4.272, 1.940, 1.489, 4.272, 1.489, 1.940, 4.272, 1.940, 1.940, 1.940, 4.272, 1.940, 1.940, 1.940, 1.940, 4.272, 4.272, 1.940, 1.940, 1.940, 4.272, 1.489, 4.272, 1.940, 1.489, 1.489, 1.940, 1.940, 1.489, 1.940, 4.272, 1.489, 1.489, 4.272, 4.272, 4.272, 1.489, 1.489, 1.940, 1.940 ]
3
[ 0.546, 0.036, 0.546, 0.539, 0.539, 0.036, 0.546, 0.546, 0.539, 0.546, 0.546, 0.539, 0.546, 0.036, 0.539, 0.546, 0.036, 0.546, 0.036, 0.036, 0.036, 0.546, 0.036, 0.539, 0.036, 0.546, 0.539, 0.539, 0.539, 0.546, 0.539, 0.036, 0.539, 0.036, 0.546, 0.539, 0.546, 0.539, 0.036, 0.539, 0.546, 0.539, 0.539, 0.539, 0.546, 0.036, 0.539, 0.539, 0.539, 0.546, 0.539, 0.539, 0.539, 0.036, 0.539, 0.539, 0.539, 0.539, 0.546, 0.036, 0.546, 0.546, 0.036, 0.546, 0.539, 0.539, 0.539, 0.539, 0.546, 0.546, 0.546, 0.036, 0.036, 0.546, 0.036, 0.539, 0.036, 0.546, 0.539, 0.036, 0.036, 0.539, 0.539, 0.539, 0.539, 0.036, 0.539, 0.539, 0.036, 0.539, 0.546, 0.539, 0.539, 0.546, 0.539, 0.539, 0.546, 0.546, 0.036, 0.036 ]