3
[ 4.692, 4.692, 1.920, 1.100, 1.920, 1.100, 4.692, 1.100, 4.692, 1.100, 4.692, 1.100, 1.100, 4.692, 4.692, 1.920, 1.100, 4.692, 1.920, 1.100, 1.100, 1.100, 1.920, 1.100, 1.920, 1.100, 1.100, 1.100, 4.692, 4.692, 1.100, 1.100, 1.920, 1.100, 1.920, 1.920, 4.692, 1.100, 1.920, 1.920, 1.100, 1.920, 1.920, 1.100, 1.920, 1.920, 1.100, 1.100, 1.100, 4.692, 4.692, 1.920, 4.692, 4.692, 1.920, 1.100, 1.100, 4.692, 1.100, 1.920, 4.692, 1.100, 1.920, 1.100, 1.920, 1.920, 4.692, 1.100, 1.920, 4.692, 1.100, 1.100, 4.692, 1.100, 1.920, 4.692, 1.100, 1.920, 1.920, 1.100, 1.100, 1.100, 4.692, 1.100, 1.920, 1.100, 1.100, 1.920, 1.920, 1.920, 1.920, 4.692, 1.920, 4.692, 4.692, 4.692, 1.100, 1.920, 1.920, 4.692, 4.692, 1.100, 1.100, 1.920, 1.920, 1.920, 4.692, 4.692, 4.692, 1.920, 1.920, 1.920, 4.692, 1.920, 1.100, 4.692, 4.692, 1.920, 4.692, 1.920, 1.100, 4.692, 4.692, 1.100, 1.100, 4.692, 4.692, 1.100, 1.920, 1.920, 1.920, 1.100, 1.920, 4.692, 1.100, 1.100, 4.692, 1.920, 1.920, 1.100, 1.920, 1.920, 1.920, 1.100, 4.692, 1.920, 4.692, 1.920, 1.920, 4.692, 1.920, 1.100, 1.920, 4.692, 1.920, 1.100, 1.100, 1.100, 1.920, 1.100, 1.920, 1.100, 1.920, 1.920, 4.692, 1.920, 1.100, 1.100, 4.692, 4.692, 4.692, 1.100, 4.692, 1.920, 1.100, 1.100, 1.100, 1.100, 4.692, 1.100, 4.692, 4.692, 1.100, 4.692, 1.920, 1.920, 1.100, 4.692, 1.920, 1.100, 1.920, 1.100, 1.100, 1.920, 1.100, 1.920, 4.692, 1.920, 1.920, 4.692 ]
3
[ 0.137, 0.311, 0.311, 0.507, 0.137, 0.507, 0.137, 0.507, 0.507, 0.507, 0.507, 0.507, 0.507, 0.507, 0.137, 0.137, 0.507, 0.507, 0.507, 0.311, 0.507, 0.507, 0.507, 0.137, 0.137, 0.507, 0.507, 0.137, 0.311, 0.507, 0.137, 0.507, 0.137, 0.137, 0.311, 0.507, 0.311, 0.507, 0.137, 0.507, 0.137, 0.137, 0.507, 0.507, 0.311, 0.507, 0.311, 0.137, 0.507, 0.311, 0.311, 0.311, 0.311, 0.137, 0.311, 0.137, 0.137, 0.137, 0.137, 0.507, 0.311, 0.311, 0.137, 0.137, 0.311, 0.137, 0.507, 0.311, 0.507, 0.507, 0.507, 0.311, 0.507, 0.507, 0.137, 0.137, 0.507, 0.311, 0.311, 0.507, 0.137, 0.137, 0.137, 0.137, 0.507, 0.137, 0.311, 0.137, 0.311, 0.507, 0.311, 0.507, 0.507, 0.137, 0.137, 0.311, 0.137, 0.137, 0.507, 0.137, 0.311, 0.137, 0.507, 0.311, 0.507, 0.311, 0.507, 0.507, 0.311, 0.507, 0.507, 0.507, 0.507, 0.137, 0.137, 0.311, 0.311, 0.311, 0.311, 0.137, 0.507, 0.311, 0.137, 0.137, 0.137, 0.137, 0.507, 0.311, 0.507, 0.507, 0.137, 0.507, 0.137, 0.311, 0.311, 0.311, 0.507, 0.507, 0.507, 0.137, 0.507, 0.137, 0.137, 0.137, 0.311, 0.311, 0.137, 0.507, 0.137, 0.507, 0.137, 0.311, 0.311, 0.507, 0.311, 0.507, 0.311, 0.311, 0.507, 0.311, 0.311, 0.507, 0.137, 0.311, 0.137, 0.137, 0.311, 0.311, 0.137, 0.507, 0.311, 0.507, 0.507, 0.311, 0.137, 0.311, 0.507, 0.311, 0.507, 0.137, 0.311, 0.507, 0.137, 0.137, 0.311, 0.507, 0.507, 0.311, 0.137, 0.137, 0.507, 0.137, 0.311, 0.137, 0.311, 0.311, 0.507, 0.137, 0.137, 0.507 ]