3
[ 1.754, 3.068, 3.068, 3.068, 1.754, 1.754, 4.083, 3.068, 4.083, 3.068, 4.083, 3.068, 1.754, 4.083, 1.754, 4.083, 1.754, 1.754, 4.083, 4.083, 1.754, 4.083, 1.754, 4.083, 3.068, 3.068, 1.754, 4.083, 3.068, 3.068, 3.068, 1.754, 1.754, 4.083, 4.083, 1.754, 4.083, 3.068, 1.754, 4.083, 1.754, 3.068, 4.083, 3.068, 4.083, 1.754, 3.068, 4.083, 4.083, 4.083, 3.068, 1.754, 1.754, 1.754, 1.754, 4.083, 3.068, 3.068, 4.083, 3.068, 3.068, 1.754, 1.754, 3.068, 1.754, 3.068, 4.083, 4.083, 4.083, 1.754, 4.083, 1.754, 4.083, 1.754, 3.068, 3.068, 3.068, 1.754, 4.083, 1.754, 1.754, 4.083, 4.083, 1.754, 4.083, 3.068, 3.068, 1.754, 4.083, 4.083, 4.083, 3.068, 3.068, 3.068, 4.083, 1.754, 4.083, 1.754, 3.068, 4.083, 1.754, 3.068, 3.068, 1.754, 4.083, 3.068, 1.754, 3.068, 3.068, 4.083, 3.068, 1.754, 1.754, 1.754, 1.754, 1.754, 4.083, 3.068, 1.754, 3.068, 4.083, 4.083, 4.083, 1.754, 4.083, 3.068, 3.068, 3.068, 3.068, 3.068, 3.068, 3.068, 1.754, 4.083, 4.083, 4.083, 3.068, 3.068, 3.068, 4.083, 4.083, 1.754, 4.083, 4.083, 3.068, 4.083, 3.068, 4.083, 1.754, 1.754, 1.754, 4.083, 4.083, 4.083, 3.068, 4.083, 1.754, 1.754, 3.068, 3.068, 3.068, 4.083, 3.068, 4.083, 1.754, 3.068, 4.083, 4.083, 4.083, 1.754, 4.083, 1.754, 1.754, 4.083, 1.754, 1.754, 4.083, 1.754, 3.068, 4.083, 4.083, 3.068, 4.083, 4.083, 4.083, 4.083, 1.754, 3.068, 1.754, 1.754, 4.083, 3.068, 3.068, 4.083, 3.068, 1.754, 4.083, 4.083, 4.083, 4.083 ]
3
[ 0.685, 0.685, 0.685, 0.242, 0.685, 0.685, 0.242, 0.242, 0.242, 0.685, 0.135, 0.242, 0.135, 0.135, 0.685, 0.685, 0.242, 0.242, 0.685, 0.242, 0.242, 0.135, 0.685, 0.685, 0.242, 0.242, 0.685, 0.135, 0.135, 0.135, 0.685, 0.135, 0.242, 0.685, 0.242, 0.685, 0.685, 0.242, 0.685, 0.242, 0.135, 0.685, 0.242, 0.242, 0.685, 0.135, 0.685, 0.135, 0.242, 0.135, 0.685, 0.242, 0.135, 0.135, 0.685, 0.685, 0.685, 0.242, 0.242, 0.242, 0.242, 0.685, 0.242, 0.685, 0.685, 0.135, 0.135, 0.685, 0.242, 0.242, 0.135, 0.685, 0.135, 0.135, 0.135, 0.685, 0.242, 0.685, 0.242, 0.685, 0.685, 0.242, 0.135, 0.135, 0.685, 0.242, 0.242, 0.242, 0.242, 0.242, 0.135, 0.135, 0.135, 0.242, 0.242, 0.135, 0.242, 0.242, 0.685, 0.685, 0.242, 0.135, 0.685, 0.242, 0.242, 0.135, 0.135, 0.685, 0.685, 0.242, 0.685, 0.685, 0.685, 0.135, 0.685, 0.242, 0.135, 0.242, 0.242, 0.242, 0.135, 0.685, 0.685, 0.685, 0.135, 0.685, 0.242, 0.242, 0.135, 0.135, 0.242, 0.242, 0.242, 0.242, 0.135, 0.242, 0.135, 0.685, 0.135, 0.685, 0.135, 0.685, 0.135, 0.242, 0.135, 0.685, 0.685, 0.135, 0.685, 0.685, 0.685, 0.242, 0.242, 0.242, 0.242, 0.685, 0.685, 0.242, 0.685, 0.685, 0.242, 0.242, 0.685, 0.242, 0.135, 0.242, 0.135, 0.685, 0.685, 0.685, 0.242, 0.685, 0.135, 0.685, 0.135, 0.242, 0.685, 0.242, 0.685, 0.685, 0.135, 0.135, 0.135, 0.135, 0.242, 0.242, 0.685, 0.135, 0.685, 0.242, 0.685, 0.242, 0.242, 0.685, 0.135, 0.242, 0.685, 0.135, 0.135, 0.135 ]