3
[ 2.585, 1.166, 2.585, 1.723, 1.166, 1.723, 2.585, 1.166, 1.166, 1.166, 1.723, 2.585, 1.723, 1.723, 2.585, 1.166, 2.585, 1.166, 2.585, 1.166, 2.585, 2.585, 1.723, 2.585, 1.166, 1.166, 2.585, 2.585, 1.166, 1.166, 1.723, 2.585, 2.585, 2.585, 2.585, 1.166, 2.585, 1.166, 1.166, 2.585, 1.166, 1.723, 1.166, 1.166, 1.723, 2.585, 1.166, 1.723, 1.723, 1.723, 1.166, 1.723, 1.723, 1.166, 2.585, 1.166, 2.585, 2.585, 2.585, 2.585, 1.166, 1.166, 2.585, 1.166, 1.166, 1.166, 1.723, 1.723, 1.166, 1.723, 2.585, 1.166, 2.585, 2.585, 1.166, 1.166, 2.585, 1.166, 1.166, 2.585, 1.723, 1.166, 1.723, 1.723, 1.166, 2.585, 1.723, 1.723, 1.166, 1.166, 1.166, 1.723, 2.585, 1.723, 2.585, 1.723, 1.723, 2.585, 2.585, 1.166 ]
3
[ 0.103, 0.885, 0.103, 0.313, 0.313, 0.103, 0.313, 0.103, 0.885, 0.103, 0.885, 0.103, 0.885, 0.103, 0.313, 0.103, 0.313, 0.313, 0.103, 0.885, 0.103, 0.103, 0.885, 0.103, 0.313, 0.885, 0.103, 0.103, 0.885, 0.885, 0.313, 0.103, 0.313, 0.313, 0.313, 0.313, 0.313, 0.885, 0.885, 0.885, 0.885, 0.885, 0.885, 0.885, 0.313, 0.313, 0.885, 0.885, 0.885, 0.313, 0.885, 0.313, 0.103, 0.313, 0.103, 0.313, 0.313, 0.885, 0.885, 0.313, 0.885, 0.313, 0.885, 0.885, 0.885, 0.103, 0.103, 0.103, 0.103, 0.885, 0.313, 0.885, 0.313, 0.885, 0.103, 0.313, 0.103, 0.313, 0.313, 0.885, 0.885, 0.313, 0.103, 0.885, 0.885, 0.313, 0.885, 0.313, 0.103, 0.103, 0.313, 0.885, 0.313, 0.885, 0.103, 0.103, 0.885, 0.313, 0.885, 0.885 ]