3
[ 6.222, 6.222, 1.690, 2.429, 2.429, 6.222, 6.222, 1.690, 6.222, 2.429, 1.690, 2.429, 6.222, 2.429, 2.429, 1.690, 1.690, 6.222, 6.222, 2.429, 6.222, 2.429, 6.222, 1.690, 1.690, 2.429, 2.429, 2.429, 2.429, 6.222, 6.222, 2.429, 1.690, 2.429, 1.690, 2.429, 6.222, 1.690, 1.690, 6.222, 6.222, 6.222, 1.690, 1.690, 6.222, 1.690, 6.222, 1.690, 2.429, 6.222 ]
3
[ 0.162, 0.162, 0.453, 0.453, 0.313, 0.313, 0.313, 0.453, 0.162, 0.162, 0.313, 0.313, 0.162, 0.453, 0.453, 0.453, 0.453, 0.453, 0.453, 0.162, 0.313, 0.162, 0.313, 0.453, 0.313, 0.313, 0.162, 0.453, 0.453, 0.453, 0.162, 0.162, 0.162, 0.162, 0.313, 0.453, 0.313, 0.313, 0.313, 0.453, 0.453, 0.162, 0.453, 0.453, 0.162, 0.453, 0.453, 0.313, 0.313, 0.453 ]