3
[ 3.389, 1.795, 1.795, 1.795, 3.389, 1.741, 1.741, 1.795, 3.389, 3.389, 3.389, 3.389, 1.795, 1.741, 3.389, 1.795, 1.741, 1.795, 3.389, 1.741, 1.795, 1.741, 1.795, 1.741, 1.795, 1.795, 3.389, 1.795, 1.795, 1.795, 1.741, 3.389, 3.389, 3.389, 3.389, 1.741, 3.389, 3.389, 1.795, 1.741, 1.795, 3.389, 1.795, 3.389, 1.795, 1.795, 3.389, 1.795, 3.389, 3.389, 1.795, 1.741, 1.741, 1.795, 1.741, 1.741, 1.741, 1.795, 1.741, 1.795, 1.795, 3.389, 3.389, 1.795, 1.741, 3.389, 1.741, 3.389, 1.795, 1.795, 1.795, 1.795, 1.741, 3.389, 3.389, 3.389, 3.389, 1.741, 3.389, 3.389, 1.795, 1.741, 3.389, 1.795, 1.741, 3.389, 1.741, 1.795, 1.795, 1.795, 3.389, 1.741, 1.741, 1.741, 1.741, 1.741, 1.741, 1.795, 1.741, 1.741 ]
3
[ 0.045, 0.233, 0.233, 0.045, 0.233, 0.045, 0.045, 0.233, 0.059, 0.045, 0.233, 0.059, 0.059, 0.233, 0.233, 0.045, 0.233, 0.045, 0.045, 0.059, 0.045, 0.059, 0.045, 0.233, 0.045, 0.045, 0.059, 0.233, 0.059, 0.233, 0.233, 0.045, 0.059, 0.045, 0.233, 0.059, 0.059, 0.045, 0.233, 0.233, 0.059, 0.045, 0.059, 0.059, 0.045, 0.233, 0.059, 0.045, 0.059, 0.059, 0.059, 0.059, 0.233, 0.233, 0.059, 0.233, 0.233, 0.233, 0.045, 0.045, 0.059, 0.045, 0.233, 0.045, 0.059, 0.059, 0.045, 0.233, 0.059, 0.233, 0.045, 0.059, 0.045, 0.233, 0.045, 0.045, 0.059, 0.233, 0.059, 0.233, 0.233, 0.059, 0.059, 0.059, 0.059, 0.045, 0.233, 0.233, 0.059, 0.059, 0.045, 0.059, 0.233, 0.233, 0.233, 0.059, 0.233, 0.045, 0.045, 0.233 ]