3
[ 9.695, 9.695, 9.695, 9.695, 9.695, 9.695, 9.695, 9.695, 9.695, 9.695, 9.695, 9.695, 9.695, 9.695, 9.695, 9.695, 9.695, 9.695, 9.695, 9.695, 9.695, 9.695, 9.695, 9.695, 9.695, 9.695, 9.695, 9.695, 9.695, 9.695, 9.695, 9.695, 9.695, 9.695, 9.695, 9.695, 9.695, 9.695, 9.695, 9.695, 9.695, 9.695, 9.695, 9.695, 9.695, 9.695, 9.695, 9.695, 9.695, 2.372, 9.695, 9.695, 9.695, 9.695, 9.695, 9.695, 2.372, 9.695, 9.695, 9.695, 9.695, 9.695, 9.695, 9.695, 9.695, 9.695, 9.695, 9.695, 9.695, 2.061, 9.695, 9.695, 9.695, 9.695, 9.695, 9.695, 9.695, 9.695, 9.695, 2.372, 9.695, 9.695, 9.695, 9.695, 9.695, 9.695, 9.695, 9.695, 9.695, 9.695, 9.695, 9.695, 9.695, 9.695, 9.695, 9.695, 9.695, 9.695, 9.695, 9.695 ]
5
[ 0.071, 0.071, 0.366, 0.071, 0.071, 0.071, 0.071, 0.810, 0.453, 0.071, 0.071, 0.071, 0.071, 0.453, 0.071, 0.071, 0.231, 0.453, 0.810, 0.071, 0.453, 0.071, 0.071, 0.071, 0.453, 0.071, 0.071, 0.071, 0.453, 0.071, 0.071, 0.071, 0.071, 0.071, 0.453, 0.071, 0.071, 0.810, 0.453, 0.071, 0.071, 0.231, 0.071, 0.071, 0.453, 0.453, 0.453, 0.453, 0.810, 0.453, 0.453, 0.071, 0.071, 0.071, 0.071, 0.453, 0.071, 0.453, 0.453, 0.071, 0.453, 0.071, 0.071, 0.453, 0.071, 0.453, 0.071, 0.071, 0.071, 0.071, 0.071, 0.071, 0.071, 0.071, 0.071, 0.453, 0.071, 0.071, 0.071, 0.453, 0.071, 0.071, 0.071, 0.453, 0.071, 0.071, 0.453, 0.453, 0.071, 0.071, 0.071, 0.071, 0.071, 0.071, 0.453, 0.071, 0.453, 0.071, 0.810, 0.071 ]