pars_sum	pars_var	pars_disp	obs_disp	sim_disp
-4	-0.0365737203972497	-0.0481654014262709	0.179347826086957	0.227513227513227
-3	0.104596384008149	0.0753968253968253	0.154761904761905	0.0793650793650794
-7	0.0190072076261334	0.0105799373040752	0.170454545454545	0.15987460815047
-6	0.0770460358056266	0.0533126293995859	0.154761904761905	0.101449275362319
0	0.0526745786033712	0.0202546296296296	0.182291666666667	0.162037037037037
-8	0.0249360613810742	0.0139328063241107	0.170454545454545	0.156521739130435
-7	-0.077598232969077	-0.066017316017316	0.154761904761905	0.220779220779221
-11	-0.0640271493212667	-0.0537878787878786	0.170454545454545	0.224242424242424
-11	0.0641923436041083	0.0436507936507936	0.154761904761905	0.111111111111111
-5	0.072599395489421	0.0498667998667998	0.154761904761905	0.104895104895105
-9	0.0245098039215685	0.0158730158730158	0.154761904761905	0.138888888888889
-5	0.111466325660699	0.081183309444179	0.154761904761905	0.0735785953177257
-7	0.0805882352941177	0.0497648902821317	0.170454545454545	0.120689655172414
-3	0.0626050420168068	0.0422619047619048	0.154761904761905	0.1125
-5	0.0366055513114336	0.0205427288760622	0.170454545454545	0.149911816578483
-11	-0.12766410912191	-0.0843685300207039	0.154761904761905	0.239130434782609
-10	0.00117647058823528	0.00153609831029183	0.154761904761905	0.153225806451613
-4	0.149509803921569	0.114761904761905	0.154761904761905	0.04
-4	0.0647440794499618	0.0385864135864136	0.170454545454545	0.131868131868132
-4	0.0677998472116119	0.0461904761904761	0.154761904761905	0.108571428571429
-12	-0.0533887468030691	-0.0231037078863166	0.154761904761905	0.177865612648221
-10	0.035972850678733	0.0204545454545455	0.170454545454545	0.15
-8	0.019075021312873	0.0123331191547083	0.154761904761905	0.142428785607196
-2	0.0521671826625387	0.030103668261563	0.170454545454545	0.140350877192982
-4	-0.148004815961472	-0.103015873015873	0.154761904761905	0.257777777777778
-11	0.00656108597285066	0.00476190476190474	0.154761904761905	0.15
-9	0.0305882352941177	0.0172287390029326	0.170454545454545	0.153225806451613
-2	0.134008148714031	0.0910894660894661	0.170454545454545	0.0793650793650794
-3	0.0972116119174943	0.0618831168831169	0.170454545454545	0.108571428571429
-10	0.00117647058823531	0.00153609831029186	0.154761904761905	0.153225806451613
-12	-0.0194117647058823	-0.0060160427807486	0.170454545454545	0.176470588235294
-6	0.0770460358056266	0.0533126293995859	0.154761904761905	0.101449275362319
-4	0.0647440794499619	0.0385864135864137	0.170454545454545	0.131868131868132
-4	0.067799847211612	0.0461904761904762	0.154761904761905	0.108571428571428
-6	0.0756606990622337	0.0462309429700735	0.170454545454545	0.124223602484472
-19	-0.145005865594101	-0.0721611721611723	0.154761904761905	0.226923076923077
-3	0.0586834733893557	0.0344545454545454	0.170454545454545	0.136
-4	0.102011160195303	0.0655594405594406	0.170454545454545	0.104895104895105
-3	-0.00748194014447884	-0.00287878787878787	0.170454545454545	0.173333333333333
-16	-0.0509887715770068	-0.021953271953272	0.154761904761905	0.176715176715177
-2	0.092016806722689	0.0579545454545454	0.170454545454545	0.1125
-6	0.00719378660555123	0.00485008818342145	0.154761904761905	0.149911816578483
-4	0.0283613445378152	0.0126811594202899	0.179347826086957	0.166666666666667
-18	-0.130252100840336	-0.0760073260073259	0.154761904761905	0.230769230769231
-10	0.0936041083099908	0.0593434343434344	0.170454545454545	0.111111111111111
-16	-0.165655150949269	-0.114145844409002	0.170454545454545	0.284600389863548
-10	0.0359728506787332	0.0204545454545456	0.170454545454545	0.15
-6	-0.212745098039216	-0.154545454545454	0.170454545454545	0.325
-2	0.134008148714031	0.0910894660894661	0.170454545454545	0.0793650793650794
-6	0.0409788421297373	0.0268157768157768	0.154761904761905	0.127946127946128
-9	0.0305882352941177	0.0172287390029326	0.170454545454545	0.153225806451613
-19	-0.269440254734372	-0.152247143100802	0.170454545454545	0.322701688555347
-7	-0.111853832442068	-0.0833333333333335	0.154761904761905	0.238095238095238
-6	0.0756606990622336	0.0462309429700734	0.170454545454545	0.124223602484472
-8	0.019075021312873	0.0123331191547083	0.154761904761905	0.142428785607196
-6	0.0756606990622336	0.0462309429700734	0.170454545454545	0.124223602484472
-3	0.0972116119174943	0.0618831168831169	0.170454545454545	0.108571428571429
-4	0.0301120448179272	0.0166083916083917	0.170454545454545	0.153846153846154
-11	0.0344813138930787	0.0225503663003663	0.154761904761905	0.132211538461538
-7	0.0484867860187554	0.0280257598473491	0.170454545454545	0.142428785607196
-13	-0.279411764705882	-0.186688311688312	0.170454545454545	0.357142857142857
-11	0.0411010558069381	0.0236013986013986	0.170454545454545	0.146853146853147
-4	0.102011160195303	0.0655594405594406	0.170454545454545	0.104895104895105
-6	0.114509803921569	0.0837742504409171	0.154761904761905	0.0709876543209876
-14	-0.286078431372549	-0.181397306397306	0.170454545454545	0.351851851851852
-10	0.0296380090497738	0.0192780337941628	0.154761904761905	0.135483870967742
-6	-0.0481864682631945	-0.0503246753246752	0.170454545454545	0.220779220779221
-9	-0.0914322250639386	-0.0713250517598344	0.154761904761905	0.226086956521739
-6	0.114509803921569	0.0837742504409171	0.154761904761905	0.0709876543209876
1	0.121173030615755	0.0805074555074555	0.170454545454545	0.08994708994709
-12	-0.0134389140271493	-0.00645021645021646	0.154761904761905	0.161212121212121
-4	0.102011160195303	0.0655594405594406	0.170454545454545	0.104895104895105
-4	0.0677998472116119	0.0461904761904762	0.154761904761905	0.108571428571429
-10	-0.0503619909502263	-0.0478187403993856	0.154761904761905	0.20258064516129
-16	-0.277873303167421	-0.170598086124402	0.170454545454545	0.341052631578947
-8	0.0511764705882352	0.0340722495894909	0.154761904761905	0.120689655172414
-9	0.0590497737556562	0.0349706744868036	0.170454545454545	0.135483870967742
-14	-0.0253477459359812	-0.0122710622710623	0.154761904761905	0.167032967032967
-12	-0.0194117647058823	-0.00601604278074863	0.170454545454545	0.176470588235294
-12	0.0680237612286293	0.0465367965367965	0.154761904761905	0.108225108225108
-3	0.0227554179566563	0.0144110275689222	0.154761904761905	0.140350877192983
-8	-0.0620204603580562	-0.0556324110671936	0.170454545454545	0.226086956521739
2	0.167956656346749	0.120454545454545	0.170454545454545	0.05
-2	0.134008148714031	0.0910894660894661	0.170454545454545	0.0793650793650794
-9	-0.00447570332480823	-0.00175983436853008	0.154761904761905	0.156521739130435
0	0.191176470588235	0.154761904761905	0.154761904761905	0
-6	0.0409788421297372	0.0268157768157768	0.154761904761905	0.127946127946128
2	0.13562091503268	0.102130325814536	0.154761904761905	0.0526315789473684
-9	-0.0972738897930713	-0.0649703557312253	0.179347826086957	0.244318181818182
-1	0.0508255933952528	0.0335497835497835	0.154761904761905	0.121212121212121
-3	0.0626050420168067	0.0422619047619047	0.154761904761905	0.1125
-2	0.14572192513369	0.111283643892339	0.154761904761905	0.0434782608695653
-4	0.0677998472116119	0.0461904761904762	0.154761904761905	0.108571428571429
-1	0.0964396284829721	0.0686375028480291	0.154761904761905	0.0861244019138756
-4	0.0677998472116119	0.0461904761904762	0.154761904761905	0.108571428571429
-3	0.137584282724948	0.0940909090909091	0.170454545454545	0.0763636363636363
-4	0.0111020692862125	-0.0148601398601399	0.170454545454545	0.185314685314685
-7	0.0462489343563513	0.0305383022774327	0.154761904761905	0.124223602484472
-5	0.111466325660699	0.081183309444179	0.154761904761905	0.0735785953177257
0	0.125851393188855	0.0843301435406699	0.170454545454545	0.0861244019138756
-7	0.0133108579400139	0.00865800865800859	0.154761904761905	0.146103896103896
-10	-0.013029998324116	-0.0266608391608392	0.170454545454545	0.197115384615385
-2	0.0521671826625387	0.030103668261563	0.170454545454545	0.140350877192983
-1	0.130112044817927	0.0878458498023716	0.170454545454545	0.0826086956521739
-5	0.000700280112044815	0.000915750915750912	0.154761904761905	0.153846153846154
-2	0.100700280112045	0.0721532091097308	0.154761904761905	0.0826086956521739
-14	-0.0255656108597286	-0.00732323232323237	0.170454545454545	0.177777777777778
-14	-0.142156862745098	-0.0833333333333335	0.154761904761905	0.238095238095238
-2	0.14572192513369	0.111283643892339	0.154761904761905	0.0434782608695652
-9	0.0305882352941177	0.0172287390029326	0.170454545454545	0.153225806451613
-4	-0.0274382480264834	-0.0376190476190477	0.154761904761905	0.192380952380952
-5	0.000700280112044815	0.000915750915750912	0.154761904761905	0.153846153846154
-10	0.0380316742081449	0.0181357048748353	0.179347826086957	0.161212121212121
-12	-0.0354901960784314	-0.016955266955267	0.154761904761905	0.171717171717172
-13	-0.0947963800904975	-0.0638311688311687	0.170454545454545	0.234285714285714
-5	0.0725993954894211	0.0498667998667998	0.154761904761905	0.104895104895105
-6	-0.0127450980392157	-0.00454545454545455	0.170454545454545	0.175
-5	0.0353323147440795	0.0228937728937729	0.154761904761905	0.131868131868132
-10	-0.082156862745098	-0.065668202764977	0.154761904761905	0.220430107526882
-11	-0.0188235294117647	-0.00930059523809523	0.154761904761905	0.1640625
-9	0.0557918552036198	0.0374285714285714	0.154761904761905	0.117333333333333
-9	-0.0301674029295514	-0.0149350649350651	0.154761904761905	0.16969696969697
-13	-0.0147963800904977	-0.00440259740259735	0.170454545454545	0.174857142857143
-7	-0.0166157372039726	-0.00850340136054428	0.154761904761905	0.163265306122449
-3	0.137584282724948	0.0940909090909091	0.170454545454545	0.0763636363636364
-11	-0.0407075873827792	-0.0191511387163561	0.154761904761905	0.173913043478261
-10	-0.082156862745098	-0.065668202764977	0.154761904761905	0.220430107526882
0	0.141176470588235	0.107142857142857	0.154761904761905	0.0476190476190476
-20	-0.345769342219647	-0.225029036004646	0.154761904761905	0.379790940766551
2	0.130495356037152	0.0632951945080092	0.18	0.116704805491991
-9	0.0245098039215685	0.0158730158730158	0.154761904761905	0.138888888888889
-8	-0.112745098039216	-0.107323232323232	0.170454545454545	0.277777777777778
-7	-0.0166157372039726	-0.00850340136054428	0.154761904761905	0.163265306122449
-3	0.0227554179566563	0.0144110275689222	0.154761904761905	0.140350877192982
-4	0.0292717086834733	0.0187619047619047	0.154761904761905	0.136
-7	-0.0166157372039725	-0.00850340136054425	0.154761904761905	0.163265306122449
0	0.141176470588235	0.107142857142857	0.154761904761905	0.0476190476190477
-8	0.053921568627451	0.0315656565656565	0.170454545454545	0.138888888888889
1	0.170588235294118	0.122835497835498	0.170454545454545	0.0476190476190476
-9	0.0557918552036199	0.0374285714285714	0.154761904761905	0.117333333333333
-10	-0.0459776796093932	-0.0211911744169809	0.154761904761905	0.175953079178886
0	0.125851393188855	0.0843301435406699	0.170454545454545	0.0861244019138756
-17	-0.100840336134454	-0.0603146853146853	0.170454545454545	0.230769230769231
-8	0.053921568627451	0.0315656565656565	0.170454545454545	0.138888888888889
-4	0.0677998472116118	0.0461904761904761	0.154761904761905	0.108571428571429
-10	-0.0168007373889729	-0.0263795344440508	0.154761904761905	0.181141439205955
-9	-0.0914322250639386	-0.0713250517598344	0.154761904761905	0.226086956521739
-10	-0.0112958226768968	-0.0034584980237154	0.170454545454545	0.173913043478261
-11	-0.0239769820971867	-0.00741106719367587	0.170454545454545	0.177865612648221
-9	-0.00447570332480823	-0.00175983436853008	0.154761904761905	0.156521739130435
-12	-0.000950226244343766	0.00104278074866321	0.170454545454545	0.169411764705882
-6	-0.123109243697479	-0.0896825396825398	0.154761904761905	0.244444444444444
-3	0.0972116119174943	0.0618831168831169	0.170454545454545	0.108571428571429
0	0.141176470588235	0.107142857142857	0.154761904761905	0.0476190476190476
-3	0.137584282724948	0.0940909090909091	0.170454545454545	0.0763636363636363
-6	0.0770460358056266	0.0533126293995859	0.154761904761905	0.101449275362319
-12	-0.0354901960784315	-0.016955266955267	0.154761904761905	0.171717171717172
-5	0.13264705882353	0.0811335403726709	0.179347826086957	0.0982142857142857
-11	0.0411010558069381	0.0236013986013986	0.170454545454545	0.146853146853147
-3	0.0626050420168066	0.0422619047619047	0.154761904761905	0.1125
-2	0.0521671826625387	0.030103668261563	0.170454545454545	0.140350877192982
-4	0.0292717086834733	0.0187619047619047	0.154761904761905	0.136
-2	0.14572192513369	0.111283643892339	0.154761904761905	0.0434782608695652
-8	0.0511764705882353	0.0340722495894909	0.154761904761905	0.120689655172414
-8	0.019075021312873	0.0123331191547083	0.154761904761905	0.142428785607196
-8	0.0249360613810742	0.0139328063241107	0.170454545454545	0.156521739130435
-10	0.035972850678733	0.0204545454545455	0.170454545454545	0.15
-11	0.0411010558069381	0.0236013986013986	0.170454545454545	0.146853146853147
-10	0.091970121381886	0.0651561699948796	0.154761904761905	0.0896057347670251
-2	0.0668767507002802	0.0284455128205129	0.182291666666667	0.153846153846154
-5	0.0703906068356197	0.0425084175084176	0.170454545454545	0.127946127946128
-10	0.0936041083099908	0.0593434343434344	0.170454545454545	0.111111111111111
-9	-0.0301674029295514	-0.014935064935065	0.154761904761905	0.16969696969697
-6	0.0770460358056266	0.0533126293995859	0.154761904761905	0.101449275362319
-1	0.143557422969188	0.109307359307359	0.154761904761905	0.0454545454545455
-4	0.102011160195303	0.0655594405594406	0.170454545454545	0.104895104895105
-7	-0.0719018832829574	-0.0615203761755485	0.170454545454545	0.231974921630094
-7	0.0484867860187554	0.0280257598473491	0.170454545454545	0.142428785607196
-5	0.0353323147440794	0.0228937728937729	0.154761904761905	0.131868131868132
-10	-0.111359761295823	-0.0794596941160757	0.154761904761905	0.23422159887798
-9	0.0557918552036197	0.0374285714285713	0.154761904761905	0.117333333333333
-10	0.0359728506787331	0.0204545454545455	0.170454545454545	0.15
-5	0.0703906068356197	0.0425084175084176	0.170454545454545	0.127946127946128
-1	0.0508255933952529	0.0335497835497836	0.154761904761905	0.121212121212121
-9	0.0126110273169097	-0.0106868937514099	0.170454545454545	0.181141439205955
-4	0.0677998472116119	0.0461904761904761	0.154761904761905	0.108571428571429
-11	-0.102156862745098	-0.0744047619047618	0.154761904761905	0.229166666666667
-2	0.0157378740970072	0.00983436853002068	0.154761904761905	0.144927536231884
-16	-0.0688235294117649	-0.0209137709137711	0.154761904761905	0.175675675675676
-2	0.14572192513369	0.111283643892339	0.154761904761905	0.0434782608695653
-8	0.053921568627451	0.0315656565656565	0.170454545454545	0.138888888888889
-1	0.143557422969188	0.109307359307359	0.154761904761905	0.0454545454545455
-9	-0.0512477718360071	-0.023015873015873	0.154761904761905	0.177777777777778
-12	-0.000950226244343766	0.00104278074866321	0.170454545454545	0.169411764705882
-14	-0.0588235294117649	-0.023809523809524	0.154761904761905	0.178571428571429
-9	0.0590497737556562	0.0349706744868036	0.170454545454545	0.135483870967742
-5	0.000700280112044815	0.000915750915750912	0.154761904761905	0.153846153846154
-2	0.14572192513369	0.11128364389234	0.154761904761905	0.0434782608695652
-8	0.019075021312873	0.0123331191547083	0.154761904761905	0.142428785607196
-8	-0.010404557079749	-0.00511270338856554	0.154761904761905	0.15987460815047
-2	0.100700280112045	0.0721532091097308	0.154761904761905	0.0826086956521739
-6	0.0127960275019099	0.00718923933209653	0.170454545454545	0.163265306122449
-5	0.111466325660699	0.081183309444179	0.154761904761905	0.0735785953177257
-10	-0.0821568627450981	-0.065668202764977	0.154761904761905	0.220430107526882
-2	-0.0212418300653596	-0.0114785044452565	0.154761904761905	0.166240409207161
-2	0.0920168067226891	0.0579545454545455	0.170454545454545	0.1125
-6	0.0756606990622337	0.0462309429700735	0.170454545454545	0.124223602484472
-6	0.0427226226458962	0.0243506493506493	0.170454545454545	0.146103896103896
-6	0.0409788421297373	0.0268157768157768	0.154761904761905	0.127946127946128
-7	0.0462489343563512	0.0305383022774327	0.154761904761905	0.124223602484472
-12	-0.000950226244343821	0.00104278074866315	0.170454545454545	0.169411764705882
-1	0.0508255933952528	0.0335497835497835	0.154761904761905	0.121212121212121
-5	0.0725993954894211	0.0498667998667998	0.154761904761905	0.104895104895105
-11	-0.0188235294117647	-0.00930059523809523	0.154761904761905	0.1640625
-8	-0.131334351922587	-0.0899014778325124	0.154761904761905	0.244663382594417
-10	0.0296380090497738	0.0192780337941628	0.154761904761905	0.135483870967742
-11	0.00656108597285074	0.0047619047619048	0.154761904761905	0.15
-18	-0.0950304259634888	-0.0653972464317292	0.154761904761905	0.220159151193634
-6	0.114509803921569	0.0837742504409171	0.154761904761905	0.0709876543209876
-11	-0.0640271493212667	-0.0537878787878786	0.170454545454545	0.224242424242424
-6	0.0127960275019099	0.00718923933209648	0.170454545454545	0.163265306122449
-1	0.220588235294118	0.170454545454545	0.170454545454545	0
-6	0.114509803921569	0.0837742504409171	0.154761904761905	0.0709876543209876
-3	0.0626050420168068	0.0422619047619048	0.154761904761905	0.1125
-5	0.106457800511509	0.0690052700922266	0.170454545454545	0.101449275362319
-16	-0.087148652564474	-0.0633848133848134	0.154761904761905	0.218146718146718
-7	-0.00668449197860962	-0.00195924764890282	0.170454545454545	0.172413793103448
-10	0.0601223395341042	0.0406179841663712	0.154761904761905	0.114143920595534
-6	-0.023109243697479	-0.0119047619047619	0.154761904761905	0.166666666666667
-13	-0.0479302832244009	-0.0443602693602694	0.170454545454545	0.214814814814815
-8	-0.036096256684492	-0.0176518883415436	0.154761904761905	0.172413793103448
-2	0.14572192513369	0.11128364389234	0.154761904761905	0.0434782608695652
-8	0.019075021312873	0.0123331191547083	0.154761904761905	0.142428785607196
-3	0.0227554179566563	0.0144110275689222	0.154761904761905	0.140350877192982
-4	0.0647440794499619	0.0385864135864137	0.170454545454545	0.131868131868132
4	0.161764705882353	0.11489898989899	0.170454545454545	0.0555555555555556
-6	0.0756606990622336	0.0462309429700734	0.170454545454545	0.124223602484472
-2	0.134008148714031	0.0910894660894661	0.170454545454545	0.0793650793650794
-11	-0.12766410912191	-0.0843685300207039	0.154761904761905	0.239130434782609
-10	-0.111359761295823	-0.0794596941160758	0.154761904761905	0.234221598877981
-3	0.0626050420168067	0.0422619047619047	0.154761904761905	0.1125
0	0.0917612659098726	0.0648148148148147	0.154761904761905	0.08994708994709
-1	0.175133689839572	0.12697628458498	0.170454545454545	0.0434782608695652
-11	-0.00607843137254901	-0.00126262626262624	0.170454545454545	0.171717171717172
-8	-0.10131364798884	-0.0772130168681892	0.154761904761905	0.231974921630094
-4	0.0292717086834733	0.0187619047619046	0.154761904761905	0.136
-15	-0.0945378151260504	-0.0674603174603175	0.154761904761905	0.222222222222222
-10	-0.0727450980392158	-0.0587121212121213	0.170454545454545	0.229166666666667
-11	-0.0894117647058824	-0.0643939393939394	0.170454545454545	0.234848484848485
-4	0.108172518019065	0.0783982683982684	0.154761904761905	0.0763636363636363
-13	-0.112745098039216	-0.0676406926406928	0.170454545454545	0.238095238095238
-3	0.052170868347339	0.0255016722408027	0.179347826086957	0.153846153846154
0	0.0917612659098727	0.0648148148148148	0.154761904761905	0.08994708994709
-3	0.0586834733893557	0.0344545454545454	0.170454545454545	0.136
-6	0.0409788421297373	0.0268157768157768	0.154761904761905	0.127946127946128
-4	0.067799847211612	0.0461904761904763	0.154761904761905	0.108571428571428
-7	-0.111853832442068	-0.0833333333333335	0.154761904761905	0.238095238095238
-4	-0.0707282913165265	-0.0652380952380952	0.154761904761905	0.22
-3	0.0626050420168067	0.0422619047619047	0.154761904761905	0.1125
-5	0.072599395489421	0.0498667998667998	0.154761904761905	0.104895104895105
-20	-0.145005865594101	-0.0666264629679265	0.154761904761905	0.221388367729831
-3	0.0626050420168067	0.0422619047619047	0.154761904761905	0.1125
-8	-0.0620204603580562	-0.0556324110671936	0.170454545454545	0.226086956521739
-13	-0.132156862745098	-0.0829831932773109	0.154761904761905	0.237745098039216
-8	-0.0678815004262574	-0.0596308988362961	0.154761904761905	0.214392803598201
-5	0.0353323147440794	0.0228937728937728	0.154761904761905	0.131868131868132
-9	-0.0527450980392157	-0.0499755620723363	0.170454545454545	0.220430107526882
-2	0.14572192513369	0.111283643892339	0.154761904761905	0.0434782608695653
-4	0.0677998472116119	0.0461904761904762	0.154761904761905	0.108571428571429
-10	0.0296380090497738	0.0192780337941628	0.154761904761905	0.135483870967742
-8	0.0190750213128729	0.0123331191547083	0.154761904761905	0.142428785607196
-4	0.0677998472116119	0.0461904761904762	0.154761904761905	0.108571428571429
-12	-0.0809502262443439	-0.0601336898395722	0.170454545454545	0.230588235294118
-4	0.102011160195303	0.0655594405594406	0.170454545454545	0.104895104895105
2	0.13562091503268	0.102130325814536	0.154761904761905	0.0526315789473684
-3	0.104596384008149	0.0753968253968254	0.154761904761905	0.0793650793650794
-3	0.162936913895993	0.105769230769231	0.179347826086957	0.0735785953177257
-4	-0.0304940157881333	-0.0419996669996669	0.170454545454545	0.212454212454212
-7	0.117330316742081	0.0861904761904761	0.154761904761905	0.0685714285714286
-8	0.0249360613810742	0.0139328063241107	0.170454545454545	0.156521739130435
-6	-0.112745098039215	-0.0795454545454544	0.170454545454545	0.25
-3	0.0626050420168067	0.0422619047619047	0.154761904761905	0.1125
-7	-0.0775982329690768	-0.0660173160173159	0.154761904761905	0.220779220779221
-11	-0.0640271493212668	-0.0537878787878786	0.170454545454545	0.224242424242424
-10	-0.0440271493212667	-0.0445454545454543	0.170454545454545	0.215
-4	0.149509803921569	0.114761904761905	0.154761904761905	0.04
-7	0.0133108579400138	0.00865800865800856	0.154761904761905	0.146103896103896
-9	0.00500852514919006	0.00355412469718216	0.170454545454545	0.166900420757363
-18	-0.0378733031674207	0.00245454545454551	0.170454545454545	0.168
-7	0.114434389140272	0.0752821316614421	0.170454545454545	0.0951724137931034
-4	0.0677998472116119	0.0461904761904762	0.154761904761905	0.108571428571429
-6	0.0409788421297373	0.0268157768157768	0.154761904761905	0.127946127946128
-4	0.0301120448179272	0.0166083916083917	0.170454545454545	0.153846153846154
-1	0.0863777089783282	0.0537497399625546	0.170454545454545	0.116704805491991
-7	0.0133108579400139	0.00865800865800864	0.154761904761905	0.146103896103896
-5	0.000700280112044815	0.000915750915750912	0.154761904761905	0.153846153846154
-4	-0.0061919504643963	-0.00313283208020051	0.154761904761905	0.157894736842105
-7	0.0133108579400138	0.00865800865800853	0.154761904761905	0.146103896103896
-4	0.0677998472116119	0.0461904761904762	0.154761904761905	0.108571428571429
-12	0.0211580358639182	0.0120835047305635	0.170454545454545	0.158371040723982
-7	-0.042156862745098	-0.0202380952380952	0.154761904761905	0.175
-13	-0.112745098039216	-0.0676406926406928	0.170454545454545	0.238095238095238
-9	-0.0301674029295514	-0.0149350649350651	0.154761904761905	0.16969696969697
-5	0.0725993954894211	0.0498667998667998	0.154761904761905	0.104895104895105
-10	0.0296380090497738	0.0192780337941628	0.154761904761905	0.135483870967742
-2	0.200980392156863	0.139347826086957	0.179347826086957	0.04
-8	0.0852036199095022	0.053121212121212	0.170454545454545	0.117333333333333
-10	-0.0727450980392158	-0.0587121212121213	0.170454545454545	0.229166666666667
-2	-0.00798319327731076	-0.0295454545454544	0.170454545454545	0.2
-8	0.019075021312873	0.0123331191547083	0.154761904761905	0.142428785607196
-4	0.108172518019065	0.0783982683982684	0.154761904761905	0.0763636363636364
-10	0.00117647058823531	0.00153609831029186	0.154761904761905	0.153225806451613
-7	-0.101922587216705	-0.0742088371398716	0.170454545454545	0.244663382594417
-4	0.0292717086834734	0.0187619047619048	0.154761904761905	0.136
0	0.125851393188855	0.0843301435406699	0.170454545454545	0.0861244019138756
-11	-0.12766410912191	-0.084368530020704	0.154761904761905	0.239130434782609
-8	0.019075021312873	0.0123331191547083	0.154761904761905	0.142428785607196
-14	-0.0101809954751131	-0.00262237762237758	0.170454545454545	0.173076923076923
-9	0.0245098039215685	0.0158730158730158	0.154761904761905	0.138888888888889
-7	0.0462489343563512	0.0305383022774327	0.154761904761905	0.124223602484472
-8	0.0249360613810742	0.0139328063241107	0.170454545454545	0.156521739130435
-5	0.0703906068356197	0.0425084175084176	0.170454545454545	0.127946127946128
-21	-0.0912397216951296	-0.0543516560958421	0.170454545454545	0.224806201550388
-14	-0.0253477459359812	-0.0122710622710623	0.154761904761905	0.167032967032967
-2	0.134008148714031	0.0910894660894661	0.170454545454545	0.0793650793650794
-6	0.0409788421297373	0.0268157768157768	0.154761904761905	0.127946127946128
-2	0.0521671826625387	0.030103668261563	0.170454545454545	0.140350877192983
-8	0.0511764705882354	0.034072249589491	0.154761904761905	0.120689655172414
-6	0.0756606990622336	0.0462309429700734	0.170454545454545	0.124223602484472
-2	0.134008148714031	0.0910894660894661	0.170454545454545	0.0793650793650794
-3	0.104596384008149	0.0753968253968253	0.154761904761905	0.0793650793650794
-11	-0.0188235294117647	-0.00930059523809526	0.154761904761905	0.1640625
0	0.17296918767507	0.125	0.170454545454545	0.0454545454545455
-6	0.114509803921569	0.0837742504409171	0.154761904761905	0.0709876543209876
-4	0.0677998472116118	0.0461904761904761	0.154761904761905	0.108571428571429
-11	-0.0407075873827792	-0.0191511387163562	0.154761904761905	0.173913043478261
-4	-0.105727554179567	-0.0805576002944424	0.170454545454545	0.251012145748988
-16	-0.0509887715770068	-0.021953271953272	0.154761904761905	0.176715176715177
2	0.167956656346749	0.120454545454545	0.170454545454545	0.05
-9	0.0557918552036198	0.0374285714285713	0.154761904761905	0.117333333333333
-10	0.00117647058823528	0.00153609831029183	0.154761904761905	0.153225806451613
-6	0.0756606990622337	0.0462309429700735	0.170454545454545	0.124223602484472
-3	0.0586834733893556	0.0344545454545454	0.170454545454545	0.136
-12	-0.000950226244343877	0.00104278074866312	0.170454545454545	0.169411764705882
-5	0.0725993954894211	0.0498667998667999	0.154761904761905	0.104895104895105
-11	-0.0806862745098039	-0.0583972719522592	0.179347826086957	0.237745098039216
-8	0.0852036199095023	0.0531212121212121	0.170454545454545	0.117333333333333
-4	0.108172518019065	0.0783982683982684	0.154761904761905	0.0763636363636363
-2	0.14572192513369	0.11128364389234	0.154761904761905	0.0434782608695652
-8	0.019075021312873	0.0123331191547083	0.154761904761905	0.142428785607196
-12	-0.0134389140271493	-0.00645021645021648	0.154761904761905	0.161212121212121
-9	0.0245098039215685	0.0158730158730158	0.154761904761905	0.138888888888889
-8	0.019075021312873	0.0123331191547083	0.154761904761905	0.142428785607196
-7	0.0133108579400139	0.00865800865800861	0.154761904761905	0.146103896103896
-8	0.0249360613810742	0.0139328063241107	0.170454545454545	0.156521739130435
-4	0.0647440794499619	0.0385864135864136	0.170454545454545	0.131868131868132
0	0.125851393188855	0.0843301435406699	0.170454545454545	0.0861244019138756
-9	0.0245098039215685	0.0158730158730158	0.154761904761905	0.138888888888889
-9	0.0305882352941177	0.0172287390029326	0.170454545454545	0.153225806451613
-5	0.0366055513114337	0.0205427288760622	0.170454545454545	0.149911816578483
-3	-0.0820433436532507	-0.0716507177033493	0.170454545454545	0.242105263157895
-2	0.100700280112045	0.0721532091097308	0.154761904761905	0.0826086956521739
-12	-0.11999147485081	-0.0699546617065799	0.170454545454545	0.240409207161125
-9	0.0590497737556562	0.0349706744868036	0.170454545454545	0.135483870967742
-1	0.130112044817927	0.0878458498023716	0.170454545454545	0.0826086956521739
-6	0.0409788421297373	0.0268157768157768	0.154761904761905	0.127946127946128
-3	0.0586834733893558	0.0344545454545455	0.170454545454545	0.136
-5	0.111466325660699	0.081183309444179	0.154761904761905	0.0735785953177257
-1	0.0508255933952528	0.0335497835497835	0.154761904761905	0.121212121212121
-11	-0.0188235294117647	-0.00930059523809523	0.154761904761905	0.1640625
-6	0.0427226226458963	0.0243506493506493	0.170454545454545	0.146103896103896
-2	0.14572192513369	0.111283643892339	0.154761904761905	0.0434782608695652
-10	0.0296380090497738	0.0192780337941628	0.154761904761905	0.135483870967742
-4	0.108172518019065	0.0783982683982683	0.154761904761905	0.0763636363636364
-5	0.0366055513114336	0.0205427288760622	0.170454545454545	0.149911816578483
-13	-0.0835067873303167	-0.056207729468599	0.179347826086957	0.235555555555556
-10	0.0359728506787331	0.0204545454545455	0.170454545454545	0.15
-1	0.0964396284829721	0.0686375028480291	0.154761904761905	0.0861244019138756
-2	0.014576883384933	0.00601449275362326	0.179347826086957	0.173333333333333
-10	-0.0112958226768967	-0.00345849802371534	0.170454545454545	0.173913043478261
-12	0.0116892911010557	0.00790875790875781	0.154761904761905	0.146853146853147
-1	0.130112044817927	0.0878458498023716	0.170454545454545	0.0826086956521739
-4	0.149509803921569	0.114761904761905	0.154761904761905	0.04
-11	-0.0188235294117647	-0.00930059523809526	0.154761904761905	0.1640625
-10	0.035972850678733	0.0204545454545455	0.170454545454545	0.15
-4	0.0301120448179272	0.0166083916083917	0.170454545454545	0.153846153846154
2	0.167956656346749	0.120454545454545	0.170454545454545	0.05
-11	-0.102156862745098	-0.074404761904762	0.154761904761905	0.229166666666667
-4	0.108172518019065	0.0783982683982683	0.154761904761905	0.0763636363636364
-4	0.108172518019065	0.0783982683982684	0.154761904761905	0.0763636363636364
-5	0.151176470588235	0.116300366300366	0.154761904761905	0.0384615384615385
-3	0.0626050420168066	0.0422619047619047	0.154761904761905	0.1125
-3	0.0626050420168067	0.0422619047619047	0.154761904761905	0.1125
-9	0.0557918552036199	0.0374285714285714	0.154761904761905	0.117333333333333
-7	0.0133108579400139	0.00865800865800859	0.154761904761905	0.146103896103896
-18	-0.10745409274821	-0.0591750841750842	0.170454545454545	0.22962962962963
-4	0.0647440794499619	0.0385864135864136	0.170454545454545	0.131868131868132
-6	0.00719378660555117	0.00485008818342139	0.154761904761905	0.149911816578483
-12	0.045985060690943	0.0266636957813428	0.170454545454545	0.143790849673203
-4	0.0292717086834733	0.0187619047619047	0.154761904761905	0.136
-11	-0.0239769820971867	-0.00741106719367587	0.170454545454545	0.177865612648221
-15	-0.116515837104072	-0.076007326007326	0.154761904761905	0.230769230769231
-9	0.0245098039215685	0.0158730158730158	0.154761904761905	0.138888888888889
-3	0.0586834733893557	0.0344545454545454	0.170454545454545	0.136
-9	0.0245098039215685	0.0158730158730158	0.154761904761905	0.138888888888889
-3	0.104596384008149	0.0753968253968254	0.154761904761905	0.0793650793650794
-2	0.0920168067226892	0.0579545454545455	0.170454545454545	0.1125
-8	-0.0294117647058824	-0.0378787878787879	0.170454545454545	0.208333333333333
-8	-0.0218360071301248	-0.00732323232323234	0.170454545454545	0.177777777777778
-7	0.0811764705882351	0.0565476190476189	0.154761904761905	0.0982142857142858
-6	0.0409788421297372	0.0268157768157768	0.154761904761905	0.127946127946128
-11	-0.0188235294117647	-0.00930059523809529	0.154761904761905	0.1640625
2	0.116013071895425	0.0763368983957219	0.170454545454545	0.0941176470588236
-2	0.119270435446906	0.070776397515528	0.179347826086957	0.108571428571429
-11	0.00656108597285063	0.00476190476190472	0.154761904761905	0.15
-2	0.0569659442724458	0.0380570992699139	0.154761904761905	0.116704805491991
-10	0.0105882352941177	0.00639204545454553	0.170454545454545	0.1640625
-6	0.0409788421297372	0.0268157768157768	0.154761904761905	0.127946127946128
-12	-0.0134389140271492	-0.00645021645021635	0.154761904761905	0.161212121212121
-2	0.0920168067226892	0.0579545454545456	0.170454545454545	0.1125
-11	-0.0894117647058823	-0.0643939393939394	0.170454545454545	0.234848484848485
-14	-0.00326797385620919	-0.000793650793650846	0.154761904761905	0.155555555555556
-8	-0.0620204603580562	-0.0556324110671936	0.170454545454545	0.226086956521739
-1	0.130112044817927	0.0878458498023716	0.170454545454545	0.0826086956521739
-6	0.0770460358056266	0.0533126293995859	0.154761904761905	0.101449275362319
-6	0.0409788421297372	0.0268157768157768	0.154761904761905	0.127946127946128
-5	0.0353323147440795	0.0228937728937729	0.154761904761905	0.131868131868132
0	0.125851393188855	0.0843301435406699	0.170454545454545	0.0861244019138756
-4	0.0647440794499618	0.0385864135864136	0.170454545454545	0.131868131868132
-8	0.0511764705882353	0.034072249589491	0.154761904761905	0.120689655172414
-13	-0.132156862745098	-0.082983193277311	0.154761904761905	0.237745098039216
-6	0.146742081447964	0.101883116883117	0.170454545454545	0.0685714285714286
-3	0.104596384008149	0.0753968253968253	0.154761904761905	0.0793650793650794
-6	0.110588235294118	0.0722402597402598	0.170454545454545	0.0982142857142857
-1	0.0964396284829721	0.0686375028480291	0.154761904761905	0.0861244019138756
-5	-0.0599057804940157	-0.0576923076923076	0.154761904761905	0.212454212454212
0	0.125851393188855	0.0843301435406699	0.170454545454545	0.0861244019138756
-12	-0.000950226244343794	0.00104278074866318	0.170454545454545	0.169411764705882
-3	0.14769820971867	0.113095238095238	0.154761904761905	0.0416666666666667
-4	0.0677998472116118	0.0461904761904761	0.154761904761905	0.108571428571429
3	0.165032679738562	0.117822966507177	0.170454545454545	0.0526315789473684
-5	-0.0603832442067737	-0.0587474120082817	0.179347826086957	0.238095238095238
-3	0.104596384008149	0.0753968253968254	0.154761904761905	0.0793650793650794
-6	-0.0824420677361855	-0.0676406926406928	0.170454545454545	0.238095238095238
-6	0.0427226226458962	0.0243506493506493	0.170454545454545	0.146103896103896
-12	-0.0809502262443437	-0.060133689839572	0.170454545454545	0.230588235294118
-8	0.0511764705882353	0.0340722495894909	0.154761904761905	0.120689655172414
-1	0.0451496388028896	0.0255270092226614	0.170454545454545	0.144927536231884
-16	-0.109088079676315	-0.0724653224653224	0.154761904761905	0.227227227227227
-2	0.100700280112045	0.0721532091097309	0.154761904761905	0.0826086956521738
0	0.191176470588235	0.154761904761905	0.154761904761905	0
-6	0.0409788421297373	0.0268157768157768	0.154761904761905	0.127946127946128
-3	0.0227554179566563	0.0144110275689222	0.154761904761905	0.140350877192982
-1	0.191176470588235	0.154761904761905	0.154761904761905	0
-9	0.00500852514919012	0.00355412469718222	0.170454545454545	0.166900420757363
-7	-0.0775982329690768	-0.0660173160173159	0.154761904761905	0.220779220779221
-6	0.0409788421297372	0.0268157768157768	0.154761904761905	0.127946127946128
-1	0.0863777089783282	0.0537497399625546	0.170454545454545	0.116704805491991
-7	0.0462489343563512	0.0305383022774327	0.154761904761905	0.124223602484472
-11	-0.00607843137254896	-0.00126262626262622	0.170454545454545	0.171717171717172
0	0.0441176470588235	0.0287114845938375	0.154761904761905	0.126050420168067
-2	0.134008148714031	0.0910894660894661	0.170454545454545	0.0793650793650794
-16	-0.0350140056022409	-0.0164092664092664	0.154761904761905	0.171171171171171
-9	0.00500852514919004	0.00355412469718214	0.170454545454545	0.166900420757363
-6	0.146742081447964	0.101883116883117	0.170454545454545	0.0685714285714286
-7	0.0133108579400138	0.00865800865800853	0.154761904761905	0.146103896103896
-19	-0.145005865594101	-0.0721611721611723	0.154761904761905	0.226923076923077
-7	0.0190072076261335	0.0105799373040752	0.170454545454545	0.15987460815047
-3	0.220588235294118	0.170454545454545	0.170454545454545	0
-8	0.053921568627451	0.0315656565656565	0.170454545454545	0.138888888888889
-8	-0.10131364798884	-0.0772130168681893	0.154761904761905	0.231974921630094
-14	-0.0101809954751131	-0.00262237762237766	0.170454545454545	0.173076923076923
1	0.170588235294118	0.122835497835498	0.170454545454545	0.0476190476190477
-5	0.0348548510313217	0.0160825199645076	0.179347826086957	0.163265306122449
-2	0.0521671826625387	0.030103668261563	0.170454545454545	0.140350877192982
-3	0.0972116119174943	0.0618831168831169	0.170454545454545	0.108571428571429
-8	-0.000755638223668975	0.000757575757575707	0.170454545454545	0.16969696969697
-4	0.140878090366581	0.0968759501368197	0.170454545454545	0.0735785953177257
-9	0.0305882352941176	0.0172287390029325	0.170454545454545	0.153225806451613
-4	-0.0061919504643963	-0.00313283208020051	0.154761904761905	0.157894736842105
-3	0.0227554179566563	0.0144110275689222	0.154761904761905	0.140350877192982
-5	0.106457800511509	0.0690052700922266	0.170454545454545	0.101449275362319
-10	-0.0244032395566924	-0.0121385159954586	0.154761904761905	0.166900420757363
-10	-0.00191815856777489	0.0014822134387352	0.179347826086957	0.177865612648221
-5	0.111466325660699	0.081183309444179	0.154761904761905	0.0735785953177257
-6	0.0071937866055512	0.00485008818342142	0.154761904761905	0.149911816578483
-3	0.14769820971867	0.113095238095238	0.154761904761905	0.0416666666666667
-10	0.00117647058823531	0.00153609831029186	0.154761904761905	0.153225806451613
-8	0.0539215686274509	0.0315656565656565	0.170454545454545	0.138888888888889
-8	-0.010404557079749	-0.00511270338856554	0.154761904761905	0.15987460815047
-6	0.00719378660555117	0.00485008818342139	0.154761904761905	0.149911816578483
-3	0.191176470588235	0.154761904761905	0.154761904761905	0
-7	-0.0719018832829573	-0.0615203761755485	0.170454545454545	0.231974921630094
0	0.191176470588235	0.154761904761905	0.154761904761905	0
-5	0.0348548510313217	0.0160825199645075	0.179347826086957	0.163265306122449
-15	-0.0945378151260506	-0.0674603174603176	0.154761904761905	0.222222222222222
-15	-0.069693094629156	-0.0191511387163562	0.154761904761905	0.173913043478261
-8	0.019075021312873	0.0123331191547083	0.154761904761905	0.142428785607196
-5	-0.0599057804940159	-0.0576923076923078	0.154761904761905	0.212454212454212
-9	-0.00447570332480823	-0.00175983436853008	0.154761904761905	0.156521739130435
-10	-0.0112958226768969	-0.00345849802371542	0.170454545454545	0.173913043478261
-4	0.102011160195303	0.0655594405594406	0.170454545454545	0.104895104895105
-3	0.0586834733893557	0.0344545454545454	0.170454545454545	0.136
-3	0.0972116119174943	0.0618831168831169	0.170454545454545	0.108571428571429
-7	0.0462489343563512	0.0305383022774327	0.154761904761905	0.124223602484472
-5	-0.0586325439266615	-0.057058682058682	0.170454545454545	0.227513227513228
-7	0.0190072076261334	0.0105799373040752	0.170454545454545	0.15987460815047
-10	-0.0244032395566924	-0.0121385159954586	0.154761904761905	0.166900420757363
-11	-0.102156862745098	-0.0744047619047619	0.154761904761905	0.229166666666667
-12	-0.0934389140271491	-0.0694805194805193	0.154761904761905	0.224242424242424
-17	-0.119411764705882	-0.0562121212121212	0.170454545454545	0.226666666666667
-15	-0.0395927601809955	-0.0183150183150184	0.154761904761905	0.173076923076923
-5	0.000700280112044788	0.000915750915750885	0.154761904761905	0.153846153846154
-12	-0.186078431372549	-0.128565062388592	0.170454545454545	0.299019607843137
-15	-0.0332579185520361	-0.00792383292383286	0.170454545454545	0.178378378378378
-2	0.134008148714031	0.0910894660894661	0.170454545454545	0.0793650793650794
-17	-0.324304508128037	-0.203344481605351	0.179347826086957	0.382692307692308
-8	0.053921568627451	0.0315656565656565	0.170454545454545	0.138888888888889
-8	0.053921568627451	0.0315656565656565	0.170454545454545	0.138888888888889
-4	0.067799847211612	0.0461904761904763	0.154761904761905	0.108571428571428
-6	0.0127960275019099	0.00718923933209648	0.170454545454545	0.163265306122449
-7	0.0462489343563512	0.0305383022774327	0.154761904761905	0.124223602484472
-7	0.117330316742081	0.0861904761904761	0.154761904761905	0.0685714285714286
-10	-0.0244032395566924	-0.0121385159954586	0.154761904761905	0.166900420757363
-6	0.0770460358056266	0.0533126293995859	0.154761904761905	0.101449275362319
-10	0.0296380090497737	0.0192780337941628	0.154761904761905	0.135483870967742
-5	-0.135139318885449	-0.0962502409870831	0.154761904761905	0.251012145748988
-4	0.067799847211612	0.0461904761904762	0.154761904761905	0.108571428571428
0	0.141176470588235	0.107142857142857	0.154761904761905	0.0476190476190476
-9	0.0895341042399866	0.056310624859012	0.170454545454545	0.114143920595534
-4	-0.0698879551820729	-0.0641608391608393	0.170454545454545	0.234615384615385
-8	-0.0916647291327599	-0.068939393939394	0.170454545454545	0.23939393939394
-10	-0.0459776796093932	-0.0211911744169809	0.154761904761905	0.175953079178886
-9	0.0305882352941177	0.0172287390029326	0.170454545454545	0.153225806451613
-14	-0.142156862745098	-0.0833333333333335	0.154761904761905	0.238095238095238
-5	-0.0936974789915966	-0.0739898989898989	0.170454545454545	0.244444444444444
-12	-0.0354901960784315	-0.0169552669552671	0.154761904761905	0.171717171717172
-8	-0.000755638223669031	0.000757575757575679	0.170454545454545	0.16969696969697
2	0.116013071895425	0.0763368983957219	0.170454545454545	0.0941176470588235
-6	0.0756606990622336	0.0462309429700734	0.170454545454545	0.124223602484472
-7	0.0462489343563513	0.0305383022774328	0.154761904761905	0.124223602484472
0	0.128781512605042	0.0697916666666667	0.182291666666667	0.1125
-7	0.0462489343563512	0.0305383022774327	0.154761904761905	0.124223602484472
-11	-0.0407075873827792	-0.0191511387163562	0.154761904761905	0.173913043478261
0	0.125851393188855	0.0843301435406699	0.170454545454545	0.0861244019138756
-1	0.143557422969188	0.109307359307359	0.154761904761905	0.0454545454545455
-3	0.14769820971867	0.113095238095238	0.154761904761905	0.0416666666666667
-10	-0.210241804231574	-0.139204545454545	0.170454545454545	0.309659090909091
-9	0.0580316742081449	0.0293478260869566	0.179347826086957	0.15
-5	0.0725993954894211	0.0498667998667999	0.154761904761905	0.104895104895105
-2	0.0920168067226891	0.0579545454545455	0.170454545454545	0.1125
-4	0.102011160195303	0.0655594405594406	0.170454545454545	0.104895104895105
-5	0.0353323147440794	0.0228937728937728	0.154761904761905	0.131868131868132
-8	-0.0678815004262575	-0.0596308988362962	0.154761904761905	0.214392803598201
-12	-0.0194117647058824	-0.00601604278074866	0.170454545454545	0.176470588235294
-7	0.0462489343563513	0.0305383022774327	0.154761904761905	0.124223602484472
-3	0.0626050420168067	0.0422619047619047	0.154761904761905	0.1125
-4	0.0677998472116119	0.0461904761904762	0.154761904761905	0.108571428571429
-5	0.0977195225916454	0.0551242236024845	0.179347826086957	0.124223602484472
-3	-0.0820433436532507	-0.0716507177033493	0.170454545454545	0.242105263157895
-9	0.00500852514919006	0.00355412469718216	0.170454545454545	0.166900420757363
-9	0.0557918552036198	0.0374285714285713	0.154761904761905	0.117333333333333
-9	-0.223134708428826	-0.144445608155286	0.170454545454545	0.314900153609831
-6	0.0756606990622337	0.0462309429700735	0.170454545454545	0.124223602484472
-3	0.178921568627451	0.130454545454545	0.170454545454545	0.04
-1	0.130112044817927	0.0878458498023716	0.170454545454545	0.0826086956521739
-8	-0.010404557079749	-0.00511270338856554	0.154761904761905	0.15987460815047
-13	-0.110361990950226	-0.0758263305322128	0.154761904761905	0.230588235294118
-15	-0.00560224089635841	-0.000716625716625618	0.170454545454545	0.171171171171171
-10	-0.0244032395566923	-0.0121385159954585	0.154761904761905	0.166900420757363
-6	0.0756606990622336	0.0462309429700734	0.170454545454545	0.124223602484472
-11	-0.153438914027149	-0.125238095238095	0.154761904761905	0.28
-4	0.0647440794499619	0.0385864135864137	0.170454545454545	0.131868131868132
-6	-0.183282403870639	-0.150352733686067	0.154761904761905	0.305114638447972
-10	-0.111359761295823	-0.0794596941160757	0.154761904761905	0.23422159887798
-5	0.00630252100840334	0.00378787878787878	0.170454545454545	0.166666666666667
-5	0.072599395489421	0.0498667998667998	0.154761904761905	0.104895104895105
-1	0.0964396284829721	0.0686375028480291	0.154761904761905	0.0861244019138756
-7	-0.077598232969077	-0.066017316017316	0.154761904761905	0.220779220779221
-7	0.0190072076261335	0.0105799373040752	0.170454545454545	0.15987460815047
-8	0.019075021312873	0.0123331191547084	0.154761904761905	0.142428785607196
-13	-0.0303619909502262	-0.0146498599439776	0.154761904761905	0.169411764705882
-2	0.138775866077656	0.0773965617715618	0.182291666666667	0.104895104895105
-10	0.0296380090497738	0.0192780337941628	0.154761904761905	0.135483870967742
-7	0.0805882352941177	0.0497648902821317	0.170454545454545	0.120689655172414
-2	0.119270435446906	0.070776397515528	0.179347826086957	0.108571428571429
-12	-0.000950226244343821	0.00104278074866315	0.170454545454545	0.169411764705882
-9	0.0245098039215685	0.0158730158730158	0.154761904761905	0.138888888888889
-1	0.175133689839572	0.12697628458498	0.170454545454545	0.0434782608695652
-3	0.104596384008149	0.0753968253968254	0.154761904761905	0.0793650793650794
-3	0.0227554179566563	0.0144110275689222	0.154761904761905	0.140350877192982
-6	0.0756606990622336	0.0462309429700734	0.170454545454545	0.124223602484472
-2	0.092016806722689	0.0579545454545454	0.170454545454545	0.1125
-6	0.00719378660555117	0.00485008818342139	0.154761904761905	0.149911816578483
-7	0.0133108579400138	0.00865800865800853	0.154761904761905	0.146103896103896
0	0.141176470588235	0.107142857142857	0.154761904761905	0.0476190476190476
-3	0.104596384008149	0.0753968253968253	0.154761904761905	0.0793650793650794
-7	0.0462489343563512	0.0305383022774327	0.154761904761905	0.124223602484472
-5	-0.124148606811146	-0.0849060783271309	0.170454545454545	0.255360623781676
-5	0.000700280112044815	0.000915750915750912	0.154761904761905	0.153846153846154
-8	0.053921568627451	0.0315656565656565	0.170454545454545	0.138888888888889
-6	0.0756606990622336	0.0462309429700734	0.170454545454545	0.124223602484472
-9	-0.0170932009167303	0.000776397515527993	0.179347826086957	0.178571428571429
-6	0.0409788421297373	0.0268157768157768	0.154761904761905	0.127946127946128
-7	0.0484867860187554	0.0280257598473491	0.170454545454545	0.142428785607196
-5	0.0977195225916455	0.0551242236024846	0.179347826086957	0.124223602484472
0	0.125851393188855	0.0843301435406699	0.170454545454545	0.0861244019138756
-5	0.0725993954894211	0.0498667998667998	0.154761904761905	0.104895104895105
-14	-0.105565610859729	-0.0651010101010101	0.170454545454545	0.235555555555556
-4	0.0647440794499619	0.0385864135864137	0.170454545454545	0.131868131868132
-6	0.0410660311555453	0.0194732179364863	0.179347826086957	0.15987460815047
-12	-0.118823529411765	-0.0800865800865802	0.154761904761905	0.234848484848485
-9	-0.0301674029295513	-0.014935064935065	0.154761904761905	0.16969696969697
-11	-0.0188235294117647	-0.00930059523809523	0.154761904761905	0.1640625
-7	-0.101922587216705	-0.0742088371398716	0.170454545454545	0.244663382594417
-5	0.00630252100840334	0.00378787878787878	0.170454545454545	0.166666666666667
-6	0.00719378660555117	0.00485008818342139	0.154761904761905	0.149911816578483
-4	0.0292717086834733	0.0187619047619047	0.154761904761905	0.136
-7	0.0190072076261335	0.0105799373040752	0.170454545454545	0.15987460815047
-6	0.0272549019607843	-0.00216450216450215	0.170454545454545	0.172619047619048
-8	0.0249360613810742	0.0139328063241107	0.170454545454545	0.156521739130435
-1	0.0508255933952528	0.0335497835497835	0.154761904761905	0.121212121212121
0	0.0802373581011352	0.0492424242424243	0.170454545454545	0.121212121212121
-6	-0.0824420677361855	-0.0676406926406928	0.170454545454545	0.238095238095238
-8	-0.000755638223669031	0.000757575757575679	0.170454545454545	0.16969696969697
-10	-0.0244032395566923	-0.0121385159954586	0.154761904761905	0.166900420757363
-2	0.100700280112045	0.0721532091097308	0.154761904761905	0.0826086956521739
-9	0.0245098039215685	0.0158730158730158	0.154761904761905	0.138888888888889
-6	0.0409788421297373	0.0268157768157768	0.154761904761905	0.127946127946128
-15	0.0015212981744421	0.00198412698412689	0.154761904761905	0.152777777777778
-7	0.0462489343563513	0.0305383022774328	0.154761904761905	0.124223602484472
-12	0.0390600684718333	0.0256934423601091	0.154761904761905	0.129068462401796
-4	0.0301120448179272	0.0166083916083916	0.170454545454545	0.153846153846154
-5	0.064781446175308	0.0332439299830604	0.179347826086957	0.146103896103896
-8	0.019075021312873	0.0123331191547083	0.154761904761905	0.142428785607196
-8	0.019075021312873	0.0123331191547083	0.154761904761905	0.142428785607196
-14	-0.04420814479638	-0.0200952380952381	0.154761904761905	0.174857142857143
-6	0.0427226226458963	0.0243506493506494	0.170454545454545	0.146103896103896
-3	0.0227554179566563	0.0144110275689222	0.154761904761905	0.140350877192982
-13	-0.0488235294117647	-0.0217086834733894	0.154761904761905	0.176470588235294
-5	0.0725993954894211	0.0498667998667999	0.154761904761905	0.104895104895105
-6	-0.112745098039216	-0.0795454545454545	0.170454545454545	0.25
-6	0.0409788421297373	0.0268157768157768	0.154761904761905	0.127946127946128
-10	0.00117647058823536	0.00153609831029189	0.154761904761905	0.153225806451613
-7	0.0462489343563512	0.0305383022774327	0.154761904761905	0.124223602484472
2	0.167956656346749	0.120454545454545	0.170454545454545	0.05
-4	0.0677998472116119	0.0461904761904762	0.154761904761905	0.108571428571429
-11	-0.0578353871192746	-0.024215367965368	0.154761904761905	0.178977272727273
-4	0.102011160195303	0.0655594405594406	0.170454545454545	0.104895104895105
3	0.157937736498108	0.0923445767195768	0.182291666666667	0.0899470899470899
-7	0.0484867860187554	0.0280257598473491	0.170454545454545	0.142428785607196
-11	0.00656108597285077	0.00476190476190483	0.154761904761905	0.15
-9	-0.0165659149035108	-0.00549853372434014	0.170454545454545	0.175953079178886
-2	0.0920168067226891	0.0579545454545455	0.170454545454545	0.1125
-10	-0.136886770518484	-0.0886398547688872	0.154761904761905	0.243401759530792
-3	-0.0413165266106442	-0.0495454545454545	0.170454545454545	0.22
-10	0.0105882352941177	0.00639204545454547	0.170454545454545	0.1640625
-10	0.00117647058823533	0.00153609831029189	0.154761904761905	0.153225806451613
-6	0.0770460358056266	0.0533126293995859	0.154761904761905	0.101449275362319
-10	0.0601223395341041	0.0406179841663711	0.154761904761905	0.114143920595534
-9	-0.188182980702162	-0.130311264822134	0.179347826086957	0.309659090909091
-7	0.0190072076261335	0.0105799373040753	0.170454545454545	0.15987460815047
-6	-0.0482972136222911	-0.0226260094681148	0.154761904761905	0.17738791423002
-3	0.14769820971867	0.113095238095238	0.154761904761905	0.0416666666666667
-11	-0.0239769820971867	-0.00741106719367587	0.170454545454545	0.177865612648221
-17	-0.147285067873303	-0.0768170426065163	0.154761904761905	0.231578947368421
-14	-0.0101809954751131	-0.00262237762237763	0.170454545454545	0.173076923076923
-4	0.149509803921569	0.114761904761905	0.154761904761905	0.04
-3	0.0626050420168067	0.0422619047619047	0.154761904761905	0.1125
0	0.0917612659098726	0.0648148148148147	0.154761904761905	0.08994708994709
-9	0.00500852514919006	0.00355412469718216	0.170454545454545	0.166900420757363
-12	-0.22730179028133	-0.149585921325052	0.154761904761905	0.304347826086957
-8	0.0249360613810742	0.0139328063241107	0.170454545454545	0.156521739130435
-4	0.0301120448179272	0.0166083916083917	0.170454545454545	0.153846153846154
-9	0.0305882352941178	0.0172287390029326	0.170454545454545	0.153225806451613
-4	0.0647440794499619	0.0385864135864137	0.170454545454545	0.131868131868132
-6	0.0427226226458963	0.0243506493506493	0.170454545454545	0.146103896103896
-9	-0.00447570332480823	-0.00175983436853008	0.154761904761905	0.156521739130435
1	0.138544891640867	0.104761904761905	0.154761904761905	0.05
-11	0.0684718331777156	0.0413860830527498	0.170454545454545	0.129068462401796
-1	0.0451496388028896	0.0255270092226614	0.170454545454545	0.144927536231884
-14	-0.0651260504201681	-0.0517676767676768	0.170454545454545	0.222222222222222
-10	0.0296380090497737	0.0192780337941628	0.154761904761905	0.135483870967742
-14	-0.0101809954751131	-0.00262237762237763	0.170454545454545	0.173076923076923
-1	0.143557422969188	0.109307359307359	0.154761904761905	0.0454545454545455
-6	-0.0112958226768967	-0.0283032185206097	0.170454545454545	0.198757763975155
-5	0.0725993954894211	0.0498667998667998	0.154761904761905	0.104895104895105
-7	0.114434389140272	0.0752821316614421	0.170454545454545	0.0951724137931034
-1	0.0964396284829721	0.0686375028480291	0.154761904761905	0.0861244019138756
-9	-0.0819479965899403	-0.0637670534234349	0.170454545454545	0.23422159887798
-2	0.0569659442724458	0.0380570992699139	0.154761904761905	0.116704805491991
-3	0.0972116119174942	0.0618831168831169	0.170454545454545	0.108571428571429
-6	0.10264705882353	0.0586581709145428	0.179347826086957	0.120689655172414
0	0.0917612659098727	0.0648148148148148	0.154761904761905	0.0899470899470899
-8	0.0511764705882353	0.034072249589491	0.154761904761905	0.120689655172414
-8	0.053921568627451	0.0315656565656565	0.170454545454545	0.138888888888889
-2	-0.0530959752321981	-0.057615629984051	0.170454545454545	0.228070175438597
-9	0.0245098039215685	0.0158730158730158	0.154761904761905	0.138888888888889
-6	0.0409788421297373	0.0268157768157768	0.154761904761905	0.127946127946128
-12	0.0116892911010557	0.00790875790875784	0.154761904761905	0.146853146853147
-15	-0.0395927601809954	-0.0183150183150183	0.154761904761905	0.173076923076923
0	0.0802373581011352	0.0492424242424243	0.170454545454545	0.121212121212121
-10	0.00117647058823531	0.00153609831029186	0.154761904761905	0.153225806451613
-6	0.114509803921569	0.0837742504409171	0.154761904761905	0.0709876543209876
-9	0.010763000852515	0.00543478260869568	0.179347826086957	0.173913043478261
-11	-0.0640271493212669	-0.0537878787878788	0.170454545454545	0.224242424242424
-11	0.00656108597285057	0.00476190476190466	0.154761904761905	0.15
-9	0.010763000852515	0.00543478260869568	0.179347826086957	0.173913043478261
-6	0.0127960275019098	0.00718923933209642	0.170454545454545	0.163265306122449
-8	0.0511764705882352	0.0340722495894909	0.154761904761905	0.120689655172414
-5	0.0725993954894211	0.0498667998667999	0.154761904761905	0.104895104895105
-5	0.106457800511509	0.0690052700922266	0.170454545454545	0.101449275362319
-3	0.137584282724948	0.0940909090909091	0.170454545454545	0.0763636363636364
0	0.141176470588235	0.107142857142857	0.154761904761905	0.0476190476190476
-2	0.14572192513369	0.111283643892339	0.154761904761905	0.0434782608695652
-2	0.177109974424552	0.128787878787879	0.170454545454545	0.0416666666666667
-3	0.137584282724948	0.0940909090909091	0.170454545454545	0.0763636363636364
-8	-0.0916647291327599	-0.068939393939394	0.170454545454545	0.23939393939394
-8	0.0511764705882352	0.0340722495894909	0.154761904761905	0.120689655172414
-5	-0.0599057804940158	-0.0576923076923077	0.154761904761905	0.212454212454212
-1	0.175133689839572	0.12697628458498	0.170454545454545	0.0434782608695652
-9	-0.0301674029295514	-0.014935064935065	0.154761904761905	0.16969696969697
-4	0.108172518019065	0.0783982683982683	0.154761904761905	0.0763636363636364
-5	0.106457800511509	0.0690052700922266	0.170454545454545	0.101449275362319
-11	0.0344813138930786	0.0225503663003662	0.154761904761905	0.132211538461538
-7	0.0462489343563512	0.0305383022774327	0.154761904761905	0.124223602484472
-12	-0.1403452685422	-0.0863448146056842	0.154761904761905	0.241106719367589
-13	-0.0624467178175618	-0.0242662282304226	0.154761904761905	0.179028132992327
-17	-0.100840336134454	-0.0603146853146853	0.170454545454545	0.230769230769231
-2	0.100700280112045	0.0721532091097308	0.154761904761905	0.0826086956521739
-11	-0.102156862745098	-0.0744047619047619	0.154761904761905	0.229166666666667
-5	0.0353323147440795	0.0228937728937729	0.154761904761905	0.131868131868132
0	0.220588235294118	0.170454545454545	0.170454545454545	0
-6	-0.183282403870639	-0.150352733686067	0.154761904761905	0.305114638447972
-11	-0.0060784313725491	-0.00126262626262633	0.170454545454545	0.171717171717172
-4	0.108172518019065	0.0783982683982684	0.154761904761905	0.0763636363636364
-4	0.0647440794499618	0.0385864135864136	0.170454545454545	0.131868131868132
-1	0.143557422969188	0.109307359307359	0.154761904761905	0.0454545454545455
0	0.191176470588235	0.154761904761905	0.154761904761905	0
-16	-0.281758002346237	-0.19035244035244	0.154761904761905	0.345114345114345
-9	0.00500852514919006	0.00355412469718216	0.170454545454545	0.166900420757363
-6	-0.0164109121909633	-0.0350449775112444	0.179347826086957	0.214392803598201
-2	0.100700280112045	0.0721532091097308	0.154761904761905	0.0826086956521739
-2	0.0920168067226891	0.0579545454545455	0.170454545454545	0.1125
-3	0.104596384008149	0.0753968253968254	0.154761904761905	0.0793650793650794
-4	0.0677998472116119	0.0461904761904762	0.154761904761905	0.108571428571429
-2	0.100700280112045	0.0721532091097308	0.154761904761905	0.0826086956521739
-9	0.0590497737556561	0.0349706744868035	0.170454545454545	0.135483870967742
-1	0.0863777089783282	0.0537497399625546	0.170454545454545	0.116704805491991
-13	-0.112745098039216	-0.0676406926406928	0.170454545454545	0.238095238095238
-2	0.0569659442724458	0.0380570992699139	0.154761904761905	0.116704805491991
-1	0.143557422969188	0.109307359307359	0.154761904761905	0.0454545454545455
-7	0.0133108579400138	0.00865800865800853	0.154761904761905	0.146103896103896
-9	0.0306862745098039	0.0105744949494949	0.182291666666667	0.171717171717172
-8	0.0249360613810742	0.0139328063241107	0.170454545454545	0.156521739130435
-8	0.053921568627451	0.0315656565656565	0.170454545454545	0.138888888888889
-3	0.104596384008149	0.0753968253968253	0.154761904761905	0.0793650793650794
-2	0.100700280112045	0.0721532091097308	0.154761904761905	0.0826086956521739
-2	0.0569659442724458	0.0380570992699139	0.154761904761905	0.116704805491991
-15	0.00152129817444213	0.00198412698412692	0.154761904761905	0.152777777777778
-7	-0.111853832442068	-0.0833333333333335	0.154761904761905	0.238095238095238
-6	-0.0499302487793539	-0.0506253006253008	0.154761904761905	0.205387205387206
-13	0.0118778280542988	0.0062709030100335	0.179347826086957	0.173076923076923
-12	0.0116892911010557	0.00790875790875781	0.154761904761905	0.146853146853147
-5	0.0353323147440795	0.0228937728937729	0.154761904761905	0.131868131868132
-5	0.0703906068356198	0.0425084175084177	0.170454545454545	0.127946127946128
-11	0.00656108597285068	0.00476190476190474	0.154761904761905	0.15
-14	-0.0255656108597286	-0.00732323232323237	0.170454545454545	0.177777777777778
-12	-0.186078431372549	-0.128565062388592	0.170454545454545	0.299019607843137
-2	0.14572192513369	0.11128364389234	0.154761904761905	0.0434782608695652
-9	0.0305882352941177	0.0172287390029326	0.170454545454545	0.153225806451613
-5	0.0725993954894211	0.0498667998667998	0.154761904761905	0.104895104895105
-9	0.0557918552036199	0.0374285714285714	0.154761904761905	0.117333333333333
-4	0.108172518019065	0.0783982683982683	0.154761904761905	0.0763636363636364
-4	0.102011160195303	0.0655594405594406	0.170454545454545	0.104895104895105
-12	-0.118823529411765	-0.0800865800865802	0.154761904761905	0.234848484848485
-10	-0.111359761295823	-0.0794596941160757	0.154761904761905	0.23422159887798
-9	0.0590497737556562	0.0349706744868036	0.170454545454545	0.135483870967742
-5	0.072599395489421	0.0498667998667998	0.154761904761905	0.104895104895105
-7	0.0805882352941177	0.0497648902821317	0.170454545454545	0.120689655172414
-2	0.100700280112045	0.0721532091097308	0.154761904761905	0.0826086956521739
-11	-0.0188235294117647	-0.00930059523809523	0.154761904761905	0.1640625
-8	0.019075021312873	0.0123331191547084	0.154761904761905	0.142428785607196
-5	0.111466325660699	0.081183309444179	0.154761904761905	0.0735785953177257
-10	0.00117647058823528	0.00153609831029183	0.154761904761905	0.153225806451613
-5	0.132647058823529	0.0811335403726708	0.179347826086957	0.0982142857142857
-4	0.108172518019065	0.0783982683982684	0.154761904761905	0.0763636363636364
-1	0.0863777089783282	0.0537497399625546	0.170454545454545	0.116704805491991
-4	-0.00046439628482961	0.000414059624586044	0.170454545454545	0.170040485829959
-2	0.0569659442724458	0.0380570992699139	0.154761904761905	0.116704805491991
-4	-0.0274382480264833	-0.0376190476190476	0.154761904761905	0.192380952380952
-15	-0.214977375565611	-0.138571428571429	0.154761904761905	0.293333333333333
-8	-0.236554621848739	-0.149545454545455	0.170454545454545	0.32
-8	-0.0916647291327599	-0.068939393939394	0.170454545454545	0.239393939393939
-11	-0.00607843137254904	-0.00126262626262627	0.170454545454545	0.171717171717172
-1	0.130112044817927	0.0878458498023716	0.170454545454545	0.0826086956521739
-12	-0.11999147485081	-0.0699546617065799	0.170454545454545	0.240409207161125
-3	0.0227554179566563	0.0144110275689223	0.154761904761905	0.140350877192982
-2	0.100700280112045	0.0721532091097308	0.154761904761905	0.0826086956521739
-9	-0.0914322250639386	-0.0713250517598344	0.154761904761905	0.226086956521739
-6	0.0770460358056266	0.0533126293995859	0.154761904761905	0.101449275362319
1	0.220588235294118	0.170454545454545	0.170454545454545	0
-7	0.117330316742081	0.0861904761904761	0.154761904761905	0.0685714285714286
-5	0.0725993954894211	0.0498667998667998	0.154761904761905	0.104895104895105
-10	0.0105882352941178	0.00639204545454555	0.170454545454545	0.1640625
-9	-0.0301674029295514	-0.0149350649350651	0.154761904761905	0.16969696969697
-7	0.046994884910486	0.0228260869565217	0.179347826086957	0.156521739130435
-8	-0.000755638223668975	0.000757575757575707	0.170454545454545	0.16969696969697
-11	-0.0188235294117646	-0.0093005952380952	0.154761904761905	0.1640625
-13	0.0165732959850606	0.0109710550887021	0.154761904761905	0.143790849673203
-9	-0.0819479965899404	-0.063767053423435	0.170454545454545	0.23422159887798
-1	0.191176470588235	0.154761904761905	0.154761904761905	0
-11	0.04321685939333	0.0209767853629746	0.179347826086957	0.158371040723982
-6	0.0071937866055512	0.00485008818342142	0.154761904761905	0.149911816578483
-5	0.106457800511509	0.0690052700922266	0.170454545454545	0.101449275362319
-8	0.0249360613810742	0.0139328063241107	0.170454545454545	0.156521739130435
-4	0.108172518019065	0.0783982683982684	0.154761904761905	0.0763636363636363
-17	-0.0304984062590555	-0.0144110275689225	0.154761904761905	0.169172932330827
-14	-0.142156862745098	-0.0833333333333335	0.154761904761905	0.238095238095238
-4	0.102011160195303	0.0655594405594406	0.170454545454545	0.104895104895105
-1	0.130112044817927	0.0878458498023716	0.170454545454545	0.0826086956521739
-11	0.0159728506787331	0.00924242424242427	0.170454545454545	0.161212121212121
-2	0.14572192513369	0.111283643892339	0.154761904761905	0.0434782608695652
-9	0.0557918552036198	0.0374285714285713	0.154761904761905	0.117333333333333
-11	-0.0188235294117647	-0.00930059523809526	0.154761904761905	0.1640625
-8	-0.0104045570797489	-0.00511270338856548	0.154761904761905	0.15987460815047
-6	0.110588235294118	0.0722402597402597	0.170454545454545	0.0982142857142857
2	0.191176470588235	0.154761904761905	0.154761904761905	0
-5	0.0366055513114336	0.0205427288760621	0.170454545454545	0.149911816578483
-10	0.0631598793363499	0.0324946792338096	0.179347826086957	0.146853146853147
-3	0.0227554179566563	0.0144110275689222	0.154761904761905	0.140350877192982
-4	0.108172518019065	0.0783982683982683	0.154761904761905	0.0763636363636364
-5	0.0366055513114337	0.0205427288760622	0.170454545454545	0.149911816578483
-13	-0.0384697357203751	-0.00718520609824955	0.170454545454545	0.177639751552795
-4	0.0292717086834733	0.0187619047619047	0.154761904761905	0.136
1	0.0735294117647059	0.0444041252864782	0.170454545454545	0.126050420168067
-5	0.0725993954894211	0.0498667998667999	0.154761904761905	0.104895104895105
-10	0.00117647058823528	0.00153609831029183	0.154761904761905	0.153225806451613
-12	-0.000950226244343794	0.00104278074866318	0.170454545454545	0.169411764705882
-5	0.072599395489421	0.0498667998667998	0.154761904761905	0.104895104895105
-6	0.0756606990622337	0.0462309429700735	0.170454545454545	0.124223602484472
-9	0.0305882352941177	0.0172287390029326	0.170454545454545	0.153225806451613
0	0.0917612659098726	0.0648148148148147	0.154761904761905	0.08994708994709
-3	0.104596384008149	0.0753968253968253	0.154761904761905	0.0793650793650794
-5	0.0725993954894211	0.0498667998667998	0.154761904761905	0.104895104895105
3	0.165032679738562	0.117822966507177	0.170454545454545	0.0526315789473684
-5	0.0353323147440795	0.022893772893773	0.154761904761905	0.131868131868132
-11	0.00656108597285066	0.00476190476190474	0.154761904761905	0.15
-18	-0.346363331657449	-0.212237762237762	0.170454545454545	0.382692307692308
-7	0.0462489343563512	0.0305383022774327	0.154761904761905	0.124223602484472
-8	0.019075021312873	0.0123331191547083	0.154761904761905	0.142428785607196
-12	-0.000950226244343821	0.00104278074866315	0.170454545454545	0.169411764705882
-2	0.0569659442724458	0.0380570992699139	0.154761904761905	0.116704805491991
-5	0.0703906068356197	0.0425084175084176	0.170454545454545	0.127946127946128
-5	0.0703906068356197	0.0425084175084176	0.170454545454545	0.127946127946128
-5	0.106457800511509	0.0690052700922266	0.170454545454545	0.101449275362319
-1	0.130112044817927	0.0878458498023716	0.170454545454545	0.0826086956521739
-7	-0.069605905603348	-0.0600461133069829	0.179347826086957	0.239393939393939
-8	0.085022624434389	0.0595894909688012	0.154761904761905	0.0951724137931035
-13	-0.132156862745098	-0.082983193277311	0.154761904761905	0.237745098039216
-4	0.108172518019065	0.0783982683982684	0.154761904761905	0.0763636363636363
3	0.110294117647059	0.0717703349282297	0.170454545454545	0.0986842105263158
-5	0.0353323147440794	0.0228937728937728	0.154761904761905	0.131868131868132
-7	0.0484867860187554	0.0280257598473491	0.170454545454545	0.142428785607196
-7	-0.0384697357203751	-0.0439382581436554	0.170454545454545	0.214392803598201
-9	0.0557918552036199	0.0374285714285714	0.154761904761905	0.117333333333333
-7	0.0462489343563512	0.0305383022774326	0.154761904761905	0.124223602484472
-3	-0.0825077399380806	-0.0733082706766918	0.154761904761905	0.228070175438597
-6	0.0153743315508022	0.00693403298350825	0.179347826086957	0.172413793103448
-7	0.0484867860187554	0.0280257598473491	0.170454545454545	0.142428785607196
-15	-0.122745098039216	-0.0615274365274367	0.170454545454545	0.231981981981982
-5	0.106457800511509	0.0690052700922266	0.170454545454545	0.101449275362319
-7	0.0462489343563512	0.0305383022774327	0.154761904761905	0.124223602484472
-10	-0.0244032395566924	-0.0121385159954586	0.154761904761905	0.166900420757363
-10	-0.0459776796093932	-0.0211911744169809	0.154761904761905	0.175953079178886
-7	0.0484867860187554	0.0280257598473491	0.170454545454545	0.142428785607196
-8	0.0249360613810742	0.0139328063241107	0.170454545454545	0.156521739130435
-11	-0.0188235294117646	-0.00930059523809518	0.154761904761905	0.1640625
-3	0.104596384008149	0.0753968253968254	0.154761904761905	0.0793650793650794
-3	0.104596384008149	0.0753968253968254	0.154761904761905	0.0793650793650794
-3	0.137584282724948	0.0940909090909091	0.170454545454545	0.0763636363636363
-7	0.041773231031543	0.0153912459093034	0.182291666666667	0.166900420757363
-7	0.0484867860187554	0.0280257598473491	0.170454545454545	0.142428785607196
-6	0.0756606990622336	0.0462309429700734	0.170454545454545	0.124223602484472
-8	-0.0218360071301248	-0.00732323232323231	0.170454545454545	0.177777777777778
-4	0.0647440794499618	0.0385864135864136	0.170454545454545	0.131868131868132
-3	-0.0373949579831933	-0.0452380952380953	0.154761904761905	0.2
-15	-0.193257918552036	-0.120356265356265	0.170454545454545	0.290810810810811
-12	-0.0134389140271493	-0.00645021645021646	0.154761904761905	0.161212121212121
-5	0.072599395489421	0.0498667998667998	0.154761904761905	0.104895104895105
-6	0.0770460358056266	0.0533126293995859	0.154761904761905	0.101449275362319
-15	-0.125426257459506	-0.0539872876829399	0.170454545454545	0.224441833137485
1	0.138544891640867	0.104761904761905	0.154761904761905	0.05
-6	0.00719378660555117	0.00485008818342139	0.154761904761905	0.149911816578483
-4	0.102011160195303	0.0655594405594406	0.170454545454545	0.104895104895105
-3	0.137584282724948	0.0940909090909091	0.170454545454545	0.0763636363636364
-6	0.0705456095481672	0.0369190404797602	0.179347826086957	0.142428785607196
-8	-0.0916647291327598	-0.0689393939393939	0.170454545454545	0.239393939393939
-2	0.177109974424552	0.128787878787879	0.170454545454545	0.0416666666666667
-6	0.0770460358056266	0.0533126293995859	0.154761904761905	0.101449275362319
-5	0.0725993954894211	0.0498667998667999	0.154761904761905	0.104895104895105
-7	0.0462489343563512	0.0305383022774327	0.154761904761905	0.124223602484472
-6	0.0756606990622337	0.0462309429700735	0.170454545454545	0.124223602484472
-8	0.019075021312873	0.0123331191547084	0.154761904761905	0.142428785607196
-7	0.0462489343563512	0.0305383022774327	0.154761904761905	0.124223602484472
-8	-0.0620204603580562	-0.0556324110671936	0.170454545454545	0.226086956521739
-3	0.104596384008149	0.0753968253968254	0.154761904761905	0.0793650793650794
-5	0.0353323147440795	0.0228937728937729	0.154761904761905	0.131868131868132
-1	0.143557422969188	0.109307359307359	0.154761904761905	0.0454545454545455
-5	0.0353323147440795	0.0228937728937729	0.154761904761905	0.131868131868132
-3	0.0972116119174943	0.0618831168831169	0.170454545454545	0.108571428571429
2	0.13562091503268	0.102130325814536	0.154761904761905	0.0526315789473684
-9	-0.0301674029295514	-0.0149350649350651	0.154761904761905	0.16969696969697
-13	-0.0303619909502262	-0.0146498599439775	0.154761904761905	0.169411764705882
-9	0.0557918552036198	0.0374285714285713	0.154761904761905	0.117333333333333
-1	0.130112044817927	0.0878458498023716	0.170454545454545	0.0826086956521739
-10	-0.0440271493212666	-0.0445454545454543	0.170454545454545	0.215
-5	0.0703906068356197	0.0425084175084176	0.170454545454545	0.127946127946128
-5	0.0703906068356197	0.0425084175084176	0.170454545454545	0.127946127946128
-5	0.0353323147440795	0.0228937728937729	0.154761904761905	0.131868131868132
-19	-0.195523036800928	-0.125595238095238	0.154761904761905	0.280357142857143
-3	0.14769820971867	0.113095238095238	0.154761904761905	0.0416666666666667
-7	0.0484867860187554	0.0280257598473491	0.170454545454545	0.142428785607196
-8	-0.0678815004262575	-0.0596308988362962	0.154761904761905	0.214392803598201
-4	0.0794873285282492	0.0361877705627705	0.182291666666667	0.146103896103896
2	0.162616099071207	0.0961672647527911	0.182291666666667	0.0861244019138756
-4	0.0647440794499618	0.0385864135864136	0.170454545454545	0.131868131868132
-8	0.0249360613810742	0.0139328063241107	0.170454545454545	0.156521739130435
-5	0.0703906068356197	0.0425084175084176	0.170454545454545	0.127946127946128
-15	-0.00560224089635844	-0.000716625716625646	0.170454545454545	0.171171171171171
-7	0.0133108579400139	0.00865800865800856	0.154761904761905	0.146103896103896
-9	-0.00447570332480823	-0.00175983436853008	0.154761904761905	0.156521739130435
-7	0.0462489343563512	0.0305383022774327	0.154761904761905	0.124223602484472
-5	0.106457800511509	0.0690052700922266	0.170454545454545	0.101449275362319
-4	0.108172518019065	0.0783982683982683	0.154761904761905	0.0763636363636364
-2	0.0521671826625387	0.030103668261563	0.170454545454545	0.140350877192982
-12	-0.00735294117647065	0.000776397515527882	0.179347826086957	0.178571428571429
-9	0.0245098039215685	0.0158730158730158	0.154761904761905	0.138888888888889
-7	0.0462489343563512	0.0305383022774327	0.154761904761905	0.124223602484472
1	0.138544891640867	0.104761904761905	0.154761904761905	0.05
-6	0.0409788421297372	0.0268157768157768	0.154761904761905	0.127946127946128
-6	0.0770460358056266	0.0533126293995859	0.154761904761905	0.101449275362319
-8	0.0249360613810742	0.0139328063241107	0.170454545454545	0.156521739130435
-17	-0.101926977687627	-0.0689223057644112	0.154761904761905	0.223684210526316
-1	0.114075630252101	0.0668478260869565	0.179347826086957	0.1125
-11	0.0159728506787331	0.00924242424242427	0.170454545454545	0.161212121212121
-7	0.0462489343563512	0.0305383022774327	0.154761904761905	0.124223602484472
-12	-0.000950226244343766	0.00104278074866318	0.170454545454545	0.169411764705882
-11	-0.0806862745098039	-0.0583972719522592	0.179347826086957	0.237745098039216
-5	-0.0205184840734713	-0.0349326599326599	0.170454545454545	0.205387205387205
-8	0.0850226244343891	0.0595894909688012	0.154761904761905	0.0951724137931035
-7	0.0133108579400139	0.00865800865800856	0.154761904761905	0.146103896103896
0	0.220588235294118	0.170454545454545	0.170454545454545	0
-4	0.0647440794499619	0.0385864135864137	0.170454545454545	0.131868131868132
-3	0.104596384008149	0.0753968253968254	0.154761904761905	0.0793650793650794
-8	0.053921568627451	0.0315656565656565	0.170454545454545	0.138888888888889
-11	0.0411010558069381	0.0236013986013986	0.170454545454545	0.146853146853147
-1	0.130112044817927	0.0878458498023716	0.170454545454545	0.0826086956521739
-4	0.067799847211612	0.0461904761904762	0.154761904761905	0.108571428571428
-7	0.107262443438914	0.0620144927536232	0.179347826086957	0.117333333333333
-21	-0.12606490872211	-0.0718390804597702	0.154761904761905	0.226600985221675
-4	0.0647440794499618	0.0385864135864136	0.170454545454545	0.131868131868132
-1	0.130112044817927	0.0878458498023716	0.170454545454545	0.0826086956521739
-1	0.143557422969188	0.109307359307359	0.154761904761905	0.0454545454545455
-8	0.0539215686274509	0.0315656565656565	0.170454545454545	0.138888888888889
-6	0.0770460358056266	0.0533126293995859	0.154761904761905	0.101449275362319
-5	0.106457800511509	0.0690052700922266	0.170454545454545	0.101449275362319
-6	0.0071937866055512	0.00485008818342142	0.154761904761905	0.149911816578483
-8	0.0249360613810742	0.0139328063241107	0.170454545454545	0.156521739130435
-9	-0.0301674029295514	-0.0149350649350651	0.154761904761905	0.16969696969697
-6	0.152714932126697	0.117724867724868	0.154761904761905	0.037037037037037
-11	0.00656108597285066	0.00476190476190474	0.154761904761905	0.15
-14	-0.12420814479638	-0.0795238095238095	0.154761904761905	0.234285714285714
-1	0.0964396284829721	0.0686375028480291	0.154761904761905	0.0861244019138756
-10	-0.082156862745098	-0.0656682027649769	0.154761904761905	0.220430107526882
-4	0.108172518019065	0.0783982683982683	0.154761904761905	0.0763636363636364
-4	0.102011160195303	0.0655594405594406	0.170454545454545	0.104895104895105
-11	-0.0640271493212669	-0.0537878787878788	0.170454545454545	0.224242424242424
-3	0.0626050420168067	0.0422619047619047	0.154761904761905	0.1125
-7	0.0484867860187554	0.0280257598473491	0.170454545454545	0.142428785607196
-5	0.0703906068356197	0.0425084175084176	0.170454545454545	0.127946127946128
-13	-0.00350678733031679	0.0015700483091787	0.179347826086957	0.177777777777778
-10	0.00117647058823531	0.00153609831029186	0.154761904761905	0.153225806451613
-3	0.104596384008149	0.0753968253968254	0.154761904761905	0.0793650793650794
-8	0.0850226244343891	0.0595894909688013	0.154761904761905	0.0951724137931035
-6	0.114509803921569	0.0837742504409171	0.154761904761905	0.0709876543209876
-10	0.0105882352941177	0.00639204545454547	0.170454545454545	0.1640625
-9	-0.00447570332480823	-0.00175983436853008	0.154761904761905	0.156521739130435
-4	0.0292717086834733	0.0187619047619047	0.154761904761905	0.136
-10	-0.082156862745098	-0.065668202764977	0.154761904761905	0.220430107526882
-1	0.191176470588235	0.154761904761905	0.154761904761905	0
-10	-0.0244032395566923	-0.0121385159954586	0.154761904761905	0.166900420757363
-2	0.0521671826625387	0.030103668261563	0.170454545454545	0.140350877192982
-2	0.0157378740970072	0.00983436853002065	0.154761904761905	0.144927536231884
-9	-0.0527450980392155	-0.0499755620723362	0.170454545454545	0.220430107526882
-11	-0.0894117647058824	-0.0643939393939394	0.170454545454545	0.234848484848485
-4	0.0924494303650315	0.0514016981408286	0.179347826086957	0.127946127946128
1	0.138544891640867	0.104761904761905	0.154761904761905	0.05
-5	0.000700280112044815	0.000915750915750912	0.154761904761905	0.153846153846154
-14	0.0212257316719791	0.0139455782312924	0.154761904761905	0.140816326530612
