4
[ 5.174, 5.174, 5.174, 5.174, 5.174, 0.229, 0.229, 0.229, 0.229, 5.174, 5.174, 5.174, 5.174, 5.174, 4.211, 5.174, 5.174, 5.174, 5.174, 5.174, 3.288, 0.229, 5.174, 5.174, 0.229, 0.229, 0.229, 5.174, 5.174, 5.174, 5.174, 5.174, 5.174, 5.174, 0.229, 0.229, 0.229, 5.174, 4.211, 5.174, 5.174, 5.174, 5.174, 5.174, 5.174, 0.229, 5.174, 0.229, 5.174, 5.174, 5.174, 5.174, 5.174, 5.174, 5.174, 5.174, 4.211, 5.174, 5.174, 5.174, 5.174, 0.229, 5.174, 5.174, 0.229, 5.174, 5.174, 0.229, 5.174, 5.174, 5.174, 5.174, 5.174, 5.174, 5.174, 0.229, 5.174, 5.174, 5.174, 0.229, 5.174, 5.174, 5.174, 0.229, 5.174, 5.174, 0.229, 0.229, 5.174, 5.174, 5.174, 5.174, 0.229, 0.229, 0.229, 0.229, 5.174, 0.229, 5.174, 5.174, 5.174, 0.229, 0.229, 5.174, 5.174, 5.174, 0.229, 5.174, 5.174, 0.229, 5.174, 5.174, 5.174, 5.174, 0.229, 5.174, 5.174, 5.174, 5.174, 5.174, 5.174, 0.229, 0.229, 0.229, 5.174, 5.174, 5.174, 5.174, 0.229, 5.174, 4.211, 5.174, 5.174, 5.174, 0.229, 0.229, 5.174, 5.174, 0.229, 5.174, 0.229, 5.174, 5.174, 5.174, 5.174, 5.174, 5.174, 5.174, 5.174, 0.229, 5.174, 5.174, 5.174, 0.229, 5.174, 5.174, 0.229, 5.174, 5.174, 5.174, 5.174, 5.174, 0.229, 0.229, 0.229, 5.174, 5.174, 5.174, 5.174, 5.174, 5.174, 5.174, 5.174, 5.174, 0.229, 5.174, 0.229, 5.174, 5.174, 5.174, 5.174, 0.229, 5.174, 5.174, 5.174, 5.174, 5.174, 5.174, 5.174, 0.229, 5.174, 5.174, 0.229, 5.174, 5.174, 0.229, 5.174, 5.174, 5.174, 5.174 ]
5
[ 0.709, 0.709, 0.709, 0.709, 0.709, 0.709, 0.709, 0.709, 0.709, 0.709, 0.435, 0.709, 0.709, 0.709, 0.709, 0.709, 0.801, 0.709, 0.709, 0.709, 0.709, 0.709, 0.709, 0.834, 0.709, 0.709, 0.709, 0.709, 0.834, 0.709, 0.709, 0.709, 0.709, 0.709, 0.709, 0.709, 0.709, 0.435, 0.709, 0.709, 0.709, 0.709, 0.709, 0.709, 0.709, 0.709, 0.709, 0.709, 0.709, 0.709, 0.709, 0.709, 0.709, 0.709, 0.709, 0.709, 0.709, 0.036, 0.709, 0.709, 0.834, 0.709, 0.834, 0.709, 0.709, 0.709, 0.435, 0.709, 0.709, 0.709, 0.709, 0.709, 0.709, 0.709, 0.709, 0.709, 0.709, 0.709, 0.709, 0.709, 0.709, 0.709, 0.801, 0.834, 0.709, 0.709, 0.709, 0.709, 0.036, 0.709, 0.709, 0.709, 0.036, 0.709, 0.435, 0.709, 0.709, 0.834, 0.709, 0.709, 0.709, 0.709, 0.709, 0.709, 0.709, 0.709, 0.709, 0.709, 0.709, 0.709, 0.709, 0.435, 0.709, 0.709, 0.709, 0.709, 0.834, 0.709, 0.709, 0.709, 0.709, 0.709, 0.709, 0.709, 0.709, 0.709, 0.709, 0.709, 0.709, 0.709, 0.709, 0.709, 0.834, 0.709, 0.709, 0.709, 0.709, 0.709, 0.709, 0.709, 0.709, 0.709, 0.709, 0.709, 0.709, 0.709, 0.709, 0.435, 0.709, 0.709, 0.709, 0.709, 0.709, 0.709, 0.709, 0.834, 0.709, 0.709, 0.709, 0.709, 0.709, 0.709, 0.435, 0.709, 0.709, 0.709, 0.709, 0.709, 0.709, 0.709, 0.709, 0.834, 0.709, 0.435, 0.709, 0.709, 0.709, 0.709, 0.709, 0.709, 0.834, 0.709, 0.709, 0.709, 0.709, 0.709, 0.709, 0.709, 0.709, 0.834, 0.709, 0.709, 0.709, 0.709, 0.709, 0.709, 0.709, 0.709, 0.709, 0.709 ]