pars_sum	pars_var	pars_disp	obs_disp	sim_disp
-4	0.727976190476191	0.32656549799407	0.653061224489796	0.326495726495727
-12	-0.335714285714286	-0.0341152882205513	0.387218045112782	0.421333333333333
-2	0.394642857142857	0.141302599839185	0.868131868131868	0.726829268292683
4	1.78809523809524	0.626183104820876	1.1203007518797	0.494117647058824
-1	0.35	0.127548601232812	0.513513513513514	0.385964912280702
-15	-0.592857142857143	-0.0646316646316646	0.483516483516484	0.548148148148148
3	0.261309523809524	0.0409812409812411	0.523809523809524	0.482828282828283
0	-0.386309523809524	-0.180255516840883	0.442508710801394	0.622764227642276
0	-0.0720238095238097	-0.0617826617826618	0.483516483516483	0.545299145299145
0	-0.195833333333333	-0.116239316239316	0.538461538461539	0.654700854700855
-3	-1.28154761904762	-0.518620268620269	0.464285714285714	0.982905982905983
3	0.902380952380952	0.323461276402453	0.629343629343629	0.305882352941176
-1	0.15952380952381	0.047109752992106	0.792207792207792	0.745098039215686
-6	-1.33333333333333	-0.445454545454545	0.5	0.945454545454545
-11	-1.00238095238095	-0.248761904761905	0.428571428571429	0.677333333333333
-7	-0.857738095238095	-0.275858250276855	0.404761904761905	0.68062015503876
7	0.79047619047619	0.134798534798535	0.868131868131868	0.733333333333333
-1	0.647619047619048	0.226520146520147	0.813186813186813	0.586666666666667
-9	-0.372023809523809	-0.0554497354497353	0.523809523809524	0.579259259259259
-1	0.276190476190476	0.0940287226001512	0.775510204081633	0.681481481481482
1	-0.266666666666667	-0.167967967967968	0.513513513513514	0.681481481481482
-5	-0.519642857142857	-0.137909709338281	0.753246753246753	0.891156462585034
-6	0.185119047619048	0.125170068027211	0.591836734693878	0.466666666666667
-3	-0.738690476190476	-0.294993894993895	0.523809523809524	0.818803418803419
3	1.09940476190476	0.408369408369408	0.761904761904762	0.353535353535354
2	0.742857142857143	0.210387078808131	0.951127819548872	0.740740740740741
2	0.39047619047619	0.140896358543417	0.407563025210084	0.266666666666667
-6	-0.110119047619048	-0.00647088103534094	0.408163265306122	0.414634146341463
16	0.95	0.171428571428571	0.571428571428572	0.4
1	0.470833333333333	0.181699346405229	0.470588235294118	0.288888888888889
5	0.780952380952381	0.203088803088803	0.803088803088803	0.6
-5	-0.205357142857143	-0.0455492835432044	0.520408163265306	0.565957446808511
-5	-0.0339285714285713	0.0350754936120791	0.761904761904762	0.726829268292683
7	1.00892857142857	0.290394088669951	0.821428571428572	0.531034482758621
-1	0.0761904761904761	0.00673992673992663	0.593406593406593	0.586666666666667
-6	0.447619047619048	0.252380952380953	0.785714285714286	0.533333333333333
0	0.8	0.253333333333333	1	0.746666666666667
2	-0.611904761904762	-0.340336134453781	0.404761904761905	0.745098039215686
-8	-1.38154761904762	-0.392466752466752	0.803088803088803	1.19555555555556
-2	0.899404761904762	0.340695077280443	0.703296703296703	0.36260162601626
-8	0.1375	0.108674304418985	0.538461538461539	0.429787234042553
-1	-0.723809523809524	-0.334542705971277	0.346938775510204	0.681481481481482
-7	0.0857142857142859	0.105071622144793	0.860627177700348	0.755555555555556
-2	-2.81190476190476	-1.08452380952381	0.839285714285714	1.92380952380952
-1	-0.186309523809524	-0.0983098772572456	0.556390977443609	0.654700854700855
3	0.216666666666667	0.01939586645469	0.513513513513514	0.494117647058824
-8	-0.548214285714286	-0.137386018237082	0.428571428571428	0.565957446808511
-6	-0.288095238095238	-0.0444444444444444	0.761904761904762	0.806349206349206
1	0.321428571428571	0.0992396958783513	0.530612244897959	0.431372549019608
1	-0.123809523809524	-0.11005291005291	0.571428571428571	0.681481481481482
7	1.28035714285714	0.368332120624141	0.951127819548872	0.582795698924731
-7	-0.0761904761904759	0.0371660859465739	0.70383275261324	0.666666666666667
-1	-1.48809523809524	-0.716781257957729	0.467532467532467	1.1843137254902
5	1.03809523809524	0.345173745173745	0.745173745173745	0.4
-1	-0.307142857142857	-0.151378446115288	0.571428571428571	0.72280701754386
2	0.359523809523809	0.0859943977591036	0.642857142857143	0.556862745098039
-4	-1.03095238095238	-0.40687011646764	0.596638655462185	1.00350877192982
-5	0.254761904761905	0.136171287178711	0.965156794425087	0.828985507246377
-7	-0.247619047619048	-0.0252018252018252	0.629343629343629	0.654545454545455
5	0.385119047619047	0.0879416282642089	0.464285714285714	0.376344086021505
5	0.737499999999999	0.141935483870967	1	0.858064516129032
6	0.4	-0.0385964912280702	0.894736842105263	0.933333333333333
-5	-0.438690476190476	-0.137786326280818	0.443609022556391	0.581395348837209
0	-0.342857142857143	-0.175238095238095	0.571428571428571	0.746666666666667
-3	0.180357142857143	0.0885684003331061	0.533613445378151	0.445045045045045
-4	-0.595833333333333	-0.213315754779169	0.513513513513514	0.726829268292683
2	0.932738095238095	0.315909315909316	0.703296703296703	0.387387387387387
-1	-0.981547619047619	-0.442020592020592	0.464285714285714	0.906306306306306
8	0.483333333333334	0.0822222222222224	0.5	0.417777777777778
-12	-0.0404761904761903	0.192181220314213	0.974789915966387	0.782608695652174
-8	0.654761904761905	0.313969706875885	0.725563909774436	0.411594202898551
-6	-0.657142857142857	-0.213053221288516	0.533613445378151	0.746666666666667
-16	0.0422619047619048	0.151349919514233	0.599303135888502	0.447953216374269
3	-0.419642857142857	-0.285392535392535	0.678571428571429	0.963963963963964
-4	-1.24345238095238	-0.461713281225476	0.629343629343629	1.09105691056911
-3	-0.957738095238095	-0.36549300079467	0.725563909774436	1.09105691056911
-1	-2.24047619047619	-0.949766307661044	0.166023166023166	1.11578947368421
3	-0.138690476190476	-0.152958152958153	0.523809523809524	0.676767676767677
-4	1.35	0.545530492898914	0.894736842105263	0.349206349206349
-13	0.337499999999999	0.326530612244898	1	0.673469387755102
8	0.913690476190476	0.244646006550768	0.775510204081633	0.530864197530864
14	1.57083333333333	0.462270400481782	0.75609756097561	0.293827160493827
-4	0.273809523809524	0.133583959899749	0.838345864661654	0.704761904761905
-3	0.385119047619048	0.159190659575769	0.781954887218045	0.622764227642276
-8	-0.907142857142857	-0.272735760971055	0.533613445378151	0.806349206349206
-4	-1.73571428571429	-0.715111307680967	0.34453781512605	1.05964912280702
2	-0.695833333333333	-0.367844767844768	0.538461538461539	0.906306306306306
0	-0.481547619047619	-0.273732718894009	0.377880184331797	0.651612903225806
-1	0.480357142857143	0.175194396247028	0.556390977443609	0.381196581196581
1	-0.392857142857143	-0.247657605552342	0.868131868131868	1.11578947368421
2	0.838095238095238	0.281119465329992	0.725563909774436	0.444444444444444
4	-0.714285714285714	-0.383597883597884	0.357142857142857	0.740740740740741
3	-0.476785714285714	-0.260875160875161	0.357142857142857	0.618018018018018
1	0.464285714285715	0.16046418567427	0.591836734693878	0.431372549019608
-3	-0.0285714285714285	-0.00149292149292146	0.745173745173745	0.746666666666667
1	-0.505357142857143	-0.281904761904762	0.523809523809524	0.805714285714286
2	0.318452380952381	0.0834241027789416	0.597402597402598	0.513978494623656
-10	0.111904761904762	0.1648033126294	0.761904761904762	0.597101449275362
8	1.4547619047619	0.521119465329992	0.725563909774436	0.204444444444444
-4	-0.443452380952381	-0.146171289028432	0.836734693877551	0.982905982905983
0	-0.0720238095238097	-0.0617826617826618	0.483516483516483	0.545299145299145
8	0.219047619047619	-0.0426647426647426	0.461038961038961	0.503703703703704
-7	-0.729166666666667	-0.225053418803419	0.59375	0.818803418803419
-4	-0.811904761904762	-0.283959899749373	0.725563909774436	1.00952380952381
-12	0.332738095238095	0.196094931299717	0.547038327526132	0.350943396226415
-7	-0.619642857142857	-0.165090504037872	0.556390977443609	0.721481481481482
5	0.628571428571429	0.153925353925354	0.687258687258687	0.533333333333333
1	1.24702380952381	0.448425116846169	0.951127819548872	0.502702702702703
10	0.466071428571429	-0.0484274346343312	0.703296703296703	0.751724137931035
10	0.971428571428572	0.230325814536341	0.725563909774436	0.495238095238095
5	-0.0761904761904761	-0.106465350367789	0.337979094076655	0.444444444444444
0	-0.0499999999999998	-0.0543859649122805	0.5	0.554385964912281
1	-0.497619047619048	-0.234509350298824	0.263736263736264	0.498245614035088
2	-0.000595238095237982	-0.0362419562419562	0.281853281853282	0.318095238095238
-10	-0.192857142857143	0.0220952380952381	0.571428571428571	0.549333333333333
0	-0.267261904761905	-0.148994708994709	0.809523809523809	0.958518518518519
0	1.20714285714286	0.452380952380952	0.838345864661654	0.385964912280702
0	0.00952380952380927	-0.0386243386243388	0.642857142857143	0.681481481481482
4	0.885714285714286	0.302380952380952	0.702380952380952	0.4
2	-0.219642857142857	-0.173333333333333	0.571428571428571	0.744761904761905
-13	-0.595833333333333	-0.095369211514393	0.470588235294118	0.565957446808511
4	0.092857142857143	-0.0632168656936458	0.556390977443609	0.619607843137255
1	-0.478571428571428	-0.277230892356943	0.530612244897959	0.807843137254902
-2	-1.23809523809524	-0.504160401002506	0.669172932330827	1.17333333333333
-4	0.228571428571429	0.121904761904762	0.761904761904762	0.64
7	-0.0214285714285714	-0.228296868296868	0.687258687258687	0.915555555555555
-3	0.080357142857143	0.0376917904517392	0.556390977443609	0.51869918699187
-13	0.314285714285715	0.236281179138322	0.591836734693878	0.355555555555556
3	0.647619047619047	0.221164021164021	0.428571428571428	0.207407407407407
3	0.676190476190476	0.208221408221408	0.593406593406593	0.385185185185185
-10	0.575595238095238	0.302459445316588	0.758241758241758	0.45578231292517
-14	-1.72380952380952	-0.444164332399627	0.533613445378151	0.977777777777778
3	-0.129166666666667	-0.137973137973138	0.571428571428571	0.709401709401709
-12	-1.21011904761905	-0.331034978093802	0.263736263736264	0.594771241830065
-1	0.0660714285714287	0.0155083655083656	0.345238095238095	0.32972972972973
1	1.54285714285714	0.591648791648792	0.976833976833977	0.385185185185185
-1	0.323809523809524	0.11018315018315	0.483516483516483	0.373333333333333
-4	0.0184523809523811	0.0333418519465032	0.813186813186813	0.77984496124031
1	-0.105357142857143	-0.12561809930231	0.838345864661654	0.963963963963964
-2	0.378571428571429	0.151378446115288	0.761904761904762	0.610526315789474
-4	-0.209523809523809	-0.0628571428571427	0.523809523809524	0.586666666666667
1	0.118452380952381	-0.0203463203463203	0.785714285714286	0.806060606060606
-2	0.485119047619048	0.169397401615212	0.651567944250871	0.482170542635659
8	1.09940476190476	0.236124309295041	0.912891986062718	0.676767676767677
9	0.197619047619048	-0.0603174603174603	0.428571428571429	0.488888888888889
10	0.999404761904762	0.245825438928887	0.703296703296703	0.457471264367816
2	-0.010119047619048	-0.0849816849816851	0.648351648351648	0.733333333333333
4	0.108928571428571	-0.0137670137670138	0.33976833976834	0.353535353535354
2	0.00714285714285712	-0.118347338935574	0.94047619047619	1.05882352941176
-2	0.34702380952381	0.126739926739927	0.593406593406593	0.466666666666667
-7	-0.505357142857143	-0.135650236702868	0.443609022556391	0.579259259259259
3	-0.866666666666666	-0.552380952380952	0.714285714285714	1.26666666666667
-2	-0.486309523809524	-0.213421584850156	0.346938775510204	0.56036036036036
-1	-0.0309523809523811	-0.0287751464222053	0.402597402597403	0.431372549019608
-2	-1.36190476190476	-0.554436090225564	0.725563909774436	1.28
-6	0.932738095238095	0.403537757026129	0.687258687258687	0.283720930232558
-1	-0.619642857142857	-0.276512226512227	0.226190476190476	0.502702702702703
1	-0.726190476190476	-0.405762304921969	0.653061224489796	1.05882352941176
2	0.607142857142857	0.217927170868347	0.523809523809524	0.305882352941176
0	0.661309523809524	0.213431013431013	0.868131868131868	0.654700854700855
-7	-0.392857142857143	-0.10738135661735	0.447004608294931	0.554385964912281
4	-1.21011904761905	-0.679913362840192	0.860627177700348	1.54054054054054
5	0.980357142857142	0.299523809523809	0.678571428571428	0.379047619047619
2	1.30416666666667	0.478918918918919	0.918918918918919	0.44
3	0.985119047619048	0.333477633477634	0.880952380952381	0.547474747474747
-1	0.3375	0.118803418803419	0.5	0.381196581196581
4	0.285714285714285	-0.00859788359788372	0.732142857142857	0.740740740740741
-1	-0.0499999999999998	-0.040872451398767	0.513513513513514	0.554385964912281
0	-0.157738095238096	-0.134254992319509	0.792626728110599	0.926881720430108
-5	-0.752976190476191	-0.22561636649764	0.951127819548872	1.17674418604651
0	-0.257738095238095	-0.153197278911565	0.530612244897959	0.683809523809524
4	0.571428571428571	0.0985449735449735	0.839285714285714	0.740740740740741
7	0.4	-0.076923076923077	0.923076923076923	1
3	-0.885714285714286	-0.52014652014652	0.813186813186813	1.33333333333333
0	-0.181547619047619	-0.105019305019305	0.397683397683398	0.502702702702703
9	0.670833333333333	0.111021505376344	0.625	0.513978494623656
9	0.84702380952381	0.246046149857402	0.556390977443609	0.310344827586207
-3	0.489880952380952	0.198147808545755	0.612781954887218	0.414634146341463
0	-0.738690476190476	-0.335286935286935	0.483516483516484	0.818803418803419
-8	0.770833333333333	0.380952380952381	0.714285714285714	0.333333333333333
-6	0.54702380952381	0.321154803384768	1.20408163265306	0.882926829268293
0	-0.161904761904762	-0.0989417989417988	0.404761904761905	0.503703703703704
0	-0.972023809523809	-0.450707850707851	0.455598455598456	0.906306306306306
-3	-0.183333333333333	-0.0647130647130646	0.538461538461539	0.603174603174603
0	0.508928571428572	0.158241758241758	0.758241758241758	0.6
1	-0.8625	-0.412606837606838	0.625	1.03760683760684
1	-0.87202380952381	-0.411477411477412	0.571428571428571	0.982905982905983
-11	-0.847619047619047	-0.170656370656371	0.629343629343629	0.8
-1	-0.285714285714286	-0.148904006046863	0.591836734693878	0.740740740740741
2	0.883333333333333	0.295175438596491	0.625	0.329824561403509
2	0.492857142857143	0.148739495798319	0.642857142857143	0.494117647058824
-11	-0.148214285714286	0.0344984802431611	0.464285714285714	0.429787234042553
-1	-1.01488095238095	-0.431585373690637	0.387218045112782	0.818803418803419
-1	-0.27202380952381	-0.144560118244329	0.838345864661654	0.982905982905983
5	0.359523809523809	0.0365438483085541	0.593406593406593	0.556862745098039
-1	0.227976190476191	0.078764478764479	0.523809523809524	0.445045045045045
-5	-0.726190476190476	-0.249163449163449	0.455598455598456	0.704761904761905
-4	-0.933928571428571	-0.381116181116181	0.467532467532467	0.848648648648649
-1	0.654761904761905	0.246928131138658	0.745173745173745	0.498245614035088
0	0.123809523809524	0.0201058201058203	0.523809523809524	0.503703703703704
0	-0.84047619047619	-0.390977443609022	0.556390977443609	0.947368421052632
-7	-0.0857142857142856	0.0293457220286488	0.651567944250871	0.622222222222222
-5	0.080357142857143	0.0721254355400698	0.642857142857143	0.570731707317073
-1	0.242261904761905	0.0708630550735815	0.725563909774436	0.654700854700855
-6	-0.735714285714286	-0.218374741200828	0.517857142857143	0.736231884057971
-8	-0.0291666666666668	0.102622622622623	0.918918918918919	0.816296296296296
3	0.413690476190477	0.0771498342926917	0.622448979591837	0.545299145299145
0	0.8375	0.335238095238095	0.714285714285714	0.379047619047619
-10	-1.72440476190476	-0.455598824895812	0.599303135888502	1.05490196078431
-3	-0.307142857142857	-0.111355311355312	0.593406593406593	0.704761904761905
6	0.178571428571429	-0.0206582633053221	0.410714285714286	0.431372549019608
-5	-1.2	-0.406993006993007	0.538461538461539	0.945454545454545
-6	-1.29107142857143	-0.45637962502074	0.530612244897959	0.986991869918699
5	0.228571428571429	-0.0460746460746461	0.687258687258687	0.733333333333333
5	0.323214285714286	-0.0126190476190475	0.732142857142857	0.744761904761905
0	1.10416666666667	0.457142857142857	0.714285714285714	0.257142857142857
-7	0.589880952380952	0.270559732664996	0.612781954887218	0.342222222222222
1	-0.104761904761905	-0.112741312741313	0.687258687258687	0.8
8	-0.424404761904762	-0.346803733900508	0.373626373626374	0.720430107526882
5	0.261309523809524	0.00983102918586776	0.523809523809524	0.513978494623656
-8	-0.1625	0.0336655592469546	0.714285714285714	0.68062015503876
0	-0.624404761904762	-0.283623693379791	0.599303135888502	0.882926829268293
8	0.342857142857143	0.0197044334975369	0.571428571428571	0.551724137931034
2	-0.986309523809524	-0.443264997434028	0.491694352159468	0.934959349593496
-5	1.09464285714286	0.455400128227546	0.838345864661654	0.382945736434109
-8	-0.0672619047619047	0.0605920205920205	0.687258687258687	0.626666666666667
5	1.08333333333333	0.303469079939668	0.923076923076923	0.619607843137255
-3	-1.17142857142857	-0.464813384813385	0.281853281853282	0.746666666666667
-5	0.3375	0.16869918699187	0.583333333333333	0.414634146341463
8	0.835714285714286	0.278689937513467	0.596638655462185	0.317948717948718
4	0.473809523809524	0.137726669615215	0.443609022556391	0.305882352941176
0	-0.371428571428571	-0.215873015873016	0.761904761904762	0.977777777777778
5	-1.45297619047619	-0.831487810435179	0.556390977443609	1.38787878787879
-2	-0.0244047619047618	-0.0189288189288189	0.745173745173745	0.764102564102564
12	1.86666666666667	0.644444444444444	1	0.355555555555556
-6	0.285714285714286	0.140136054421769	0.673469387755102	0.533333333333333
-15	-0.666666666666667	-0.0813582813582813	0.513513513513514	0.594871794871795
8	0.732738095238095	0.0761904761904761	0.809523809523809	0.733333333333333
-3	0.180357142857143	0.0885684003331063	0.533613445378151	0.445045045045045
-4	-1.22916666666667	-0.518263718263718	0.272727272727273	0.790990990990991
7	1.81369047619048	0.643600937828442	0.951127819548872	0.30752688172043
-3	-0.357738095238095	-0.14053724053724	0.404761904761905	0.545299145299145
2	-0.142857142857143	-0.125770308123249	0.407563025210084	0.533333333333333
-2	-0.991071428571428	-0.433351719066005	0.530612244897959	0.963963963963964
0	-0.400595238095238	-0.214421768707483	0.469387755102041	0.683809523809524
3	0.64702380952381	0.175868725868726	0.678571428571429	0.502702702702703
-1	1.34047619047619	0.531179299600352	0.861003861003861	0.329824561403509
-7	-1.03809523809524	-0.306680706680707	0.687258687258687	0.993939393939394
-6	-0.780952380952381	-0.23570289359763	0.612781954887218	0.848484848484849
7	1.48333333333333	0.501141141141141	0.918918918918919	0.417777777777778
0	0.275595238095238	0.0694980694980696	0.745173745173745	0.675675675675676
-6	-0.814880952380952	-0.303401360544218	0.163265306122449	0.466666666666667
-3	0.0898809523809525	0.042050247570145	0.612781954887218	0.570731707317073
3	-0.433928571428571	-0.266883116883117	0.345238095238095	0.612121212121212
-7	-0.819047619047619	-0.256862056862057	0.397683397683398	0.654545454545455
4	-0.0482142857142853	-0.13942304674012	0.651567944250871	0.790990990990991
-2	0.2375	0.0962676962676963	0.714285714285714	0.618018018018018
6	0.190476190476191	-0.0114845938375349	0.407563025210084	0.419047619047619
0	-0.152380952380952	-0.0986772486772486	0.464285714285714	0.562962962962963
6	0.0547619047619046	-0.092577030812325	0.464285714285714	0.556862745098039
3	0.340476190476191	0.0869710046180635	0.455598455598456	0.368627450980392
1	-0.85	-0.470028011204482	0.714285714285714	1.1843137254902
0	0.194642857142857	0.0476190476190475	0.483516483516483	0.435897435897436
-6	-0.0863095238095237	0.0141473341473342	0.593406593406593	0.579259259259259
-3	0.092857142857143	0.041025641025641	0.593406593406593	0.552380952380952
-10	-0.795833333333333	-0.17854526425955	0.538461538461539	0.717006802721088
-3	-2.33869047619048	-0.951404151404151	0.523809523809524	1.47521367521368
-3	-1.37380952380952	-0.517704517704518	0.593406593406593	1.11111111111111
1	-0.0666666666666668	-0.0606060606060607	0.272727272727273	0.333333333333333
-6	-0.561904761904762	-0.198487394957983	0.281512605042017	0.48
7	1.15	0.324725011956002	0.75609756097561	0.431372549019608
-3	0.276190476190476	0.105332066307676	0.808362369337979	0.703030303030303
-3	-1.04761904761905	-0.456661856661857	0.402597402597403	0.859259259259259
5	0.0166666666666675	-0.198491704374057	0.923076923076923	1.12156862745098
0	0.169047619047619	0.0397759103641457	0.596638655462185	0.556862745098039
-5	0.00892857142857162	0.0449437547356765	0.725563909774436	0.68062015503876
9	0.492857142857143	0.0334065934065934	0.593406593406593	0.56
7	-0.0285714285714287	-0.241758241758242	0.758241758241758	1
4	-0.535714285714286	-0.402358838272151	0.781954887218045	1.1843137254902
-2	0.771428571428572	0.29889724310777	0.725563909774436	0.426666666666667
-7	-0.543452380952381	-0.127076411960133	0.702380952380952	0.829457364341085
3	0.604166666666667	0.231878557874763	0.470588235294118	0.238709677419355
7	0.3375	-0.0354886659234486	0.673913043478261	0.709401709401709
0	-0.838095238095238	-0.395502645502646	0.345238095238095	0.740740740740741
0	-0.595833333333333	-0.28034188034188	0.538461538461539	0.818803418803419
1	0.00952380952380949	-0.0374912891986063	0.442508710801394	0.48
10	1.63273809523809	0.467730695740137	0.912891986062718	0.445161290322581
3	-0.376785714285714	-0.297619047619048	0.702380952380952	1
-8	-1.4577380952381	-0.476527956527956	0.33976833976834	0.816296296296296
4	0.580357142857143	0.153406593406593	0.593406593406593	0.44
8	0.933333333333333	0.316666666666667	0.583333333333333	0.266666666666667
2	-0.992857142857143	-0.488220551378446	0.571428571428571	1.05964912280702
-3	0.485714285714286	0.179622004012248	0.494773519163763	0.315151515151515
1	-0.0196428571428571	-0.0616270405744089	0.556390977443609	0.618018018018018
-7	-0.907142857142857	-0.211791383219955	1.20408163265306	1.41587301587302
-3	0.518452380952381	0.211223179900972	0.781954887218045	0.570731707317073
-1	-0.586309523809524	-0.26241244135981	0.556390977443609	0.818803418803419
-5	0.285119047619048	0.150947135280061	0.781954887218045	0.631007751937985
-12	-0.138690476190476	0.043353557639272	0.455598455598456	0.412244897959184
5	-0.233928571428571	-0.302611367127496	0.761904761904762	1.06451612903226
-2	0.351785714285715	0.146791689648833	0.591836734693878	0.445045045045045
4	0.642261904761905	0.0859326859326859	1.15057915057915	1.06464646464646
-2	0.75	0.246574440052701	0.704545454545455	0.457971014492754
1	0.0184523809523811	-0.0666937614306035	0.781954887218045	0.848648648648649
11	0.4	-0.0329670329670328	0.538461538461539	0.571428571428571
-4	0.702380952380953	0.302756892230576	1.00751879699248	0.704761904761905
9	1.1422619047619	0.341655863797425	0.725563909774436	0.383908045977012
6	0.778571428571429	0.201904761904762	0.761904761904762	0.56
3	0.473809523809524	0.149716102657279	0.455598455598456	0.305882352941176
-4	0.642261904761905	0.278507078507079	0.745173745173745	0.466666666666667
-6	-0.745238095238095	-0.249206349206349	0.404761904761905	0.653968253968254
2	0.0833333333333335	-0.0362745098039216	0.583333333333333	0.619607843137255
0	-0.371428571428571	-0.207440476190476	0.325892857142857	0.533333333333333
-8	0.0565476190476191	0.0748299319727891	0.408163265306122	0.333333333333333
5	0.2375	0.0131169709263015	0.470588235294118	0.457471264367816
-2	0.0833333333333335	0.0289473684210527	0.583333333333333	0.554385964912281
6	1.02619047619048	0.309943977591037	0.678571428571429	0.368627450980392
-12	-0.971428571428571	-0.280167748917749	0.325892857142857	0.606060606060606
9	0.473809523809524	0.0657387057387057	0.483516483516483	0.417777777777778
-7	-0.0767857142857142	0.0335226956279588	0.612781954887218	0.579259259259259
-10	-1.34821428571429	-0.375510204081633	0.428571428571429	0.804081632653061
3	0.35952380952381	0.0773109243697478	0.571428571428571	0.494117647058824
4	0.489880952380953	0.169453587886768	0.408163265306123	0.238709677419355
-5	-0.176785714285714	-0.0244483159117305	0.702380952380952	0.726829268292683
1	0.0279761904761906	-0.038095238095238	0.523809523809524	0.561904761904762
-1	0.766071428571429	0.267015098722416	0.785714285714286	0.51869918699187
4	-1.65	-0.872549019607843	0.5	1.37254901960784
6	0.092857142857143	-0.13047619047619	0.642857142857143	0.773333333333333
4	-0.573809523809524	-0.376942355889724	0.556390977443609	0.933333333333333
5	0.142857142857143	-0.11015614918054	0.808362369337979	0.918518518518519
5	0.0571428571428574	-0.0777348777348776	0.455598455598456	0.533333333333333
-6	-0.719642857142857	-0.262337662337662	0.337662337662338	0.6
-1	-0.172023809523809	-0.0942084942084941	0.523809523809524	0.618018018018018
9	1.53333333333333	0.4998712998713	0.918918918918919	0.419047619047619
-7	0.390476190476191	0.188931788931789	0.455598455598456	0.266666666666667
1	-0.372023809523809	-0.220952380952381	0.523809523809524	0.744761904761905
-2	-0.205357142857143	-0.0897006897006896	0.455598455598456	0.545299145299145
9	0.511904761904762	0.00107448107448116	0.703296703296703	0.702222222222222
-1	0.245238095238095	0.0989050165520754	0.467532467532468	0.368627450980392
-7	-0.500595238095238	-0.164705433455433	0.325892857142857	0.490598290598291
8	0.52797619047619	0.107172397494978	0.483516483516483	0.376344086021505
3	0.75952380952381	0.265546218487395	0.571428571428571	0.305882352941176
-1	-0.202380952380952	-0.10056221635169	0.397683397683398	0.498245614035088
-4	-1.52380952380952	-0.583809523809524	0.642857142857143	1.22666666666667
8	-0.00238095238095237	-0.137513466925232	0.34453781512605	0.482051282051282
-8	-0.35297619047619	-0.0552380952380953	0.571428571428571	0.626666666666667
8	1.4	0.428571428571428	1	0.571428571428571
-3	-0.0720238095238093	-0.0230576441102756	0.443609022556391	0.466666666666667
-1	-0.467261904761905	-0.215122265122265	0.345238095238095	0.56036036036036
4	0.223214285714286	-0.0945438945438943	1.03474903474903	1.12929292929293
7	1.49285714285714	0.487945087945088	0.976833976833977	0.488888888888889
-3	-0.180952380952381	-0.063989703989704	0.629343629343629	0.693333333333333
1	-0.638690476190476	-0.342857142857143	0.523809523809524	0.866666666666667
0	-0.681547619047619	-0.285017421602787	0.285714285714286	0.570731707317073
1	-0.0571428571428573	-0.0623376623376624	0.337662337662338	0.4
-4	-1.5452380952381	-0.577109440267335	0.330827067669173	0.907936507936508
-8	-1.41190476190476	-0.451781627983001	0.330827067669173	0.782608695652174
1	-0.614880952380952	-0.332229861641626	0.34453781512605	0.676767676767677
7	0.619047619047619	0.115018315018315	0.648351648351648	0.533333333333333
3	0.654761904761905	0.188311000075706	0.745173745173745	0.556862745098039
5	-0.161904761904762	-0.254826254826255	0.745173745173745	1
-1	-0.84047619047619	-0.407435701553349	0.337662337662338	0.745098039215686
3	0.199404761904762	-0.0146365914786968	0.669172932330827	0.683809523809524
-6	-0.476785714285714	-0.0923827481967017	1.03474903474903	1.12713178294574
0	0.178571428571429	0.0400560224089636	0.659663865546218	0.619607843137255
-11	-0.2625	0.0173758865248227	0.583333333333333	0.565957446808511
2	0.199404761904762	0.0466092466092466	0.318681318681319	0.272072072072072
-5	-1.22916666666667	-0.428682170542635	0.5	0.928682170542636
-1	-0.17202380952381	-0.093389355742297	0.407563025210084	0.500952380952381
2	0.171428571428571	-0.0151768309663046	0.725563909774436	0.740740740740741
-4	-0.819642857142857	-0.338013338013338	0.337662337662338	0.675675675675676
2	-0.478571428571429	-0.258521303258145	0.464285714285714	0.72280701754386
-8	-0.214880952380952	0.0202790117683734	0.813186813186813	0.79290780141844
1	-1.91964285714286	-0.839920358387257	0.979591836734694	1.81951219512195
2	0.342261904761905	0.0613642213642214	0.745173745173745	0.683809523809524
8	0.351785714285715	-0.0180398085159988	0.591836734693878	0.609876543209876
-6	-0.361904761904762	-0.0689342403628116	0.775510204081633	0.844444444444444
-5	0.451785714285714	0.24041514041514	0.785714285714286	0.545299145299145
1	0.619047619047619	0.142338840298024	0.720116618075802	0.577777777777778
-10	-1.19107142857143	-0.333091458805745	0.530612244897959	0.863703703703704
2	-0.114880952380952	-0.103268983268983	0.397683397683398	0.500952380952381
-1	0.340476190476191	0.125773894194947	0.455598455598456	0.329824561403509
-4	-0.192857142857143	-0.0579782790309106	0.443609022556391	0.501587301587302
1	-0.228571428571429	-0.173344773344773	0.745173745173745	0.918518518518519
-2	-0.367261904761905	-0.147985347985348	0.318681318681319	0.466666666666667
1	0.456547619047619	0.140476190476191	0.702380952380952	0.561904761904762
-10	-0.173809523809524	0.0439047619047619	0.678571428571429	0.634666666666667
-14	-1.43869047619048	-0.348323113028995	0.455598455598456	0.803921568627451
-4	1.46130952380952	0.645735217163788	1.08163265306122	0.435897435897436
7	0.294642857142857	0.0347235190372446	0.407563025210084	0.37283950617284
2	-0.967261904761904	-0.507620834450103	0.912891986062718	1.42051282051282
-5	1.18095238095238	0.540408163265306	1.02040816326531	0.48
6	0.84702380952381	0.244475721323012	0.775510204081633	0.531034482758621
4	-0.424404761904762	-0.327452271231073	0.530612244897959	0.858064516129032
7	0.456547619047619	0.0242200328407225	0.702380952380952	0.67816091954023
0	0.952380952380952	0.376455026455027	0.702380952380952	0.325925925925926
6	0.378571428571429	-0.0114285714285713	0.761904761904762	0.773333333333333
-4	-1.11666666666667	-0.407936507936508	0.5	0.907936507936508
1	-0.266666666666667	-0.167967967967968	0.513513513513514	0.681481481481482
10	0.999404761904762	0.245825438928887	0.703296703296703	0.457471264367816
-7	0.670833333333333	0.285992907801419	0.625	0.339007092198582
1	0.428571428571429	0.124295724295724	0.687258687258687	0.562962962962963
1	-0.429166666666666	-0.233333333333333	0.5	0.733333333333333
-4	-0.25	-0.0639933166248955	0.894736842105263	0.958730158730159
-2	0.232738095238095	0.0872586872586872	0.687258687258687	0.6
5	0.378571428571428	0.0209437621202325	0.703296703296703	0.682352941176471
-6	-2.21964285714286	-0.745646643321062	0.976833976833977	1.72248062015504
-2	0.0476190476190477	0.0186118892001245	0.34453781512605	0.325925925925926
9	1.21666666666667	0.291965811965812	0.923076923076923	0.631111111111111
2	-0.576785714285714	-0.333250876108019	0.408163265306122	0.741414141414141
-2	0.466666666666667	0.18	0.5	0.32
11	0.961904761904762	0.208058608058608	0.703296703296703	0.495238095238095
-3	0.178571428571429	0.0710622710622711	0.318681318681319	0.247619047619048
2	0.819047619047619	0.329971988795518	0.596638655462185	0.266666666666667
3	0.514285714285714	0.0870748299319726	1.02040816326531	0.933333333333333
6	0.523214285714286	0.115725900116144	0.494773519163763	0.379047619047619
-1	-0.152976190476191	-0.0892436974789917	0.533613445378151	0.622857142857143
-6	0.530952380952381	0.277777777777778	0.880952380952381	0.603174603174603
-1	-0.429166666666666	-0.207657657657658	0.583333333333333	0.790990990990991
3	0.15	-0.0771595124536302	0.918918918918919	0.996078431372549
-2	-0.516666666666666	-0.200793650793651	0.25	0.450793650793651
-5	-0.164285714285714	-0.0395078605604923	0.402597402597403	0.442105263157895
8	1.04761904761905	0.226190476190476	0.892857142857143	0.666666666666667
1	0.0357142857142858	-0.0232092837134854	0.408163265306122	0.431372549019608
4	0.361309523809524	0.00146520146520168	0.868131868131868	0.866666666666667
0	0.0833333333333335	0.0017543859649124	0.5	0.498245614035088
5	-0.345238095238095	-0.245981469510881	0.373626373626374	0.619607843137255
-5	-0.410119047619047	-0.117450603252317	0.612781954887218	0.730232558139535
1	-0.819642857142857	-0.396666666666667	0.226190476190476	0.622857142857143
-8	-0.186309523809524	-0.0249392883539226	0.337662337662338	0.36260162601626
7	0.769047619047619	0.211565851565852	0.629343629343629	0.417777777777778
0	-0.329166666666667	-0.170940170940171	0.538461538461538	0.709401709401709
-4	-0.843452380952381	-0.305615720249867	0.629343629343629	0.934959349593496
4	0.404166666666667	0.0953316953316954	0.513513513513514	0.418181818181818
-6	1.01369047619048	0.464941098390576	0.775510204081633	0.310569105691057
4	-1.1625	-0.632967032967033	0.538461538461539	1.17142857142857
1	0.694642857142857	0.266666666666667	0.523809523809524	0.257142857142857
-7	0.704761904761905	0.333052533052533	0.745173745173745	0.412121212121212
0	0.209523809523809	0.0385714285714285	0.678571428571428	0.64
-1	-0.648214285714286	-0.256560846560847	0.607142857142857	0.863703703703704
0	0.275595238095238	0.0906122448979592	0.530612244897959	0.44
1	0.378571428571429	0.0927703875072298	0.703296703296703	0.610526315789474
-7	-1.17380952380952	-0.408616780045351	0.346938775510204	0.755555555555556
3	-0.380952380952381	-0.258503401360544	0.408163265306122	0.666666666666667
3	-0.164285714285714	-0.157402597402597	0.402597402597403	0.56
11	0.971428571428571	0.186813186813187	0.758241758241758	0.571428571428571
1	-0.114285714285714	-0.0696278511404562	0.653061224489796	0.722689075630252
-6	-0.195833333333333	-0.0125435540069686	0.714285714285714	0.726829268292683
-2	-0.25297619047619	-0.113034932547127	0.978021978021978	1.09105691056911
-4	0.161904761904762	0.0826839826839828	0.785714285714286	0.703030303030303
6	-0.221428571428571	-0.2130667578036	0.50974025974026	0.72280701754386
-5	0.142261904761905	0.0945561578364517	0.725563909774436	0.631007751937985
-2	0.62797619047619	0.209011935523563	0.740863787375415	0.531851851851852
1	0.714285714285715	0.224901277584205	0.651567944250871	0.426666666666667
-2	-0.0624999999999998	-0.0322701688555346	0.538461538461539	0.570731707317073
2	-0.057738095238095	-0.0714186714186714	0.373626373626374	0.445045045045045
-4	-0.133333333333334	-0.0133333333333334	1	1.01333333333333
3	-0.0857142857142854	-0.141496598639456	0.591836734693878	0.733333333333333
-4	-0.205357142857143	-0.0631007313934142	0.455598455598456	0.51869918699187
0	0.218452380952381	0.067953667953668	0.397683397683398	0.32972972972973
-1	1.48988095238095	0.571621361095045	1.00751879699248	0.435897435897436
1	0.104166666666667	-0.00270270270270268	0.5	0.502702702702703
-1	-0.15297619047619	-0.0892436974789914	0.533613445378151	0.622857142857143
7	1.28571428571429	0.379278540684567	0.912891986062718	0.533613445378151
-2	0.207142857142857	0.0817042606516292	0.523809523809524	0.442105263157895
2	-0.0244047619047623	-0.0815089672232531	0.530612244897959	0.612121212121212
-4	-0.0476190476190477	0.00904761904761908	0.702380952380952	0.693333333333333
1	-0.571428571428571	-0.255842308473887	0.894736842105263	1.15057915057915
-7	-0.600595238095238	-0.147123363965469	0.669172932330827	0.816296296296296
-6	-0.0499999999999998	0.030952380952381	0.583333333333333	0.552380952380952
5	-0.192857142857143	-0.198836457659987	0.483516483516484	0.682352941176471
-7	-0.0291666666666668	0.0784405458089669	0.894736842105263	0.816296296296296
6	0.261309523809524	0.010437165275875	0.455598455598456	0.445161290322581
2	-0.0595238095238093	-0.095798319327731	0.523809523809524	0.619607843137255
-2	-0.486309523809524	-0.213421584850156	0.346938775510204	0.56036036036036
0	1.08035714285714	0.378021978021978	0.978021978021978	0.6
3	0.980952380952381	0.391836734693877	0.591836734693877	0.2
11	1.96130952380952	0.636083743842365	0.946428571428572	0.310344827586207
-3	-0.605357142857143	-0.231187725411089	0.443609022556391	0.67479674796748
0	-0.514285714285714	-0.274404761904762	0.258928571428571	0.533333333333333
2	-1.21964285714286	-0.601188001188001	0.593406593406593	1.19459459459459
4	0.114285714285714	-0.04510582010582	0.517857142857143	0.562962962962963
-9	-0.957738095238095	-0.280520450061323	0.330827067669173	0.611347517730496
7	0.589880952380953	0.144786803610333	0.596638655462185	0.451851851851852
11	1.37083333333333	0.363872644574399	0.894736842105263	0.530864197530864
-5	-0.535714285714286	-0.155641355641356	0.803088803088803	0.958730158730159
0	1.02857142857143	0.359047619047619	0.785714285714286	0.426666666666667
-16	-0.564285714285714	-0.0143785389399425	0.612781954887218	0.62716049382716
3	-0.514285714285714	-0.336301218161683	0.890365448504983	1.22666666666667
9	0.304166666666667	-0.0310344827586206	0.5	0.531034482758621
-2	-0.0625000000000002	-0.0313457152166831	0.516129032258064	0.547474747474747
-11	1.48333333333333	0.62974358974359	0.923076923076923	0.293333333333333
6	0.607142857142857	0.177142857142857	0.523809523809524	0.346666666666667
-8	-0.107142857142857	0.0320261437908496	0.533613445378151	0.501587301587302
3	1.54285714285714	0.533577533577534	0.978021978021978	0.444444444444444
1	-0.0720238095238095	-0.0752652576181987	0.407563025210084	0.482828282828283
-9	0.275595238095238	0.157354497354497	0.404761904761905	0.247407407407407
-4	-1.34345238095238	-0.561366561366561	0.402597402597403	0.963963963963964
-2	-0.424404761904762	-0.183031383031383	0.745173745173745	0.928205128205128
-3	0.908928571428572	0.362962283758176	0.725563909774436	0.36260162601626
3	-0.440476190476191	-0.293448773448773	0.337662337662338	0.631111111111111
-1	0.608928571428571	0.248005148005148	0.404761904761905	0.156756756756757
7	-1.92619047619048	-1.17106821106821	0.455598455598456	1.62666666666667
0	0.730952380952381	0.291596638655462	0.785714285714286	0.494117647058824
3	1.1422619047619	0.407468671679198	0.725563909774436	0.318095238095238
3	-0.443452380952381	-0.261760461760462	0.285714285714286	0.547474747474747
6	-0.457738095238095	-0.450081300813008	0.965156794425087	1.4152380952381
1	0.408928571428572	0.107545891756418	0.725563909774436	0.618018018018018
-4	0.476190476190476	0.216190476190476	0.642857142857143	0.426666666666667
-4	0.864285714285715	0.322182786157942	0.826530612244898	0.504347826086956
-3	0.742261904761904	0.335301688242865	0.722689075630252	0.387387387387387
0	0.204166666666667	0.047863247863248	0.538461538461539	0.490598290598291
-8	-0.526190476190476	-0.144817927170868	0.407563025210084	0.552380952380952
-1	0.375595238095238	0.125563909774436	0.725563909774436	0.6
-4	1.07559523809524	0.424908424908425	0.758241758241758	0.333333333333333
-2	0.513690476190476	0.16645748738772	0.840531561461794	0.674074074074074
-8	-0.583333333333333	-0.143478260869565	0.5	0.643478260869565
-5	0.323214285714286	0.178061432651396	1.00751879699248	0.829457364341085
7	0.485714285714286	0.0483516483516484	0.648351648351648	0.6
2	-0.3625	-0.175003940110323	0.404255319148936	0.579259259259259
-13	-1.3625	-0.289465408805031	0.625	0.914465408805031
10	1.48511904761905	0.509261642594976	0.803088803088803	0.293827160493827
0	-0.44047619047619	-0.222556390977444	0.556390977443609	0.778947368421053
-4	0.651785714285714	0.284389616096933	0.803088803088803	0.51869918699187
9	0.232738095238095	-0.034447004608295	0.410714285714286	0.445161290322581
4	0.559523809523809	0.186946778711484	0.533613445378151	0.346666666666667
5	0.464285714285715	0.102947845804989	0.591836734693878	0.488888888888889
-4	-0.773809523809524	-0.252913339248743	0.622448979591837	0.87536231884058
10	0.861309523809524	0.229061224489796	0.653061224489796	0.424
-10	0.511904761904762	0.279047619047619	0.785714285714286	0.506666666666667
-1	0.0833333333333335	0.0152678994784259	0.513513513513514	0.498245614035088
12	1.45714285714286	0.407142857142857	0.94047619047619	0.533333333333333
1	-0.580952380952381	-0.330735930735931	0.402597402597403	0.733333333333333
4	-0.181547619047619	-0.197080704397777	0.651567944250871	0.848648648648649
-12	-0.191071428571429	0.0798103856927386	0.758241758241758	0.67843137254902
-2	0.208928571428572	0.0675201901520677	0.599303135888502	0.531782945736434
-5	-0.383333333333333	-0.0906048906048906	0.918918918918919	1.00952380952381
-5	-0.459523809523809	-0.147576147576147	0.455598455598456	0.603174603174603
1	0.942857142857143	0.364021164021164	0.571428571428571	0.207407407407407
-13	-0.84047619047619	-0.148571428571429	0.571428571428571	0.72
-3	0.161309523809524	0.0778332954803544	0.407563025210084	0.32972972972973
6	1.01904761904762	0.346115288220551	0.612781954887218	0.266666666666667
5	0.542261904761904	0.118091374480827	0.722689075630252	0.604597701149425
3	0.580357142857143	0.17734335839599	0.556390977443609	0.379047619047619
7	1.28035714285714	0.368332120624141	0.951127819548872	0.582795698924731
-7	-0.191071428571429	0.00408242829295469	0.725563909774436	0.721481481481482
-1	-0.171428571428571	-0.0967032967032967	0.703296703296703	0.8
3	0.4	0.0940170940170941	0.538461538461539	0.444444444444444
0	-0.133928571428571	-0.103732303732304	0.687258687258687	0.790990990990991
6	1.10416666666667	0.403940886699507	0.714285714285714	0.310344827586207
12	0.0136904761904761	-0.228735755367413	0.491694352159468	0.720430107526882
-1	-0.533928571428572	-0.211741221741222	0.50974025974026	0.721481481481482
3	-0.995833333333334	-0.44041514041514	0.214285714285714	0.654700854700855
-3	0.247619047619048	0.10975546975547	0.803088803088803	0.693333333333333
-10	0.483333333333333	0.246333333333333	0.625	0.378666666666667
-6	0.0476190476190477	0.0789245841877422	0.781954887218045	0.703030303030303
-2	-0.0499999999999998	-0.0289682539682539	0.625	0.653968253968254
-1	-0.307142857142857	-0.151378446115288	0.571428571428571	0.72280701754386
-4	-1.07619047619048	-0.374025974025974	0.571428571428572	0.945454545454545
13	2.16607142857143	0.725243107769424	1.06390977443609	0.338666666666667
-7	-0.345238095238095	-0.0725623582766439	0.530612244897959	0.603174603174603
2	0.327976190476191	0.0491318979123858	0.70383275261324	0.654700854700855
4	0.54702380952381	0.153246753246753	0.571428571428571	0.418181818181818
2	-0.0309523809523808	-0.105462184873949	0.702380952380952	0.807843137254902
9	0.75	0.191794871794872	0.538461538461539	0.346666666666667
-12	-0.733928571428571	-0.159134199134199	0.467532467532468	0.626666666666667
4	0.0327380952380951	-0.118801918801919	0.687258687258687	0.806060606060606
8	1.00892857142857	0.287702480805929	0.745173745173745	0.457471264367816
5	1.00892857142857	0.277380952380952	0.839285714285714	0.561904761904762
0	-0.345238095238095	-0.167418546365915	0.330827067669173	0.498245614035088
2	0.813690476190476	0.29268192125335	0.775510204081633	0.482828282828283
6	0.685119047619048	0.207928688716866	0.591836734693878	0.383908045977012
-4	0.304166666666667	0.129430894308943	0.75609756097561	0.626666666666667
8	1.26428571428571	0.467765567765568	0.785714285714286	0.317948717948718
5	1.28333333333333	0.50984126984127	0.714285714285714	0.204444444444444
-6	-0.500595238095238	-0.153376472540236	0.469387755102041	0.622764227642276
3	-0.00535714285714262	-0.0795918367346937	0.520408163265306	0.6
-4	-0.488095238095238	-0.176357560568087	0.274436090225564	0.450793650793651
-1	-0.592857142857143	-0.267208561945404	0.455598455598456	0.72280701754386
-7	0.4	0.198361998361998	0.513513513513514	0.315151515151515
-4	0.911904761904762	0.434173669467787	1.10084033613445	0.666666666666667
-6	-1.5452380952381	-0.553968253968254	0.404761904761905	0.958730158730159
1	-0.745238095238095	-0.349180643917486	0.373626373626374	0.72280701754386
0	0.885119047619047	0.336598639455782	1.02040816326531	0.683809523809524
-7	-0.95297619047619	-0.244427736006683	0.951127819548872	1.19555555555556
8	-0.395833333333333	-0.388420181968569	0.538461538461539	0.926881720430108
8	-0.202380952380952	-0.243893065998329	0.387218045112782	0.631111111111111
-3	-0.0863095238095242	-0.0267469149822093	0.533613445378151	0.56036036036036
4	0.911904761904762	0.300545481350435	0.669172932330827	0.368627450980392
-7	0.342261904761905	0.193712057922584	0.725563909774436	0.531851851851852
7	0.0761904761904759	-0.083485309017224	0.449848024316109	0.533333333333333
-7	-0.0476190476190478	0.0292640692640692	0.402597402597403	0.373333333333333
3	0.190476190476191	0.0279569892473118	0.447004608294931	0.419047619047619
2	-0.281547619047619	-0.191896928936067	0.691029900332226	0.882926829268293
4	0.0708333333333333	-0.145727545727546	0.918918918918919	1.06464646464646
-2	-0.286309523809523	-0.130796102224674	0.775510204081633	0.906306306306306
4	0.723214285714286	0.208351648351648	0.648351648351648	0.44
-3	-0.00535714285714306	0.00745155571856471	0.838345864661654	0.83089430894309
-1	-1.08630952380952	-0.494079794079794	0.642857142857143	1.13693693693694
3	-1.27857142857143	-0.628767039550095	0.599303135888502	1.2280701754386
5	0.19047619047619	0.0120531681507291	0.337979094076655	0.325925925925926
13	1.29940476190476	0.393788819875776	0.761904761904762	0.368115942028986
-9	0.133333333333333	0.167521367521367	0.923076923076923	0.755555555555556
-4	0.251785714285714	0.128292055121323	0.803088803088803	0.67479674796748
1	0.169047619047619	0.0395358143257303	0.408163265306122	0.368627450980392
-1	-0.686309523809524	-0.333053221288515	0.533613445378151	0.866666666666667
-1	-0.810119047619047	-0.31468122132574	0.316326530612245	0.631007751937985
-7	-0.557738095238095	-0.147061803444782	0.464285714285714	0.611347517730496
7	1.07559523809524	0.274557823129252	0.775510204081633	0.500952380952381
4	0.121428571428572	-0.0822792274804657	0.725563909774436	0.807843137254902
-2	-0.0720238095238093	-0.0349998349998349	0.455598455598456	0.490598290598291
3	0.311904761904762	0.0487927134910447	0.547038327526132	0.498245614035088
-9	-1.81964285714286	-0.593518337567585	0.533613445378151	1.12713178294574
1	0.34047619047619	0.0975515712357817	0.483516483516483	0.385964912280702
1	0.751785714285714	0.258095238095238	0.880952380952381	0.622857142857143
-1	0.111904761904762	0.0205920205920206	0.687258687258687	0.666666666666667
-5	-0.142857142857143	-0.0255744255744255	0.483516483516484	0.509090909090909
-6	0.483333333333334	0.234126984126984	0.583333333333333	0.349206349206349
0	0.170833333333333	0.0304761904761903	0.714285714285714	0.683809523809524
-2	0.756547619047619	0.285750022335388	0.648351648351648	0.36260162601626
-6	0.180952380952381	0.145714285714286	0.785714285714286	0.64
-1	0.311904761904762	0.0962446767324815	0.547038327526132	0.450793650793651
-9	0.308928571428572	0.204996533887911	0.725563909774436	0.520567375886525
-5	-0.192857142857143	-0.0459888459888459	0.455598455598456	0.501587301587302
0	0.347023809523809	0.115440115440115	0.792207792207792	0.676767676767677
-4	-0.233928571428571	-0.0759113901971044	0.469387755102041	0.545299145299145
-2	0.397619047619048	0.137301587301587	0.892857142857143	0.755555555555556
-6	0.556547619047619	0.311843711843712	0.857142857142857	0.545299145299145
3	0.599404761904762	0.196299871299871	0.410714285714286	0.214414414414414
0	-0.488095238095238	-0.223809523809524	0.274436090225564	0.498245614035088
9	0.570833333333334	0.116091954022989	0.5	0.383908045977012
-3	0.245238095238095	0.1001221001221	0.703296703296703	0.603174603174603
0	-0.110119047619047	-0.07595818815331	0.494773519163763	0.570731707317073
2	-0.167261904761905	-0.142733457019171	0.469387755102041	0.612121212121212
0	-0.819047619047619	-0.394973544973545	0.464285714285714	0.859259259259259
-8	0.475595238095238	0.260729300729301	0.745173745173745	0.484444444444444
6	0.904761904761905	0.25889724310777	0.725563909774436	0.466666666666667
1	-0.45952380952381	-0.239290534027376	0.483516483516483	0.72280701754386
-10	0.895238095238095	0.40250626566416	0.669172932330827	0.266666666666667
5	-0.857142857142856	-0.491071428571428	0.571428571428571	1.0625
-2	0.35	0.162377450980392	0.59375	0.431372549019608
-3	0.0761904761904764	0.0380952380952381	0.571428571428571	0.533333333333333
-1	-0.676190476190476	-0.324716553287982	0.653061224489796	0.977777777777778
2	0.266666666666667	0.0555555555555557	0.5	0.444444444444444
8	0.447619047619048	0.104265873015873	0.459821428571429	0.355555555555556
-2	0.0755952380952383	0.0279095421952564	0.530612244897959	0.502702702702703
-1	0.219047619047619	0.0616849816849817	0.648351648351648	0.586666666666667
1	0.35	0.0963562753036438	0.538461538461539	0.442105263157895
3	0.466666666666666	0.173271889400922	0.516129032258064	0.342857142857143
-3	-0.371428571428571	-0.154689754689755	0.467532467532468	0.622222222222222
0	-0.15297619047619	-0.0930612244897959	0.346938775510204	0.44
10	-0.229166666666667	-0.228571428571429	0.333333333333333	0.561904761904762
0	-1.03809523809524	-0.54077380952381	0.325892857142857	0.866666666666667
-7	-1.25952380952381	-0.391845835324096	0.483516483516483	0.87536231884058
-12	-0.548214285714285	-0.101636330207759	0.397683397683398	0.499319727891156
-4	-0.516666666666667	-0.196078431372549	0.470588235294118	0.666666666666667
3	0.235714285714286	0.00973578620637439	0.629343629343629	0.619607843137255
-1	1.36904761904762	0.536503420713947	1.03474903474903	0.498245614035088
-2	0.104761904761904	0.0412075941487704	0.722689075630252	0.681481481481482
1	-0.733928571428571	-0.343581927792454	0.274436090225564	0.618018018018018
-3	-0.333333333333333	-0.126486486486486	0.513513513513514	0.64
1	-0.105357142857143	-0.0990476190476192	0.523809523809524	0.622857142857143
1	0.771428571428572	0.218490127758421	0.965156794425087	0.746666666666667
7	-0.0976190476190473	-0.187579422012707	0.494773519163763	0.682352941176471
4	0.742261904761905	0.196336996336996	0.758241758241758	0.561904761904762
0	0.695238095238095	0.258201058201058	0.761904761904762	0.503703703703704
3	1.45654761904762	0.5065664160401	1.00751879699248	0.500952380952381
13	0.483333333333333	-0.0256410256410257	0.538461538461538	0.564102564102564
-4	0.2375	0.105903398926655	0.538461538461539	0.432558139534884
9	0.997619047619048	0.355939298796442	0.591836734693878	0.235897435897436
5	1.03809523809524	0.332636469221835	0.599303135888502	0.266666666666667
6	0.923809523809524	0.238345864661654	0.838345864661654	0.6
2	0.589880952380952	0.189343629343629	0.629343629343629	0.44
-12	-1.47857142857143	-0.454719279015954	0.281512605042017	0.736231884057971
-4	0.426190476190476	0.164477965099083	0.622448979591837	0.457971014492754
-6	-0.104761904761905	0.0196638655462185	0.659663865546218	0.64
-3	1.17142857142857	0.478507078507079	0.745173745173745	0.266666666666667
10	1.22857142857143	0.324489795918367	0.724489795918367	0.4
6	0.188095238095238	-0.0298319327731093	0.464285714285714	0.494117647058824
-4	1.14285714285714	0.397691197691198	0.753246753246753	0.355555555555556
1	0.914285714285715	0.27075493612079	1.01742160278746	0.746666666666667
2	0.502380952380952	0.167678571428571	0.727678571428572	0.56
-3	-0.380952380952381	-0.16036556036556	0.402597402597403	0.562962962962963
1	-0.757738095238095	-0.354517704517704	0.464285714285714	0.818803418803419
-8	0.323214285714286	0.17405473817434	0.408163265306122	0.234108527131783
0	0.751785714285714	0.275646258503401	1.02040816326531	0.744761904761905
7	1.20952380952381	0.43265306122449	0.775510204081633	0.342857142857143
-3	-0.176785714285714	-0.0620147930802616	0.612781954887218	0.67479674796748
-2	0.5375	0.19624765478424	0.923076923076923	0.726829268292683
0	0.235714285714286	0.0583959899749374	0.612781954887218	0.554385964912281
7	0.216666666666667	-0.0464864864864865	0.513513513513514	0.56
-3	0.204166666666667	0.0927350427350428	0.583333333333333	0.490598290598291
3	0.369047619047619	0.127041847041847	0.402597402597403	0.275555555555556
-1	0.380952380952381	0.147392290249433	0.591836734693878	0.444444444444444
8	1.1327380952381	0.37691385967248	0.687258687258687	0.310344827586207
-7	-1.39107142857143	-0.422584238373712	0.725563909774436	1.14814814814815
6	0.399404761904762	0.0854797091250293	0.469387755102041	0.383908045977012
-2	-0.0767857142857145	-0.0374025974025975	0.402597402597403	0.44
-1	0.111904761904762	0.0205920205920206	0.687258687258687	0.666666666666667
2	1.61666666666667	0.631372549019608	1	0.368627450980392
6	0.369047619047619	0.000158730158730247	0.702380952380952	0.702222222222222
-1	-0.869047619047619	-0.381263970737655	0.397683397683398	0.778947368421053
-8	-1.08571428571429	-0.262698412698413	0.892857142857143	1.15555555555556
10	0.685714285714286	0.117543859649123	0.612781954887218	0.495238095238095
-5	-0.0952380952380953	0.00672660672660663	0.758241758241758	0.751515151515152
6	0.423214285714286	0.0362304362304363	0.648351648351648	0.612121212121212
7	0.645238095238095	0.127258687258687	0.687258687258687	0.56
0	0.0666666666666664	-0.015	0.625	0.64
-2	-0.173809523809524	-0.0799498746867167	0.642857142857143	0.72280701754386
-7	0.175595238095238	0.151957368313179	0.722689075630252	0.570731707317073
-1	-1.02142857142857	-0.440953735690578	0.281853281853282	0.72280701754386
-8	0.416666666666667	0.251258581235698	0.894736842105263	0.643478260869565
12	-0.554761904761905	-0.715442452284557	0.669172932330827	1.38461538461538
10	-0.088095238095238	-0.220396825396825	0.410714285714286	0.631111111111111
3	-0.505357142857143	-0.301152882205514	0.443609022556391	0.744761904761905
-4	0.323214285714286	0.139145696218867	0.860627177700348	0.721481481481482
0	0.733333333333333	0.251666666666667	0.625	0.373333333333333
10	0.197619047619048	-0.0998168498168498	0.464285714285714	0.564102564102564
-4	0.79047619047619	0.353809523809524	0.94047619047619	0.586666666666667
-9	-0.583333333333333	-0.129964747356052	0.513513513513514	0.643478260869565
-12	-0.376785714285714	-0.000588343445486306	0.629343629343629	0.629931972789116
-10	0.761904761904762	0.358061821219716	0.669172932330827	0.311111111111111
-9	-0.561904761904762	-0.123933209647495	0.530612244897959	0.654545454545455
2	0.285714285714286	0.0498189919242552	0.612781954887218	0.562962962962963
4	0.0898809523809524	-0.0369980250164582	0.408163265306122	0.445161290322581
-4	-0.143452380952381	-0.0322685066871113	0.648351648351648	0.68062015503876
-1	0.92797619047619	0.347747574063364	0.838345864661654	0.490598290598291
-8	0.375595238095238	0.221898426776475	0.532467532467532	0.310569105691057
-1	-0.557738095238095	-0.257342073131547	0.725563909774436	0.982905982905983
-9	-0.421428571428571	-0.0489731967992838	0.687258687258687	0.736231884057971
-2	-1.42857142857143	-0.575839598997494	0.330827067669173	0.906666666666667
-2	-0.885714285714286	-0.359448621553885	0.387218045112782	0.746666666666667
-1	-0.0761904761904759	-0.0498168498168498	0.483516483516484	0.533333333333333
0	-0.357738095238095	-0.171672771672772	0.373626373626374	0.545299145299145
-8	-0.0976190476190475	0.0442577030812326	0.596638655462185	0.552380952380952
-1	-0.0761904761904764	-0.0498168498168499	0.483516483516483	0.533333333333333
-7	0.370833333333334	0.200387596899225	0.583333333333333	0.382945736434109
-9	-0.278571428571428	0.00894186111577422	0.745173745173745	0.736231884057971
12	0.389880952380953	-0.0362609635948576	0.494773519163763	0.531034482758621
4	0.527976190476191	0.13908272986614	0.653061224489796	0.513978494623656
9	0.556547619047619	0.0873053221288516	0.596638655462185	0.509333333333333
-1	0.0166666666666666	-0.00975609756097562	0.390243902439024	0.4
-8	-0.619047619047619	-0.180178571428571	0.459821428571429	0.64
-2	-0.276190476190476	-0.070983070983071	0.687258687258687	0.758241758241758
3	-0.176785714285714	-0.132467532467533	0.285714285714286	0.418181818181818
-2	-1.14345238095238	-0.498143041000184	0.408163265306123	0.906306306306306
-3	0.664285714285714	0.260805860805861	0.813186813186813	0.552380952380952
-7	-0.745238095238095	-0.224943310657596	0.530612244897959	0.755555555555556
2	-0.186309523809524	-0.135889507318079	0.346938775510204	0.482828282828283
-5	0.35952380952381	0.171428571428571	0.571428571428571	0.4
-4	0.514285714285714	0.202705627705628	0.517857142857143	0.315151515151515
2	0.407142857142857	0.0552005012531327	0.946428571428571	0.891228070175439
3	0.0928571428571427	-0.00900432900432907	0.337662337662338	0.346666666666667
-3	0.514285714285714	0.216422136422136	0.803088803088803	0.586666666666667
-2	-0.040476190476191	-0.0261904761904763	0.678571428571428	0.704761904761905
4	-0.310119047619048	-0.243449637919684	0.408163265306122	0.651612903225806
3	0.114285714285714	-0.0158730158730159	0.428571428571429	0.444444444444444
1	-0.0309523809523808	-0.0616463639719453	0.541528239202658	0.603174603174603
10	1.30416666666667	0.318479221927498	0.923076923076923	0.604597701149425
-4	0.819047619047619	0.320021645021645	0.732142857142857	0.412121212121212
7	0.0089285714285714	-0.126272577996716	0.404761904761905	0.531034482758621
4	1.26130952380952	0.430019749835418	1.08163265306122	0.651612903225806
0	0.289880952380952	0.113708513708514	0.402597402597403	0.288888888888889
-1	-1.00535714285714	-0.429895250947883	0.443609022556391	0.873504273504274
1	0.104761904761905	-0.000865800865801014	0.532467532467532	0.533333333333333
-4	-0.791071428571428	-0.264400567815202	0.599303135888502	0.863703703703704
-15	0.161904761904762	0.215463815463815	0.687258687258687	0.471794871794872
9	0.257142857142857	-0.0396396396396396	0.455598455598456	0.495238095238095
-1	1.63809523809524	0.692517006802721	0.959183673469388	0.266666666666667
-3	0.0898809523809523	0.0476800976800977	0.702380952380952	0.654700854700855
-9	1.09285714285714	0.518862962341223	0.976833976833977	0.457971014492754
-1	-0.219642857142857	-0.103539253539253	0.226190476190476	0.32972972972973
-11	-0.6625	-0.129931972789116	0.5	0.629931972789116
12	0.666071428571428	0.0144078144078142	0.703296703296703	0.688888888888889
-7	0.304166666666667	0.157777777777778	0.5	0.342222222222222
5	1.40416666666667	0.476555023923445	0.894736842105263	0.418181818181818
6	1.15178571428571	0.342247243725076	1.02040816326531	0.67816091954023
0	0.313690476190476	0.0705276705276705	0.976833976833977	0.906306306306306
-1	0.0708333333333335	0.00940170940170953	0.5	0.490598290598291
-4	0.380952380952381	0.154220779220779	0.517857142857143	0.363636363636364
7	0.0279761904761904	-0.12330117232078	0.407563025210084	0.530864197530864
-3	0.975595238095238	0.393471483587016	1.1203007518797	0.726829268292683
-20	-0.228571428571428	0.061904761904762	0.404761904761905	0.342857142857143
5	0.492857142857143	0.0992889463477699	0.593406593406593	0.494117647058824
0	0.970833333333333	0.358558558558558	0.918918918918919	0.56036036036036
7	0.921428571428572	0.157313657170185	0.965156794425087	0.807843137254902
4	-0.74345238095238	-0.411532787142543	0.494773519163763	0.906306306306306
9	0.742261904761905	0.120966208625011	0.725563909774436	0.604597701149425
-1	-0.573809523809524	-0.263659147869674	0.571428571428571	0.835087719298246
3	0.102380952380952	-0.0530093118328413	0.629343629343629	0.682352941176471
-2	0.657142857142857	0.285776532835357	0.848739495798319	0.562962962962963
5	0.413690476190476	0.0600614439324116	0.642857142857143	0.582795698924731
4	1.0452380952381	0.363290579389651	0.669172932330827	0.305882352941176
-11	-1.12619047619048	-0.279150183150183	0.483516483516483	0.762666666666667
1	-0.981547619047619	-0.461430603535867	0.387218045112782	0.848648648648649
-5	-0.573809523809524	-0.184126984126984	0.571428571428571	0.755555555555556
-1	-0.0767857142857141	-0.0440154440154439	0.285714285714286	0.32972972972973
-1	1.18511904761905	0.426190476190476	0.892857142857143	0.466666666666667
5	0.178571428571429	-0.019501133786848	0.469387755102041	0.488888888888889
-8	-0.535714285714286	-0.157049486461251	0.34453781512605	0.501587301587302
5	0.0357142857142858	-0.0807256235827664	0.408163265306122	0.488888888888889
-9	-1.21488095238095	-0.360299685383672	0.387218045112782	0.747517730496454
0	-0.019047619047619	-0.0394179894179894	0.464285714285714	0.503703703703704
-2	0.194642857142857	0.06888233717502	0.483516483516483	0.414634146341463
-11	-0.438690476190476	-0.054609634551495	0.526785714285714	0.581395348837209
6	0.514285714285714	0.120648259303721	0.722689075630252	0.602040816326531
6	0.0571428571428574	-0.0897243107769423	0.443609022556391	0.533333333333333
-1	0.35	0.127548601232812	0.513513513513514	0.385964912280702
-4	0.997619047619048	0.455889724310777	0.785714285714286	0.329824561403509
0	1.03571428571429	0.418207282913165	1.03781512605042	0.619607843137255
-5	1.15952380952381	0.476190476190476	0.571428571428571	0.0952380952380952
11	0.854761904761905	0.181525358110724	0.599303135888502	0.417777777777778
5	0.166071428571428	-0.0961597542242705	0.761904761904762	0.858064516129032
5	-1.68809523809524	-0.865632406808877	0.318681318681319	1.1843137254902
8	-0.00238095238095237	-0.275822890559733	0.781954887218045	1.05777777777778
-11	-0.0720238095238095	0.121339061940566	0.838345864661654	0.717006802721088
-4	-1.45714285714286	-0.509307359307359	0.678571428571428	1.18787878787879
-8	-0.819047619047619	-0.238744588744589	0.464285714285714	0.703030303030303
-4	-1.48630952380952	-0.516009807717125	0.442508710801394	0.958518518518519
-7	-0.830952380952381	-0.227010670488931	0.648351648351648	0.87536231884058
-6	-0.142857142857143	-0.0169970380496695	0.443609022556391	0.460606060606061
-3	0.352380952380952	0.149343629343629	0.629343629343629	0.48
-4	0.889880952380953	0.400837257980115	0.836734693877551	0.435897435897436
-2	-0.310119047619048	-0.134758934758935	0.629343629343629	0.764102564102564
4	0.323214285714286	0.0254945054945055	0.648351648351648	0.622857142857143
1	0.808928571428572	0.280518864729391	0.725563909774436	0.445045045045045
-11	-0.219642857142857	0.041970121381886	0.678571428571429	0.636601307189543
-3	0.352380952380952	0.175661375661376	0.857142857142857	0.681481481481482
-3	-0.329166666666667	-0.126068376068376	0.583333333333333	0.709401709401709
-4	0.585119047619048	0.265341008198151	0.591836734693878	0.326495726495727
9	0.518452380952381	0.17653781512605	0.34453781512605	0.168
9	1.29464285714286	0.380874600293838	0.838345864661654	0.457471264367816
-8	0.0136904761904764	0.0728392175200686	0.593406593406593	0.520567375886525
-5	-0.628571428571428	-0.216054421768707	0.530612244897959	0.746666666666667
4	-0.276190476190476	-0.165064935064935	0.314935064935065	0.48
-3	1.61845238095238	0.609136212624585	0.892857142857143	0.283720930232558
1	0.399404761904762	0.108812571970467	0.669172932330827	0.56036036036036
1	1.07380952380952	0.36988625409678	0.868131868131868	0.498245614035088
-6	0.019047619047619	0.0512471655328799	0.673469387755102	0.622222222222222
-1	0.380357142857143	0.14015444015444	0.642857142857143	0.502702702702703
-2	0.20952380952381	0.0648732220160794	0.622448979591837	0.557575757575758
7	0.2	-0.0615384615384614	0.538461538461539	0.6
5	0.54702380952381	0.138209159261791	0.556390977443609	0.418181818181818
-6	-0.335714285714286	-0.0792443064182193	0.517857142857143	0.597101449275362
4	0.854761904761905	0.304911297852474	0.722689075630252	0.417777777777778
2	-1.18630952380952	-0.540397272104589	0.442508710801394	0.982905982905983
0	-0.838095238095238	-0.395502645502646	0.345238095238095	0.740740740740741
-6	0.438095238095238	0.242689075630252	0.722689075630252	0.48
3	1.19940476190476	0.331494053637633	0.813664596273292	0.482170542635659
8	0.885714285714286	0.198809523809524	0.732142857142857	0.533333333333333
1	-0.288095238095238	-0.178146441372248	0.23963133640553	0.417777777777778
-3	-1.03392857142857	-0.418864468864469	0.345238095238095	0.764102564102564
0	0.170833333333333	0.0304761904761904	0.714285714285714	0.683809523809524
-1	-0.438690476190476	-0.215294117647059	0.407563025210084	0.622857142857143
-8	0.35	0.181159420289855	0.5	0.318840579710145
-1	0.923214285714286	0.372651222651223	0.702380952380952	0.32972972972973
-7	-0.676785714285714	-0.176688815060908	0.702380952380952	0.87906976744186
-2	-0.200595238095238	-0.0909726052583196	0.469387755102041	0.56036036036036
2	-0.495833333333333	-0.292200772200772	0.513513513513514	0.805714285714286
-3	-0.081547619047619	-0.0263125763125763	0.464285714285714	0.490598290598291
-5	0.370833333333333	0.206362612612613	0.59375	0.387387387387387
-2	0.342857142857143	0.129724310776942	0.556390977443609	0.426666666666667
-7	-0.314285714285714	-0.0912132912132912	0.223938223938224	0.315151515151515
-9	0.4375	0.241111111111111	0.583333333333333	0.342222222222222
0	0.0422619047619046	-0.0150072150072151	0.532467532467532	0.547474747474747
9	0.0833333333333335	-0.163760683760684	0.538461538461539	0.702222222222222
-5	-1.61011904761905	-0.563962231159294	0.612781954887218	1.17674418604651
-7	-0.819047619047619	-0.256862056862057	0.397683397683398	0.654545454545455
-1	1.11428571428571	0.457445200302343	1.02040816326531	0.562962962962963
-3	-0.85952380952381	-0.322832722832723	0.483516483516483	0.806349206349206
-8	-0.281547619047619	-0.0466058763931105	0.428571428571428	0.475177304964539
7	1.18809523809524	0.282803853248617	0.965156794425087	0.682352941176471
5	0.823214285714286	0.259246601351865	0.612781954887218	0.353535353535354
4	0.123809523809523	-0.126190476190476	0.94047619047619	1.06666666666667
4	-1.28571428571429	-0.61952380952381	0.607142857142857	1.22666666666667
-15	-0.405357142857143	-0.00239885427855335	0.520408163265306	0.52280701754386
0	0.318452380952381	0.102075702075702	0.428571428571428	0.326495726495727
7	0.628571428571428	0.140310453553238	0.725563909774436	0.585253456221198
-5	0.00952380952380949	0.0358308358308358	0.593406593406593	0.557575757575758
5	0.9375	0.344623655913979	0.583333333333333	0.238709677419355
-5	0.00892857142857162	0.0449437547356765	0.725563909774436	0.68062015503876
4	0.180952380952381	-0.00238095238095237	0.464285714285714	0.466666666666667
0	0.121428571428572	0.00275689223057662	0.725563909774436	0.72280701754386
-4	0.226190476190476	0.105597326649958	0.556390977443609	0.450793650793651
-8	0.540476190476191	0.227074829931973	0.520408163265306	0.293333333333333
1	-0.4	-0.227227227227227	0.513513513513514	0.740740740740741
-3	0.151785714285714	0.0576417233560091	0.826530612244898	0.768888888888889
6	0.511904761904762	0.0596825396825398	0.761904761904762	0.702222222222222
7	0.60952380952381	0.126739926739927	0.593406593406593	0.466666666666667
10	1.31190476190476	0.367936507936508	0.785714285714286	0.417777777777778
-3	0.914285714285714	0.376422136422136	0.803088803088803	0.426666666666667
5	1.40892857142857	0.445780474351903	0.775510204081633	0.32972972972973
-7	-0.345238095238095	-0.0725623582766439	0.530612244897959	0.603174603174603
-6	1.82857142857143	0.748758259284575	1.06390977443609	0.315151515151515
-5	0.32797619047619	0.161207897793264	0.523809523809524	0.36260162601626
-5	1.08988095238095	0.389703153988868	0.801948051948052	0.412244897959184
4	-0.181547619047619	-0.197080704397777	0.651567944250871	0.848648648648649
-3	-0.0529761904761903	-0.014340729873464	0.556390977443609	0.570731707317073
-11	-0.324404761904762	0.0353641456582633	0.839285714285714	0.803921568627451
-4	0.542857142857143	0.217965367965368	0.678571428571429	0.460606060606061
-6	-0.0595238095238093	0.0207039337474121	0.571428571428572	0.550724637681159
-1	0.502380952380952	0.187238366185735	0.629343629343629	0.442105263157895
1	2.22044604925031e-16	-0.0494494494494493	0.513513513513514	0.562962962962963
5	1.08988095238095	0.394854070660522	0.702380952380952	0.30752688172043
-6	-0.348214285714286	-0.082960013273602	0.591836734693878	0.67479674796748
-7	-1.39107142857143	-0.474307862679956	0.404761904761905	0.87906976744186
-6	-0.516666666666667	-0.111111111111111	1	1.11111111111111
-3	0.826190476190477	0.324053724053724	0.978021978021978	0.653968253968254
-4	-0.580952380952381	-0.204285714285714	0.702380952380952	0.906666666666667
-7	-1.02916666666667	-0.316296296296296	0.5	0.816296296296296
8	0.142261904761905	-0.0441397062086716	0.33976833976834	0.383908045977012
-11	-0.386309523809524	-0.0300035803795202	0.556390977443609	0.586394557823129
3	0.842261904761905	0.273953823953824	0.821428571428572	0.547474747474747
-3	-0.602380952380952	-0.243250984604368	0.591836734693878	0.835087719298246
3	0.266666666666667	0.0347578347578349	0.538461538461539	0.503703703703704
-1	-0.4625	-0.209401709401709	0.5	0.709401709401709
-5	-0.495833333333333	-0.143888888888889	0.625	0.768888888888889
-1	0.804166666666667	0.294736842105263	0.894736842105263	0.6
4	0.54702380952381	0.153246753246753	0.571428571428571	0.418181818181818
4	-0.519642857142857	-0.363924963924964	0.571428571428571	0.935353535353535
-4	-0.2	-0.0566666666666666	0.583333333333333	0.64
-9	-2.05714285714286	-0.606593406593407	0.593406593406593	1.2
0	-0.761904761904762	-0.335714285714286	0.464285714285714	0.8
-18	-0.980952380952381	-0.111027568922306	0.612781954887218	0.723809523809524
-7	0.666071428571429	0.329346622369878	0.761904761904762	0.432558139534884
1	0.216666666666667	0.0402159244264508	0.538461538461539	0.498245614035088
0	0.199404761904762	0.0674388674388675	0.281853281853282	0.214414414414414
10	0.718452380952381	0.167836734693878	0.591836734693878	0.424
4	-0.057738095238095	-0.134030197444831	0.599303135888502	0.733333333333333
-5	-0.354761904761905	-0.118146718146718	0.281853281853282	0.4
5	0.616666666666667	0.169834087481146	0.538461538461539	0.368627450980392
-1	-0.45	-0.209293504030346	0.513513513513514	0.72280701754386
1	0.789880952380952	0.283052225157488	0.612781954887218	0.32972972972973
-1	-0.4	-0.204232804232804	0.714285714285714	0.918518518518519
-6	0.0666666666666664	0.0947368421052631	0.894736842105263	0.8
-9	1.01369047619048	0.37261810653115	0.720496894409938	0.347878787878788
2	-0.088095238095238	-0.0861344537815125	0.345238095238095	0.431372549019608
1	0.169047619047619	0.0395358143257303	0.408163265306122	0.368627450980392
-4	-0.414880952380952	-0.131870546504693	0.803088803088803	0.934959349593496
-12	-0.357738095238095	0.0281669424526568	0.745173745173745	0.717006802721088
0	-0.429166666666666	-0.21981981981982	0.513513513513514	0.733333333333333
1	0.199404761904762	0.0171428571428572	0.761904761904762	0.744761904761905
-4	-0.967261904761905	-0.351765702985215	0.687258687258687	1.0390243902439
-7	-1.24821428571429	-0.414784053156146	0.464285714285714	0.87906976744186
0	-0.402380952380953	-0.212324929971989	0.34453781512605	0.556862745098039
0	-0.600595238095238	-0.239645625692137	0.242524916943522	0.482170542635659
0	0.388095238095238	0.115037593984962	0.725563909774436	0.610526315789474
-10	0.0833333333333335	0.142956349206349	0.59375	0.450793650793651
7	0.670833333333334	0.19247311827957	0.5	0.30752688172043
1	-0.77202380952381	-0.413906387590598	0.838345864661654	1.25225225225225
-3	-0.59047619047619	-0.228571428571429	0.571428571428571	0.8
-3	1.3375	0.564102564102564	1	0.435897435897436
0	-0.205357142857143	-0.127061556329849	0.70383275261324	0.83089430894309
10	1.00892857142857	0.227207275483138	0.758241758241758	0.531034482758621
1	0.170833333333333	0.0214285714285715	0.583333333333333	0.561904761904762
7	0.20952380952381	0.00408163265306127	0.346938775510204	0.342857142857143
-2	-0.335714285714285	-0.136111111111111	0.517857142857143	0.653968253968254
0	-0.392857142857143	-0.184353741496599	0.520408163265306	0.704761904761905
7	1.4375	0.468965517241379	1	0.531034482758621
-1	0.454761904761905	0.148509485094851	0.599303135888502	0.450793650793651
-6	-0.592857142857143	-0.180952380952381	0.523809523809524	0.704761904761905
2	-0.0595238095238093	-0.095798319327731	0.523809523809524	0.619607843137255
-5	-0.345238095238095	-0.0905519365752663	0.599303135888502	0.689855072463768
1	0.197619047619048	0.0349739895958384	0.591836734693878	0.556862745098039
7	0.980357142857143	0.332512315270936	0.642857142857143	0.310344827586207
6	-0.219047619047619	-0.226890756302521	0.34453781512605	0.571428571428571
1	0.645238095238095	0.205051089261616	0.703296703296703	0.498245614035088
-1	-0.714880952380952	-0.326705276705277	0.464285714285714	0.790990990990991
-2	0.156547619047619	0.0615450615450615	0.223938223938224	0.162393162393162
9	-0.3625	-0.285185185185185	0.166666666666667	0.451851851851852
-3	-1.28154761904762	-0.518620268620269	0.464285714285714	0.982905982905983
-2	0.635714285714286	0.260275689223058	0.702380952380952	0.442105263157895
-5	-0.726190476190476	-0.249163449163449	0.455598455598456	0.704761904761905
-12	-1.00952380952381	-0.182251082251082	0.655844155844156	0.838095238095238
13	1.01904761904762	0.273788073788074	0.629343629343629	0.355555555555556
-15	0.0708333333333333	0.160757575757576	0.625	0.464242424242424
2	1.45654761904762	0.533796653796654	1.03474903474903	0.500952380952381
-5	-0.904761904761905	-0.330612244897959	0.469387755102041	0.8
1	-0.726190476190476	-0.351571235781762	0.483516483516483	0.835087719298246
-3	-0.171428571428571	-0.0594079794079795	0.687258687258687	0.746666666666667
6	0.330952380952381	0.0465079365079366	0.464285714285714	0.417777777777778
-10	-0.628571428571428	-0.179093455564044	0.281512605042017	0.460606060606061
-3	-0.205357142857143	-0.0750901644354788	0.443609022556391	0.51869918699187
3	0.0833333333333335	-0.0433492315845256	0.513513513513514	0.556862745098039
-4	-0.619047619047619	-0.229047619047619	0.464285714285714	0.693333333333333
-3	-0.800595238095238	-0.341872965402377	0.218487394957983	0.56036036036036
-2	0.651785714285714	0.257789657789658	0.803088803088803	0.545299145299145
1	0.408928571428572	0.107545891756418	0.725563909774436	0.618018018018018
5	0.423214285714286	0.050768049155146	0.702380952380952	0.651612903225806
-4	0.151785714285714	0.0946998946998947	0.597402597402597	0.502702702702703
5	-0.333333333333333	-0.193877551020408	0.163265306122449	0.357142857142857
0	-0.926190476190476	-0.445864661654135	0.838345864661654	1.28421052631579
-5	0.232738095238095	0.139140534262485	0.761904761904762	0.622764227642276
-2	-1.12619047619048	-0.479699248120301	0.523809523809524	1.00350877192982
10	1.06428571428571	0.140208810797046	0.948051948051948	0.807843137254902
-12	-0.59047619047619	-0.0682539682539682	0.642857142857143	0.711111111111111
-10	-1.20535714285714	-0.337309345819984	0.455598455598456	0.79290780141844
0	0.0422619047619046	-0.0150072150072151	0.532467532467532	0.547474747474747
3	-0.138690476190476	-0.152958152958153	0.523809523809524	0.676767676767677
-12	-2.02440476190476	-0.580026052974381	0.530612244897959	1.11063829787234
