rate_constant_pi_constant_tree_unrooted_run_1	rate_constant_pi_constant_tree_unrooted_run_2	rate_constant_pi_constant_tree_unrooted_run_3	rate_constant_pi_constant_tree_unrooted_run_4	rate_DPP_pi_DPP_tree_unrooted_run_1	rate_DPP_pi_DPP_tree_unrooted_run_2	rate_DPP_pi_DPP_tree_unrooted_run_3	rate_DPP_pi_DPP_tree_unrooted_run_4	rate_discrete_gamma_pi_discrete_beta_tree_unrooted_run_1	rate_discrete_gamma_pi_discrete_beta_tree_unrooted_run_2	rate_discrete_gamma_pi_discrete_beta_tree_unrooted_run_3	rate_discrete_gamma_pi_discrete_beta_tree_unrooted_run_4
NA	NA	NA	NA	NA	NA	NA	NA	NA	NA	NA	NA
11.8199676734056	11.8012976070845	11.9292762318419	11.8919548649951	12.092032695294	12.2661725831109	12.1910277173715	12.2151566370828	12.0439647137677	11.9319421532864	11.9986052032101	11.9719355701142
9.74383378612777	9.98402841303537	9.9105367560275	10.0192034542337	8.85090705685432	9.04626251125115	8.90306378885871	8.93596188177728	9.36627320419546	9.5118471186306	9.53476000764552	9.43648674332835
17.141447961488	17.2057663579188	17.3839638186228	17.0437649619988	17.7295505126778	17.9092294011382	17.8875684939882	17.7897058753658	17.429291580569	17.3440921096323	17.6221522658161	17.4377631014021
11.069784867467	11.0307487506104	11.0781292326626	11.1252830115966	8.58403545860349	8.45732238484265	8.41557022121762	8.4260655917306	9.2786036592678	9.44215903577717	9.44596388896688	9.31429209983962
2.48104272706819	2.36706310189106	2.13079283137067	2.44901660167553	3.7895332405697	3.89009769457615	3.98743712751345	3.76998851709711	3.45439011557539	3.3654370075048	3.43241766554165	3.34843469036473
25.3789311922006	25.594544035547	25.5167396035939	25.5132382844551	25.5167396035939	25.5589920191689	25.6052717936714	25.4541659072397	25.0678188465862	25.160619836314	25.3857162974919	25.1252116640646
12.8412977234059	13.4642849565848	12.8412977234059	12.6500085793068	-Inf	-Inf	-Inf	-Inf	-Inf	-Inf	-Inf	-Inf
34.6633927158508	35.0287034976138	34.6633927158508	33.8504581567241	Inf	38.2502477685083	Inf	Inf	38.2502477685083	36.8632866295859	35.4756580456013	36.0516894131967
14.4217738046621	14.3569678154064	14.5758797488957	14.5609456348855	12.6337729521869	12.2702887090649	12.7065673517387	12.3139780530046	14.3404616832072	14.3070701798741	14.3070701798741	14.3070701798741
24.8435435813361	24.6203179495143	25.0924509906697	24.8617038219318	27.1108971350893	27.5890673469959	27.6575435110973	27.1108971350893	25.3973582443574	25.4687880326714	25.7534907463704	25.1128453576615
15.6493999898286	15.5827383319822	15.6253976702544	15.68408249538	17.2471219375221	17.3399836872847	17.4678006461011	17.1997627444333	15.7081045406294	15.68408249538	15.798968914327	15.700096049105
15.77564467367	15.7515395769777	15.692205995868	15.7635650063814	15.1257642957261	15.0264614494081	14.8721918585662	14.9302798053353	15.7999690897175	15.5326400820579	15.6284063757432	15.6804941144466
9.9276793345837	9.94923570258949	9.9105367560275	9.9148139423124	10.9697951743611	10.7913316426383	10.667515058138	10.5808091879953	12.5213141284667	12.5097050697671	12.3857524534296	12.216598531911
5.73814620660579	6.29535805361337	5.64443492176367	5.64443492176367	-Inf	-0.457987929984769	-Inf	-Inf	-Inf	-0.457987929984769	-0.457987929984769	-Inf
1.17535012797375	0.69101831800273	1.02646472759311	1.02646472759311	-Inf	-4.11145003012504	-Inf	-Inf	-Inf	-4.11145003012504	-4.11145003012504	-4.11145003012504
0.496009647133294	0.53375788964403	0.317439852965693	0.570857686631565	-3.40481155794153	-2.95584259101584	-2.95584259101584	-2.27752357641347	-1.14411472598716	-0.984459630281894	-1.18603069243975	-0.800762426141789
16.0317770178009	16.309042299252	16.1630108709853	16.1479277257369	13.839442609148	14.0003816303081	13.8808227775005	14.185994648553	14.7476450734883	15.0917340555435	15.1730065341276	15.1615720420459
11.8414429572959	11.5998875645123	11.9527651374538	11.7835517676049	10.4364135358147	9.78934861141963	10.1166186366324	10.3990364870481	10.9289469620719	10.4364135358147	10.745632663717	10.7773221197174
6.78976375875348	6.69589617184032	6.86731681166051	6.8352461068972	3.98287104922525	3.92288888403499	3.85218300481551	4.09947483147946	4.96334639917904	5.00125342602094	5.09289488415242	4.8970449274081
25.5359095046256	25.4718918262082	25.4900073398426	25.4183564610884	27.5256114830645	27.9787446436327	27.4586780123449	27.7652932569469	25.659600786101	25.6017049425539	25.6017049425539	25.5451975021108
14.3855984186246	14.3739884953706	14.4462423213886	14.333199621743	12.8309514756888	12.747826469854	12.5571636906948	12.726716041657	14.0124243899543	14.0645726779874	13.9784140771857	13.9938999377946
21.5939269598229	21.418142299779	21.6516178148152	21.5047778497316	23.0099312682196	23.0754915711837	22.9303791067837	23.1258501714269	21.9422973879066	21.9746843565515	22.2008380185458	21.9209110779694
16.0924513032082	16.1223383128407	16.1713820379205	16.2014430849611	14.8916240274333	14.809142475151	14.809142475151	14.809142475151	15.3693429677439	15.1952351189145	15.3212266870706	15.2998208128319
16.0429814584489	16.3337880099573	15.8805975807904	16.1108996611023	19.2566214921509	19.1750899032074	19.0458393523552	18.9719187784519	18.6365663014421	18.5355359118716	18.2580870897804	17.9508891591469
-1.94555103640926	-1.76950569671911	-1.885171142117	-1.45715301900137	-3.67321392796939	-3.82209932835003	-4.56022447428398	-5.0641897826162	-2.67430494539729	-2.42708451068418	-2.95584259101584	-2.07193900539088
1.56567187064058	1.78946407285897	0.499729173903647	1.56567187064058	3.53142552057991	3.02204218275853	3.57606003847325	3.48580333330702	2.57104047952966	2.34236596300589	2.49763258314391	2.34236596300589
8.2269402692282	8.05608008849716	8.08553980799266	7.66580078128729	8.86045057404095	9.18051463841985	8.75648041043311	9.18051463841985	8.95961505985668	8.6471950424234	8.28094240728375	8.66950451431541
16.1111493013429	16.3054242106917	16.1879085792364	16.2620844278983	15.2383087482454	15.3743483966301	15.3522699422075	15.5022314369412	15.4392458383252	15.4178316775715	15.661676477504	15.3962007281485
12.9991620499959	12.8327612064804	13.1023251032037	12.8194392621059	16.2436340368332	16.0509931348739	16.3121102009347	15.9319639716492	14.3805279853198	14.2225005304121	14.4928766991719	13.9379637402326
8.95243874214435	8.93480270017409	8.97871130980876	8.82686228841528	8.76211996808557	8.80389618064529	8.94363294444705	8.6575143594008	8.78075751036413	8.95683253184792	8.85873142925795	8.97871130980876
8.84005620704911	8.55554332035327	8.14324674969237	8.71343530025635	8.48411353203926	8.95961505985668	8.84005620704911	8.45975886326691	8.95961505985668	9.19794522071076	8.71343530025635	8.86045057404095
14.4188977186965	14.486930640889	14.6166803935303	14.8260121775845	14.8260121775845	14.8542817653422	15.5228216349412	15.4392458383252	14.9637078351759	15.2383087482454	15.067733152028	14.9368797944486
5.14521393855637	4.902081220213	5.20698847390068	5.26703429847928	6.45585132077624	6.44430108464068	6.80770570770185	6.76779508025526	3.34254014394786	4.01233868114702	3.90216723282861	4.08267019066413
3.99654917557575	3.99199649409399	4.05959933813917	4.02823296767922	2.03697899541582	2.28224272000288	2.3419281186578	2.4650820200525	1.00311699526091	0.678488482336442	0.957383562406742	1.07729284392277
5.10301831029284	5.30615295971641	5.01604241417514	5.34457370307643	3.61974938241292	3.48580333330702	3.57606003847325	3.82532972470775	4.24876340949756	4.21658584449087	3.86410442566124	4.70597576974773
0.747387985082526	0.830557459112972	0.957383562406742	0.941925389332942	1.07729284392277	0.9263577173674	1.27268089198425	0.941925389332942	0.747387985082526	1.20485234695346	0.941925389332942	0.846817997619432
17.5574863040963	17.5165113768822	17.4234561966795	17.5438879249551	16.1174838538714	16.1327524823626	16.2876708388484	15.8847208451926	16.4403767133565	16.6475035206189	16.3442654908827	16.4403767133565
2.41656536705463	2.54386843241245	2.44094414040764	2.51265606931972	1.84769955612924	1.90914583689034	1.83729861563308	2.15822748515686	3.27351203996118	3.25592516856957	3.25003739008144	3.30257256486714
17.432890421111	17.6112967869954	17.52566377576	17.3029603220014	18.4257414780114	18.3760122917982	18.4957409961955	18.3724363757834	18.1173036709872	18.0788314056423	18.2746315030318	18.2525563509309
17.1214668032812	16.3990428149007	16.5230177829759	16.3009825182598	15.5416904423449	15.9360948773595	15.5416904423449	15.8547287353592	16.1626180865502	16.4927058319547	16.0898236869984	16.2672437579148
16.6015502763621	16.0232788600947	16.0508083109826	15.6612346843225	17.3290111930988	17.2207814602802	17.1727121954573	17.1069312839929	17.2522519152052	17.2986280425653	17.0043826801743	16.9150657845333
6.78799305777222	6.6755042828988	6.6755042828988	6.99600224408813	7.43927757209664	7.62972239461465	7.43927757209664	7.93391496563818	7.39899446628614	7.27321148255319	7.43927757209664	6.89463050791953
15.1592181858069	15.0409538372261	14.9541916390621	15.1349665507323	14.41884188378	14.2295059984189	14.2022681438854	14.28313105266	14.4625619167402	14.5954707002441	14.4439132753151	14.316090172265
17.3974843133227	17.9407688506792	17.336873512312	17.6947625259737	16.1980810352045	16.0143838310644	16.9565761685298	16.4307322709011	17.7292100188208	17.956227023753	17.5697011479779	17.7292100188208
17.5593260431269	18.0023330783162	17.5593260431269	17.882212895048	18.0518534512741	17.6199368441375	18.2394489005119	17.9855734455005	18.6363375616124	18.7103538627516	18.2985888360839	18.559807727567
16.2672437579148	16.0143838310644	16.0898236869984	15.9360948773595	12.4386189870623	12.4386189870623	13.5940319034048	13.5940319034048	14.410329449243	14.7921753588763	14.9269044559554	15.2293377646272
9.4900039654339	9.57931900000618	9.54994693587362	9.54994693587362	10.0627569399831	10.2543901643752	10.1208054715945	10.4611678078421	10.1093134209165	9.91706772553465	10.0861541260813	10.0744855972411
17.2048752759651	16.744364440374	16.4933725560699	17.1727121954573	15.8197565684462	15.1398635053981	15.7260935513923	15.5600003325588	16.1833059116424	16.1833059116424	16.4026971679013	16.4257307002395
16.9371555922673	16.7689195539734	16.837704157466	16.8934857986107	15.661676477504	14.9901987563645	14.8542817653422	15.2383087482454	16.0637726621028	16.172769393326	15.6808012311088	16.1421751463823
4.11265622370322	4.15187782225726	4.10826847590479	4.03722679790184	5.3093307532918	5.49805565106969	5.5777918417433	5.54419729253639	5.03542228385582	5.00810915921312	4.9702641053933	4.91459669270854
18.4398800716647	17.7173056392945	18.3844374517607	18.4939768841454	16.8338613914539	16.5234350490747	16.684401060922	16.8625165857701	16.7753499245749	17.5387358451269	17.5387358451269	17.274813156431
14.8687411788365	14.4407230557208	15.4535904363691	15.1817794718507	14.6118610995267	14.5563885011187	13.157989193833	14.1877022594693	15.0087556624746	15.053390180368	15.1398635053981	15.3026598666025
9.06790973374915	9.20724137179404	9.20724137179404	8.17752830615777	11.0703474233074	11.1508404825516	11.0428179724195	11.0149234915293	10.3990364870481	10.0729292926927	9.68541158370058	10.3609736798807
7.80416521299689	8.1715163374501	8.19941081834029	8.1715163374501	9.4747600008109	9.24941414116593	9.45940971849015	9.21523715024922	8.8194660090491	8.92049639861956	8.66950451431541	8.6471950424234
19.3625543478564	19.5423316787465	19.3192967185808	19.2130245516547	22.006666885068	22.1241867536187	22.0788156247197	21.9236411013005	21.1433728658039	21.0857429479072	21.2460171676142	21.1605747623393
14.6478966527363	14.486930640889	15.0163611535206	14.6166803935303	15.2846280863771	14.9368797944486	14.9637078351759	15.4814414665887	14.6166803935303	15.1909570281457	14.9097056971203	14.9097056971203
11.6129531368184	11.4595496211012	11.4330814221665	11.4463493563313	13.1297235567195	13.0380648351909	12.9200878951622	13.0380648351909	12.4388613170106	12.747826469854	12.552695559618	12.5482210763483
17.4607870921714	17.2832777602446	17.0901716511771	17.4177280849924	17.0043826801743	16.8219038449711	17.3738149776281	17.0043826801743	17.6118970341965	17.6773432331009	17.7029963914595	17.6251401138294
15.8101326575362	15.9824605406479	15.8980025781413	16.1111493013429	15.2147648970067	15.6032618265117	15.2147648970067	15.0422032977801	16.2620844278983	16.0153490430885	16.0316095815949	16.0477501738769
15.3591483770516	15.3591483770516	15.3591483770516	15.3380141915386	15.7460534043059	15.7814782578119	15.5797717219506	15.7638314044578	16.2443770129857	15.8250354465377	16.0554487958545	16.1479277257369
10.5446708840208	10.7134550987104	10.0282947747994	10.3990364870481	7.81087480540109	7.5233339818126	8.17752830615777	7.36257933440307	9.27349430477174	9.73803766199875	9.51891143697801	9.63140021185143
8.75691929805928	9.39988227375336	9.13876520769259	9.33766521546687	7.18788757222222	7.18788757222222	5.97227427675195	8.17752830615777	9.13876520769259	8.75691929805928	8.58155336068501	9.63140021185143
-4.56022447428398	-5.0641897826162	-4.1575457379404	-4.34883488203949	-4.34883488203949	-5.0641897826162	-6.18542436316123	-5.0641897826162	-3.82209932835003	-4.34883488203949	-4.79645888311341	-2.95584259101584
12.5195583952994	12.2256541911716	12.5963959034203	12.3986780005476	11.1918612537356	11.7162708533502	10.8684877811375	11.5350246318391	11.6576215844178	11.8827710000728	11.5350246318391	12.480044142548
-1.18603069243975	-2.13819193836859	-2.07193900539088	-1.71403309831119	1.41504156945124	1.54894132900875	1.719689645035	1.61877931551114	-0.416486348090749	-0.221083748799653	-0.0918331979474054	-0.247911789526934
17.316283314312	17.2102526055193	16.8562551751509	17.1214668032812	16.4927058319547	16.3009825182598	16.3009825182598	16.611408860639	16.8817850293988	17.0523606256162	16.9319382680064	17.1440123476863
14.4574160426836	14.7150978992239	14.3637047578414	14.9437724157477	15.1493569867703	14.4574160426836	13.5480820641918	14.4574160426836	15.5612742656991	15.0831040537926	15.0831040537926	15.5612742656991
13.4642849565848	14.324538515949	12.8412977234059	13.8309384573415	13.5940319034048	13.0159894855868	13.0159894855868	14.410329449243	14.410329449243	14.9269044559554	14.5717589506621	14.7921753588763
11.4680566520976	11.1770028797077	10.8696076317923	11.3989504744325	11.4906021965026	11.744074162139	12.0928212952451	11.7038577281202	11.6834633611283	11.8603996069471	11.6420831927759	11.8603996069471
14.0483706214244	14.253955192447	14.5563885011187	14.3803431614286	13.4683029635181	13.2667942147537	11.7656697235539	13.2667942147537	14.1192260953678	14.253955192447	14.4993723246532	13.9749627250386
16.7640126552801	16.8596520874819	17.1235631545102	17.0218132624652	17.0901716511771	16.5589342914338	16.6639242488036	17.1069312839929	17.2207814602802	17.1888527877392	17.0218132624652	17.4607870921714
16.7151583627696	16.8338613914539	16.7753499245749	16.2748991690467	15.50726289385	15.3947741189766	15.8118799862391	15.9487919746913	16.653184801716	16.4205335660194	15.992481318631	16.6214953457156
10.6852014922151	10.6852014922151	10.2599005412323	10.1379811685933	11.1157082158506	11.5972416901255	11.9867080277918	10.9542787144315	11.7732870298157	11.7162708533502	11.5972416901255	11.2652691501213
17.5179458747744	17.5387358451269	17.0787077059658	17.7173056392945	18.3844374517607	17.9855734455005	18.0354710810327	18.6111158257258	18.4805750702438	18.3131298793157	18.5205419081528	18.4261483391146
5.91351214398006	5.73814620660579	5.21913397078085	5.54618356506756	6.07494164539923	5.33412115207856	4.82881222811402	5.64443492176367	3.12886712267273	5.33412115207856	4.82881222811402	5.91351214398006
6.68586267157622	6.51274210768336	6.50147662943363	6.72718969953775	7.89029387829471	7.90934691198747	7.62896165674687	8.0390052039695	7.8452902469688	7.79949579681462	7.63600616988456	7.61481362866035
12.3485503054235	12.6181142021469	12.5085747697621	12.4227261540854	10.2424016203654	10.5446708840208	10.2013185841755	10.4731295486939	11.3754066231938	11.6210893886868	11.3989504744325	11.5349901228172
8.90066700805977	8.84005620704911	8.94014461352566	8.95961505985668	7.87004794463114	7.93391496563818	7.31599546364366	7.7361322908044	8.48411353203926	8.60186265848501	8.359437869888	8.43512096274346
0.781037086155045	0.317439852965693	0.41847024253615	0.41847024253615	2.52831165509661	2.3419281186578	2.15822748515686	2.27359424792467	1.719689645035	1.45235286025609	1.58412796999791	1.73063273177976
14.0817598941782	13.0465996456069	13.9987608915358	13.7276385649741	14.2757718096276	13.9122875665056	14.0406768579884	13.7753755780535	14.238394760861	14.1220429999887	14.0406768579884	14.1615572527401
13.0430020125353	10.9527351644272	11.7656697235539	11.5294353147244	13.8196961049006	12.7913356930763	12.3430402220783	13.0430020125353	13.370051606822	12.9210826398963	12.7913356930763	13.4683029635181
0.233040093595967	-0.275085886855201	0.211409144172944	-0.19459282761099	2.02738921038777	1.87862564359461	2.00809154552398	1.82685080080173	1.4890578705904	1.16314145959949	1.36431222172944	1.03308702236086
16.3338536820304	15.932179569058	15.91515814145	16.0796788464178	15.3743483966301	14.9901987563645	15.3522699422075	14.7683052358848	15.0929583860281	15.3299604703155	14.8821762462324	15.142524291159
2.38541922409445	3.77238036301681	-Inf	2.38541922409445	5.60696349498892	4.58397757940607	5.60696349498892	4.58397757940607	5.1600089470014	4.58397757940607	3.77238036301681	4.58397757940607
13.2948809370079	13.4758875331949	13.6195956965982	13.572766039566	16.1251299227308	16.023835453603	15.8163869744595	15.7814782578119	15.1730065341276	15.206970778275	15.2404386232855	15.0559940436885
-2.50619809293724	-1.31713853536323	-1.71403309831119	-1.885171142117	-1.71403309831119	-1.885171142117	-2.13819193836859	-1.60739564816388	-0.731599703431471	-0.536894931239225	-1.14411472598716	-1.14411472598716
16.7454703137908	16.1980616609258	17.0787077059658	16.8625165857701	12.6610715178772	11.8481369587505	11.4828261769875	11.0358716289999	13.3991966638111	13.0637502542208	13.0637502542208	13.5480820641918
6.03959947787219	5.62960114209818	6.31321824013808	6.02569623227991	2.42147954525896	2.77662505055225	2.90301301953387	2.96339291382613	2.96339291382613	3.13453095763195	3.39141103694177	3.82532972470775
0.764277453339296	0.275656078524202	0.764277453339296	0.678488482336442	-2.85759123431974	-3.16790500400485	-2.85759123431974	-2.76387994947761	-2.58851401210334	-2.27752357641347	-2.27752357641347	-1.50602391199528
-4.11145003012504	-Inf	-Inf	-Inf	-Inf	-Inf	-Inf	-4.11145003012504	-Inf	-Inf	-Inf	-Inf
2.38541922409445	-Inf	-Inf	-Inf	-Inf	2.38541922409445	-Inf	-Inf	-Inf	-Inf	-Inf	-Inf
9.5644384670813	7.36588011176968	-Inf	7.36588011176968	7.36588011176968	-Inf	7.36588011176968	7.36588011176968	-Inf	-Inf	-Inf	-Inf
12.6500085793068	12.6500085793068	13.1767441329963	13.5940319034048	8.03882937527813	9.4257905142005	8.03882937527813	10.2373877305898	10.2373877305898	8.03882937527813	9.4257905142005	8.03882937527813
17.3572678793039	17.4948531084796	17.0050089055165	17.4369619187886	16.5823571132556	16.611408860639	16.1265396998776	15.8128127689066	16.8562551751509	17.0288167743775	16.8304130308914	17.1440123476863
17.5581259236091	17.9674855557504	17.7029963914595	17.7029963914595	15.1398635053981	15.5942944944064	14.8687411788365	15.0087556624746	16.8596520874819	16.3794113621077	16.7834831016111	16.744364440374
12.907268007562	12.0168865799707	12.8338601111763	12.4209116344979	7.6117386368297	6.22477749790734	6.22477749790734	6.22477749790734	8.99936722081428	6.22477749790734	6.22477749790734	6.22477749790734
12.3430402220783	12.7913356930763	12.6526802698685	12.1683484598974	7.36588011176968	7.36588011176968	-Inf	7.36588011176968	10.1404698346766	7.36588011176968	7.36588011176968	7.36588011176968
11.9346536787301	11.2603736461726	11.2603736461726	10.8134190981851	9.4257905142005	8.03882937527813	10.2373877305898	-Inf	9.4257905142005	8.03882937527813	9.4257905142005	8.03882937527813
8.58155336068501	8.58155336068501	9.13876520769259	8.48784207584289	2.38541922409445	2.38541922409445	2.38541922409445	3.77238036301681	4.58397757940607	3.77238036301681	4.58397757940607	3.77238036301681
5.91351214398006	5.73814620660579	5.99582806314616	5.73814620660579	0.928973208937595	-Inf	-Inf	-0.457987929984769	0.928973208937595	0.928973208937595	0.928973208937595	-0.457987929984769
0.499729173903647	0.288339581659155	-0.524594977467538	-0.215625726673068	-4.11145003012504	-4.11145003012504	-Inf	-4.11145003012504	-Inf	-4.11145003012504	-Inf	-Inf
4.37273837757276	4.37273837757276	4.6006522664162	4.51805423730983	5.38232194558716	5.47390512950378	5.69538205356257	5.12422013446734	5.10301831029284	5.36353035272759	5.03812086859771	4.70597576974773
16.0898236869984	16.5528973937601	15.492819549351	16.1265396998776	17.1440123476863	17.1884002740009	17.2744995398705	17.253297715696	17.7965124180187	17.6947625259737	17.5697011479779	17.4757283548748
13.0430020125353	13.157989193833	12.1683484598974	13.2667942147537	13.8988096871537	14.4993723246532	14.4407230557208	14.8198702858426	15.341434567556	14.5563885011187	14.718498549674	14.253955192447
9.5644384670813	8.75284125069204	8.75284125069204	10.5874243826641	11.2617044152216	9.5644384670813	7.36588011176968	10.1404698346766	8.75284125069204	11.5294353147244	7.36588011176968	10.9527351644272
11.5350246318391	11.8827710000728	12.3986780005476	12.4397610367375	12.3567620340951	12.5963959034203	12.7065673517387	12.9746815360896	11.9353970783709	12.2256541911716	12.3567620340951	12.3139780530046
-0.631978211452262	-0.697860943086515	-0.946396823114522	-1.31713853536323	-1.60739564816388	-1.50602391199528	-1.14411472598716	-0.946396823114522	-2.85759123431974	-2.20666810247003	-2.20666810247003	-3.28289218530255
15.3074149259105	15.5228216349412	15.3743483966301	15.3299604703155	14.3124878225068	14.7973569832682	14.8821762462324	14.486930640889	14.5528133725232	14.7973569832682	14.7089659056051	14.2757718096276
14.4407230557208	14.0483706214244	14.1877022594693	13.8988096871537	14.253955192447	15.1398635053981	14.3803431614286	14.718498549674	14.8198702858426	14.9631334752017	14.1192260953678	15.0970795243076
4.344480418143	4.82881222811402	4.344480418143	5.82772121068611	4.67992682773338	5.21913397078085	4.51917218032385	5.09721459814188	6.07494164539923	5.33412115207856	6.78799305777222	6.43008715069253
0.865710080183577	2.26005004383979	0.69101831800273	0.69101831800273	-1.33686030721809	-0.889905759230567	0.0521051728297266	-0.524594977467538	-1.91289167481342	0.0521051728297266	0.499729173903647	-1.33686030721809
2.17425911054584	2.34236596300589	2.17425911054584	1.78946407285897	1.9909728216234	1.68065905193829	1.17535012797375	1.44375249800161	2.6418959534731	2.08468410646552	1.89272146492729	1.02646472759311
9.07288384271497	9.44395154541635	8.9980358032167	9.45940971849015	7.59300638173551	7.39899446628614	7.77042645265193	7.18488762072018	8.1715163374501	8.1715163374501	8.359437869888	7.90222550963783
8.25411436655647	8.08553980799266	8.43512096274346	8.30743332847241	5.99582806314616	4.96746765132187	5.99582806314616	6.6168550139664	7.18488762072018	6.99600224408813	6.55647511967414	7.31599546364366
8.359437869888	8.53199946911459	8.05608008849716	8.43512096274346	10.3183818066002	10.4906601949819	10.3393247717165	10.3703887814808	10.1093134209165	10.0744855972411	10.2326588878632	10.0977631847809
-0.524594977467538	-0.215625726673068	-1.33686030721809	-2.72448889120268	2.49763258314391	1.68065905193829	3.18854232948109	2.77662505055225	1.17535012797375	1.68065905193829	0.288339581659155	2.08468410646552
16.7237575744911	16.8562551751509	16.1980810352045	16.1265396998776	16.0143838310644	16.334183947831	15.6817049259831	15.8128127689066	17.0756464314098	16.6962281236032	16.7777597125467	17.1440123476863
-1.76950569671911	-1.76950569671911	-2.76387994947761	-1.94555103640926	-5.37315903341067	-5.37315903341067	-5.0641897826162	-5.7384698151737	-2.95584259101584	-3.82209932835003	-3.82209932835003	-3.53455850476153
6.78799305777222	6.73252045936429	6.36383421771482	6.78799305777222	3.12886712267273	2.31660179292218	3.12886712267273	3.94180168179943	5.82772121068611	6.29535805361337	5.33412115207856	6.43008715069253
-0.889905759230567	-0.889905759230567	-0.215625726673068	-1.91289167481342	-Inf	-Inf	-2.72448889120268	-2.72448889120268	-Inf	-4.11145003012504	-Inf	-4.11145003012504
-7.57305294714581	-Inf	-6.76145573075655	-8.96001408606817	-Inf	-Inf	-Inf	-7.57305294714581	-8.96001408606817	-7.57305294714581	-Inf	-7.57305294714581
3.02204218275853	2.77662505055225	2.6418959534731	2.6418959534731	5.38232194558716	5.45589588323432	5.92585689986591	5.56177505010895	4.85472950011328	4.68013362548821	4.73150562399567	5.01604241417514
5.96973977938899	4.58277864046663	4.58277864046663	4.58277864046663	-Inf	-Inf	-Inf	-Inf	-Inf	-Inf	-Inf	-Inf
11.9346536787301	11.2603736461726	10.2373877305898	9.4257905142005	11.6256844279356	10.2373877305898	11.2603736461726	11.6256844279356	12.2023845782329	12.4386189870623	11.6256844279356	11.9346536787301
14.410329449243	15.1723215881617	15.2293377646272	14.5717589506621	13.3256295333769	13.0159894855868	11.9346536787301	13.7159512760438	14.410329449243	14.410329449243	14.4926453684091	14.324538515949
12.8412977234059	10.8134190981851	13.3256295333769	12.4386189870623	13.3256295333769	12.8412977234059	13.0159894855868	13.4642849565848	13.1767441329963	12.6500085793068	13.5940319034048	13.1767441329963
10.2599005412323	10.7789127770572	9.86957879856542	8.7463338434214	10.586950135519	10.7789127770572	11.1157082158506	11.7732870298157	11.8827710000728	11.4046007881662	10.9542787144315	11.2652691501213
13.0159894855868	13.0159894855868	12.6500085793068	12.6500085793068	12.6500085793068	12.2023845782329	12.6500085793068	12.2023845782329	13.4642849565848	12.4386189870623	13.3256295333769	14.0430008703305
11.779980026034	12.1256916008913	11.779980026034	11.201937608216	13.2996204418585	12.907268007562	13.1770234892798	13.5773959358116	13.2996204418585	12.9781234815055	13.0465996456069	13.5247698575135
-0.524594977467538	0.288339581659155	-1.33686030721809	0.288339581659155	1.02646472759311	0.69101831800273	1.3140055511816	1.44375249800161	0.69101831800273	1.02646472759311	1.78946407285897	1.44375249800161
-3.67321392796939	-3.40481155794153	-3.40481155794153	-3.05909998308417	-1.885171142117	-1.55608469874299	-2.07193900539088	-2.58851401210334	-1.66002172646204	-1.76950569671911	-2.67430494539729	-2.27752357641347
1.89272146492729	0.865710080183577	0.865710080183577	1.17535012797375	-0.215625726673068	0.0521051728297266	0.0521051728297266	-0.215625726673068	0.0521051728297266	-0.215625726673068	0.69101831800273	0.69101831800273
11.5294353147244	10.9527351644272	11.5294353147244	12.3430402220783	9.5644384670813	9.5644384670813	10.5874243826641	7.36588011176968	10.5874243826641	10.1404698346766	10.1404698346766	11.7656697235539
11.0358716289999	11.4828261769875	11.0358716289999	8.261281906093	-Inf	9.64824304501536	8.261281906093	8.261281906093	10.4598402614046	11.4828261769875	9.64824304501536	8.261281906093
15.053390180368	14.3803431614286	14.5563885011187	14.7698094990949	14.7698094990949	14.4407230557208	14.6658724713758	14.1192260953678	15.1398635053981	15.3794973747233	15.341434567556	15.4896688230417
9.81163255056484	8.99936722081428	10.1206018013593	8.42333585321896	11.779980026034	12.0168865799707	12.5104866385782	10.6245671096915	11.3626922556255	11.201937608216	11.3626922556255	11.201937608216
10.4598402614046	12.4248371090478	11.4828261769875	10.4598402614046	12.157106209545	11.8481369587505	11.4828261769875	12.157106209545	12.157106209545	12.8724611101217	11.4828261769875	11.4828261769875
11.9353970783709	12.0856397075334	11.9867080277918	11.7732870298157	11.8827710000728	10.7789127770572	10.8684877811375	10.9542787144315	11.5972416901255	11.1918612537356	11.2652691501213	11.8827710000728
12.4386189870623	11.6256844279356	12.2023845782329	13.1767441329963	13.4642849565848	14.324538515949	13.1767441329963	14.410329449243	14.410329449243	13.3256295333769	13.0159894855868	13.1767441329963
-4.11145003012504	-1.33686030721809	-2.72448889120268	-Inf	-1.91289167481342	-1.91289167481342	-Inf	-4.11145003012504	-Inf	-2.72448889120268	-1.91289167481342	-1.91289167481342
6.22477749790734	7.6117386368297	-Inf	6.22477749790734	-Inf	-Inf	-Inf	-Inf	-Inf	-Inf	-Inf	-Inf
0.928973208937595	3.4378363734672	2.31660179292218	3.12886712267273	-Inf	-Inf	-Inf	-Inf	-Inf	-Inf	-Inf	-Inf
-8.96001408606817	-6.76145573075655	-Inf	-8.96001408606817	-Inf	-Inf	-Inf	-Inf	-Inf	-Inf	-Inf	-Inf
-2.72448889120268	-0.889905759230567	-0.524594977467538	-0.889905759230567	-Inf	-Inf	-Inf	-Inf	-Inf	-Inf	-Inf	-Inf
-7.57305294714581	-6.76145573075655	-6.76145573075655	-7.57305294714581	-Inf	-Inf	-Inf	-Inf	-Inf	-Inf	-Inf	-Inf
1.9909728216234	1.9909728216234	2.26005004383979	2.08468410646552	2.96339291382613	2.90301301953387	2.90301301953387	3.24116840777926	3.70444932995598	4.11696435251166	3.97626029447438	4.24876340949756
10.8134190981851	8.03882937527813	10.8134190981851	11.2603736461726	-Inf	8.03882937527813	8.03882937527813	8.03882937527813	-Inf	10.8134190981851	9.4257905142005	10.2373877305898
12.2023845782329	11.9346536787301	12.8412977234059	13.1767441329963	8.03882937527813	11.2603736461726	-Inf	9.4257905142005	12.2023845782329	11.2603736461726	10.8134190981851	10.8134190981851
2.96339291382613	2.77662505055225	3.39141103694177	3.29247935720014	1.68065905193829	1.02646472759311	-0.215625726673068	1.78946407285897	1.02646472759311	0.865710080183577	1.17535012797375	1.02646472759311
14.2349635118687	14.8606515229777	14.5717589506621	14.7921753588763	13.9397434782621	13.8309384573415	11.9346536787301	12.8412977234059	14.1412522270266	14.410329449243	12.6500085793068	13.8309384573415
4.51917218032385	3.94180168179943	5.21913397078085	5.21913397078085	3.94180168179943	3.70556727297	4.15319127404392	4.15319127404392	4.344480418143	2.7635563409097	5.09721459814188	4.51917218032385
5.96973977938899	8.16963369312413	7.8043229113611	7.35736836337358	-Inf	-Inf	-Inf	-Inf	-Inf	-Inf	-Inf	-Inf
7.36588011176968	9.5644384670813	8.75284125069204	7.36588011176968	-Inf	-Inf	-Inf	-Inf	-Inf	-Inf	-Inf	-Inf
-1.33686030721809	0.499729173903647	0.0521051728297266	-1.33686030721809	-Inf	-Inf	-Inf	-Inf	-Inf	-Inf	-Inf	-Inf
-2.85759123431974	-2.76387994947761	-2.67430494539729	-2.85759123431974	-4.79645888311341	-4.56022447428398	-5.0641897826162	-5.0641897826162	-5.0641897826162	-5.7384698151737	-5.7384698151737	-4.1575457379404
0.499729173903647	1.17535012797375	0.865710080183577	0.288339581659155	1.68065905193829	2.26005004383979	2.08468410646552	2.17425911054584	2.08468410646552	2.42147954525896	1.89272146492729	2.77662505055225
13.3256295333769	12.6500085793068	13.0159894855868	13.7159512760438	12.8412977234059	13.7159512760438	13.1767441329963	13.3256295333769	13.5940319034048	14.1412522270266	13.4642849565848	14.0430008703305
10.5874243826641	10.5874243826641	10.5874243826641	9.5644384670813	10.5874243826641	11.5294353147244	10.9527351644272	11.7656697235539	10.5874243826641	12.3430402220783	10.9527351644272	11.9770593157984
8.98256825225082	8.16963369312413	8.4786029439186	9.19395784449532	10.6852014922151	10.2599005412323	9.3852469885944	10.7789127770572	9.72069339818478	10.1379811685933	9.19395784449532	9.86957879856542
-1.55608469874299	-1.71403309831119	-1.14411472598716	-1.66002172646204	-3.82209932835003	-3.82209932835003	-3.53455850476153	-3.98285397575956	-3.98285397575956	-3.98285397575956	-3.67321392796939	-2.76387994947761
0.35842441795755	0.514966296784459	0.211409144172944	0.338030050965706	-1.76950569671911	-2.35093147279922	-1.71403309831119	-1.885171142117	0.211409144172944	0.35842441795755	0.338030050965706	0.476884893528487
5.60696349498892	6.28124352754642	5.1600089470014	4.58397757940607	7.36257933440307	6.99659842812314	8.06254112486007	7.18788757222222	8.38959071914678	8.06254112486007	6.99659842812314	6.54897442704921
8.4786029439186	6.78133699577825	7.8043229113611	4.58277864046663	-Inf	-Inf	-Inf	-Inf	5.96973977938899	4.58277864046663	6.78133699577825	5.96973977938899
2.38541922409445	-Inf	-Inf	2.38541922409445	-Inf	-Inf	-Inf	-Inf	5.1600089470014	2.38541922409445	4.58397757940607	2.38541922409445
13.157989193833	12.6526802698685	12.3430402220783	12.5037948694878	11.7656697235539	11.2617044152216	13.370051606822	11.9770593157984	12.9210826398963	13.2667942147537	12.9210826398963	12.1683484598974
4.344480418143	5.09721459814188	4.96746765132187	5.33412115207856	6.84200442962136	6.49425806138766	7.47879182484802	6.55647511967414	6.43008715069253	5.73814620660579	6.07494164539923	5.73814620660579
8.06254112486007	8.06254112486007	7.81087480540109	5.97227427675195	7.9406217522211	7.9406217522211	6.28124352754642	7.5233339818126	6.99659842812314	8.17752830615777	7.36257933440307	7.18788757222222
4.67992682773338	5.54618356506756	5.21913397078085	5.64443492176367	6.36383421771482	6.6168550139664	6.84200442962136	6.22450257966993	6.15109468328418	6.07494164539923	5.73814620660579	6.22450257966993
4.15319127404392	4.344480418143	4.15319127404392	2.31660179292218	5.91351214398006	6.6755042828988	7.13926543344729	5.99582806314616	5.44292617299924	5.44292617299924	5.73814620660579	6.22450257966993
1.89272146492729	2.26005004383979	1.68065905193829	1.9909728216234	2.71037211757455	3.02204218275853	2.42147954525896	3.07905835922402	3.57606003847325	3.29247935720014	3.13453095763195	2.96339291382613
3.4378363734672	2.7635563409097	2.7635563409097	3.94180168179943	3.4378363734672	3.94180168179943	3.12886712267273	4.51917218032385	3.94180168179943	2.7635563409097	4.51917218032385	3.94180168179943
2.7635563409097	0.928973208937595	3.4378363734672	3.12886712267273	-0.457987929984769	-0.457987929984769	-0.457987929984769	-Inf	0.928973208937595	-Inf	-Inf	-Inf
3.77238036301681	-Inf	4.58397757940607	6.28124352754642	-Inf	2.38541922409445	-Inf	-Inf	3.77238036301681	-Inf	-Inf	2.38541922409445
10.8134190981851	9.4257905142005	9.4257905142005	8.03882937527813	11.6256844279356	11.2603736461726	10.2373877305898	11.6256844279356	11.6256844279356	12.2023845782329	9.4257905142005	10.2373877305898
-7.57305294714581	-Inf	-6.76145573075655	-8.96001408606817	-Inf	-Inf	-Inf	-Inf	-Inf	-Inf	-8.96001408606817	-Inf
-5.0641897826162	-4.79645888311341	-6.18542436316123	-4.34883488203949	-3.82209932835003	-4.34883488203949	-3.67321392796939	-4.34883488203949	-3.67321392796939	-3.53455850476153	-3.98285397575956	-3.40481155794153
2.7635563409097	2.31660179292218	-0.457987929984769	2.31660179292218	5.21913397078085	4.96746765132187	4.67992682773338	5.33412115207856	4.82881222811402	4.344480418143	4.15319127404392	5.09721459814188
1.17535012797375	1.3140055511816	0.865710080183577	0.865710080183577	2.77662505055225	2.34236596300589	2.49763258314391	2.77662505055225	2.34236596300589	2.26005004383979	1.9909728216234	2.90301301953387
12.2023845782329	-Inf	10.8134190981851	10.8134190981851	13.5940319034048	13.7159512760438	13.4642849565848	14.5717589506621	13.8309384573415	13.1767441329963	12.4386189870623	14.2349635118687
-2.50619809293724	-2.42708451068418	-3.53455850476153	-3.53455850476153	-2.35093147279922	-2.27752357641347	-2.95584259101584	-2.13819193836859	-2.20666810247003	-1.885171142117	-1.94555103640926	-2.42708451068418
7.8043229113611	5.96973977938899	5.96973977938899	4.58277864046663	10.37488772253	9.86957879856542	9.19395784449532	10.586950135519	9.3852469885944	10.0082342217733	9.55993875077525	8.4786029439186
9.5644384670813	11.2617044152216	7.36588011176968	8.75284125069204	-Inf	-Inf	-Inf	-Inf	7.36588011176968	7.36588011176968	-Inf	8.75284125069204
0.928973208937595	2.31660179292218	0.928973208937595	1.74057042532685	-Inf	-Inf	-Inf	-Inf	-Inf	-0.457987929984769	-0.457987929984769	-0.457987929984769
-2.72448889120268	-2.72448889120268	-2.72448889120268	-4.11145003012504	-4.11145003012504	-Inf	-Inf	-Inf	-Inf	-Inf	-4.11145003012504	-2.72448889120268
0.288339581659155	-0.524594977467538	0.69101831800273	-0.215625726673068	-Inf	-Inf	-Inf	-Inf	-4.11145003012504	-Inf	-4.11145003012504	-Inf
12.1683484598974	13.2667942147537	11.7656697235539	12.9210826398963	14.9164781919158	14.0483706214244	14.3181261031421	14.8198702858426	13.7373801857345	13.8988096871537	14.1192260953678	14.8198702858426
7.5233339818126	7.36257933440307	8.28633332707845	7.9406217522211	8.06254112486007	8.58155336068501	8.17752830615777	8.28633332707845	8.58155336068501	8.48784207584289	8.17752830615777	7.9406217522211
10.8134190981851	-Inf	10.2373877305898	10.8134190981851	-Inf	-Inf	-Inf	-Inf	-Inf	-Inf	-Inf	-Inf
5.96973977938899	7.35736836337358	4.58277864046663	5.96973977938899	-Inf	4.58277864046663	4.58277864046663	4.58277864046663	-Inf	4.58277864046663	5.96973977938899	-Inf
7.36588011176968	8.75284125069204	7.36588011176968	7.36588011176968	-Inf	-Inf	-Inf	-Inf	-Inf	-Inf	-Inf	-Inf
8.16963369312413	7.35736836337358	8.4786029439186	7.35736836337358	-Inf	-Inf	4.58277864046663	-Inf	-Inf	4.58277864046663	4.58277864046663	4.58277864046663
5.60696349498892	3.77238036301681	6.28124352754642	5.1600089470014	-Inf	-Inf	-Inf	-Inf	-Inf	-Inf	2.38541922409445	2.38541922409445
3.94180168179943	2.31660179292218	4.344480418143	3.12886712267273	-Inf	-Inf	-Inf	-0.457987929984769	0.928973208937595	0.928973208937595	-0.457987929984769	0.928973208937595
8.75284125069204	8.75284125069204	-Inf	9.5644384670813	7.36588011176968	-Inf	-Inf	-Inf	-Inf	-Inf	-Inf	7.36588011176968
9.4257905142005	8.03882937527813	8.03882937527813	9.4257905142005	8.03882937527813	-Inf	8.03882937527813	8.03882937527813	10.8134190981851	8.03882937527813	-Inf	9.4257905142005
9.55993875077525	10.0082342217733	9.55993875077525	10.1379811685933	10.7789127770572	10.7789127770572	11.2652691501213	11.1157082158506	11.1918612537356	10.9542787144315	11.1918612537356	11.1157082158506
7.8043229113611	8.4786029439186	5.96973977938899	8.16963369312413	-Inf	-Inf	-Inf	4.58277864046663	9.19395784449532	6.78133699577825	7.35736836337358	8.4786029439186
7.67221938219324	7.18788757222222	6.28124352754642	5.97227427675195	8.75691929805928	8.58155336068501	8.38959071914678	8.38959071914678	9.13876520769259	8.67112836476533	8.9945018373634	8.28633332707845
12.2023845782329	11.6256844279356	12.2023845782329	10.8134190981851	14.324538515949	13.7159512760438	13.9397434782621	13.3256295333769	13.7159512760438	13.1767441329963	12.8412977234059	13.4642849565848
9.64824304501536	11.0358716289999	9.64824304501536	8.261281906093	12.8724611101217	9.64824304501536	11.0358716289999	10.4598402614046	9.64824304501536	9.64824304501536	10.4598402614046	11.0358716289999
0.288339581659155	-0.215625726673068	-1.33686030721809	-1.33686030721809	-1.33686030721809	-Inf	-Inf	-1.33686030721809	-1.33686030721809	0.865710080183577	-0.889905759230567	0.865710080183577
11.8481369587505	11.8481369587505	12.157106209545	11.4828261769875	8.261281906093	8.261281906093	-Inf	9.64824304501536	8.261281906093	11.0358716289999	11.8481369587505	11.0358716289999
2.38541922409445	-Inf	-Inf	-Inf	-Inf	-Inf	-Inf	-Inf	4.58397757940607	2.38541922409445	-Inf	3.77238036301681
9.5644384670813	8.75284125069204	7.36588011176968	-Inf	9.5644384670813	8.75284125069204	10.1404698346766	9.5644384670813	10.1404698346766	8.75284125069204	7.36588011176968	8.75284125069204
8.261281906093	-Inf	-Inf	-Inf	-Inf	-Inf	8.261281906093	8.261281906093	-Inf	8.261281906093	-Inf	-Inf
11.4828261769875	11.4828261769875	9.64824304501536	9.64824304501536	11.4828261769875	11.0358716289999	9.64824304501536	12.8724611101217	12.157106209545	11.8481369587505	10.4598402614046	11.0358716289999
-5.37315903341067	-5.7384698151737	-6.18542436316123	-5.7384698151737	-4.34883488203949	-3.53455850476153	-3.67321392796939	-3.53455850476153	-4.79645888311341	-4.56022447428398	-4.56022447428398	-4.34883488203949
4.15319127404392	3.70556727297	4.344480418143	3.70556727297	7.47879182484802	6.73252045936429	7.47879182484802	6.99600224408813	6.43008715069253	5.09721459814188	6.15109468328418	5.73814620660579
10.8134190981851	11.6256844279356	10.8134190981851	11.2603736461726	12.2023845782329	12.2023845782329	11.6256844279356	11.2603736461726	10.2373877305898	10.8134190981851	11.6256844279356	12.4386189870623
-0.457987929984769	-0.457987929984769	-Inf	-0.457987929984769	-0.457987929984769	-Inf	-Inf	-0.457987929984769	-Inf	-Inf	-0.457987929984769	-Inf
0.0521051728297266	1.44375249800161	2.42147954525896	0.0521051728297266	-4.11145003012504	-2.72448889120268	-1.91289167481342	-1.33686030721809	-1.91289167481342	-1.33686030721809	-1.33686030721809	-1.91289167481342
1.74057042532685	0.928973208937595	2.31660179292218	1.74057042532685	2.7635563409097	2.7635563409097	3.12886712267273	2.7635563409097	2.31660179292218	2.7635563409097	3.70556727297	4.15319127404392
10.1404698346766	8.75284125069204	8.75284125069204	8.75284125069204	-Inf	-Inf	-Inf	-Inf	-Inf	8.75284125069204	9.5644384670813	8.75284125069204
6.22477749790734	6.22477749790734	6.22477749790734	6.22477749790734	-Inf	-Inf	-Inf	-Inf	-Inf	6.22477749790734	6.22477749790734	6.22477749790734
-0.457987929984769	-Inf	-Inf	-0.457987929984769	-Inf	-Inf	-Inf	-Inf	-Inf	-Inf	-Inf	-Inf
-4.11145003012504	-4.11145003012504	-4.11145003012504	-4.11145003012504	-Inf	-Inf	-Inf	-Inf	-Inf	-Inf	-Inf	-Inf
3.12886712267273	1.74057042532685	1.74057042532685	2.31660179292218	3.12886712267273	3.70556727297	3.70556727297	3.12886712267273	3.4378363734672	3.4378363734672	2.7635563409097	3.94180168179943
-5.0641897826162	-5.37315903341067	-6.18542436316123	-5.7384698151737	-2.35093147279922	-2.85759123431974	-2.00776809469575	-2.35093147279922	-5.37315903341067	-5.7384698151737	-4.79645888311341	-5.37315903341067
-0.215625726673068	-0.215625726673068	0.0521051728297266	-0.524594977467538	3.07905835922402	2.90301301953387	2.90301301953387	3.02204218275853	1.3140055511816	2.08468410646552	2.17425911054584	1.78946407285897
11.2603736461726	10.8134190981851	8.03882937527813	10.8134190981851	12.2023845782329	11.2603736461726	11.6256844279356	11.6256844279356	12.2023845782329	11.2603736461726	11.6256844279356	10.8134190981851
6.78133699577825	4.58277864046663	7.8043229113611	4.58277864046663	-Inf	-Inf	4.58277864046663	-Inf	-Inf	-Inf	-Inf	-Inf
7.36588011176968	7.36588011176968	-Inf	7.36588011176968	-Inf	-Inf	-Inf	-Inf	-Inf	-Inf	-Inf	-Inf
10.8134190981851	10.2373877305898	8.03882937527813	8.03882937527813	8.03882937527813	-Inf	-Inf	-Inf	8.03882937527813	-Inf	8.03882937527813	-Inf
6.22477749790734	6.22477749790734	6.22477749790734	7.6117386368297	-Inf	-Inf	-Inf	-Inf	-Inf	-Inf	-Inf	-Inf
-0.457987929984769	-Inf	-0.457987929984769	-0.457987929984769	-0.457987929984769	-0.457987929984769	-Inf	-Inf	-Inf	-0.457987929984769	-Inf	-Inf
-0.457987929984769	-Inf	0.928973208937595	-0.457987929984769	-Inf	-Inf	-Inf	-Inf	-Inf	-Inf	-Inf	-Inf
2.38541922409445	2.38541922409445	-Inf	-Inf	-Inf	-Inf	-Inf	-Inf	-Inf	-Inf	-Inf	-Inf
6.22477749790734	7.6117386368297	7.6117386368297	7.6117386368297	-Inf	-Inf	-Inf	-Inf	-Inf	-Inf	-Inf	-Inf
7.36588011176968	-Inf	7.36588011176968	7.36588011176968	-Inf	-Inf	-Inf	-Inf	-Inf	-Inf	-Inf	-Inf
9.5644384670813	8.75284125069204	7.36588011176968	7.36588011176968	10.5874243826641	10.1404698346766	9.5644384670813	9.5644384670813	9.5644384670813	8.75284125069204	7.36588011176968	9.5644384670813
6.22477749790734	-Inf	-Inf	6.22477749790734	9.44632176880181	9.81163255056484	9.44632176880181	8.42333585321896	10.1206018013593	9.44632176880181	9.44632176880181	7.6117386368297
0.928973208937595	0.928973208937595	-0.457987929984769	-Inf	-Inf	-Inf	-Inf	-Inf	-0.457987929984769	-Inf	-Inf	-Inf
9.64824304501536	-Inf	9.64824304501536	10.4598402614046	-Inf	-Inf	8.261281906093	8.261281906093	-Inf	-Inf	-Inf	-Inf
2.38541922409445	-Inf	-Inf	-Inf	-Inf	-Inf	-Inf	-Inf	-Inf	-Inf	-Inf	-Inf
8.75284125069204	10.1404698346766	9.5644384670813	9.5644384670813	-Inf	7.36588011176968	-Inf	7.36588011176968	-Inf	-Inf	-Inf	7.36588011176968
8.03882937527813	9.4257905142005	9.4257905142005	8.03882937527813	-Inf	-Inf	-Inf	-Inf	-Inf	-Inf	-Inf	-Inf
2.38541922409445	-Inf	2.38541922409445	-Inf	-Inf	2.38541922409445	-Inf	-Inf	-Inf	-Inf	-Inf	-Inf
-0.457987929984769	-0.457987929984769	-0.457987929984769	-Inf	-Inf	-0.457987929984769	-Inf	-0.457987929984769	-Inf	-Inf	-Inf	-Inf
4.58277864046663	5.96973977938899	-Inf	4.58277864046663	5.96973977938899	5.96973977938899	5.96973977938899	7.35736836337358	-Inf	5.96973977938899	4.58277864046663	-Inf
3.77238036301681	2.38541922409445	3.77238036301681	5.1600089470014	3.77238036301681	2.38541922409445	2.38541922409445	2.38541922409445	-Inf	2.38541922409445	2.38541922409445	-Inf
8.03882937527813	8.03882937527813	-Inf	-Inf	9.4257905142005	-Inf	10.2373877305898	8.03882937527813	8.03882937527813	-Inf	-Inf	8.03882937527813
11.2603736461726	9.4257905142005	11.6256844279356	11.9346536787301	13.1767441329963	10.8134190981851	13.0159894855868	12.6500085793068	12.2023845782329	11.9346536787301	12.8412977234059	13.3256295333769
8.03882937527813	-Inf	-Inf	-Inf	-Inf	8.03882937527813	10.2373877305898	10.2373877305898	10.2373877305898	8.03882937527813	8.03882937527813	8.03882937527813
-2.72448889120268	-2.72448889120268	-4.11145003012504	-2.72448889120268	-Inf	-Inf	-Inf	-Inf	-1.91289167481342	-2.72448889120268	-2.72448889120268	-1.91289167481342
8.75284125069204	7.36588011176968	-Inf	7.36588011176968	7.36588011176968	8.75284125069204	9.5644384670813	8.75284125069204	10.1404698346766	9.5644384670813	7.36588011176968	10.9527351644272
9.4257905142005	-Inf	-Inf	8.03882937527813	-Inf	-Inf	-Inf	-Inf	-Inf	-Inf	-Inf	-Inf
-6.76145573075655	-5.37315903341067	-6.18542436316123	-5.7384698151737	-Inf	-8.96001408606817	-Inf	-8.96001408606817	-Inf	-8.96001408606817	-8.96001408606817	-7.57305294714581
7.36588011176968	8.75284125069204	-Inf	8.75284125069204	12.1683484598974	11.2617044152216	11.5294353147244	12.1683484598974	10.5874243826641	10.1404698346766	10.5874243826641	10.5874243826641
-2.72448889120268	-1.91289167481342	0.499729173903647	0.865710080183577	-4.11145003012504	-2.72448889120268	-4.11145003012504	-2.72448889120268	-2.72448889120268	-Inf	-Inf	-2.72448889120268
4.58397757940607	5.1600089470014	4.58397757940607	5.1600089470014	2.38541922409445	-Inf	4.58397757940607	3.77238036301681	2.38541922409445	-Inf	2.38541922409445	-Inf
8.261281906093	-Inf	8.261281906093	8.261281906093	-Inf	-Inf	-Inf	8.261281906093	-Inf	-Inf	-Inf	-Inf
10.8134190981851	10.8134190981851	10.2373877305898	12.2023845782329	11.9346536787301	13.0159894855868	12.4386189870623	13.4642849565848	11.6256844279356	11.6256844279356	11.2603736461726	12.8412977234059
-0.889905759230567	-1.91289167481342	-0.524594977467538	-Inf	-Inf	-Inf	-Inf	-Inf	-4.11145003012504	-Inf	-4.11145003012504	-Inf
-6.18542436316123	-8.96001408606817	-8.96001408606817	-8.96001408606817	-8.96001408606817	-Inf	-Inf	-Inf	-8.96001408606817	-8.96001408606817	-Inf	-8.96001408606817
5.96973977938899	-Inf	4.58277864046663	4.58277864046663	-Inf	-Inf	-Inf	-Inf	-Inf	-Inf	-Inf	-Inf
9.4257905142005	-Inf	8.03882937527813	-Inf	-Inf	-Inf	-Inf	-Inf	8.03882937527813	-Inf	-Inf	-Inf
5.96973977938899	5.96973977938899	-Inf	-Inf	7.35736836337358	7.35736836337358	6.78133699577825	8.4786029439186	-Inf	7.35736836337358	8.16963369312413	8.7463338434214
-0.457987929984769	-Inf	-Inf	-0.457987929984769	1.74057042532685	-0.457987929984769	-Inf	0.928973208937595	-Inf	-0.457987929984769	-Inf	-0.457987929984769
8.261281906093	8.261281906093	8.261281906093	-Inf	-Inf	-Inf	-Inf	-Inf	-Inf	-Inf	-Inf	-Inf
-4.11145003012504	-Inf	-4.11145003012504	-2.72448889120268	-Inf	-Inf	-Inf	-Inf	-Inf	-Inf	-Inf	-Inf
8.03882937527813	9.4257905142005	8.03882937527813	8.03882937527813	-Inf	-Inf	-Inf	-Inf	-Inf	-Inf	-Inf	-Inf
8.261281906093	8.261281906093	9.64824304501536	-Inf	9.64824304501536	10.4598402614046	9.64824304501536	9.64824304501536	11.4828261769875	11.0358716289999	8.261281906093	10.4598402614046
-8.96001408606817	-Inf	-8.96001408606817	-Inf	-Inf	-Inf	-Inf	-Inf	-Inf	-8.96001408606817	-Inf	-8.96001408606817
2.38541922409445	2.38541922409445	-Inf	4.58397757940607	-Inf	-Inf	-Inf	-Inf	-Inf	-Inf	2.38541922409445	2.38541922409445
-0.457987929984769	1.74057042532685	2.31660179292218	-0.457987929984769	3.70556727297	3.70556727297	3.12886712267273	3.70556727297	3.12886712267273	2.7635563409097	0.928973208937595	3.94180168179943
11.2617044152216	11.5294353147244	9.5644384670813	10.1404698346766	-Inf	7.36588011176968	-Inf	-Inf	7.36588011176968	-Inf	8.75284125069204	7.36588011176968
10.2373877305898	9.4257905142005	9.4257905142005	-Inf	10.2373877305898	11.6256844279356	8.03882937527813	10.8134190981851	10.8134190981851	11.9346536787301	10.2373877305898	11.6256844279356
5.96973977938899	7.35736836337358	7.8043229113611	6.78133699577825	7.8043229113611	8.16963369312413	7.35736836337358	8.16963369312413	8.7463338434214	8.4786029439186	8.16963369312413	8.4786029439186
5.96973977938899	7.35736836337358	8.16963369312413	4.58277864046663	10.0082342217733	10.0082342217733	10.37488772253	10.1379811685933	10.0082342217733	9.19395784449532	8.7463338434214	8.16963369312413
-2.72448889120268	-Inf	-4.11145003012504	-2.72448889120268	-1.33686030721809	-2.72448889120268	-0.889905759230567	-1.91289167481342	-1.33686030721809	-1.91289167481342	-1.91289167481342	-1.33686030721809
6.22477749790734	-Inf	-Inf	7.6117386368297	-Inf	-Inf	-Inf	-Inf	-Inf	-Inf	-Inf	-Inf
6.22477749790734	6.22477749790734	8.42333585321896	-Inf	-Inf	-Inf	-Inf	-Inf	6.22477749790734	-Inf	6.22477749790734	-Inf
9.5644384670813	-Inf	10.5874243826641	10.9527351644272	-Inf	-Inf	-Inf	-Inf	8.75284125069204	-Inf	7.36588011176968	-Inf
4.58277864046663	-Inf	5.96973977938899	-Inf	-Inf	-Inf	-Inf	-Inf	-Inf	-Inf	-Inf	-Inf
2.38541922409445	-Inf	3.77238036301681	2.38541922409445	-Inf	-Inf	2.38541922409445	-Inf	-Inf	-Inf	-Inf	-Inf
9.4257905142005	-Inf	9.4257905142005	8.03882937527813	-Inf	-Inf	-Inf	-Inf	-Inf	-Inf	-Inf	-Inf
-2.72448889120268	-2.72448889120268	-2.72448889120268	-2.72448889120268	-4.11145003012504	-Inf	-4.11145003012504	-Inf	-0.889905759230567	-2.72448889120268	-Inf	-2.72448889120268
4.58277864046663	4.58277864046663	5.96973977938899	4.58277864046663	6.78133699577825	7.8043229113611	7.8043229113611	5.96973977938899	7.8043229113611	7.8043229113611	6.78133699577825	6.78133699577825
0.928973208937595	-0.457987929984769	-Inf	-0.457987929984769	3.12886712267273	1.74057042532685	3.4378363734672	2.7635563409097	3.12886712267273	1.74057042532685	1.74057042532685	2.7635563409097
9.4257905142005	8.03882937527813	9.4257905142005	-Inf	-Inf	-Inf	-Inf	-Inf	8.03882937527813	8.03882937527813	-Inf	-Inf
6.22477749790734	-Inf	-Inf	-Inf	-Inf	-Inf	-Inf	-Inf	-Inf	-Inf	-Inf	-Inf
-0.457987929984769	-Inf	0.928973208937595	-0.457987929984769	-Inf	-Inf	-Inf	-Inf	-Inf	-Inf	-Inf	-Inf
2.38541922409445	2.38541922409445	4.58397757940607	3.77238036301681	5.97227427675195	2.38541922409445	5.97227427675195	5.60696349498892	5.60696349498892	4.58397757940607	2.38541922409445	6.54897442704921
8.261281906093	8.261281906093	-Inf	-Inf	-Inf	-Inf	-Inf	-Inf	-Inf	-Inf	-Inf	-Inf
8.03882937527813	9.4257905142005	-Inf	-Inf	-Inf	-Inf	-Inf	-Inf	-Inf	-Inf	-Inf	-Inf
-4.11145003012504	-Inf	-4.11145003012504	-Inf	-Inf	-Inf	-Inf	-Inf	-Inf	-Inf	-Inf	-Inf
-4.11145003012504	-Inf	-Inf	-Inf	-Inf	-Inf	-Inf	-Inf	-4.11145003012504	-Inf	-Inf	-Inf
8.03882937527813	9.4257905142005	-Inf	-Inf	-Inf	-Inf	-Inf	-Inf	-Inf	-Inf	-Inf	-Inf
8.261281906093	-Inf	-Inf	8.261281906093	10.4598402614046	9.64824304501536	9.64824304501536	9.64824304501536	8.261281906093	9.64824304501536	8.261281906093	9.64824304501536
8.03882937527813	9.4257905142005	-Inf	-Inf	11.6256844279356	10.8134190981851	8.03882937527813	10.2373877305898	8.03882937527813	8.03882937527813	8.03882937527813	10.2373877305898
8.03882937527813	8.03882937527813	8.03882937527813	-Inf	10.2373877305898	10.2373877305898	8.03882937527813	10.2373877305898	-Inf	10.8134190981851	8.03882937527813	10.8134190981851
-4.11145003012504	-Inf	-4.11145003012504	-Inf	-Inf	-Inf	-Inf	-Inf	-Inf	-Inf	-4.11145003012504	-Inf
-4.11145003012504	-Inf	-Inf	-Inf	-1.91289167481342	-1.91289167481342	-2.72448889120268	-4.11145003012504	-2.72448889120268	-4.11145003012504	-Inf	-4.11145003012504
8.261281906093	-Inf	-Inf	-Inf	-Inf	-Inf	-Inf	-Inf	-Inf	-Inf	-Inf	-Inf
2.38541922409445	-Inf	-Inf	-Inf	-Inf	-Inf	-Inf	-Inf	-Inf	-Inf	-Inf	-Inf
7.36588011176968	-Inf	-Inf	-Inf	7.36588011176968	7.36588011176968	-Inf	-Inf	-Inf	-Inf	-Inf	-Inf
8.03882937527813	-Inf	-Inf	-Inf	-Inf	-Inf	-Inf	8.03882937527813	-Inf	-Inf	-Inf	-Inf
8.261281906093	-Inf	-Inf	-Inf	-Inf	-Inf	-Inf	9.64824304501536	-Inf	-Inf	-Inf	-Inf
4.58277864046663	-Inf	-Inf	-Inf	-Inf	-Inf	-Inf	-Inf	-Inf	-Inf	-Inf	-Inf
6.22477749790734	-Inf	-Inf	-Inf	-Inf	-Inf	-Inf	-Inf	-Inf	-Inf	-Inf	-Inf
-0.457987929984769	0.928973208937595	-0.457987929984769	-Inf	-Inf	-Inf	-Inf	-Inf	-Inf	-0.457987929984769	-Inf	-Inf
8.261281906093	9.64824304501536	8.261281906093	9.64824304501536	10.4598402614046	9.64824304501536	8.261281906093	10.4598402614046	8.261281906093	10.4598402614046	8.261281906093	9.64824304501536
-Inf	2.38541922409445	-Inf	2.38541922409445	-Inf	-Inf	-Inf	-Inf	-Inf	-Inf	-Inf	-Inf
-Inf	-7.57305294714581	-7.57305294714581	-7.57305294714581	-Inf	-Inf	-Inf	-Inf	-Inf	-Inf	-Inf	-Inf
-Inf	9.4257905142005	8.03882937527813	8.03882937527813	11.9346536787301	9.4257905142005	-Inf	10.2373877305898	8.03882937527813	10.8134190981851	11.6256844279356	12.2023845782329
-Inf	-0.457987929984769	-0.457987929984769	-Inf	-0.457987929984769	-0.457987929984769	-Inf	-0.457987929984769	-Inf	-Inf	-0.457987929984769	-Inf
-Inf	-8.96001408606817	-8.96001408606817	-Inf	-7.57305294714581	-6.18542436316123	-7.57305294714581	-Inf	-8.96001408606817	-8.96001408606817	-7.57305294714581	-6.76145573075655
-Inf	-4.11145003012504	-4.11145003012504	-Inf	-Inf	-Inf	-Inf	-Inf	-Inf	-Inf	-Inf	-Inf
-Inf	-0.457987929984769	-Inf	-Inf	-Inf	-Inf	-Inf	-Inf	-Inf	-Inf	-Inf	-Inf
-Inf	1.74057042532685	1.74057042532685	0.928973208937595	-Inf	-Inf	-0.457987929984769	-0.457987929984769	-Inf	-Inf	-Inf	0.928973208937595
-Inf	4.58277864046663	4.58277864046663	-Inf	-Inf	-Inf	-Inf	-Inf	-Inf	-Inf	-Inf	-Inf
-Inf	2.38541922409445	-Inf	-Inf	-Inf	-Inf	-Inf	-Inf	-Inf	-Inf	-Inf	-Inf
-Inf	6.22477749790734	-Inf	-Inf	-Inf	-Inf	-Inf	-Inf	-Inf	-Inf	-Inf	-Inf
-Inf	8.42333585321896	7.6117386368297	7.6117386368297	7.6117386368297	10.1206018013593	7.6117386368297	9.44632176880181	9.81163255056484	9.44632176880181	6.22477749790734	8.42333585321896
-Inf	11.4828261769875	8.261281906093	9.64824304501536	10.4598402614046	10.4598402614046	8.261281906093	9.64824304501536	9.64824304501536	12.4248371090478	11.0358716289999	12.6610715178772
-Inf	-4.11145003012504	-Inf	-Inf	-Inf	-Inf	-Inf	-Inf	-Inf	-Inf	-Inf	-Inf
-Inf	-0.457987929984769	-Inf	-Inf	-0.457987929984769	-Inf	-Inf	-Inf	-Inf	-Inf	-Inf	-Inf
-Inf	-4.11145003012504	-Inf	-Inf	-Inf	-Inf	-Inf	-Inf	-Inf	-Inf	-Inf	-Inf
-Inf	-0.457987929984769	-Inf	-Inf	-0.457987929984769	-Inf	0.928973208937595	-0.457987929984769	-Inf	-0.457987929984769	-Inf	-Inf
-Inf	-0.457987929984769	-Inf	-Inf	-Inf	-Inf	-0.457987929984769	-Inf	-Inf	-Inf	-Inf	-Inf
-Inf	3.77238036301681	3.77238036301681	-Inf	3.77238036301681	3.77238036301681	4.58397757940607	-Inf	-Inf	4.58397757940607	2.38541922409445	3.77238036301681
-Inf	8.261281906093	-Inf	-Inf	-Inf	-Inf	-Inf	-Inf	-Inf	-Inf	-Inf	-Inf
-Inf	7.36588011176968	7.36588011176968	-Inf	-Inf	8.75284125069204	-Inf	7.36588011176968	-Inf	-Inf	-Inf	-Inf
-Inf	8.03882937527813	-Inf	8.03882937527813	-Inf	8.03882937527813	-Inf	-Inf	-Inf	-Inf	-Inf	8.03882937527813
-Inf	4.58277864046663	-Inf	-Inf	-Inf	4.58277864046663	4.58277864046663	-Inf	-Inf	-Inf	-Inf	-Inf
-Inf	2.38541922409445	-Inf	-Inf	-Inf	-Inf	-Inf	-Inf	-Inf	-Inf	-Inf	-Inf
-Inf	-0.457987929984769	-0.457987929984769	-Inf	-Inf	-0.457987929984769	-0.457987929984769	-Inf	0.928973208937595	-Inf	-0.457987929984769	1.74057042532685
-Inf	-4.11145003012504	-4.11145003012504	-Inf	-Inf	-4.11145003012504	-4.11145003012504	-2.72448889120268	-1.91289167481342	-4.11145003012504	-4.11145003012504	-2.72448889120268
-Inf	7.36588011176968	-Inf	-Inf	-Inf	-Inf	7.36588011176968	7.36588011176968	7.36588011176968	-Inf	-Inf	-Inf
-Inf	6.22477749790734	-Inf	6.22477749790734	7.6117386368297	6.22477749790734	8.99936722081428	7.6117386368297	6.22477749790734	6.22477749790734	-Inf	7.6117386368297
-Inf	8.03882937527813	-Inf	-Inf	-Inf	-Inf	-Inf	-Inf	-Inf	-Inf	-Inf	-Inf
-Inf	8.261281906093	-Inf	-Inf	-Inf	-Inf	-Inf	-Inf	-Inf	-Inf	-Inf	-Inf
-Inf	6.22477749790734	-Inf	-Inf	-Inf	-Inf	-Inf	-Inf	-Inf	-Inf	-Inf	-Inf
-Inf	-0.457987929984769	-Inf	-Inf	-Inf	-Inf	-0.457987929984769	-Inf	-Inf	-Inf	-0.457987929984769	-0.457987929984769
-Inf	3.77238036301681	5.60696349498892	-Inf	6.54897442704921	6.78520883587864	6.78520883587864	6.54897442704921	5.60696349498892	5.60696349498892	4.58397757940607	5.60696349498892
-Inf	8.261281906093	-Inf	-Inf	9.64824304501536	-Inf	8.261281906093	8.261281906093	9.64824304501536	-Inf	-Inf	8.261281906093
-Inf	4.58277864046663	4.58277864046663	5.96973977938899	4.58277864046663	-Inf	-Inf	-Inf	-Inf	-Inf	-Inf	-Inf
-Inf	-4.11145003012504	-Inf	-4.11145003012504	-Inf	-Inf	-Inf	-Inf	-Inf	-Inf	-4.11145003012504	-4.11145003012504
-Inf	-0.457987929984769	-Inf	-Inf	-Inf	-Inf	-Inf	-Inf	-Inf	-Inf	-Inf	-Inf
-Inf	-2.72448889120268	-Inf	-Inf	-Inf	-Inf	-Inf	-Inf	-Inf	-4.11145003012504	-Inf	-Inf
-Inf	-7.57305294714581	-8.96001408606817	-8.96001408606817	-Inf	-Inf	-Inf	-Inf	-Inf	-8.96001408606817	-8.96001408606817	-Inf
-Inf	-0.457987929984769	-Inf	-Inf	-Inf	-Inf	-Inf	-Inf	-Inf	-Inf	-Inf	-Inf
-Inf	-4.11145003012504	-Inf	-Inf	-Inf	-Inf	-Inf	-Inf	-Inf	-Inf	-Inf	-Inf
-Inf	6.22477749790734	-Inf	6.22477749790734	-Inf	-Inf	-Inf	-Inf	-Inf	-Inf	-Inf	-Inf
-Inf	4.58277864046663	-Inf	5.96973977938899	-Inf	-Inf	-Inf	-Inf	-Inf	-Inf	-Inf	-Inf
-Inf	2.38541922409445	-Inf	-Inf	-Inf	-Inf	-Inf	-Inf	-Inf	-Inf	-Inf	-Inf
-Inf	-8.96001408606817	-Inf	-Inf	-Inf	-Inf	-Inf	-Inf	-Inf	-Inf	-Inf	-Inf
-Inf	5.96973977938899	-Inf	4.58277864046663	-Inf	-Inf	-Inf	-Inf	-Inf	-Inf	-Inf	-Inf
-Inf	3.77238036301681	-Inf	-Inf	-Inf	-Inf	-Inf	-Inf	-Inf	-Inf	-Inf	-Inf
-Inf	-8.96001408606817	-8.96001408606817	-Inf	-8.96001408606817	-Inf	-Inf	-Inf	-Inf	-Inf	-8.96001408606817	-8.96001408606817
-Inf	8.03882937527813	-Inf	8.03882937527813	-Inf	-Inf	-Inf	-Inf	-Inf	-Inf	-Inf	-Inf
-Inf	-0.457987929984769	-Inf	-Inf	-Inf	-Inf	-Inf	-Inf	-Inf	-Inf	-Inf	-Inf
-Inf	-8.96001408606817	-Inf	-Inf	-Inf	-Inf	-Inf	-Inf	-Inf	-8.96001408606817	-Inf	-Inf
-Inf	-0.457987929984769	-0.457987929984769	-Inf	-Inf	-Inf	-Inf	-Inf	0.928973208937595	-Inf	-Inf	-Inf
-Inf	8.03882937527813	-Inf	-Inf	9.4257905142005	10.8134190981851	8.03882937527813	8.03882937527813	8.03882937527813	8.03882937527813	8.03882937527813	9.4257905142005
-Inf	6.22477749790734	-Inf	-Inf	-Inf	-Inf	-Inf	-Inf	-Inf	-Inf	-Inf	-Inf
-Inf	7.36588011176968	-Inf	-Inf	-Inf	-Inf	-Inf	-Inf	-Inf	-Inf	-Inf	-Inf
-Inf	8.261281906093	-Inf	-Inf	-Inf	-Inf	-Inf	-Inf	-Inf	-Inf	-Inf	-Inf
-Inf	9.64824304501536	8.261281906093	-Inf	-Inf	8.261281906093	-Inf	-Inf	8.261281906093	-Inf	8.261281906093	-Inf
-Inf	8.03882937527813	-Inf	8.03882937527813	-Inf	-Inf	8.03882937527813	-Inf	-Inf	-Inf	-Inf	-Inf
-Inf	-8.96001408606817	-Inf	-Inf	-Inf	-Inf	-Inf	-Inf	-Inf	-Inf	-Inf	-Inf
-Inf	-Inf	-0.457987929984769	-Inf	-Inf	-Inf	-Inf	-Inf	-Inf	-Inf	-Inf	-Inf
-Inf	-Inf	-8.96001408606817	-Inf	-8.96001408606817	-8.96001408606817	-8.96001408606817	-Inf	-8.96001408606817	-8.96001408606817	-Inf	-8.96001408606817
-Inf	-Inf	4.58397757940607	2.38541922409445	5.1600089470014	3.77238036301681	2.38541922409445	3.77238036301681	5.1600089470014	3.77238036301681	-Inf	5.1600089470014
-Inf	-Inf	6.22477749790734	6.22477749790734	6.22477749790734	-Inf	-Inf	-Inf	-Inf	-Inf	-Inf	7.6117386368297
-Inf	-Inf	-0.457987929984769	-Inf	-Inf	-Inf	-Inf	-Inf	-Inf	-Inf	-Inf	-Inf
-Inf	-Inf	-4.11145003012504	-Inf	-Inf	-Inf	-Inf	-Inf	-Inf	-Inf	-Inf	-Inf
-Inf	-Inf	-4.11145003012504	-4.11145003012504	-Inf	-Inf	-Inf	-Inf	-Inf	-Inf	-Inf	-Inf
-Inf	-Inf	-8.96001408606817	-8.96001408606817	-Inf	-Inf	-Inf	-Inf	-Inf	-Inf	-Inf	-Inf
-Inf	-Inf	-4.11145003012504	-4.11145003012504	-Inf	-Inf	-Inf	-Inf	-Inf	-Inf	-Inf	-Inf
-Inf	-Inf	6.22477749790734	-Inf	-Inf	-Inf	-Inf	-Inf	-Inf	-Inf	-Inf	-Inf
-Inf	-Inf	-4.11145003012504	-4.11145003012504	-Inf	-4.11145003012504	-4.11145003012504	-4.11145003012504	-4.11145003012504	-Inf	-Inf	-4.11145003012504
-Inf	-Inf	4.58397757940607	-Inf	2.38541922409445	-Inf	2.38541922409445	2.38541922409445	2.38541922409445	-Inf	-Inf	2.38541922409445
-Inf	-Inf	7.36588011176968	-Inf	-Inf	-Inf	-Inf	-Inf	-Inf	-Inf	-Inf	-Inf
-Inf	-Inf	9.4257905142005	8.03882937527813	8.03882937527813	10.2373877305898	11.2603736461726	10.8134190981851	8.03882937527813	11.2603736461726	9.4257905142005	8.03882937527813
-Inf	-Inf	2.38541922409445	2.38541922409445	-Inf	3.77238036301681	3.77238036301681	3.77238036301681	3.77238036301681	-Inf	2.38541922409445	-Inf
-Inf	-Inf	6.22477749790734	-Inf	-Inf	6.22477749790734	6.22477749790734	6.22477749790734	7.6117386368297	-Inf	-Inf	-Inf
-Inf	-Inf	-4.11145003012504	-4.11145003012504	-Inf	-Inf	-Inf	-Inf	-Inf	-4.11145003012504	-4.11145003012504	-Inf
-Inf	-Inf	9.5644384670813	-Inf	-Inf	-Inf	7.36588011176968	-Inf	-Inf	-Inf	-Inf	-Inf
-Inf	-Inf	8.42333585321896	-Inf	-Inf	-Inf	-Inf	-Inf	-Inf	-Inf	-Inf	-Inf
-Inf	-Inf	7.35736836337358	-Inf	-Inf	-Inf	-Inf	-Inf	-Inf	-Inf	-Inf	-Inf
-Inf	-Inf	6.22477749790734	-Inf	-Inf	-Inf	-Inf	-Inf	-Inf	-Inf	-Inf	6.22477749790734
-Inf	-Inf	8.261281906093	-Inf	11.4828261769875	-Inf	8.261281906093	8.261281906093	8.261281906093	9.64824304501536	-Inf	8.261281906093
-Inf	-Inf	4.58277864046663	-Inf	-Inf	-Inf	-Inf	-Inf	-Inf	-Inf	-Inf	-Inf
-Inf	-Inf	9.4257905142005	8.03882937527813	-Inf	-Inf	-Inf	-Inf	8.03882937527813	-Inf	-Inf	-Inf
-Inf	-Inf	5.96973977938899	-Inf	-Inf	-Inf	-Inf	-Inf	-Inf	-Inf	-Inf	-Inf
-Inf	-Inf	6.22477749790734	6.22477749790734	-Inf	-Inf	-Inf	-Inf	-Inf	-Inf	-Inf	-Inf
-Inf	-Inf	6.22477749790734	-Inf	-Inf	-Inf	-Inf	-Inf	-Inf	-Inf	-Inf	-Inf
-Inf	-Inf	2.38541922409445	-Inf	-Inf	-Inf	-Inf	-Inf	-Inf	-Inf	-Inf	-Inf
-Inf	-Inf	6.22477749790734	6.22477749790734	6.22477749790734	-Inf	-Inf	-Inf	-Inf	-Inf	-Inf	-Inf
-Inf	-Inf	8.03882937527813	8.03882937527813	-Inf	-Inf	-Inf	-Inf	-Inf	-Inf	-Inf	-Inf
-Inf	-Inf	-8.96001408606817	-Inf	-8.96001408606817	-8.96001408606817	-7.57305294714581	-6.76145573075655	-6.76145573075655	-8.96001408606817	-Inf	-8.96001408606817
-Inf	-Inf	6.22477749790734	-Inf	-Inf	-Inf	-Inf	-Inf	-Inf	-Inf	-Inf	-Inf
-Inf	-Inf	4.58277864046663	-Inf	-Inf	-Inf	-Inf	-Inf	-Inf	-Inf	-Inf	-Inf
-Inf	-Inf	7.36588011176968	-Inf	-Inf	7.36588011176968	7.36588011176968	7.36588011176968	-Inf	-Inf	-Inf	-Inf
-Inf	-Inf	-0.457987929984769	-Inf	-Inf	-Inf	-Inf	-Inf	-Inf	-Inf	-Inf	-Inf
-Inf	-Inf	6.22477749790734	-Inf	-Inf	6.22477749790734	6.22477749790734	-Inf	6.22477749790734	-Inf	6.22477749790734	6.22477749790734
-Inf	-Inf	3.77238036301681	3.77238036301681	-Inf	-Inf	-Inf	-Inf	-Inf	-Inf	-Inf	-Inf
-Inf	-Inf	4.58277864046663	4.58277864046663	-Inf	-Inf	-Inf	-Inf	-Inf	-Inf	-Inf	-Inf
-Inf	-Inf	8.03882937527813	-Inf	-Inf	-Inf	-Inf	-Inf	-Inf	-Inf	-Inf	-Inf
-Inf	-Inf	6.22477749790734	-Inf	-Inf	-Inf	-Inf	-Inf	-Inf	-Inf	-Inf	-Inf
-Inf	-Inf	2.38541922409445	-Inf	-Inf	-Inf	-Inf	-Inf	-Inf	-Inf	-Inf	-Inf
-Inf	-Inf	-4.11145003012504	-4.11145003012504	-Inf	-4.11145003012504	-4.11145003012504	-Inf	-Inf	-Inf	-Inf	-4.11145003012504
-Inf	-Inf	4.58277864046663	-Inf	-Inf	-Inf	-Inf	-Inf	-Inf	-Inf	-Inf	-Inf
-Inf	-Inf	-Inf	6.22477749790734	-Inf	6.22477749790734	-Inf	-Inf	-Inf	-Inf	-Inf	-Inf
-Inf	-Inf	-Inf	2.38541922409445	-Inf	-Inf	-Inf	-Inf	-Inf	-Inf	-Inf	-Inf
-Inf	-Inf	-Inf	4.58277864046663	-Inf	-Inf	-Inf	-Inf	-Inf	-Inf	-Inf	-Inf
-Inf	-Inf	-Inf	2.38541922409445	-Inf	-Inf	-Inf	-Inf	-Inf	-Inf	-Inf	-Inf
-Inf	-Inf	-Inf	-0.457987929984769	-Inf	-Inf	-Inf	-Inf	-Inf	-Inf	-Inf	-Inf
-Inf	-Inf	-Inf	-8.96001408606817	-Inf	-Inf	-Inf	-Inf	-Inf	-Inf	-Inf	-Inf
-Inf	-Inf	-Inf	0.928973208937595	-0.457987929984769	-Inf	-Inf	-0.457987929984769	-Inf	-Inf	-Inf	-0.457987929984769
-Inf	-Inf	-Inf	6.22477749790734	-Inf	-Inf	-Inf	-Inf	-Inf	-Inf	-Inf	-Inf
-Inf	-Inf	-Inf	4.58277864046663	-Inf	-Inf	-Inf	-Inf	-Inf	-Inf	-Inf	-Inf
-Inf	-Inf	-Inf	2.38541922409445	-Inf	-Inf	-Inf	-Inf	-Inf	-Inf	-Inf	-Inf
-Inf	-Inf	-Inf	7.36588011176968	-Inf	-Inf	-Inf	-Inf	-Inf	7.36588011176968	-Inf	-Inf
-Inf	-Inf	-Inf	-0.457987929984769	-Inf	-Inf	0.928973208937595	-Inf	-Inf	-Inf	-Inf	-Inf
-Inf	-Inf	-Inf	2.38541922409445	-Inf	-Inf	-Inf	2.38541922409445	-Inf	-Inf	-Inf	2.38541922409445
-Inf	-Inf	-Inf	6.22477749790734	-Inf	-Inf	-Inf	-Inf	-Inf	-Inf	-Inf	-Inf
-Inf	-Inf	-Inf	8.03882937527813	-Inf	-Inf	-Inf	-Inf	-Inf	-Inf	-Inf	-Inf
-Inf	-Inf	-Inf	8.261281906093	-Inf	-Inf	-Inf	-Inf	-Inf	-Inf	-Inf	-Inf
-Inf	-Inf	-Inf	4.58277864046663	-Inf	-Inf	-Inf	-Inf	-Inf	-Inf	-Inf	-Inf
-Inf	-Inf	-Inf	8.75284125069204	-Inf	-Inf	-Inf	-Inf	-Inf	-Inf	-Inf	-Inf
-Inf	-Inf	-Inf	6.22477749790734	-Inf	-Inf	-Inf	-Inf	-Inf	-Inf	-Inf	-Inf
-Inf	-Inf	-Inf	8.03882937527813	8.03882937527813	-Inf	-Inf	8.03882937527813	-Inf	8.03882937527813	10.2373877305898	10.8134190981851
-Inf	-Inf	-Inf	7.36588011176968	-Inf	-Inf	-Inf	7.36588011176968	7.36588011176968	-Inf	-Inf	-Inf
-Inf	-Inf	-Inf	-0.457987929984769	-Inf	-Inf	-0.457987929984769	-Inf	-Inf	-Inf	-Inf	-Inf
-Inf	-Inf	-Inf	2.38541922409445	-Inf	-Inf	-Inf	-Inf	2.38541922409445	-Inf	-Inf	-Inf
-Inf	-Inf	-Inf	6.22477749790734	-Inf	-Inf	-Inf	-Inf	-Inf	-Inf	-Inf	-Inf
-Inf	-Inf	-Inf	-0.457987929984769	-Inf	-Inf	-Inf	-Inf	-Inf	-Inf	-Inf	-Inf
-Inf	-Inf	-Inf	-4.11145003012504	-Inf	-Inf	-Inf	-Inf	-Inf	-Inf	-Inf	-Inf
-Inf	-Inf	-Inf	-8.96001408606817	-Inf	-Inf	-Inf	-Inf	-Inf	-Inf	-Inf	-Inf
-Inf	-Inf	-Inf	-0.457987929984769	-Inf	-Inf	-Inf	-Inf	-Inf	-0.457987929984769	-Inf	-0.457987929984769
-Inf	-Inf	-Inf	6.22477749790734	-Inf	-Inf	-Inf	-Inf	-Inf	-Inf	-Inf	-Inf
-Inf	-Inf	-Inf	7.36588011176968	-Inf	-Inf	-Inf	7.36588011176968	-Inf	8.75284125069204	7.36588011176968	7.36588011176968
-Inf	-Inf	-Inf	4.58277864046663	-Inf	-Inf	-Inf	-Inf	-Inf	-Inf	-Inf	-Inf
-Inf	-Inf	-Inf	2.38541922409445	-Inf	-Inf	-Inf	-Inf	-Inf	-Inf	-Inf	-Inf
-Inf	-Inf	-Inf	2.38541922409445	2.38541922409445	-Inf	-Inf	-Inf	-Inf	-Inf	-Inf	-Inf
-Inf	-Inf	-Inf	6.22477749790734	-Inf	-Inf	-Inf	-Inf	-Inf	-Inf	-Inf	-Inf
-Inf	-Inf	-Inf	2.38541922409445	-Inf	-Inf	-Inf	-Inf	-Inf	-Inf	-Inf	-Inf
-Inf	-Inf	-Inf	-0.457987929984769	-Inf	-Inf	-Inf	-Inf	-Inf	-Inf	-Inf	-Inf
-Inf	-Inf	-Inf	-4.11145003012504	-Inf	-Inf	-Inf	-Inf	-Inf	-Inf	-Inf	-Inf
-Inf	-Inf	-Inf	-Inf	7.36588011176968	-Inf	-Inf	-Inf	-Inf	-Inf	-Inf	-Inf
-Inf	-Inf	-Inf	-Inf	7.6117386368297	-Inf	-Inf	7.6117386368297	-Inf	-Inf	6.22477749790734	-Inf
-Inf	-Inf	-Inf	-Inf	-0.457987929984769	-Inf	-0.457987929984769	-Inf	-Inf	-Inf	-0.457987929984769	-0.457987929984769
-Inf	-Inf	-Inf	-Inf	3.77238036301681	-Inf	2.38541922409445	2.38541922409445	2.38541922409445	-Inf	-Inf	2.38541922409445
-Inf	-Inf	-Inf	-Inf	-7.57305294714581	-7.57305294714581	-7.57305294714581	-7.57305294714581	-Inf	-Inf	-Inf	-6.76145573075655
-Inf	-Inf	-Inf	-Inf	3.77238036301681	-Inf	2.38541922409445	-Inf	-Inf	-Inf	-Inf	-Inf
-Inf	-Inf	-Inf	-Inf	-2.72448889120268	-1.91289167481342	-4.11145003012504	-4.11145003012504	-Inf	-Inf	-4.11145003012504	-Inf
-Inf	-Inf	-Inf	-Inf	-2.72448889120268	-Inf	-Inf	-Inf	-4.11145003012504	-Inf	-Inf	-Inf
-Inf	-Inf	-Inf	-Inf	-4.11145003012504	-Inf	-Inf	-Inf	-Inf	-Inf	-Inf	-2.72448889120268
-Inf	-Inf	-Inf	-Inf	8.261281906093	8.261281906093	-Inf	8.261281906093	-Inf	9.64824304501536	8.261281906093	-Inf
-Inf	-Inf	-Inf	-Inf	-0.457987929984769	-Inf	-Inf	-Inf	-Inf	-Inf	-Inf	-0.457987929984769
-Inf	-Inf	-Inf	-Inf	7.6117386368297	-Inf	6.22477749790734	-Inf	-Inf	6.22477749790734	-Inf	7.6117386368297
-Inf	-Inf	-Inf	-Inf	-0.457987929984769	-Inf	-Inf	-0.457987929984769	-Inf	-0.457987929984769	-Inf	-Inf
-Inf	-Inf	-Inf	-Inf	7.36588011176968	-Inf	-Inf	8.75284125069204	-Inf	-Inf	-Inf	-Inf
-Inf	-Inf	-Inf	-Inf	3.77238036301681	-Inf	-Inf	-Inf	-Inf	-Inf	-Inf	3.77238036301681
-Inf	-Inf	-Inf	-Inf	-4.11145003012504	-4.11145003012504	-4.11145003012504	-2.72448889120268	-Inf	-Inf	-4.11145003012504	-2.72448889120268
-Inf	-Inf	-Inf	-Inf	4.58277864046663	-Inf	5.96973977938899	5.96973977938899	-Inf	4.58277864046663	-Inf	5.96973977938899
-Inf	-Inf	-Inf	-Inf	-7.57305294714581	-8.96001408606817	-Inf	-8.96001408606817	-Inf	-Inf	-8.96001408606817	-8.96001408606817
-Inf	-Inf	-Inf	-Inf	3.77238036301681	3.77238036301681	4.58397757940607	2.38541922409445	2.38541922409445	2.38541922409445	2.38541922409445	-Inf
-Inf	-Inf	-Inf	-Inf	5.96973977938899	6.78133699577825	7.35736836337358	4.58277864046663	4.58277864046663	4.58277864046663	5.96973977938899	4.58277864046663
-Inf	-Inf	-Inf	-Inf	-4.11145003012504	-1.91289167481342	-Inf	-Inf	-4.11145003012504	-4.11145003012504	-Inf	-4.11145003012504
-Inf	-Inf	-Inf	-Inf	-8.96001408606817	-8.96001408606817	-8.96001408606817	-8.96001408606817	-8.96001408606817	-Inf	-Inf	-Inf
-Inf	-Inf	-Inf	-Inf	2.38541922409445	-Inf	-Inf	-Inf	-Inf	-Inf	-Inf	-Inf
-Inf	-Inf	-Inf	-Inf	-0.457987929984769	-Inf	-Inf	-0.457987929984769	-Inf	-0.457987929984769	-Inf	-Inf
-Inf	-Inf	-Inf	-Inf	-0.457987929984769	-0.457987929984769	-Inf	-Inf	-Inf	-Inf	-Inf	-Inf
-Inf	-Inf	-Inf	-Inf	2.38541922409445	-Inf	-Inf	-Inf	-Inf	-Inf	-Inf	-Inf
-Inf	-Inf	-Inf	-Inf	8.261281906093	8.261281906093	-Inf	-Inf	-Inf	-Inf	-Inf	-Inf
-Inf	-Inf	-Inf	-Inf	8.261281906093	-Inf	8.261281906093	8.261281906093	-Inf	8.261281906093	-Inf	8.261281906093
-Inf	-Inf	-Inf	-Inf	2.38541922409445	2.38541922409445	2.38541922409445	3.77238036301681	2.38541922409445	-Inf	2.38541922409445	-Inf
-Inf	-Inf	-Inf	-Inf	8.261281906093	-Inf	-Inf	-Inf	-Inf	-Inf	-Inf	-Inf
-Inf	-Inf	-Inf	-Inf	8.03882937527813	-Inf	-Inf	-Inf	-Inf	-Inf	8.03882937527813	-Inf
-Inf	-Inf	-Inf	-Inf	8.261281906093	-Inf	-Inf	-Inf	-Inf	-Inf	-Inf	-Inf
-Inf	-Inf	-Inf	-Inf	4.58277864046663	-Inf	-Inf	-Inf	-Inf	-Inf	-Inf	-Inf
-Inf	-Inf	-Inf	-Inf	8.261281906093	-Inf	-Inf	-Inf	-Inf	-Inf	-Inf	-Inf
-Inf	-Inf	-Inf	-Inf	8.03882937527813	-Inf	-Inf	-Inf	-Inf	-Inf	8.03882937527813	-Inf
-Inf	-Inf	-Inf	-Inf	-0.457987929984769	-0.457987929984769	-Inf	-Inf	-Inf	-Inf	-Inf	-Inf
-Inf	-Inf	-Inf	-Inf	-Inf	10.2373877305898	-Inf	8.03882937527813	-Inf	-Inf	-Inf	-Inf
-Inf	-Inf	-Inf	-Inf	-Inf	4.58277864046663	-Inf	-Inf	-Inf	-Inf	-Inf	-Inf
-Inf	-Inf	-Inf	-Inf	-Inf	2.38541922409445	-Inf	-Inf	-Inf	-Inf	-Inf	-Inf
-Inf	-Inf	-Inf	-Inf	-Inf	-0.457987929984769	-Inf	-Inf	-Inf	-Inf	-Inf	-Inf
-Inf	-Inf	-Inf	-Inf	-Inf	9.5644384670813	-Inf	-Inf	7.36588011176968	7.36588011176968	8.75284125069204	8.75284125069204
-Inf	-Inf	-Inf	-Inf	-Inf	4.58277864046663	-Inf	-Inf	-Inf	-Inf	-Inf	-Inf
-Inf	-Inf	-Inf	-Inf	-Inf	8.03882937527813	-Inf	8.03882937527813	9.4257905142005	-Inf	-Inf	-Inf
-Inf	-Inf	-Inf	-Inf	-Inf	-4.11145003012504	-2.72448889120268	-Inf	-Inf	-Inf	-Inf	-4.11145003012504
-Inf	-Inf	-Inf	-Inf	-Inf	8.261281906093	-Inf	-Inf	-Inf	-Inf	-Inf	-Inf
-Inf	-Inf	-Inf	-Inf	-Inf	0.928973208937595	-0.457987929984769	-0.457987929984769	-Inf	-0.457987929984769	-Inf	-Inf
-Inf	-Inf	-Inf	-Inf	-Inf	-4.11145003012504	-4.11145003012504	-4.11145003012504	-Inf	-Inf	-Inf	-Inf
-Inf	-Inf	-Inf	-Inf	-Inf	8.03882937527813	9.4257905142005	8.03882937527813	9.4257905142005	9.4257905142005	-Inf	-Inf
-Inf	-Inf	-Inf	-Inf	-Inf	8.261281906093	-Inf	-Inf	-Inf	-Inf	-Inf	-Inf
-Inf	-Inf	-Inf	-Inf	-Inf	4.58277864046663	-Inf	-Inf	-Inf	-Inf	-Inf	-Inf
-Inf	-Inf	-Inf	-Inf	-Inf	8.261281906093	-Inf	8.261281906093	-Inf	-Inf	-Inf	-Inf
-Inf	-Inf	-Inf	-Inf	-Inf	7.36588011176968	-Inf	-Inf	-Inf	-Inf	-Inf	-Inf
-Inf	-Inf	-Inf	-Inf	-Inf	4.58277864046663	5.96973977938899	-Inf	5.96973977938899	-Inf	-Inf	-Inf
-Inf	-Inf	-Inf	-Inf	-Inf	8.03882937527813	-Inf	8.03882937527813	10.8134190981851	-Inf	-Inf	-Inf
-Inf	-Inf	-Inf	-Inf	-Inf	-8.96001408606817	-6.76145573075655	-8.96001408606817	-8.96001408606817	-Inf	-8.96001408606817	-Inf
-Inf	-Inf	-Inf	-Inf	-Inf	4.58277864046663	-Inf	-Inf	-Inf	-Inf	-Inf	-Inf
-Inf	-Inf	-Inf	-Inf	-Inf	-Inf	4.58277864046663	-Inf	-Inf	-Inf	-Inf	-Inf
-Inf	-Inf	-Inf	-Inf	-Inf	-Inf	8.03882937527813	-Inf	-Inf	-Inf	-Inf	-Inf
-Inf	-Inf	-Inf	-Inf	-Inf	-Inf	0.928973208937595	-Inf	-0.457987929984769	-Inf	-Inf	-Inf
-Inf	-Inf	-Inf	-Inf	-Inf	-Inf	8.03882937527813	8.03882937527813	8.03882937527813	-Inf	-Inf	9.4257905142005
-Inf	-Inf	-Inf	-Inf	-Inf	-Inf	-4.11145003012504	-4.11145003012504	-Inf	-Inf	-Inf	-4.11145003012504
-Inf	-Inf	-Inf	-Inf	-Inf	-Inf	2.38541922409445	-Inf	2.38541922409445	-Inf	2.38541922409445	2.38541922409445
-Inf	-Inf	-Inf	-Inf	-Inf	-Inf	-4.11145003012504	-4.11145003012504	-4.11145003012504	-4.11145003012504	-Inf	-Inf
-Inf	-Inf	-Inf	-Inf	-Inf	-Inf	4.58277864046663	-Inf	-Inf	-Inf	-Inf	-Inf
-Inf	-Inf	-Inf	-Inf	-Inf	-Inf	8.03882937527813	-Inf	-Inf	8.03882937527813	-Inf	8.03882937527813
-Inf	-Inf	-Inf	-Inf	-Inf	-Inf	-0.457987929984769	-Inf	-Inf	-Inf	-Inf	-Inf
-Inf	-Inf	-Inf	-Inf	-Inf	-Inf	-Inf	8.261281906093	-Inf	-Inf	-Inf	-Inf
-Inf	-Inf	-Inf	-Inf	-Inf	-Inf	-Inf	6.22477749790734	6.22477749790734	-Inf	-Inf	-Inf
-Inf	-Inf	-Inf	-Inf	-Inf	-Inf	-Inf	4.58277864046663	4.58277864046663	-Inf	-Inf	-Inf
-Inf	-Inf	-Inf	-Inf	-Inf	-Inf	-Inf	2.38541922409445	2.38541922409445	-Inf	-Inf	-Inf
-Inf	-Inf	-Inf	-Inf	-Inf	-Inf	-Inf	-0.457987929984769	-Inf	-Inf	-Inf	-0.457987929984769
-Inf	-Inf	-Inf	-Inf	-Inf	-Inf	-Inf	6.22477749790734	-Inf	-Inf	-Inf	6.22477749790734
-Inf	-Inf	-Inf	-Inf	-Inf	-Inf	-Inf	9.4257905142005	-Inf	-Inf	-Inf	-Inf
-Inf	-Inf	-Inf	-Inf	-Inf	-Inf	-Inf	8.03882937527813	-Inf	-Inf	-Inf	-Inf
-Inf	-Inf	-Inf	-Inf	-Inf	-Inf	-Inf	8.03882937527813	-Inf	-Inf	-Inf	-Inf
-Inf	-Inf	-Inf	-Inf	-Inf	-Inf	-Inf	2.38541922409445	-Inf	-Inf	-Inf	-Inf
-Inf	-Inf	-Inf	-Inf	-Inf	-Inf	-Inf	4.58277864046663	-Inf	-Inf	-Inf	-Inf
-Inf	-Inf	-Inf	-Inf	-Inf	-Inf	-Inf	6.22477749790734	-Inf	-Inf	-Inf	-Inf
-Inf	-Inf	-Inf	-Inf	-Inf	-Inf	-Inf	6.22477749790734	-Inf	-Inf	-Inf	-Inf
-Inf	-Inf	-Inf	-Inf	-Inf	-Inf	-Inf	8.03882937527813	-Inf	-Inf	-Inf	-Inf
-Inf	-Inf	-Inf	-Inf	-Inf	-Inf	-Inf	8.03882937527813	-Inf	-Inf	-Inf	-Inf
-Inf	-Inf	-Inf	-Inf	-Inf	-Inf	-Inf	9.64824304501536	-Inf	-Inf	-Inf	8.261281906093
-Inf	-Inf	-Inf	-Inf	-Inf	-Inf	-Inf	-0.457987929984769	-Inf	-Inf	-Inf	-Inf
-Inf	-Inf	-Inf	-Inf	-Inf	-Inf	-Inf	-Inf	-4.11145003012504	-Inf	-Inf	-Inf
-Inf	-Inf	-Inf	-Inf	-Inf	-Inf	-Inf	-Inf	8.03882937527813	-Inf	-Inf	-Inf
-Inf	-Inf	-Inf	-Inf	-Inf	-Inf	-Inf	-Inf	7.36588011176968	-Inf	-Inf	-Inf
-Inf	-Inf	-Inf	-Inf	-Inf	-Inf	-Inf	-Inf	6.22477749790734	-Inf	6.22477749790734	6.22477749790734
-Inf	-Inf	-Inf	-Inf	-Inf	-Inf	-Inf	-Inf	0.928973208937595	-Inf	-Inf	-Inf
-Inf	-Inf	-Inf	-Inf	-Inf	-Inf	-Inf	-Inf	7.36588011176968	-Inf	-Inf	-Inf
-Inf	-Inf	-Inf	-Inf	-Inf	-Inf	-Inf	-Inf	8.03882937527813	-Inf	-Inf	-Inf
-Inf	-Inf	-Inf	-Inf	-Inf	-Inf	-Inf	-Inf	-4.11145003012504	-Inf	-Inf	-Inf
-Inf	-Inf	-Inf	-Inf	-Inf	-Inf	-Inf	-Inf	4.58277864046663	-Inf	-Inf	-Inf
-Inf	-Inf	-Inf	-Inf	-Inf	-Inf	-Inf	-Inf	8.03882937527813	-Inf	-Inf	8.03882937527813
-Inf	-Inf	-Inf	-Inf	-Inf	-Inf	-Inf	-Inf	2.38541922409445	-Inf	-Inf	-Inf
-Inf	-Inf	-Inf	-Inf	-Inf	-Inf	-Inf	-Inf	-4.11145003012504	-Inf	-Inf	-4.11145003012504
-Inf	-Inf	-Inf	-Inf	-Inf	-Inf	-Inf	-Inf	-Inf	4.58277864046663	-Inf	-Inf
-Inf	-Inf	-Inf	-Inf	-Inf	-Inf	-Inf	-Inf	-Inf	4.58277864046663	-Inf	-Inf
-Inf	-Inf	-Inf	-Inf	-Inf	-Inf	-Inf	-Inf	-Inf	8.03882937527813	8.03882937527813	-Inf
-Inf	-Inf	-Inf	-Inf	-Inf	-Inf	-Inf	-Inf	-Inf	8.03882937527813	-Inf	-Inf
-Inf	-Inf	-Inf	-Inf	-Inf	-Inf	-Inf	-Inf	-Inf	7.36588011176968	-Inf	-Inf
-Inf	-Inf	-Inf	-Inf	-Inf	-Inf	-Inf	-Inf	-Inf	2.38541922409445	-Inf	-Inf
-Inf	-Inf	-Inf	-Inf	-Inf	-Inf	-Inf	-Inf	-Inf	6.22477749790734	6.22477749790734	-Inf
-Inf	-Inf	-Inf	-Inf	-Inf	-Inf	-Inf	-Inf	-Inf	2.38541922409445	-Inf	-Inf
-Inf	-Inf	-Inf	-Inf	-Inf	-Inf	-Inf	-Inf	-Inf	8.261281906093	-Inf	-Inf
-Inf	-Inf	-Inf	-Inf	-Inf	-Inf	-Inf	-Inf	-Inf	-Inf	8.03882937527813	-Inf
-Inf	-Inf	-Inf	-Inf	-Inf	-Inf	-Inf	-Inf	-Inf	-Inf	2.38541922409445	-Inf
-Inf	-Inf	-Inf	-Inf	-Inf	-Inf	-Inf	-Inf	-Inf	-Inf	8.261281906093	-Inf
-Inf	-Inf	-Inf	-Inf	-Inf	-Inf	-Inf	-Inf	-Inf	-Inf	4.58277864046663	-Inf
-Inf	-Inf	-Inf	-Inf	-Inf	-Inf	-Inf	-Inf	-Inf	-Inf	6.22477749790734	-Inf
-Inf	-Inf	-Inf	-Inf	-Inf	-Inf	-Inf	-Inf	-Inf	-Inf	-Inf	8.261281906093
-Inf	-Inf	-Inf	-Inf	-Inf	-Inf	-Inf	-Inf	-Inf	-Inf	-Inf	8.03882937527813
-Inf	-Inf	-Inf	-Inf	-Inf	-Inf	-Inf	-Inf	-Inf	-Inf	-Inf	6.22477749790734
-Inf	-Inf	-Inf	-Inf	-Inf	-Inf	-Inf	-Inf	-Inf	-Inf	-Inf	4.58277864046663
-Inf	-Inf	-Inf	-Inf	-Inf	-Inf	-Inf	-Inf	-Inf	-Inf	-Inf	-2.72448889120268
-Inf	-Inf	-Inf	-Inf	-Inf	-Inf	-Inf	-Inf	-Inf	-Inf	-Inf	-0.457987929984769
-Inf	-Inf	-Inf	-Inf	-Inf	-Inf	-Inf	-Inf	-Inf	-Inf	-Inf	-4.11145003012504
-Inf	-Inf	-Inf	-Inf	-Inf	-Inf	-Inf	-Inf	-Inf	-Inf	-Inf	3.77238036301681
-Inf	-Inf	-Inf	-Inf	-Inf	-Inf	-Inf	-Inf	-Inf	-Inf	-Inf	7.36588011176968
-Inf	-Inf	-Inf	-Inf	-Inf	-Inf	-Inf	-Inf	-Inf	-Inf	-Inf	-0.457987929984769
-Inf	-Inf	-Inf	-Inf	-Inf	-Inf	-Inf	-Inf	-Inf	-Inf	-Inf	7.36588011176968
-Inf	-Inf	-Inf	-Inf	-Inf	-Inf	-Inf	-Inf	-Inf	-Inf	-Inf	-4.11145003012504
