3
[ 1.684, 2.224, 2.224, 2.224, 1.684, 1.684, 2.224, 2.224, 2.224, 2.569, 1.684, 2.569, 1.684, 1.684, 2.224, 2.224, 1.684, 2.569, 2.569, 2.224, 2.569, 2.569, 1.684, 2.224, 2.569, 2.569, 2.224, 2.569, 2.569, 1.684, 2.224, 2.569, 1.684, 2.224, 2.224, 2.569, 2.569, 2.569, 1.684, 2.224, 2.224, 2.224, 2.569, 1.684, 2.569, 2.569, 2.569, 1.684, 1.684, 2.569, 1.684, 2.224, 2.224, 2.224, 2.224, 2.224, 2.224, 2.569, 2.224, 1.684, 1.684, 1.684, 2.569, 1.684, 1.684, 1.684, 2.224, 1.684, 2.569, 1.684, 1.684, 2.224, 2.569, 2.224, 1.684, 2.224, 1.684, 2.224, 2.569, 2.569, 2.569, 2.569, 2.569, 2.224, 2.224, 2.224, 2.569, 1.684, 1.684, 1.684, 2.569, 2.569, 2.224, 1.684, 1.684, 2.569, 1.684, 2.224, 1.684, 1.684, 1.684, 1.684, 1.684, 1.684, 1.684, 1.684, 2.224, 2.224, 2.569, 2.224, 1.684, 2.569, 2.224, 2.569, 1.684, 2.569, 2.224, 2.569, 2.224, 2.224, 1.684, 2.569, 2.569, 2.569, 1.684, 2.224, 1.684, 2.224, 1.684, 1.684, 2.224, 2.224, 2.569, 1.684, 2.569, 1.684, 1.684, 2.224, 2.224, 2.569, 2.569, 2.569, 2.224, 2.569, 1.684, 1.684, 2.224, 2.569, 2.224, 1.684, 2.569, 2.224, 2.224, 2.224, 2.569, 1.684, 1.684, 1.684, 2.224, 2.224, 2.224, 2.224, 2.569, 2.569, 2.224, 2.569, 2.569, 2.569, 2.224, 1.684, 1.684, 2.224, 2.569, 1.684, 2.224, 2.569, 1.684, 2.224, 2.569, 1.684, 2.224, 1.684, 2.569, 1.684, 2.224, 1.684, 2.569, 1.684, 2.569, 2.224, 2.224, 2.224, 1.684, 2.569, 2.569, 2.569, 2.224, 2.569, 2.569, 1.684 ]
3
[ 0.065, 0.651, 0.065, 0.047, 0.047, 0.047, 0.065, 0.651, 0.651, 0.047, 0.065, 0.065, 0.065, 0.065, 0.651, 0.065, 0.651, 0.047, 0.065, 0.651, 0.651, 0.047, 0.065, 0.047, 0.047, 0.065, 0.047, 0.651, 0.047, 0.065, 0.651, 0.047, 0.651, 0.651, 0.047, 0.047, 0.065, 0.651, 0.651, 0.047, 0.065, 0.065, 0.651, 0.047, 0.047, 0.065, 0.651, 0.065, 0.047, 0.651, 0.047, 0.065, 0.651, 0.047, 0.651, 0.065, 0.047, 0.065, 0.047, 0.047, 0.651, 0.047, 0.651, 0.065, 0.651, 0.047, 0.651, 0.065, 0.065, 0.651, 0.651, 0.651, 0.047, 0.651, 0.065, 0.651, 0.065, 0.065, 0.047, 0.047, 0.047, 0.651, 0.047, 0.065, 0.651, 0.065, 0.651, 0.047, 0.047, 0.065, 0.047, 0.047, 0.047, 0.047, 0.047, 0.065, 0.047, 0.651, 0.065, 0.047, 0.065, 0.065, 0.065, 0.047, 0.047, 0.047, 0.651, 0.047, 0.651, 0.047, 0.047, 0.047, 0.065, 0.651, 0.065, 0.065, 0.065, 0.065, 0.047, 0.651, 0.651, 0.651, 0.651, 0.065, 0.065, 0.065, 0.047, 0.047, 0.047, 0.065, 0.651, 0.047, 0.651, 0.047, 0.065, 0.651, 0.065, 0.047, 0.047, 0.065, 0.651, 0.065, 0.065, 0.065, 0.047, 0.047, 0.047, 0.047, 0.651, 0.047, 0.065, 0.065, 0.047, 0.065, 0.047, 0.065, 0.651, 0.651, 0.065, 0.065, 0.047, 0.651, 0.047, 0.651, 0.047, 0.065, 0.065, 0.047, 0.065, 0.047, 0.651, 0.651, 0.651, 0.065, 0.047, 0.047, 0.651, 0.065, 0.065, 0.065, 0.047, 0.651, 0.651, 0.651, 0.651, 0.651, 0.651, 0.651, 0.047, 0.065, 0.651, 0.651, 0.047, 0.651, 0.065, 0.065, 0.047, 0.651, 0.651, 0.065 ]