4
[ 26.770, 26.770, 26.770, 26.770, 5.808, 26.770, 26.770, 26.770, 26.770, 5.808, 26.770, 26.770, 26.770, 26.770, 26.770, 5.808, 26.770, 5.808, 26.770, 26.770, 26.770, 26.770, 26.770, 26.770, 26.770, 26.770, 26.770, 26.770, 26.770, 26.770, 4.821, 26.770, 26.770, 26.770, 26.770, 26.770, 26.770, 26.770, 26.770, 26.770, 26.770, 26.770, 14.398, 26.770, 26.770, 26.770, 26.770, 26.770, 26.770, 26.770 ]
5
[ 0.487, 0.487, 0.487, 0.061, 0.487, 0.061, 0.061, 0.487, 0.487, 0.387, 0.487, 0.487, 0.061, 0.061, 0.061, 0.061, 0.487, 0.487, 0.487, 0.487, 0.487, 0.487, 0.487, 0.387, 0.487, 0.487, 0.487, 0.487, 0.487, 0.387, 0.487, 0.487, 0.387, 0.487, 0.487, 0.487, 0.487, 0.487, 0.487, 0.494, 0.743, 0.487, 0.487, 0.061, 0.061, 0.387, 0.487, 0.487, 0.487, 0.743 ]