6
[ 5.226, 5.226, 5.226, 0.912, 5.226, 5.226, 5.226, 5.226, 5.226, 5.226, 5.226, 5.226, 5.226, 5.226, 5.226, 5.226, 5.490, 5.226, 11.859, 11.859, 5.226, 5.226, 3.185, 5.226, 5.226, 11.859, 5.226, 5.226, 5.226, 5.226, 11.859, 5.226, 5.226, 5.226, 5.226, 5.226, 5.226, 14.519, 5.226, 5.226, 5.226, 5.226, 5.226, 5.226, 5.226, 5.226, 11.859, 5.226, 5.226, 5.226 ]
4
[ 0.605, 0.605, 0.605, 0.605, 0.749, 0.605, 0.605, 0.605, 0.605, 0.749, 0.605, 0.605, 0.191, 0.749, 0.605, 0.605, 0.634, 0.605, 0.605, 0.634, 0.605, 0.749, 0.605, 0.605, 0.634, 0.749, 0.605, 0.605, 0.605, 0.605, 0.605, 0.605, 0.634, 0.605, 0.605, 0.605, 0.634, 0.605, 0.605, 0.634, 0.634, 0.605, 0.605, 0.749, 0.634, 0.634, 0.605, 0.605, 0.605, 0.605 ]