5
[ 0.914, 0.914, 0.914, 0.914, 0.914, 0.914, 0.914, 0.914, 0.914, 0.914, 3.856, 0.914, 0.914, 1.095, 0.914, 0.914, 0.914, 1.733, 0.914, 0.914, 1.733, 1.095, 0.914, 0.914, 0.914, 0.914, 0.914, 0.914, 0.914, 0.914, 0.914, 0.914, 3.856, 0.914, 0.914, 0.914, 0.914, 0.914, 0.914, 0.914, 0.914, 0.914, 0.914, 0.914, 0.914, 0.914, 0.914, 0.914, 0.914, 0.914, 0.914, 0.914, 1.095, 0.914, 0.914, 0.914, 0.914, 0.914, 0.914, 0.914, 0.914, 1.095, 0.914, 0.914, 0.914, 0.914, 0.914, 0.914, 0.914, 0.914, 0.914, 0.914, 0.914, 0.914, 0.914, 0.914, 0.914, 0.914, 0.914, 0.914, 0.914, 0.914, 0.914, 0.914, 1.095, 0.914, 1.095, 0.914, 0.914, 0.914, 0.914, 0.914, 2.148, 1.095, 0.914, 0.914, 0.914, 0.914, 0.914, 0.914, 1.095, 0.914, 0.914, 0.914, 0.914, 0.914, 0.914, 0.914, 0.914, 0.914, 0.914, 0.914, 0.914, 0.914, 0.914, 3.856, 0.914, 3.856, 0.914, 0.914, 0.914, 1.095, 0.914, 0.914, 0.914, 0.914, 0.914, 0.914, 0.914, 0.914, 1.095, 0.914, 0.914, 0.914, 0.914, 3.856, 0.914, 1.095, 2.148, 0.914, 0.914, 0.914, 0.914, 0.914, 0.914, 0.914, 0.914, 0.914, 0.914, 1.095, 1.095, 0.914, 0.914, 0.914, 0.914, 1.095, 0.914, 0.914, 1.095, 0.914, 0.914, 0.914, 0.914, 0.914, 0.914, 0.914, 0.914, 0.914, 0.914, 1.095, 0.914, 0.914, 0.914, 0.914, 0.914, 0.914, 0.914, 0.914, 1.095, 0.914, 1.095, 0.914, 0.914, 1.095, 0.914, 0.914, 0.914, 0.914, 0.914, 0.914, 0.914, 0.914, 0.914, 3.856, 0.914, 0.914, 0.914, 0.914, 0.914, 0.914 ]
7
[ 0.336, 0.336, 0.336, 0.336, 0.336, 0.336, 0.961, 0.336, 0.084, 0.336, 0.336, 0.208, 0.336, 0.336, 0.208, 0.336, 0.336, 0.208, 0.336, 0.307, 0.336, 0.336, 0.961, 0.336, 0.208, 0.208, 0.208, 0.336, 0.336, 0.336, 0.961, 0.336, 0.208, 0.961, 0.208, 0.208, 0.961, 0.336, 0.336, 0.336, 0.336, 0.084, 0.336, 0.336, 0.336, 0.208, 0.961, 0.208, 0.961, 0.961, 0.208, 0.336, 0.961, 0.336, 0.336, 0.961, 0.336, 0.961, 0.336, 0.336, 0.961, 0.307, 0.961, 0.336, 0.208, 0.208, 0.336, 0.336, 0.961, 0.961, 0.336, 0.336, 0.961, 0.961, 0.208, 0.208, 0.208, 0.336, 0.336, 0.336, 0.208, 0.336, 0.084, 0.336, 0.307, 0.961, 0.336, 0.336, 0.199, 0.208, 0.961, 0.336, 0.336, 0.208, 0.961, 0.336, 0.961, 0.961, 0.336, 0.961, 0.208, 0.961, 0.336, 0.961, 0.336, 0.961, 0.336, 0.961, 0.961, 0.208, 0.208, 0.961, 0.208, 0.336, 0.336, 0.336, 0.336, 0.208, 0.208, 0.336, 0.961, 0.961, 0.199, 0.112, 0.336, 0.961, 0.208, 0.336, 0.336, 0.336, 0.961, 0.961, 0.961, 0.208, 0.336, 0.336, 0.336, 0.336, 0.336, 0.336, 0.336, 0.307, 0.336, 0.961, 0.961, 0.336, 0.336, 0.961, 0.208, 0.961, 0.208, 0.336, 0.336, 0.336, 0.961, 0.336, 0.336, 0.336, 0.208, 0.208, 0.336, 0.208, 0.336, 0.208, 0.208, 0.208, 0.307, 0.961, 0.336, 0.208, 0.208, 0.336, 0.208, 0.336, 0.336, 0.336, 0.961, 0.336, 0.961, 0.336, 0.336, 0.336, 0.336, 0.336, 0.336, 0.336, 0.336, 0.336, 0.336, 0.336, 0.336, 0.336, 0.336, 0.208, 0.961, 0.336, 0.961, 0.961, 0.307, 0.208 ]