5
[ 3.400, 0.864, 3.400, 3.400, 3.400, 0.864, 3.400, 3.400, 3.400, 3.400, 3.400, 3.400, 3.400, 3.400, 3.400, 3.400, 3.400, 3.400, 3.400, 0.864, 3.400, 0.864, 3.400, 3.400, 3.400, 3.400, 3.400, 3.400, 3.400, 3.400, 3.400, 3.400, 3.400, 3.400, 3.400, 3.400, 3.400, 3.400, 3.400, 0.864, 0.864, 3.400, 3.400, 3.400, 3.400, 3.400, 3.400, 3.400, 3.400, 3.400, 3.400, 3.400, 3.400, 3.400, 3.400, 5.219, 3.400, 3.400, 3.400, 0.864, 3.400, 3.400, 0.864, 3.400, 3.400, 3.400, 3.400, 5.523, 3.400, 3.400, 3.400, 3.400, 3.400, 3.400, 3.400, 3.400, 3.400, 0.864, 5.219, 0.864, 0.864, 3.400, 3.400, 0.864, 3.400, 0.864, 3.400, 0.864, 3.400, 3.400, 3.400, 3.400, 3.400, 3.400, 3.400, 3.400, 0.864, 3.400, 0.864, 3.400, 3.400, 3.400, 3.400, 3.400, 0.864, 0.864, 3.400, 3.400, 3.400, 3.400, 3.400, 3.400, 3.400, 3.400, 3.400, 3.400, 0.864, 0.864, 3.400, 3.400, 3.400, 0.864, 3.400, 3.400, 3.400, 3.400, 3.400, 3.400, 3.400, 0.864, 3.400, 3.400, 3.400, 3.400, 3.400, 3.400, 0.864, 0.864, 0.864, 3.400, 3.400, 0.864, 0.864, 3.400, 3.400, 3.400, 3.400, 3.400, 3.400, 3.400, 3.400, 3.400, 3.400, 3.400, 3.400, 3.400, 3.400, 3.400, 3.400, 3.400, 6.570, 3.400, 3.400, 3.400, 3.400, 3.400, 3.400, 3.400, 3.400, 0.864, 3.400, 0.864, 0.864, 3.400, 3.400, 3.400, 0.864, 0.864, 3.400, 3.400, 3.400, 3.400, 3.400, 3.400, 3.400, 0.864, 3.400, 3.400, 5.523, 3.400, 3.400, 3.400, 3.400, 0.864, 3.400, 3.400, 3.400, 3.400, 3.400, 3.400 ]
6
[ 0.120, 0.017, 0.120, 0.120, 0.120, 0.835, 0.835, 0.835, 0.120, 0.120, 0.835, 0.120, 0.931, 0.835, 0.120, 0.120, 0.120, 0.120, 0.120, 0.017, 0.017, 0.835, 0.120, 0.120, 0.120, 0.120, 0.931, 0.120, 0.346, 0.835, 0.835, 0.120, 0.120, 0.931, 0.835, 0.931, 0.120, 0.835, 0.931, 0.835, 0.931, 0.835, 0.931, 0.120, 0.120, 0.120, 0.120, 0.120, 0.931, 0.835, 0.931, 0.120, 0.120, 0.120, 0.120, 0.017, 0.835, 0.835, 0.835, 0.120, 0.120, 0.120, 0.835, 0.835, 0.120, 0.120, 0.120, 0.120, 0.120, 0.120, 0.835, 0.120, 0.120, 0.017, 0.835, 0.346, 0.120, 0.835, 0.931, 0.120, 0.120, 0.120, 0.120, 0.120, 0.120, 0.120, 0.120, 0.120, 0.346, 0.120, 0.931, 0.346, 0.835, 0.346, 0.346, 0.017, 0.835, 0.835, 0.120, 0.017, 0.120, 0.835, 0.017, 0.835, 0.120, 0.835, 0.017, 0.835, 0.120, 0.120, 0.931, 0.835, 0.120, 0.835, 0.120, 0.931, 0.120, 0.120, 0.120, 0.346, 0.931, 0.835, 0.120, 0.120, 0.931, 0.120, 0.361, 0.120, 0.120, 0.346, 0.931, 0.931, 0.017, 0.835, 0.120, 0.120, 0.835, 0.835, 0.931, 0.931, 0.120, 0.931, 0.346, 0.835, 0.120, 0.346, 0.835, 0.120, 0.120, 0.931, 0.017, 0.120, 0.835, 0.931, 0.931, 0.835, 0.120, 0.931, 0.835, 0.931, 0.835, 0.120, 0.120, 0.120, 0.931, 0.931, 0.017, 0.120, 0.120, 0.120, 0.120, 0.835, 0.120, 0.120, 0.017, 0.931, 0.120, 0.120, 0.120, 0.835, 0.835, 0.931, 0.835, 0.120, 0.017, 0.835, 0.120, 0.017, 0.120, 0.931, 0.120, 0.120, 0.835, 0.346, 0.346, 0.346, 0.835, 0.835, 0.017, 0.835 ]