rate_constant_pi_constant_tree_unrooted_run_1	rate_constant_pi_constant_tree_unrooted_run_2	rate_constant_pi_constant_tree_unrooted_run_3	rate_constant_pi_constant_tree_unrooted_run_4	rate_DPP_pi_DPP_tree_unrooted_run_1	rate_DPP_pi_DPP_tree_unrooted_run_2	rate_DPP_pi_DPP_tree_unrooted_run_3	rate_DPP_pi_DPP_tree_unrooted_run_4	rate_discrete_gamma_pi_discrete_beta_tree_unrooted_run_1	rate_discrete_gamma_pi_discrete_beta_tree_unrooted_run_2	rate_discrete_gamma_pi_discrete_beta_tree_unrooted_run_3	rate_discrete_gamma_pi_discrete_beta_tree_unrooted_run_4
1	1	1	1	1	1	1	1	1	1	1	1
0.997334221926025	0.997000999666778	0.994668443852049	0.99566811062979	0.989003665444852	0.987337554148617	0.985338220593136	0.986337887370876	0.989670109963346	0.990003332222593	0.989670109963346	0.989336887704099
0.221259580139953	0.241586137954015	0.22059313562146	0.220259913362213	0.227257580806398	0.222259246917694	0.22592469176941	0.208930356547817	0.208263912029324	0.205598133955348	0.195934688437188	0.209596801066311
0.0383205598133955	0.0349883372209264	0.0296567810729757	0.0336554481839387	0.0376541152949017	0.040319893368877	0.0389870043318894	0.0343218927024325	0.044651782739087	0.0443185604798401	0.0399866711096301	0.0473175608130623
0.280573142285905	0.269910029990003	0.271242919026991	0.281239586804399	0.203598800399867	0.20859713428857	0.209596801066311	0.204931689436854	0.152949016994335	0.140286571142952	0.155948017327557	0.153948683772076
0.990003332222593	0.989670109963346	0.990669776741086	0.994001999333555	0.975008330556481	0.974675108297234	0.977674108630457	0.975341552815728	0.977674108630457	0.975341552815728	0.975674775074975	0.980339886704432
0.0539820059980007	0.0586471176274575	0.0623125624791736	0.0496501166277907	0.0669776741086305	0.0599800066644452	0.064645118293902	0.0533155614795068	0.0339886704431856	0.0339886704431856	0.044651782739087	0.0469843385538154
0.146617794068644	0.164945018327224	0.15994668443852	0.150616461179607	0.139953348883705	0.148283905364878	0.153948683772076	0.142952349216928	0.0993002332555815	0.088970343218927	0.106297900699767	0.100966344551816
0.869376874375208	0.875374875041653	0.875041652782406	0.885704765078307	0.749416861046318	0.747417527490836	0.746417860713096	0.749083638787071	0.613462179273575	0.609463512162612	0.605464845051649	0.605131622792403
0.640119960013329	0.620793068977008	0.627124291902699	0.61946017994002	0.656114628457181	0.67677440853049	0.665444851716095	0.665111629456848	0.716427857380873	0.710763078973675	0.719760079973342	0.705098300566478
0.0923025658113962	0.0826391202932356	0.0879706764411863	0.0899700099966678	0.0753082305898034	0.076974341886038	0.0796401199600133	0.0789736754415195	0.0976341219593469	0.0943018993668777	0.0943018993668777	0.0859713428857048
0.0169943352215928	0.0173275574808397	0.0169943352215928	0.016327890703099	0.0136621126291236	0.016327890703099	0.0169943352215928	0.0126624458513829	0.00833055648117294	0.00966344551816061	0.012329223592136	0.0106631122959014
0.0643118960346551	0.0579806731089637	0.0589803398867044	0.0583138953682106	0.0416527824058647	0.0449850049983339	0.0456514495168277	0.0459846717760746	0.0296567810729757	0.0236587804065312	0.028323892035988	0.0296567810729757
0.157614128623792	0.16427857380873	0.155281572809064	0.165278240586471	0.144285238253915	0.128290569810063	0.12329223592136	0.129956681106298	0.0823058980339887	0.088970343218927	0.0829723425524825	0.0883038987004332
0.0133288903698767	0.0149950016661113	0.0136621126291236	0.0189936687770743	0.0143285571476175	0.0196601132955681	0.0236587804065312	0.0206597800733089	0.011996001332889	0.016327890703099	0.0186604465178274	0.0129956681106298
0.064645118293902	0.056647784071976	0.0673108963678774	0.0683105631456181	0.064978340553149	0.0616461179606798	0.0763078973675441	0.0643118960346551	0.052649116961013	0.052649116961013	0.0543152282572476	0.0503165611462846
0.016327890703099	0.0219926691102966	0.0176607797400866	0.0189936687770743	0.0233255581472842	0.0269910029990003	0.0216594468510496	0.032322559146951	0.0269910029990003	0.0316561146284572	0.0293235588137288	0.0303232255914695
0.0146617794068644	0.0113295568143952	0.00966344551816061	0.012329223592136	0.0143285571476175	0.0109963345551483	0.0129956681106298	0.0146617794068644	0.0219926691102966	0.0206597800733089	0.0179940019993336	0.0223258913695435
0.024325224925025	0.0236587804065312	0.0186604465178274	0.0196601132955681	0.0199933355548151	0.0146617794068644	0.0213262245918027	0.0179940019993336	0.0116627790736421	0.0156614461846051	0.0133288903698767	0.0146617794068644
0.0716427857380873	0.0779740086637787	0.0776407864045318	0.0879706764411863	0.0553148950349883	0.0613128957014329	0.0653115628123959	0.0683105631456181	0.0436521159613462	0.0516494501832722	0.0453182272575808	0.0393202265911363
0.0966344551816061	0.0916361212929024	0.0903032322559147	0.0953015661446185	0.114295234921693	0.113628790403199	0.102632455848051	0.115961346217927	0.113295568143952	0.120959680106631	0.107964011996001	0.114961679440187
0.106297900699767	0.0979673442185938	0.108963678773742	0.115961346217927	0.122625791402866	0.11562812395868	0.112629123625458	0.119293568810397	0.145618127290903	0.149950016661113	0.147284238587138	0.150616461179607
0.0549816727757414	0.0519826724425192	0.0456514495168277	0.0496501166277907	0.0409863378873709	0.0393202265911363	0.0333222259246918	0.0503165611462846	0.0349883372209264	0.0306564478507164	0.0419860046651116	0.0343218927024325
0.0319893368877041	0.0303232255914695	0.0333222259246918	0.0299900033322226	0.0296567810729757	0.0296567810729757	0.024325224925025	0.0313228923692103	0.0216594468510496	0.0223258913695435	0.0223258913695435	0.0239920026657781
0.0993002332555815	0.093302232589137	0.0999666777740753	0.101299566811063	0.0653115628123959	0.080973008997001	0.0773075641452849	0.0696434521826058	0.0516494501832722	0.0499833388870377	0.0553148950349883	0.0583138953682106
0.0679773408863712	0.0679773408863712	0.0739753415528157	0.0766411196267911	0.0626457847384205	0.0723092302565811	0.068977007664112	0.0739753415528157	0.0586471176274575	0.0506497834055315	0.0556481172942353	0.0546484505164945
0.0986337887370876	0.0943018993668777	0.0993002332555815	0.0996334555148284	0.0813062312562479	0.076974341886038	0.0843052315894702	0.0846384538487171	0.0559813395534822	0.0516494501832722	0.0483172275908031	0.0456514495168277
0.16861046317894	0.180273242252582	0.179940019993336	0.183605464845052	0.13728757080973	0.133288903698767	0.133622125958014	0.136287904031989	0.088970343218927	0.0816394535154948	0.0866377874041986	0.0876374541819394
0.0833055648117294	0.076974341886038	0.0843052315894702	0.084971676107964	0.0866377874041986	0.089303565478174	0.09296901032989	0.0883038987004332	0.108963678773742	0.105298233922026	0.109963345551483	0.100966344551816
0.0156614461846051	0.015994668443852	0.0176607797400866	0.0183272242585805	0.0146617794068644	0.0169943352215928	0.0176607797400866	0.020326557814062	0.0166611129623459	0.0146617794068644	0.0109963345551483	0.0106631122959014
0.0146617794068644	0.0143285571476175	0.0189936687770743	0.0153282239253582	0.0109963345551483	0.0126624458513829	0.011996001332889	0.011996001332889	0.00966344551816061	0.00666444518493835	0.00999666777740753	0.00799733422192602
0.064978340553149	0.0736421192935688	0.0559813395534822	0.0593135621459513	0.0726424525158281	0.0776407864045318	0.0773075641452849	0.076974341886038	0.0836387870709763	0.0783072309230257	0.0803065644785072	0.0803065644785072
0.154281906031323	0.155614795068311	0.149283572142619	0.153615461512829	0.110963012329224	0.117627457514162	0.115961346217927	0.106297900699767	0.112962345884705	0.114961679440187	0.119293568810397	0.109296901032989
0.0449850049983339	0.04865044985005	0.0476507830723092	0.04865044985005	0.0266577807397534	0.0319893368877041	0.0276574475174942	0.024325224925025	0.020326557814062	0.0146617794068644	0.0186604465178274	0.0183272242585805
0.0346551149616794	0.0316561146284572	0.0369876707764079	0.0353215594801733	0.0349883372209264	0.0279906697767411	0.0346551149616794	0.0349883372209264	0.0263245584805065	0.0249916694435188	0.0236587804065312	0.0263245584805065
0.0489836721092969	0.0423192269243585	0.0453182272575808	0.0453182272575808	0.0516494501832722	0.0393202265911363	0.0499833388870377	0.040653115628124	0.0239920026657781	0.0253248917027657	0.0249916694435188	0.0249916694435188
0.0659780073308897	0.0706431189603466	0.064978340553149	0.072975674775075	0.0596467844051983	0.0599800066644452	0.0529823392202599	0.0586471176274575	0.0393202265911363	0.0399866711096301	0.0359880039986671	0.0429856714428524
0.032322559146951	0.0386537820726425	0.0333222259246918	0.0309896701099633	0.0316561146284572	0.0359880039986671	0.0259913362212596	0.0239920026657781	0.0269910029990003	0.0226591136287904	0.0229923358880373	0.0256581139620127
0.105631456181273	0.103298900366544	0.109963345551483	0.111962679106964	0.120959680106631	0.11029656781073	0.116294568477174	0.0963012329223592	0.103632122625791	0.104631789403532	0.0966344551816061	0.102299233588804
0.174275241586138	0.160946351216261	0.162279240253249	0.170943018993669	0.115294901699434	0.106631122959014	0.106964345218261	0.111629456847717	0.0749750083305565	0.0793068977007664	0.072975674775075	0.0759746751082972
0.088970343218927	0.0819726757747418	0.0949683438853715	0.0936354548483839	0.0993002332555815	0.0993002332555815	0.105298233922026	0.109630123292236	0.103298900366544	0.10596467844052	0.0993002332555815	0.109630123292236
0.152282572475841	0.156281239586804	0.150616461179607	0.152949016994335	0.120626457847384	0.117627457514162	0.109630123292236	0.100633122292569	0.126624458513829	0.11029656781073	0.117627457514162	0.124958347217594
0.0936354548483839	0.111962679106964	0.108630456514495	0.107630789736754	0.103632122625791	0.0949683438853715	0.0916361212929024	0.093302232589137	0.130623125624792	0.117960679773409	0.127957347550816	0.124958347217594
0.0603132289236921	0.060646451182939	0.0619793402199267	0.0683105631456181	0.0609796734421859	0.056647784071976	0.0503165611462846	0.0533155614795068	0.0473175608130623	0.052649116961013	0.0483172275908031	0.0436521159613462
0.00199933355548151	0.00333222259246918	0.000666444518493835	0.000999666777740753	0.00433188937020993	0.00833055648117294	0.00299900033322226	0.00499833388870377	0.00233255581472842	0.00166611129623459	0.00433188937020993	0.00266577807397534
0.0546484505164945	0.0459846717760746	0.0503165611462846	0.0546484505164945	0.0506497834055315	0.0589803398867044	0.0553148950349883	0.0499833388870377	0.060646451182939	0.060646451182939	0.0633122292569144	0.064978340553149
0.156947684105298	0.164945018327224	0.160946351216261	0.161946017994002	0.146284571809397	0.138287237587471	0.130956347884039	0.135621459513495	0.121959346884372	0.12862379206931	0.117960679773409	0.126291236254582
0.0273242252582473	0.0249916694435188	0.0256581139620127	0.0263245584805065	0.0379873375541486	0.0386537820726425	0.0469843385538154	0.0356547817394202	0.0599800066644452	0.0633122292569144	0.0603132289236921	0.0633122292569144
0.000333222259246918	0.000333222259246918	0.000333222259246918	0	0.000666444518493835	0.000333222259246918	0.000333222259246918	0	0.000666444518493835	0.000333222259246918	0.000999666777740753	0.00133288903698767
0.00666444518493835	0.0056647784071976	0.00299900033322226	0.0036654448517161	0.0106631122959014	0.00733088970343219	0.00866377874041986	0.00799733422192602	0.0103298900366544	0.00899700099966678	0.0133288903698767	0.0126624458513829
0.000333222259246918	0	0	0	0.000333222259246918	0	0.000333222259246918	0	0	0	0.000999666777740753	0
0.000333222259246918	0	0	0	0	0	0	0	0	0	0	0
0.00133288903698767	0.00166611129623459	0.00199933355548151	0.00133288903698767	0.00166611129623459	0.00166611129623459	0.00199933355548151	0.000666444518493835	0.000999666777740753	0.000999666777740753	0.00166611129623459	0.000666444518493835
0.020326557814062	0.0213262245918027	0.0209930023325558	0.0199933355548151	0.0289903365544818	0.0319893368877041	0.0276574475174942	0.0279906697767411	0.040653115628124	0.0313228923692103	0.0353215594801733	0.036321226257914
0.104965011662779	0.0989670109963346	0.102965678107298	0.0909696767744085	0.172609130289903	0.178940353215595	0.17727424191936	0.166944351882706	0.300233255581473	0.288237254248584	0.294568477174275	0.297900699766744
0.00199933355548151	0.00333222259246918	0.00166611129623459	0.000666444518493835	0.00433188937020993	0.00233255581472842	0.00333222259246918	0.00466511162945685	0.0036654448517161	0.00399866711096301	0.00233255581472842	0.00299900033322226
0.00133288903698767	0.000333222259246918	0	0.000333222259246918	0.00266577807397534	0.000999666777740753	0.00133288903698767	0.00133288903698767	0.00233255581472842	0.00133288903698767	0.000999666777740753	0.000666444518493835
0.00399866711096301	0.00233255581472842	0.0036654448517161	0.00233255581472842	0.00999666777740753	0.0093302232589137	0.00866377874041986	0.00966344551816061	0.00633122292569144	0.00666444518493835	0.00633122292569144	0.00466511162945685
0.0543152282572476	0.0546484505164945	0.0513162279240253	0.0529823392202599	0.0679773408863712	0.0599800066644452	0.0559813395534822	0.0539820059980007	0.0633122292569144	0.0656447850716428	0.0499833388870377	0.0619793402199267
0.0346551149616794	0.040653115628124	0.0309896701099633	0.0359880039986671	0.040319893368877	0.0436521159613462	0.0389870043318894	0.0539820059980007	0.0483172275908031	0.0496501166277907	0.0449850049983339	0.0533155614795068
0.204931689436854	0.202932355881373	0.205264911696101	0.195601466177941	0.262579140286571	0.282239253582139	0.27890703098967	0.279240253248917	0.417194268577141	0.411529490169943	0.408197267577474	0.410529823392203
0.0413195601466178	0.0493168943685438	0.0436521159613462	0.0399866711096301	0.0439853382205931	0.0376541152949017	0.0389870043318894	0.0476507830723092	0.0449850049983339	0.0379873375541486	0.0479840053315561	0.044651782739087
0.0383205598133955	0.0269910029990003	0.0279906697767411	0.0269910029990003	0.0329890036654449	0.0289903365544818	0.0293235588137288	0.0286571142952349	0.0223258913695435	0.0173275574808397	0.0219926691102966	0.0223258913695435
0.0226591136287904	0.020326557814062	0.020326557814062	0.0219926691102966	0.0199933355548151	0.020326557814062	0.0216594468510496	0.0189936687770743	0.012329223592136	0.0149950016661113	0.012329223592136	0.0106631122959014
0.0189936687770743	0.016327890703099	0.0199933355548151	0.016327890703099	0.0166611129623459	0.0143285571476175	0.0149950016661113	0.0126624458513829	0.00866377874041986	0.00899700099966678	0.0113295568143952	0.00833055648117294
0.0336554481839387	0.0419860046651116	0.0359880039986671	0.0379873375541486	0.0419860046651116	0.0396534488503832	0.0386537820726425	0.0509830056647784	0.0556481172942353	0.0546484505164945	0.0483172275908031	0.0573142285904698
0.0513162279240253	0.0543152282572476	0.0533155614795068	0.0516494501832722	0.0356547817394202	0.0353215594801733	0.0319893368877041	0.0413195601466178	0.0256581139620127	0.0353215594801733	0.0306564478507164	0.0256581139620127
0.0703098967010996	0.0749750083305565	0.0736421192935688	0.0653115628123959	0.0829723425524825	0.0843052315894702	0.0883038987004332	0.0869710096634455	0.102632455848051	0.111962679106964	0.106964345218261	0.106631122959014
0.0093302232589137	0.0129956681106298	0.00866377874041986	0.00966344551816061	0.00999666777740753	0.0103298900366544	0.0153282239253582	0.0133288903698767	0.0113295568143952	0.0093302232589137	0.0093302232589137	0.00799733422192602
0.0429856714428524	0.0456514495168277	0.0476507830723092	0.0499833388870377	0.0593135621459513	0.0643118960346551	0.056647784071976	0.0616461179606798	0.0843052315894702	0.0949683438853715	0.089303565478174	0.0939686771076308
0.0146617794068644	0.012329223592136	0.0126624458513829	0.0129956681106298	0.0273242252582473	0.0256581139620127	0.0246584471842719	0.0249916694435188	0.0369876707764079	0.040319893368877	0.0423192269243585	0.0379873375541486
0.134288570476508	0.140619793402199	0.131956014661779	0.132289236921026	0.100299900033322	0.0976341219593469	0.09296901032989	0.0936354548483839	0.10163278907031	0.0976341219593469	0.111296234588471	0.0956347884038654
0.0113295568143952	0.0129956681106298	0.0113295568143952	0.00999666777740753	0.00799733422192602	0.0113295568143952	0.0109963345551483	0.0103298900366544	0.00766411196267911	0.00633122292569144	0.00533155614795068	0.0103298900366544
0.0176607797400866	0.016327890703099	0.0149950016661113	0.0156614461846051	0.00833055648117294	0.00999666777740753	0.00999666777740753	0.00733088970343219	0.00633122292569144	0.00766411196267911	0.00499833388870377	0.00533155614795068
0.0319893368877041	0.0303232255914695	0.0303232255914695	0.0309896701099633	0.0296567810729757	0.0259913362212596	0.0336554481839387	0.0339886704431856	0.0373208930356548	0.0253248917027657	0.0309896701099633	0.0326557814061979
0.0379873375541486	0.0359880039986671	0.0443185604798401	0.0449850049983339	0.0359880039986671	0.0343218927024325	0.0386537820726425	0.0346551149616794	0.0419860046651116	0.040319893368877	0.0326557814061979	0.040319893368877
0.0756414528490503	0.0806397867377541	0.0816394535154948	0.0739753415528157	0.0773075641452849	0.0786404531822726	0.0813062312562479	0.068643785404865	0.0896367877374209	0.0899700099966678	0.0996334555148284	0.0843052315894702
0.0139953348883705	0.0143285571476175	0.0186604465178274	0.0143285571476175	0.0226591136287904	0.0219926691102966	0.0273242252582473	0.020326557814062	0.0436521159613462	0.0479840053315561	0.0376541152949017	0.0449850049983339
0.024325224925025	0.0199933355548151	0.0263245584805065	0.0236587804065312	0.0343218927024325	0.040653115628124	0.0366544485171609	0.0369876707764079	0.056647784071976	0.04865044985005	0.0503165611462846	0.056647784071976
0.00799733422192602	0.00699766744418527	0.00499833388870377	0.0056647784071976	0.00599800066644452	0.00533155614795068	0.00866377874041986	0.00766411196267911	0.00533155614795068	0.00499833388870377	0.00666444518493835	0.00399866711096301
0.0576474508497168	0.0693102299233589	0.0559813395534822	0.0659780073308897	0.0569810063312229	0.0609796734421859	0.0569810063312229	0.0609796734421859	0.0589803398867044	0.0673108963678774	0.0683105631456181	0.0609796734421859
0.0129956681106298	0.0126624458513829	0.0139953348883705	0.0139953348883705	0.0056647784071976	0.012329223592136	0.0133288903698767	0.0156614461846051	0.00599800066644452	0.0056647784071976	0.00999666777740753	0.00766411196267911
0.0153282239253582	0.0139953348883705	0.0183272242585805	0.0173275574808397	0.0173275574808397	0.016327890703099	0.024325224925025	0.0186604465178274	0.012329223592136	0.015994668443852	0.0156614461846051	0.0176607797400866
0.0113295568143952	0.00766411196267911	0.0116627790736421	0.00866377874041986	0.00999666777740753	0.0109963345551483	0.0113295568143952	0.00766411196267911	0.0113295568143952	0.0116627790736421	0.0136621126291236	0.0106631122959014
0.012329223592136	0.00966344551816061	0.011996001332889	0.0106631122959014	0.0173275574808397	0.0209930023325558	0.0213262245918027	0.0219926691102966	0.0223258913695435	0.0209930023325558	0.0236587804065312	0.0219926691102966
0.00133288903698767	0.000666444518493835	0	0.000666444518493835	0	0.000666444518493835	0.000666444518493835	0.000333222259246918	0.000333222259246918	0.000333222259246918	0.000333222259246918	0
0.00299900033322226	0.00199933355548151	0.000666444518493835	0.000999666777740753	0.0036654448517161	0.00199933355548151	0.00266577807397534	0.0036654448517161	0.00333222259246918	0.00233255581472842	0.00199933355548151	0.00299900033322226
0.00666444518493835	0.00866377874041986	0.00799733422192602	0.00666444518493835	0.00733088970343219	0.0056647784071976	0.00499833388870377	0.00666444518493835	0.00766411196267911	0.00633122292569144	0.00633122292569144	0.00699766744418527
0.0923025658113962	0.0993002332555815	0.0949683438853715	0.100966344551816	0.076974341886038	0.0746417860713096	0.0673108963678774	0.0679773408863712	0.0619793402199267	0.0633122292569144	0.0573142285904698	0.0613128957014329
0.00466511162945685	0.00299900033322226	0.00433188937020993	0.0036654448517161	0.0106631122959014	0.011996001332889	0.00866377874041986	0.00833055648117294	0.011996001332889	0.0136621126291236	0.0113295568143952	0.00899700099966678
0.0036654448517161	0.00533155614795068	0.0056647784071976	0.00633122292569144	0.00833055648117294	0.00666444518493835	0.00599800066644452	0.00499833388870377	0.00499833388870377	0.00399866711096301	0.0036654448517161	0.00199933355548151
0.00866377874041986	0.00899700099966678	0.00799733422192602	0.00766411196267911	0.0126624458513829	0.012329223592136	0.0139953348883705	0.0126624458513829	0.0153282239253582	0.0146617794068644	0.016327890703099	0.0166611129623459
0.0339886704431856	0.040319893368877	0.0389870043318894	0.0349883372209264	0.0469843385538154	0.0513162279240253	0.0496501166277907	0.0549816727757414	0.0483172275908031	0.0536487837387538	0.04865044985005	0.0513162279240253
0.00866377874041986	0.0093302232589137	0.0056647784071976	0.00766411196267911	0.00633122292569144	0.00666444518493835	0.00899700099966678	0.0109963345551483	0.00699766744418527	0.00733088970343219	0.0056647784071976	0.00699766744418527
0.00666444518493835	0.00499833388870377	0.00533155614795068	0.00699766744418527	0.00466511162945685	0.00499833388870377	0.00666444518493835	0.00633122292569144	0.0056647784071976	0.00333222259246918	0.0036654448517161	0.00533155614795068
0.0036654448517161	0.00266577807397534	0.00433188937020993	0.00333222259246918	0.00499833388870377	0.00533155614795068	0.00633122292569144	0.00733088970343219	0.00499833388870377	0.00399866711096301	0.00266577807397534	0.00433188937020993
0.00966344551816061	0.00833055648117294	0.0109963345551483	0.00999666777740753	0.0113295568143952	0.00866377874041986	0.00599800066644452	0.0109963345551483	0.00533155614795068	0.00399866711096301	0.00666444518493835	0.00433188937020993
0.0113295568143952	0.0106631122959014	0.011996001332889	0.00766411196267911	0.0103298900366544	0.0129956681106298	0.0109963345551483	0.00766411196267911	0.00966344551816061	0.0093302232589137	0.00733088970343219	0.00799733422192602
0.0359880039986671	0.0353215594801733	0.0376541152949017	0.0313228923692103	0.0393202265911363	0.0456514495168277	0.0436521159613462	0.0503165611462846	0.0546484505164945	0.0589803398867044	0.0629790069976674	0.052649116961013
0.00733088970343219	0.00799733422192602	0.00899700099966678	0.011996001332889	0.0146617794068644	0.011996001332889	0.0169943352215928	0.0133288903698767	0.020326557814062	0.0179940019993336	0.0223258913695435	0.0199933355548151
0.015994668443852	0.015994668443852	0.0149950016661113	0.0129956681106298	0.0183272242585805	0.0229923358880373	0.0273242252582473	0.0246584471842719	0.0426524491836055	0.0396534488503832	0.0423192269243585	0.0469843385538154
0.0286571142952349	0.0236587804065312	0.0249916694435188	0.0316561146284572	0.0349883372209264	0.0366544485171609	0.0326557814061979	0.0419860046651116	0.0419860046651116	0.0396534488503832	0.0366544485171609	0.0299900033322226
0.0336554481839387	0.0296567810729757	0.0383205598133955	0.0276574475174942	0.0303232255914695	0.0269910029990003	0.0309896701099633	0.032322559146951	0.0133288903698767	0.0179940019993336	0.0193268910363212	0.0166611129623459
0.00466511162945685	0.00666444518493835	0.00499833388870377	0.00499833388870377	0.00833055648117294	0.0056647784071976	0.0056647784071976	0.00499833388870377	0.0036654448517161	0.00499833388870377	0.00433188937020993	0.00533155614795068
0.00766411196267911	0.00499833388870377	0.00733088970343219	0.00499833388870377	0.0106631122959014	0.0116627790736421	0.0129956681106298	0.0109963345551483	0.0166611129623459	0.0129956681106298	0.0156614461846051	0.0173275574808397
0.0169943352215928	0.011996001332889	0.00999666777740753	0.0109963345551483	0.0193268910363212	0.0226591136287904	0.0239920026657781	0.0249916694435188	0.0309896701099633	0.0309896701099633	0.0296567810729757	0.0353215594801733
0.00466511162945685	0.00233255581472842	0.00299900033322226	0.00266577807397534	0.00299900033322226	0.0036654448517161	0.00399866711096301	0.00299900033322226	0.00233255581472842	0.00299900033322226	0.00499833388870377	0.00266577807397534
0.00799733422192602	0.00499833388870377	0.0036654448517161	0.00599800066644452	0.00533155614795068	0.00466511162945685	0.0056647784071976	0.00599800066644452	0.00466511162945685	0.00499833388870377	0.00466511162945685	0.00333222259246918
0.0313228923692103	0.0263245584805065	0.0263245584805065	0.0279906697767411	0.0776407864045318	0.0703098967010996	0.0726424525158281	0.0759746751082972	0.112962345884705	0.13295568143952	0.125958013995335	0.122292569143619
0.0036654448517161	0.00499833388870377	0.00333222259246918	0.00199933355548151	0.0149950016661113	0.0146617794068644	0.0133288903698767	0.0133288903698767	0.0196601132955681	0.0249916694435188	0.0186604465178274	0.0263245584805065
0.000666444518493835	0.000999666777740753	0.000333222259246918	0.000333222259246918	0.0036654448517161	0.000999666777740753	0.000999666777740753	0.00199933355548151	0.00399866711096301	0.00333222259246918	0.00399866711096301	0.00433188937020993
0.0179940019993336	0.0169943352215928	0.0173275574808397	0.0129956681106298	0.0253248917027657	0.0223258913695435	0.0226591136287904	0.0216594468510496	0.0333222259246918	0.0276574475174942	0.0296567810729757	0.0303232255914695
0.00233255581472842	0.00233255581472842	0.00233255581472842	0.00199933355548151	0.00399866711096301	0.00466511162945685	0.0036654448517161	0.00533155614795068	0.0056647784071976	0.00399866711096301	0.00466511162945685	0.00766411196267911
0.0126624458513829	0.0139953348883705	0.0146617794068644	0.0106631122959014	0.0179940019993336	0.0199933355548151	0.0176607797400866	0.0206597800733089	0.0179940019993336	0.0253248917027657	0.0213262245918027	0.0213262245918027
0.00766411196267911	0.00766411196267911	0.00433188937020993	0.00999666777740753	0.00633122292569144	0.00633122292569144	0.00633122292569144	0.0036654448517161	0.00133288903698767	0.00333222259246918	0.00499833388870377	0.00233255581472842
0.0636454515161613	0.0586471176274575	0.0699766744418527	0.0589803398867044	0.0653115628123959	0.0733088970343219	0.0783072309230257	0.0726424525158281	0.0699766744418527	0.0716427857380873	0.0723092302565811	0.0773075641452849
0.0093302232589137	0.00799733422192602	0.00733088970343219	0.00899700099966678	0.011996001332889	0.0139953348883705	0.0129956681106298	0.0126624458513829	0.0149950016661113	0.0143285571476175	0.0169943352215928	0.012329223592136
0.011996001332889	0.0126624458513829	0.0149950016661113	0.0149950016661113	0.015994668443852	0.0133288903698767	0.0106631122959014	0.0153282239253582	0.00966344551816061	0.0136621126291236	0.00966344551816061	0.00766411196267911
0.0106631122959014	0.00799733422192602	0.00633122292569144	0.00833055648117294	0.00733088970343219	0.00766411196267911	0.00766411196267911	0.00533155614795068	0.00399866711096301	0.00666444518493835	0.00466511162945685	0.00533155614795068
0.00633122292569144	0.00533155614795068	0.00733088970343219	0.00333222259246918	0.00333222259246918	0.0056647784071976	0.00199933355548151	0.00433188937020993	0.00166611129623459	0.00466511162945685	0.00433188937020993	0.00266577807397534
0.0169943352215928	0.012329223592136	0.0183272242585805	0.0173275574808397	0.0206597800733089	0.0206597800733089	0.0239920026657781	0.0269910029990003	0.0276574475174942	0.032322559146951	0.0303232255914695	0.0279906697767411
0.00833055648117294	0.00699766744418527	0.00733088970343219	0.00966344551816061	0.0106631122959014	0.00999666777740753	0.00699766744418527	0.0093302232589137	0.00766411196267911	0.00766411196267911	0.00733088970343219	0.00966344551816061
0.000333222259246918	0	0	0.000333222259246918	0.000666444518493835	0.000666444518493835	0	0.000666444518493835	0.000666444518493835	0.000999666777740753	0.000666444518493835	0
0.000333222259246918	0.000333222259246918	0	0	0.000666444518493835	0.000666444518493835	0.000333222259246918	0	0	0	0.000333222259246918	0.000333222259246918
0.000333222259246918	0.000333222259246918	0.000333222259246918	0	0.000999666777740753	0.00133288903698767	0	0.000999666777740753	0.000333222259246918	0	0.000333222259246918	0.000333222259246918
0.00333222259246918	0.00166611129623459	0.000999666777740753	0.000999666777740753	0.00533155614795068	0.00333222259246918	0.00266577807397534	0.00399866711096301	0.00266577807397534	0.00166611129623459	0.00266577807397534	0.00399866711096301
0.0056647784071976	0.00266577807397534	0.00466511162945685	0.00599800066644452	0.00499833388870377	0.00533155614795068	0.00433188937020993	0.00533155614795068	0.00599800066644452	0.00433188937020993	0.00766411196267911	0.00499833388870377
0.000666444518493835	0.00166611129623459	0.00133288903698767	0.000666444518493835	0.0036654448517161	0.00266577807397534	0.00299900033322226	0.0036654448517161	0.00166611129623459	0.00333222259246918	0.00233255581472842	0.00199933355548151
0.00199933355548151	0.00233255581472842	0.000999666777740753	0.00133288903698767	0.00533155614795068	0.00299900033322226	0.00299900033322226	0.00499833388870377	0.00533155614795068	0.00633122292569144	0.0036654448517161	0.00433188937020993
0.00999666777740753	0.0113295568143952	0.0129956681106298	0.00966344551816061	0.012329223592136	0.00666444518493835	0.0093302232589137	0.00899700099966678	0.00633122292569144	0.00599800066644452	0.00766411196267911	0.00599800066644452
0.0246584471842719	0.0276574475174942	0.0256581139620127	0.0299900033322226	0.028323892035988	0.028323892035988	0.0333222259246918	0.0263245584805065	0.0359880039986671	0.0326557814061979	0.0293235588137288	0.0356547817394202
0.00633122292569144	0.0056647784071976	0.00733088970343219	0.00733088970343219	0.00999666777740753	0.00466511162945685	0.00666444518493835	0.0056647784071976	0.0036654448517161	0.0036654448517161	0.00266577807397534	0.0056647784071976
0.000999666777740753	0.00133288903698767	0.000999666777740753	0.00199933355548151	0.000666444518493835	0.00199933355548151	0.00133288903698767	0.00199933355548151	0.00299900033322226	0.00166611129623459	0.000999666777740753	0.000666444518493835
0.000333222259246918	0	0	0.000333222259246918	0.00133288903698767	0.000666444518493835	0.000666444518493835	0.00166611129623459	0	0.000666444518493835	0.000999666777740753	0.000333222259246918
0.00199933355548151	0.000666444518493835	0	0.000999666777740753	0.00199933355548151	0.00133288903698767	0.000999666777740753	0.00299900033322226	0.00133288903698767	0.00166611129623459	0.00233255581472842	0.00133288903698767
0.000333222259246918	0	0	0.000666444518493835	0.00133288903698767	0.000666444518493835	0.00166611129623459	0	0.00133288903698767	0.00133288903698767	0.00166611129623459	0.000666444518493835
0.0109963345551483	0.0116627790736421	0.0093302232589137	0.012329223592136	0.0106631122959014	0.00866377874041986	0.0129956681106298	0.00899700099966678	0.00633122292569144	0.00666444518493835	0.0056647784071976	0.00466511162945685
0.00599800066644452	0.00866377874041986	0.00833055648117294	0.00733088970343219	0.00899700099966678	0.0116627790736421	0.00799733422192602	0.011996001332889	0.00899700099966678	0.0113295568143952	0.00733088970343219	0.00799733422192602
0.0109963345551483	0.0116627790736421	0.012329223592136	0.00966344551816061	0.0136621126291236	0.011996001332889	0.012329223592136	0.0133288903698767	0.0093302232589137	0.012329223592136	0.00699766744418527	0.0109963345551483
0.00699766744418527	0.00333222259246918	0.00466511162945685	0.00633122292569144	0.00399866711096301	0.00433188937020993	0.00399866711096301	0.0056647784071976	0.00199933355548151	0.00266577807397534	0.00233255581472842	0.00266577807397534
0.0036654448517161	0.00233255581472842	0.00399866711096301	0.000999666777740753	0.00499833388870377	0.00633122292569144	0.0036654448517161	0.00666444518493835	0.00699766744418527	0.00433188937020993	0.00399866711096301	0.00466511162945685
0.00499833388870377	0.00399866711096301	0.00533155614795068	0.00633122292569144	0.015994668443852	0.00999666777740753	0.0126624458513829	0.016327890703099	0.0146617794068644	0.0193268910363212	0.0189936687770743	0.0176607797400866
0.00899700099966678	0.00533155614795068	0.0093302232589137	0.00766411196267911	0.0133288903698767	0.0143285571476175	0.0133288903698767	0.0166611129623459	0.0169943352215928	0.0173275574808397	0.0239920026657781	0.0213262245918027
0.000333222259246918	0	0	0	0.000333222259246918	0	0	0.000333222259246918	0	0	0	0.000333222259246918
0.00466511162945685	0.00299900033322226	0.00633122292569144	0.00333222259246918	0.00599800066644452	0.00299900033322226	0.00299900033322226	0.00433188937020993	0.00466511162945685	0.00266577807397534	0.00333222259246918	0.00233255581472842
0.00499833388870377	0.00299900033322226	0.00199933355548151	0.00266577807397534	0.00333222259246918	0.00299900033322226	0.00233255581472842	0.00333222259246918	0.00199933355548151	0.00233255581472842	0.00199933355548151	0.00199933355548151
0.00766411196267911	0.00699766744418527	0.00699766744418527	0.00499833388870377	0.00733088970343219	0.00799733422192602	0.00999666777740753	0.0143285571476175	0.0103298900366544	0.00899700099966678	0.0093302232589137	0.0129956681106298
0.0136621126291236	0.0166611129623459	0.0219926691102966	0.0143285571476175	0.0169943352215928	0.011996001332889	0.0136621126291236	0.012329223592136	0.00866377874041986	0.00666444518493835	0.0126624458513829	0.00733088970343219
0.00699766744418527	0.00966344551816061	0.0056647784071976	0.00666444518493835	0.0093302232589137	0.00833055648117294	0.00766411196267911	0.00633122292569144	0.00733088970343219	0.00866377874041986	0.0056647784071976	0.00499833388870377
0.000666444518493835	0	0	0	0.000333222259246918	0.000333222259246918	0.000333222259246918	0	0	0	0	0
0.000333222259246918	0.000333222259246918	0	0.000333222259246918	0	0.000333222259246918	0	0	0	0.000333222259246918	0	0.000333222259246918
0.000666444518493835	0.000666444518493835	0	0.000333222259246918	0.000999666777740753	0.000999666777740753	0	0.000333222259246918	0.000666444518493835	0.000333222259246918	0.000666444518493835	0
0.000666444518493835	0.000333222259246918	0	0.000333222259246918	0.000666444518493835	0.000666444518493835	0.000333222259246918	0.000666444518493835	0.000666444518493835	0.000999666777740753	0.000666444518493835	0.000666444518493835
0.000333222259246918	0	0.000333222259246918	0	0.000999666777740753	0.00133288903698767	0.000333222259246918	0.000666444518493835	0.000666444518493835	0.000333222259246918	0.000666444518493835	0.000999666777740753
0.00166611129623459	0	0.000666444518493835	0.000333222259246918	0.00133288903698767	0.000999666777740753	0.00199933355548151	0.00233255581472842	0.00166611129623459	0.00466511162945685	0.00266577807397534	0.00266577807397534
0.00466511162945685	0.00433188937020993	0.0056647784071976	0.00333222259246918	0.00599800066644452	0.00466511162945685	0.00333222259246918	0.00466511162945685	0.00299900033322226	0.00499833388870377	0.00733088970343219	0.00633122292569144
0.0056647784071976	0.0106631122959014	0.00866377874041986	0.00733088970343219	0.00866377874041986	0.00866377874041986	0.00733088970343219	0.0106631122959014	0.011996001332889	0.011996001332889	0.00999666777740753	0.0106631122959014
0.00199933355548151	0.00166611129623459	0.000666444518493835	0.000666444518493835	0.00233255581472842	0.00299900033322226	0.00266577807397534	0.00266577807397534	0.00199933355548151	0.000666444518493835	0.00199933355548151	0.00166611129623459
0.000333222259246918	0	0.000333222259246918	0.000333222259246918	0.000666444518493835	0.00166611129623459	0.00133288903698767	0.00166611129623459	0.000333222259246918	0.000999666777740753	0.000666444518493835	0.00133288903698767
0.000666444518493835	0.000666444518493835	0	0.000666444518493835	0.00166611129623459	0.000999666777740753	0.00199933355548151	0.00299900033322226	0.00233255581472842	0.00199933355548151	0.00299900033322226	0.00499833388870377
0.00266577807397534	0.00133288903698767	0.00233255581472842	0.00199933355548151	0.012329223592136	0.0126624458513829	0.0133288903698767	0.0169943352215928	0.015994668443852	0.0233255581472842	0.0173275574808397	0.0196601132955681
0.00399866711096301	0.00466511162945685	0.00633122292569144	0.00599800066644452	0.00533155614795068	0.00399866711096301	0.00533155614795068	0.00833055648117294	0.00599800066644452	0.00633122292569144	0.00633122292569144	0.00466511162945685
0.00533155614795068	0.00799733422192602	0.00699766744418527	0.0056647784071976	0.00866377874041986	0.00766411196267911	0.00966344551816061	0.0143285571476175	0.0103298900366544	0.0153282239253582	0.00899700099966678	0.00966344551816061
0.00399866711096301	0.00266577807397534	0.0036654448517161	0.00299900033322226	0.00766411196267911	0.00833055648117294	0.00866377874041986	0.00666444518493835	0.00766411196267911	0.00766411196267911	0.00766411196267911	0.0056647784071976
0.000333222259246918	0.000666444518493835	0	0.00133288903698767	0.00166611129623459	0.00133288903698767	0.00266577807397534	0.00233255581472842	0.00299900033322226	0.0036654448517161	0.00233255581472842	0.0056647784071976
0.000333222259246918	0	0	0	0	0.000333222259246918	0	0	0	0.000333222259246918	0	0
0.000333222259246918	0	0	0	0.000666444518493835	0.000333222259246918	0.000333222259246918	0	0	0	0	0
0.000666444518493835	0	0	0.000333222259246918	0.000333222259246918	0	0.000666444518493835	0.000333222259246918	0	0	0.000333222259246918	0.000333222259246918
0.000666444518493835	0.000999666777740753	0.00233255581472842	0.000666444518493835	0.00199933355548151	0.00199933355548151	0.00166611129623459	0.000999666777740753	0.000333222259246918	0.000333222259246918	0	0.00199933355548151
0.00166611129623459	0.00266577807397534	0.00399866711096301	0.00199933355548151	0.00233255581472842	0.00333222259246918	0.00266577807397534	0.00399866711096301	0.0056647784071976	0.00499833388870377	0.00133288903698767	0.00466511162945685
0.000999666777740753	0.000999666777740753	0.00166611129623459	0	0.00166611129623459	0.00299900033322226	0.00233255581472842	0.00166611129623459	0.00333222259246918	0.00199933355548151	0.00266577807397534	0.00199933355548151
0.000999666777740753	0.000333222259246918	0	0	0.00266577807397534	0.000666444518493835	0.00233255581472842	0.00166611129623459	0.00133288903698767	0.00233255581472842	0.00299900033322226	0.00166611129623459
0.00133288903698767	0.00199933355548151	0.000666444518493835	0.00166611129623459	0.0149950016661113	0.0143285571476175	0.012329223592136	0.0146617794068644	0.020326557814062	0.0223258913695435	0.0236587804065312	0.016327890703099
0.00433188937020993	0.00599800066644452	0.00766411196267911	0.00399866711096301	0.00899700099966678	0.00866377874041986	0.00599800066644452	0.00633122292569144	0.00533155614795068	0.00733088970343219	0.00733088970343219	0.00599800066644452
0.00299900033322226	0.00266577807397534	0.00433188937020993	0.000999666777740753	0.0056647784071976	0.00666444518493835	0.00599800066644452	0.00533155614795068	0.0036654448517161	0.0036654448517161	0.00599800066644452	0.00499833388870377
0.000666444518493835	0.000666444518493835	0.000999666777740753	0	0.00166611129623459	0.00166611129623459	0.000333222259246918	0.000666444518493835	0.000333222259246918	0.000999666777740753	0.00133288903698767	0.000666444518493835
0.000333222259246918	0.000333222259246918	0.000333222259246918	0	0.000999666777740753	0.000666444518493835	0.000666444518493835	0	0.000333222259246918	0.000999666777740753	0	0
0.000999666777740753	0.000333222259246918	0.000333222259246918	0.000666444518493835	0.00166611129623459	0.00133288903698767	0.00199933355548151	0.00299900033322226	0.00133288903698767	0.00166611129623459	0.00199933355548151	0.000999666777740753
0.000333222259246918	0.00166611129623459	0.000999666777740753	0.000666444518493835	0.00133288903698767	0.00166611129623459	0.00166611129623459	0.00199933355548151	0.000333222259246918	0.00133288903698767	0.000999666777740753	0.00166611129623459
0.000333222259246918	0.000999666777740753	0	0.000666444518493835	0.00199933355548151	0.00133288903698767	0.00133288903698767	0.000333222259246918	0.00133288903698767	0.000999666777740753	0.00199933355548151	0.00133288903698767
0.00199933355548151	0.00499833388870377	0.00299900033322226	0.00299900033322226	0.00733088970343219	0.00766411196267911	0.00999666777740753	0.0056647784071976	0.00733088970343219	0.00699766744418527	0.00666444518493835	0.00699766744418527
0.000333222259246918	0	0.000666444518493835	0.000333222259246918	0.00133288903698767	0.00199933355548151	0.00266577807397534	0.000666444518493835	0.00199933355548151	0.00166611129623459	0.00133288903698767	0.000666444518493835
0.000666444518493835	0	0	0.000333222259246918	0.00199933355548151	0.00166611129623459	0.00199933355548151	0.00166611129623459	0.000666444518493835	0.00133288903698767	0.000333222259246918	0.00166611129623459
0.000333222259246918	0	0	0	0.00133288903698767	0.000666444518493835	0.000666444518493835	0	0.000333222259246918	0.000333222259246918	0.000999666777740753	0
0.000333222259246918	0	0	0	0.000999666777740753	0.000999666777740753	0.000999666777740753	0.000666444518493835	0.000333222259246918	0.000333222259246918	0.000333222259246918	0
0.000666444518493835	0.000333222259246918	0.000999666777740753	0.00133288903698767	0.00166611129623459	0.000666444518493835	0.00199933355548151	0.00166611129623459	0.00266577807397534	0.00199933355548151	0.00233255581472842	0.00133288903698767
0.000666444518493835	0	0	0	0.000666444518493835	0.000999666777740753	0.000666444518493835	0	0	0	0.000333222259246918	0.000333222259246918
0.000333222259246918	0	0	0.000333222259246918	0.000666444518493835	0.000333222259246918	0.000333222259246918	0.000333222259246918	0	0	0.000666444518493835	0
0.000333222259246918	0.000333222259246918	0	0	0.000333222259246918	0	0.000333222259246918	0.000666444518493835	0	0	0	0
0.000666444518493835	0.000999666777740753	0.000999666777740753	0.000333222259246918	0.00199933355548151	0.00133288903698767	0.00233255581472842	0.00233255581472842	0.00199933355548151	0.00333222259246918	0.00166611129623459	0.000666444518493835
0.000333222259246918	0	0	0	0.00299900033322226	0.00133288903698767	0.00299900033322226	0.00233255581472842	0.00199933355548151	0.00399866711096301	0.00399866711096301	0.00199933355548151
0.000333222259246918	0	0	0.000333222259246918	0.000333222259246918	0.000999666777740753	0.000999666777740753	0.000666444518493835	0.000666444518493835	0	0	0.000333222259246918
0.000333222259246918	0.000333222259246918	0	0.000333222259246918	0.00166611129623459	0.000999666777740753	0.000999666777740753	0.000999666777740753	0.000999666777740753	0.000666444518493835	0.000333222259246918	0.000999666777740753
0.000666444518493835	0	0	0.000666444518493835	0.00199933355548151	0.00199933355548151	0.00166611129623459	0.00233255581472842	0.000333222259246918	0.00166611129623459	0.00233255581472842	0.000999666777740753
0.000333222259246918	0	0	0	0	0	0.000333222259246918	0	0	0.000333222259246918	0.000333222259246918	0
0.000666444518493835	0	0	0	0.000333222259246918	0	0	0	0	0	0	0
0.000333222259246918	0	0	0	0.000333222259246918	0	0	0	0.000333222259246918	0	0	0
0.000333222259246918	0	0.000333222259246918	0.000333222259246918	0.000333222259246918	0	0.000666444518493835	0.00133288903698767	0.000333222259246918	0.000333222259246918	0	0.000333222259246918
0.000333222259246918	0.000333222259246918	0.000333222259246918	0	0	0	0.000333222259246918	0	0.000333222259246918	0.000333222259246918	0	0.000333222259246918
0.000333222259246918	0.000999666777740753	0	0.000666444518493835	0.00166611129623459	0.00199933355548151	0.00233255581472842	0.00133288903698767	0.000333222259246918	0.000333222259246918	0.000666444518493835	0.00133288903698767
0.000666444518493835	0.00166611129623459	0.00166611129623459	0.000666444518493835	0.00133288903698767	0.00199933355548151	0.00233255581472842	0.00299900033322226	0.00233255581472842	0.00199933355548151	0.00166611129623459	0.00199933355548151
0.000333222259246918	0	0	0	0	0.000333222259246918	0.000999666777740753	0.000333222259246918	0.000333222259246918	0	0	0.000666444518493835
0.000333222259246918	0.00166611129623459	0.00166611129623459	0.00133288903698767	0.00299900033322226	0.00266577807397534	0.00333222259246918	0.00333222259246918	0.00133288903698767	0.00233255581472842	0.00199933355548151	0.00233255581472842
0.000333222259246918	0.000333222259246918	0	0	0.000999666777740753	0.00133288903698767	0.00166611129623459	0.000666444518493835	0.000999666777740753	0.000333222259246918	0.000333222259246918	0.000333222259246918
0.000666444518493835	0.000666444518493835	0	0	0	0.00299900033322226	0.000333222259246918	0.00133288903698767	0.00199933355548151	0.000333222259246918	0.00133288903698767	0.00133288903698767
0.000999666777740753	0.00233255581472842	0.00133288903698767	0.000666444518493835	0.00333222259246918	0.00199933355548151	0.00133288903698767	0.00233255581472842	0.00166611129623459	0.00333222259246918	0.00333222259246918	0.000666444518493835
0.000333222259246918	0	0	0	0	0	0	0	0	0	0	0
0.000333222259246918	0	0	0	0	0	0	0	0	0.000333222259246918	0	0
0.000666444518493835	0.000999666777740753	0	0	0	0	0.000333222259246918	0	0	0.000333222259246918	0.000333222259246918	0.000333222259246918
0.000333222259246918	0	0	0.000666444518493835	0.000333222259246918	0	0.000666444518493835	0	0.000666444518493835	0	0.000333222259246918	0
0.000333222259246918	0.000333222259246918	0	0	0.000666444518493835	0.000333222259246918	0.00133288903698767	0.000666444518493835	0.000666444518493835	0.000999666777740753	0.00166611129623459	0.000666444518493835
0.000333222259246918	0.000333222259246918	0.000666444518493835	0.000333222259246918	0.00233255581472842	0.00266577807397534	0.00199933355548151	0.00166611129623459	0.00233255581472842	0.00333222259246918	0.00233255581472842	0.00266577807397534
0.000333222259246918	0	0	0	0	0	0	0	0	0	0.000333222259246918	0
0.000333222259246918	0.000333222259246918	0	0	0.000999666777740753	0.000666444518493835	0.000333222259246918	0.00133288903698767	0.000999666777740753	0.000666444518493835	0.00133288903698767	0.000666444518493835
0.000333222259246918	0	0.000666444518493835	0.000333222259246918	0.000333222259246918	0.000666444518493835	0.000333222259246918	0.000333222259246918	0	0	0	0.000666444518493835
0.000333222259246918	0	0	0	0.000333222259246918	0	0	0	0	0	0	0
0.000666444518493835	0	0	0	0.000999666777740753	0.000666444518493835	0.000666444518493835	0.00333222259246918	0.00199933355548151	0.00299900033322226	0.00199933355548151	0.00433188937020993
0.000333222259246918	0	0	0.000333222259246918	0	0	0.000333222259246918	0	0	0.000333222259246918	0.000333222259246918	0.000333222259246918
0.000333222259246918	0	0	0	0	0	0	0	0	0	0	0
0.000333222259246918	0	0.000333222259246918	0	0	0.000333222259246918	0	0	0	0	0.000333222259246918	0
0.000333222259246918	0	0.000666444518493835	0	0	0.000333222259246918	0.000666444518493835	0	0.000333222259246918	0	0	0.000999666777740753
0.000333222259246918	0.000333222259246918	0	0	0.000666444518493835	0.000999666777740753	0.00133288903698767	0.000333222259246918	0.000999666777740753	0.00166611129623459	0.000333222259246918	0.000999666777740753
0.000333222259246918	0.000333222259246918	0.000333222259246918	0	0.000999666777740753	0.000666444518493835	0.00166611129623459	0.00133288903698767	0.00133288903698767	0.00166611129623459	0.000666444518493835	0.000666444518493835
0.000333222259246918	0.000666444518493835	0	0	0.000333222259246918	0.000999666777740753	0	0.000333222259246918	0.000333222259246918	0.000999666777740753	0	0.000333222259246918
0.000333222259246918	0.000333222259246918	0	0.000333222259246918	0.00166611129623459	0.00166611129623459	0.000666444518493835	0.000333222259246918	0.000333222259246918	0	0.000666444518493835	0.000333222259246918
0.000333222259246918	0	0	0.000666444518493835	0.000666444518493835	0.000333222259246918	0.000333222259246918	0.000333222259246918	0.00199933355548151	0.000999666777740753	0.000999666777740753	0.000333222259246918
0.000333222259246918	0.000333222259246918	0	0	0.000666444518493835	0.000999666777740753	0.000999666777740753	0.000999666777740753	0.000666444518493835	0.000666444518493835	0.000666444518493835	0.000333222259246918
0	0.000333222259246918	0	0	0	0	0.000666444518493835	0.000666444518493835	0	0.000333222259246918	0	0
0	0.000666444518493835	0.000333222259246918	0.000333222259246918	0.000999666777740753	0.000333222259246918	0.000666444518493835	0.000333222259246918	0.000666444518493835	0.000333222259246918	0.000333222259246918	0.000333222259246918
0	0.000666444518493835	0.000333222259246918	0	0	0	0.000333222259246918	0	0	0	0.000333222259246918	0
0	0.000666444518493835	0	0	0.000333222259246918	0.000333222259246918	0	0.000333222259246918	0	0	0.000666444518493835	0
0	0.000333222259246918	0.000333222259246918	0.000333222259246918	0.00133288903698767	0	0	0.000333222259246918	0	0.000333222259246918	0.000333222259246918	0
0	0.000666444518493835	0.000666444518493835	0.000999666777740753	0.00133288903698767	0.000666444518493835	0.000666444518493835	0.00133288903698767	0.00166611129623459	0.000666444518493835	0.00199933355548151	0.000999666777740753
0	0.000333222259246918	0	0	0	0	0	0	0	0	0	0
0	0.000333222259246918	0	0	0	0	0	0	0	0	0.000333222259246918	0.000333222259246918
0	0.000333222259246918	0	0	0	0.000333222259246918	0	0.000333222259246918	0	0	0	0
0	0.000333222259246918	0	0	0.000666444518493835	0.000666444518493835	0.000333222259246918	0	0.000666444518493835	0.000333222259246918	0	0.000666444518493835
0	0.000666444518493835	0.000333222259246918	0	0	0.000999666777740753	0.000333222259246918	0.000666444518493835	0.000333222259246918	0.000333222259246918	0	0
0	0.000333222259246918	0	0	0	0	0	0	0	0	0	0
0	0.000333222259246918	0	0	0	0	0	0	0	0	0	0
0	0.000333222259246918	0	0	0	0	0	0	0.000333222259246918	0	0	0
0	0.000999666777740753	0.000333222259246918	0	0.000666444518493835	0.000333222259246918	0.000333222259246918	0.000666444518493835	0.000333222259246918	0.000333222259246918	0	0.000666444518493835
0	0.000333222259246918	0	0.000333222259246918	0	0.000333222259246918	0	0.000333222259246918	0	0	0	0
0	0.000666444518493835	0	0	0.000333222259246918	0.000333222259246918	0.000333222259246918	0	0	0.000333222259246918	0	0
0	0.000333222259246918	0	0	0.000333222259246918	0.000333222259246918	0.000666444518493835	0.000999666777740753	0.000333222259246918	0	0.000333222259246918	0
0	0.000333222259246918	0.000333222259246918	0.000333222259246918	0.000333222259246918	0	0.000333222259246918	0.000333222259246918	0.000666444518493835	0.00166611129623459	0.000333222259246918	0
0	0.000666444518493835	0	0	0.000666444518493835	0.000333222259246918	0.000999666777740753	0.000999666777740753	0.000666444518493835	0.000999666777740753	0.000666444518493835	0.000666444518493835
0	0.000333222259246918	0	0	0.000333222259246918	0	0	0.000333222259246918	0	0	0	0
0	0.000333222259246918	0	0	0.000333222259246918	0.000666444518493835	0	0	0.000333222259246918	0.000666444518493835	0	0.000666444518493835
0	0.000666444518493835	0	0	0.000666444518493835	0.000333222259246918	0	0.00133288903698767	0	0.000666444518493835	0	0.000666444518493835
0	0.000666444518493835	0	0	0	0.000999666777740753	0.000666444518493835	0.000333222259246918	0.000999666777740753	0.000999666777740753	0	0.000666444518493835
0	0.000333222259246918	0.000666444518493835	0	0.000666444518493835	0.000333222259246918	0.000333222259246918	0.000333222259246918	0	0.000666444518493835	0	0.00133288903698767
0	0.000333222259246918	0	0	0	0	0	0	0	0	0	0
0	0.000666444518493835	0	0	0	0	0	0	0	0	0	0
0	0.000333222259246918	0	0	0	0	0	0	0	0	0	0
0	0.000333222259246918	0	0	0	0.000333222259246918	0	0	0	0	0	0
0	0.000333222259246918	0	0	0.000333222259246918	0	0.000333222259246918	0	0.000666444518493835	0.000333222259246918	0	0.000333222259246918
0	0.000333222259246918	0	0	0	0	0	0	0	0	0	0
0	0.000333222259246918	0.000333222259246918	0.000333222259246918	0.000333222259246918	0	0.000666444518493835	0	0.000333222259246918	0	0.000666444518493835	0
0	0.000333222259246918	0.000999666777740753	0.000999666777740753	0.00199933355548151	0.00233255581472842	0.00233255581472842	0.000666444518493835	0.00166611129623459	0	0.00233255581472842	0.00199933355548151
0	0.000333222259246918	0	0.000333222259246918	0.000333222259246918	0.000333222259246918	0.000333222259246918	0.000333222259246918	0.000333222259246918	0	0	0.000666444518493835
0	0.000333222259246918	0.000333222259246918	0.000333222259246918	0.000666444518493835	0.000666444518493835	0.000999666777740753	0.000333222259246918	0	0.000333222259246918	0	0
0	0.000333222259246918	0.000333222259246918	0.000333222259246918	0	0.000999666777740753	0.000333222259246918	0.000999666777740753	0.00133288903698767	0.00133288903698767	0.000333222259246918	0.000333222259246918
0	0.000333222259246918	0.000333222259246918	0	0.000666444518493835	0	0.000666444518493835	0	0.000666444518493835	0.000333222259246918	0.000666444518493835	0
0	0.000333222259246918	0	0	0	0	0	0	0	0	0	0.000333222259246918
0	0.000333222259246918	0	0	0	0	0	0	0.000333222259246918	0	0	0
0	0.000333222259246918	0	0	0	0	0	0	0	0	0.000333222259246918	0
0	0.000333222259246918	0	0.000333222259246918	0	0	0	0	0	0	0	0
0	0.000333222259246918	0	0	0	0	0.000333222259246918	0	0	0.000666444518493835	0	0
0	0.000333222259246918	0.000333222259246918	0	0.000333222259246918	0	0	0	0	0.000333222259246918	0	0
0	0.000333222259246918	0	0	0	0	0	0	0	0	0	0
0	0.000333222259246918	0	0	0	0.000333222259246918	0	0	0	0	0.000666444518493835	0.000333222259246918
0	0	0.000666444518493835	0	0.000333222259246918	0	0	0	0	0	0.000333222259246918	0
0	0	0.000333222259246918	0	0	0	0	0	0	0	0	0
0	0	0.000333222259246918	0	0	0	0	0	0	0	0	0
0	0	0.000333222259246918	0	0	0	0	0	0	0	0	0
0	0	0.000333222259246918	0	0.000333222259246918	0	0	0	0	0	0	0.000333222259246918
0	0	0.000333222259246918	0	0.000333222259246918	0	0	0.000666444518493835	0	0	0	0
0	0	0.000333222259246918	0	0	0	0	0	0	0	0	0
0	0	0.000333222259246918	0	0	0	0	0	0	0	0	0
0	0	0.000333222259246918	0	0.000666444518493835	0.000999666777740753	0.000999666777740753	0	0	0.000666444518493835	0	0.000333222259246918
0	0	0.000333222259246918	0	0	0	0	0	0	0	0	0
0	0	0.000333222259246918	0.000333222259246918	0	0	0.000333222259246918	0.000666444518493835	0.000333222259246918	0.000333222259246918	0	0
0	0	0.000333222259246918	0	0	0	0	0	0	0	0	0
0	0	0.000333222259246918	0.000666444518493835	0	0.000666444518493835	0.000666444518493835	0.000666444518493835	0	0.000333222259246918	0	0.000999666777740753
0	0	0.000333222259246918	0	0.000333222259246918	0.000333222259246918	0	0	0	0	0	0.000333222259246918
0	0	0.000333222259246918	0	0	0.000666444518493835	0.000666444518493835	0	0	0	0	0.000333222259246918
0	0	0.000333222259246918	0.000333222259246918	0	0.000333222259246918	0	0.000333222259246918	0	0	0	0
0	0	0.000333222259246918	0	0.000666444518493835	0	0	0	0	0	0.000333222259246918	0
0	0	0.000333222259246918	0	0.000333222259246918	0	0.000666444518493835	0.000666444518493835	0	0	0	0
0	0	0.000333222259246918	0	0	0.000333222259246918	0.000666444518493835	0.000333222259246918	0.000333222259246918	0.000333222259246918	0.000999666777740753	0.000333222259246918
0	0	0.000333222259246918	0	0.000333222259246918	0.000999666777740753	0.000333222259246918	0.000999666777740753	0.000666444518493835	0	0.000333222259246918	0
0	0	0	0.000333222259246918	0	0	0	0	0	0	0	0
0	0	0	0.000333222259246918	0.000666444518493835	0	0.000666444518493835	0.000999666777740753	0.000666444518493835	0.000333222259246918	0.000333222259246918	0.000666444518493835
0	0	0	0.000333222259246918	0	0	0	0	0	0	0	0
0	0	0	0.000999666777740753	0.000666444518493835	0.00133288903698767	0.000999666777740753	0.000333222259246918	0.000666444518493835	0.000999666777740753	0.000999666777740753	0.000999666777740753
0	0	0	0.000333222259246918	0.00133288903698767	0.00133288903698767	0.000666444518493835	0.000333222259246918	0	0.000666444518493835	0.000666444518493835	0.000333222259246918
0	0	0	0.000333222259246918	0.000333222259246918	0.000333222259246918	0.000333222259246918	0.000999666777740753	0.000666444518493835	0.000333222259246918	0.000333222259246918	0.000666444518493835
0	0	0	0.000666444518493835	0.000333222259246918	0.00166611129623459	0.000333222259246918	0.000666444518493835	0	0	0.000333222259246918	0
0	0	0	0.000333222259246918	0.000666444518493835	0.000999666777740753	0	0.000666444518493835	0	0.000333222259246918	0	0.000333222259246918
0	0	0	0.000333222259246918	0.000333222259246918	0.000333222259246918	0	0	0	0.000333222259246918	0	0.000333222259246918
0	0	0	0.000333222259246918	0	0	0	0	0	0.000333222259246918	0	0
0	0	0	0.000333222259246918	0.000333222259246918	0	0	0	0	0	0	0.000333222259246918
0	0	0	0.000333222259246918	0.000333222259246918	0.000666444518493835	0.000333222259246918	0.000333222259246918	0	0	0	0.000333222259246918
0	0	0	0.000333222259246918	0	0.000666444518493835	0.000333222259246918	0.000333222259246918	0.000333222259246918	0	0	0
0	0	0	0.000333222259246918	0.000666444518493835	0.000999666777740753	0.000666444518493835	0.000666444518493835	0.00133288903698767	0.000999666777740753	0.000666444518493835	0.000999666777740753
0	0	0	0.000333222259246918	0.000999666777740753	0.000999666777740753	0.000333222259246918	0.000333222259246918	0	0	0	0.000666444518493835
0	0	0	0	0.000333222259246918	0	0	0	0	0	0	0
0	0	0	0	0.000333222259246918	0	0	0.000333222259246918	0	0	0.000333222259246918	0
0	0	0	0	0.000333222259246918	0.000333222259246918	0.000333222259246918	0	0.000666444518493835	0.000333222259246918	0	0.000333222259246918
0	0	0	0	0.000333222259246918	0	0	0.000333222259246918	0	0.000333222259246918	0	0
0	0	0	0	0.000999666777740753	0.000666444518493835	0.000666444518493835	0	0	0.00133288903698767	0.00133288903698767	0
0	0	0	0	0.000333222259246918	0	0	0	0	0	0	0
0	0	0	0	0.000333222259246918	0	0	0	0	0	0	0
0	0	0	0	0.000333222259246918	0	0	0	0	0	0	0.000333222259246918
0	0	0	0	0.000666444518493835	0.000333222259246918	0.000333222259246918	0.000666444518493835	0	0.000666444518493835	0.000999666777740753	0
0	0	0	0	0.000666444518493835	0	0	0	0	0	0	0
0	0	0	0	0.000333222259246918	0	0.000333222259246918	0	0	0	0	0
0	0	0	0	0.000333222259246918	0	0	0	0	0	0	0
0	0	0	0	0.000999666777740753	0.000333222259246918	0.000333222259246918	0.000666444518493835	0.000666444518493835	0.000666444518493835	0.000999666777740753	0.000666444518493835
0	0	0	0	0.000333222259246918	0	0	0.000333222259246918	0	0	0	0.000333222259246918
0	0	0	0	0.000333222259246918	0.000333222259246918	0.000666444518493835	0.00133288903698767	0	0	0.000333222259246918	0.000333222259246918
0	0	0	0	0.000333222259246918	0.000333222259246918	0.000333222259246918	0	0	0	0	0
0	0	0	0	0.000333222259246918	0.000333222259246918	0	0	0	0	0	0
0	0	0	0	0.000666444518493835	0.000333222259246918	0.000333222259246918	0	0	0.000333222259246918	0.000999666777740753	0
0	0	0	0	0.000999666777740753	0.000333222259246918	0	0	0.000333222259246918	0	0	0
0	0	0	0	0.000333222259246918	0	0	0.000666444518493835	0.000333222259246918	0	0	0
0	0	0	0	0.000666444518493835	0	0	0	0	0	0	0
0	0	0	0	0.000333222259246918	0.000333222259246918	0	0	0.000666444518493835	0.000333222259246918	0.000666444518493835	0
0	0	0	0	0.000333222259246918	0	0	0.000666444518493835	0	0	0	0
0	0	0	0	0.000333222259246918	0.000333222259246918	0	0.000666444518493835	0	0	0.000333222259246918	0
0	0	0	0	0.000333222259246918	0.000333222259246918	0.00133288903698767	0.000999666777740753	0	0.000666444518493835	0.000999666777740753	0
0	0	0	0	0.000333222259246918	0.000666444518493835	0.000333222259246918	0.000666444518493835	0	0.000666444518493835	0	0
0	0	0	0	0.00199933355548151	0.00233255581472842	0.00166611129623459	0.00233255581472842	0.00266577807397534	0.00333222259246918	0.00399866711096301	0.00233255581472842
0	0	0	0	0.000333222259246918	0	0.000666444518493835	0.000333222259246918	0	0	0	0
0	0	0	0	0.000333222259246918	0	0.000333222259246918	0.000666444518493835	0.000333222259246918	0	0	0
0	0	0	0	0.000999666777740753	0.000666444518493835	0.000999666777740753	0.000666444518493835	0.000666444518493835	0.000333222259246918	0.000999666777740753	0
0	0	0	0	0.000333222259246918	0	0.000333222259246918	0	0.000333222259246918	0	0	0
0	0	0	0	0.000666444518493835	0	0	0	0.000333222259246918	0	0.000333222259246918	0
0	0	0	0	0.000333222259246918	0	0	0	0.000333222259246918	0	0	0
0	0	0	0	0.000333222259246918	0.000333222259246918	0	0	0	0	0.000333222259246918	0
0	0	0	0	0.000333222259246918	0	0	0	0	0	0	0
0	0	0	0	0.000333222259246918	0.000333222259246918	0	0	0.000666444518493835	0	0.000333222259246918	0
0	0	0	0	0.000333222259246918	0	0	0	0	0	0	0
0	0	0	0	0.000333222259246918	0.000333222259246918	0	0	0.000333222259246918	0.000333222259246918	0	0
0	0	0	0	0.000333222259246918	0	0	0	0.000333222259246918	0	0	0
0	0	0	0	0.000333222259246918	0.000333222259246918	0.000333222259246918	0	0	0.000333222259246918	0	0.000333222259246918
0	0	0	0	0.000333222259246918	0.000333222259246918	0	0	0	0	0.000666444518493835	0
0	0	0	0	0.000333222259246918	0	0	0	0	0	0	0
0	0	0	0	0.000333222259246918	0	0.000333222259246918	0	0	0.000333222259246918	0.000333222259246918	0
0	0	0	0	0.000333222259246918	0.000333222259246918	0	0.000333222259246918	0	0	0	0
0	0	0	0	0.000333222259246918	0	0.00133288903698767	0.00133288903698767	0.000333222259246918	0.00133288903698767	0.00133288903698767	0.000666444518493835
0	0	0	0	0.000333222259246918	0.000333222259246918	0	0	0	0	0	0
0	0	0	0	0.000999666777740753	0.000999666777740753	0.000333222259246918	0.000999666777740753	0	0.000333222259246918	0.000333222259246918	0.000333222259246918
0	0	0	0	0.000333222259246918	0	0	0	0	0	0	0
0	0	0	0	0.000333222259246918	0	0	0	0	0.000333222259246918	0	0
0	0	0	0	0.000333222259246918	0	0	0	0	0	0	0
0	0	0	0	0.000333222259246918	0	0	0	0.000333222259246918	0	0	0.000333222259246918
0	0	0	0	0.000333222259246918	0	0	0.000333222259246918	0	0	0	0.000333222259246918
0	0	0	0	0.000333222259246918	0	0.000333222259246918	0.000333222259246918	0	0	0	0.000333222259246918
0	0	0	0	0.000333222259246918	0.000666444518493835	0.000333222259246918	0.000333222259246918	0.000666444518493835	0.000333222259246918	0	0.000333222259246918
0	0	0	0	0.000333222259246918	0	0	0	0	0	0	0
0	0	0	0	0.000333222259246918	0	0.000333222259246918	0.000333222259246918	0	0.000333222259246918	0.000333222259246918	0.000333222259246918
0	0	0	0	0.000333222259246918	0.000333222259246918	0	0	0.000333222259246918	0	0	0
0	0	0	0	0	0.000666444518493835	0	0	0	0.000333222259246918	0.000333222259246918	0
0	0	0	0	0	0.000333222259246918	0	0	0	0	0.000333222259246918	0
0	0	0	0	0	0.000666444518493835	0.000333222259246918	0.000333222259246918	0	0	0	0
0	0	0	0	0	0.000333222259246918	0	0	0	0	0	0
0	0	0	0	0	0.000333222259246918	0.000333222259246918	0	0.000333222259246918	0	0	0
0	0	0	0	0	0.000333222259246918	0	0	0.000666444518493835	0.000333222259246918	0	0.00133288903698767
0	0	0	0	0	0.000333222259246918	0	0	0	0.000333222259246918	0	0
0	0	0	0	0	0.000333222259246918	0	0	0	0	0	0
0	0	0	0	0	0.000333222259246918	0	0.000333222259246918	0	0	0	0
0	0	0	0	0	0.000666444518493835	0.000333222259246918	0	0	0.000333222259246918	0	0.000333222259246918
0	0	0	0	0	0.000333222259246918	0	0	0	0	0	0
0	0	0	0	0	0.000333222259246918	0	0	0	0	0	0
0	0	0	0	0	0.000333222259246918	0	0	0	0	0	0
0	0	0	0	0	0.000333222259246918	0.000333222259246918	0	0	0	0	0
0	0	0	0	0	0.000333222259246918	0	0	0	0	0	0
0	0	0	0	0	0.000333222259246918	0	0	0	0	0	0
0	0	0	0	0	0.000333222259246918	0.000666444518493835	0.000666444518493835	0.000333222259246918	0.000999666777740753	0	0.00133288903698767
0	0	0	0	0	0.000333222259246918	0	0	0	0	0	0
0	0	0	0	0	0.000333222259246918	0	0	0	0	0	0
0	0	0	0	0	0.000333222259246918	0	0	0	0	0	0
0	0	0	0	0	0.000333222259246918	0	0	0	0	0	0
0	0	0	0	0	0.000333222259246918	0.000333222259246918	0	0	0	0	0
0	0	0	0	0	0.000333222259246918	0	0	0.000666444518493835	0.000333222259246918	0.000333222259246918	0
0	0	0	0	0	0.000333222259246918	0.000333222259246918	0.000333222259246918	0.000333222259246918	0	0	0.000333222259246918
0	0	0	0	0	0.000333222259246918	0	0	0	0	0	0
0	0	0	0	0	0.000333222259246918	0	0	0	0	0.000666444518493835	0
0	0	0	0	0	0.000333222259246918	0	0	0	0	0	0.000333222259246918
0	0	0	0	0	0.000333222259246918	0	0	0	0	0	0
0	0	0	0	0	0.000333222259246918	0	0	0	0	0.000333222259246918	0
0	0	0	0	0	0.000333222259246918	0	0.000333222259246918	0	0	0	0.000333222259246918
0	0	0	0	0	0.000333222259246918	0	0	0	0	0	0
0	0	0	0	0	0.000333222259246918	0	0	0	0	0.000333222259246918	0
0	0	0	0	0	0.000333222259246918	0	0	0	0	0	0
0	0	0	0	0	0.000333222259246918	0	0	0	0	0	0
0	0	0	0	0	0.000333222259246918	0	0	0	0	0	0
0	0	0	0	0	0	0.000666444518493835	0.000333222259246918	0.000333222259246918	0	0.000666444518493835	0
0	0	0	0	0	0	0.000333222259246918	0	0	0	0.000333222259246918	0.000666444518493835
0	0	0	0	0	0	0.000333222259246918	0	0	0	0	0
0	0	0	0	0	0	0.000333222259246918	0	0	0	0	0
0	0	0	0	0	0	0.000666444518493835	0.000333222259246918	0.000333222259246918	0.000333222259246918	0	0
0	0	0	0	0	0	0.000333222259246918	0	0	0	0.000333222259246918	0
0	0	0	0	0	0	0.000333222259246918	0	0	0	0.000333222259246918	0
0	0	0	0	0	0	0.000333222259246918	0.000333222259246918	0.000666444518493835	0.000333222259246918	0	0.000666444518493835
0	0	0	0	0	0	0.000333222259246918	0	0	0	0	0
0	0	0	0	0	0	0.000666444518493835	0	0.000333222259246918	0	0	0.000333222259246918
0	0	0	0	0	0	0.000333222259246918	0	0.000666444518493835	0.000333222259246918	0.000666444518493835	0
0	0	0	0	0	0	0.000333222259246918	0	0	0	0.000666444518493835	0
0	0	0	0	0	0	0.000333222259246918	0.000333222259246918	0	0	0	0
0	0	0	0	0	0	0.000333222259246918	0	0	0	0	0
0	0	0	0	0	0	0.000333222259246918	0	0	0	0.000333222259246918	0.000666444518493835
0	0	0	0	0	0	0.000666444518493835	0	0	0	0	0
0	0	0	0	0	0	0.000333222259246918	0.000333222259246918	0	0	0	0
0	0	0	0	0	0	0.000333222259246918	0.000333222259246918	0	0	0.000333222259246918	0.000333222259246918
0	0	0	0	0	0	0.000333222259246918	0	0	0	0	0
0	0	0	0	0	0	0.000333222259246918	0.000666444518493835	0	0	0	0.000333222259246918
0	0	0	0	0	0	0.000333222259246918	0	0	0	0	0
0	0	0	0	0	0	0.000333222259246918	0	0	0	0	0
0	0	0	0	0	0	0.000333222259246918	0	0	0	0	0
0	0	0	0	0	0	0.000333222259246918	0	0	0.000333222259246918	0	0
0	0	0	0	0	0	0.000666444518493835	0	0	0	0.000333222259246918	0
0	0	0	0	0	0	0.000333222259246918	0	0	0	0	0
0	0	0	0	0	0	0.000333222259246918	0	0	0	0	0
0	0	0	0	0	0	0.000333222259246918	0.000333222259246918	0.000333222259246918	0	0.000333222259246918	0
0	0	0	0	0	0	0.000333222259246918	0	0	0	0	0
0	0	0	0	0	0	0.000333222259246918	0	0	0	0	0
0	0	0	0	0	0	0.000333222259246918	0.000333222259246918	0	0	0	0
0	0	0	0	0	0	0.000333222259246918	0	0	0	0	0
0	0	0	0	0	0	0.000333222259246918	0	0	0	0	0
0	0	0	0	0	0	0.000333222259246918	0	0	0	0	0
0	0	0	0	0	0	0.000333222259246918	0	0	0	0.000333222259246918	0
0	0	0	0	0	0	0.000333222259246918	0	0	0	0.000333222259246918	0.000333222259246918
0	0	0	0	0	0	0.000333222259246918	0	0	0	0	0
0	0	0	0	0	0	0.000333222259246918	0	0	0	0	0
0	0	0	0	0	0	0.000333222259246918	0	0	0	0	0
0	0	0	0	0	0	0.000333222259246918	0	0	0	0	0.000333222259246918
0	0	0	0	0	0	0	0.000333222259246918	0	0.000333222259246918	0	0
0	0	0	0	0	0	0	0.000333222259246918	0	0	0	0
0	0	0	0	0	0	0	0.000333222259246918	0	0.000333222259246918	0	0
0	0	0	0	0	0	0	0.000333222259246918	0	0	0.000333222259246918	0.000333222259246918
0	0	0	0	0	0	0	0.000333222259246918	0	0	0	0
0	0	0	0	0	0	0	0.000333222259246918	0	0	0	0
0	0	0	0	0	0	0	0.000333222259246918	0	0	0	0
0	0	0	0	0	0	0	0.000333222259246918	0	0	0	0
0	0	0	0	0	0	0	0.000333222259246918	0	0	0	0
0	0	0	0	0	0	0	0.000333222259246918	0.000333222259246918	0	0.000333222259246918	0
0	0	0	0	0	0	0	0.000333222259246918	0	0.000333222259246918	0.000333222259246918	0
0	0	0	0	0	0	0	0.000666444518493835	0.000333222259246918	0	0	0
0	0	0	0	0	0	0	0.000333222259246918	0	0	0.000333222259246918	0.000333222259246918
0	0	0	0	0	0	0	0.000333222259246918	0	0.000333222259246918	0.000333222259246918	0
0	0	0	0	0	0	0	0.000333222259246918	0.000333222259246918	0	0	0
0	0	0	0	0	0	0	0.000333222259246918	0	0.000333222259246918	0.000333222259246918	0
0	0	0	0	0	0	0	0.000333222259246918	0	0	0	0
0	0	0	0	0	0	0	0.000333222259246918	0	0	0	0
0	0	0	0	0	0	0	0	0.000333222259246918	0	0.000333222259246918	0
0	0	0	0	0	0	0	0	0.000333222259246918	0.000333222259246918	0	0
0	0	0	0	0	0	0	0	0.000333222259246918	0	0	0
0	0	0	0	0	0	0	0	0.000333222259246918	0	0	0
0	0	0	0	0	0	0	0	0.000333222259246918	0.000333222259246918	0	0
0	0	0	0	0	0	0	0	0.000333222259246918	0.000333222259246918	0	0
0	0	0	0	0	0	0	0	0.000333222259246918	0	0	0
0	0	0	0	0	0	0	0	0.000333222259246918	0	0.000333222259246918	0
0	0	0	0	0	0	0	0	0.000333222259246918	0	0	0
0	0	0	0	0	0	0	0	0.000333222259246918	0	0	0
0	0	0	0	0	0	0	0	0.000333222259246918	0	0	0
0	0	0	0	0	0	0	0	0.000333222259246918	0	0	0
0	0	0	0	0	0	0	0	0.000333222259246918	0.000333222259246918	0.000333222259246918	0
0	0	0	0	0	0	0	0	0.000333222259246918	0	0	0
0	0	0	0	0	0	0	0	0.000333222259246918	0	0	0
0	0	0	0	0	0	0	0	0	0.000333222259246918	0	0
0	0	0	0	0	0	0	0	0	0.000333222259246918	0	0
0	0	0	0	0	0	0	0	0	0.000333222259246918	0	0
0	0	0	0	0	0	0	0	0	0.000333222259246918	0	0
0	0	0	0	0	0	0	0	0	0.000333222259246918	0	0.000333222259246918
0	0	0	0	0	0	0	0	0	0.000333222259246918	0	0
0	0	0	0	0	0	0	0	0	0.000333222259246918	0	0
0	0	0	0	0	0	0	0	0	0.000333222259246918	0	0
0	0	0	0	0	0	0	0	0	0.000333222259246918	0	0
0	0	0	0	0	0	0	0	0	0.000333222259246918	0	0
0	0	0	0	0	0	0	0	0	0.000333222259246918	0	0
0	0	0	0	0	0	0	0	0	0.000333222259246918	0	0
0	0	0	0	0	0	0	0	0	0.000333222259246918	0	0
0	0	0	0	0	0	0	0	0	0.000333222259246918	0	0
0	0	0	0	0	0	0	0	0	0.000333222259246918	0	0
0	0	0	0	0	0	0	0	0	0.000333222259246918	0.000333222259246918	0
0	0	0	0	0	0	0	0	0	0	0.000333222259246918	0.000333222259246918
0	0	0	0	0	0	0	0	0	0	0.000333222259246918	0
0	0	0	0	0	0	0	0	0	0	0.000333222259246918	0
0	0	0	0	0	0	0	0	0	0	0.000333222259246918	0
0	0	0	0	0	0	0	0	0	0	0.000333222259246918	0
0	0	0	0	0	0	0	0	0	0	0.000333222259246918	0
0	0	0	0	0	0	0	0	0	0	0.000333222259246918	0
0	0	0	0	0	0	0	0	0	0	0.000333222259246918	0
0	0	0	0	0	0	0	0	0	0	0.000333222259246918	0
0	0	0	0	0	0	0	0	0	0	0.000333222259246918	0
0	0	0	0	0	0	0	0	0	0	0.000333222259246918	0
0	0	0	0	0	0	0	0	0	0	0.000333222259246918	0
0	0	0	0	0	0	0	0	0	0	0.000333222259246918	0
0	0	0	0	0	0	0	0	0	0	0.000333222259246918	0
0	0	0	0	0	0	0	0	0	0	0.000333222259246918	0
0	0	0	0	0	0	0	0	0	0	0.000333222259246918	0.000333222259246918
0	0	0	0	0	0	0	0	0	0	0.000333222259246918	0
0	0	0	0	0	0	0	0	0	0	0	0.000333222259246918
0	0	0	0	0	0	0	0	0	0	0	0.000333222259246918
0	0	0	0	0	0	0	0	0	0	0	0.000666444518493835
0	0	0	0	0	0	0	0	0	0	0	0.000333222259246918
0	0	0	0	0	0	0	0	0	0	0	0.000333222259246918
0	0	0	0	0	0	0	0	0	0	0	0.000333222259246918
0	0	0	0	0	0	0	0	0	0	0	0.000333222259246918
