pars_sum	pars_var	pars_disp	obs_disp	sim_disp
3	0.0188069908814593	-0.0060790273556228	0.232016210739615	0.238095238095238
-18	-0.384866478506296	-0.193531786236953	0.232016210739615	0.425547996976568
11	0.203294615718628	0.144306269971164	0.199594731509625	0.0552884615384615
0	-0.0996616731799099	-0.0864691539463573	0.235351882160393	0.32182103610675
-3	-0.157088344125809	-0.10094268974935	0.167173252279635	0.268115942028985
5	0.159420289855072	0.108483983756409	0.297872340425532	0.189388356669123
3	-0.0433854392820957	-0.0514765724915706	0.234042553191489	0.28551912568306
-5	-0.122860777058279	-0.0603704941736177	0.264437689969605	0.324808184143223
3	0.102393617021277	0.06287710384249	0.296919657033979	0.234042553191489
6	0.143617021276595	0.0880410858400583	0.297872340425532	0.209831254585474
4	0.113092705167173	0.0697886078340462	0.232016210739615	0.162227602905569
-4	-0.0601932262266608	-0.0352820414162212	0.229238160603981	0.264520202020202
-9	-0.262518816037053	-0.157367367701714	0.235351882160393	0.392719249862107
0	0	0	0.232016210739615	0.232016210739615
0	-0.0288120567375882	-0.0272430485196438	0.232016210739615	0.259259259259259
-5	-0.0530829353017802	-0.0245865911134115	0.235976789168279	0.26056338028169
9	0.106742727926817	0.0623253814743176	0.234042553191489	0.171717171717172
2	-0.00369518019973952	-0.0204007618521297	0.235976789168279	0.256377551020408
-3	0.139698581560284	0.0996235679214403	0.32962356792144	0.23
4	-0.0213985381386596	-0.0399662921163743	0.203927986906711	0.243894279023085
0	-0.071446663771892	-0.0595772384751775	0.234042553191489	0.293619791666667
4	0.0354609929078013	0.0127659574468084	0.234042553191489	0.221276595744681
-3	-0.0943244319004196	-0.0649254705105768	0.199594731509625	0.264520202020202
-1	0.0172988131422782	0.00917181346474477	0.192186955005232	0.183015141540487
1	-0.0111944565060064	-0.0205618090116569	0.203927986906711	0.224489795918367
8	0.0709219858156026	0.0304141932902019	0.205029013539652	0.17461482024945
3	-0.00930851063829788	-0.0176442995802413	0.192186955005232	0.209831254585473
10	0.11339166409703	0.0636347104432213	0.235351882160393	0.171717171717172
-6	2.22044604925031e-16	0.0172107720900209	0.192186955005232	0.174976182915211
-2	-0.0338008394847301	-0.0281960416287311	0.196293754289636	0.224489795918367
-5	0.104727529309596	0.0898053370284284	0.264437689969605	0.174632352941176
6	0.11732884643219	0.0695310589386157	0.234042553191489	0.164511494252874
-8	-0.222214864669272	-0.13741951099656	0.203927986906711	0.341347497903271
2	0.0740790997249963	0.0469069211221286	0.232016210739615	0.185109289617486
-4	-0.0136235345201912	-0.000638819357530324	0.234042553191489	0.23468137254902
-1	-0.0373154580981328	-0.0297025392603849	0.232016210739615	0.26171875
4	0.0553716167317991	0.0250953067848128	0.232016210739615	0.206920903954802
4	0.0815602836879435	0.0506242165095394	0.232016210739615	0.181391994230076
5	0.0724236503111884	0.0405919999036713	0.196293754289636	0.155701754385965
4	0.0631151396728907	0.0364852006192672	0.192186955005232	0.155701754385965
3	0.0661566541510225	0.0276099466765221	0.235351882160393	0.207741935483871
-5	0.0171877261542919	0.0252580611014935	0.229238160603981	0.203980099502487
5	0.183537776812853	0.121636888525187	0.266775777414075	0.145138888888889
-7	-0.133910095953275	-0.0874123606889562	0.232016210739615	0.319428571428571
-2	-0.0440819944999276	-0.03043410490219	0.264437689969605	0.294871794871795
8	0.0606113166820849	0.0225372368514687	0.235351882160393	0.212814645308924
7	0.104093211752786	0.0624433423985495	0.170212765957447	0.107769423558897
3	0.164052323056882	0.106505288351548	0.32962356792144	0.223118279569893
-12	-0.179521276595745	-0.0730124485443634	0.298199672667758	0.371212121212121
10	0.25177304964539	0.178126971382692	0.264437689969605	0.0863107185869129
4	-0.0531914893617019	-0.0572885084918568	0.235351882160393	0.29264039065225
7	0.144060283687943	0.0892043405566667	0.235976789168279	0.146772448611612
-13	-0.177006440874221	-0.07136524822695	0.266775777414075	0.338141025641025
-11	-0.142178679982631	-0.0617972406466246	0.235351882160393	0.297149122807018
2	-0.299549028677151	-0.233049602061294	0.199594731509625	0.432644333570919
4	0.116403242147923	0.0780671533044146	0.196293754289636	0.118226600985222
8	0.110391612704286	0.0647878948063961	0.234042553191489	0.169254658385093
2	0.0995077179808093	0.05920384351407	0.234042553191489	0.174838709677419
6	0.0531914893617026	0.0193403423118537	0.235351882160393	0.216011539848539
6	0.106382978723404	0.0685756945555378	0.199594731509625	0.131019036954087
-2	-0.196866327474561	-0.132177843741211	0.199594731509625	0.331772575250836
0	0.0655261253437544	0.0414405123751627	0.234042553191489	0.192602040816327
-13	-0.0959882037921547	-0.0304775265261585	0.235351882160393	0.265829408686551
1	-0.0376773049645387	-0.0314385519212446	0.266433788504287	0.297872340425532
-9	-0.156553770444348	-0.0895316008217164	0.229238160603981	0.318769761425697
0	-0.00166875260742616	-0.0159574468085108	0.234042553191489	0.25
-4	-0.00782783326096403	-0.00174550607794727	0.199594731509625	0.201340237587572
0	0.108079316833116	0.073355405992184	0.265957446808511	0.192602040816327
-4	-0.0577236213634388	-0.0329091623947132	0.232016210739615	0.264925373134328
-3	0.00084780720798977	0.00196055211252796	0.232016210739615	0.230055658627087
-2	-0.202570921985815	-0.141146378328101	0.192186955005232	0.333333333333333
1	0.0775825010855405	0.0490010691991278	0.232016210739615	0.183015141540487
3	0.107712765957447	0.0704820231244392	0.266775777414075	0.196293754289636
-13	-0.209038934722825	-0.105928467932586	0.196293754289636	0.302222222222222
2	0.0714104790852508	0.0438543811484784	0.234042553191489	0.190188172043011
-2	-0.237164567954842	-0.176988396906151	0.235976789168279	0.41296518607443
1	0.17686170212766	0.127495908346972	0.32962356792144	0.202127659574468
-3	-0.0411086987986687	-0.0296725231852031	0.202127659574468	0.231800182759671
7	0.0713652482269503	0.0313549832026875	0.234042553191489	0.202687569988802
-2	-0.0882906354030974	-0.0654249957103638	0.196293754289636	0.26171875
9	0.131533302497687	0.0814526036542689	0.232016210739615	0.150563607085346
4	0.0671587784049792	0.0299609205384283	0.234042553191489	0.204081632653061
-5	-0.0554078014184398	-0.0248908892525914	0.266775777414075	0.291666666666667
5	0.17863475177305	0.125039304056179	0.264437689969605	0.139398385913426
3	0.079832464900854	0.0421512855709837	0.298199672667758	0.256048387096774
-11	-0.176196287025448	-0.0967533809975019	0.235351882160393	0.332105263157895
3	0.0553220437111016	0.0236042795213657	0.234042553191489	0.210438273670124
7	0.209084165581126	0.133688178414884	0.298199672667758	0.164511494252873
-1	0.121897163120567	0.0936467787531618	0.32962356792144	0.235976789168279
2	-0.0146276595744675	-0.0239073770988661	0.235351882160393	0.259259259259259
-5	-0.136399261832393	-0.0933224353571216	0.199594731509625	0.292917166866747
1	-0.0749113475177303	-0.0631321939309382	0.192186955005232	0.25531914893617
-3	-0.105689176688252	-0.0531043451447264	0.297872340425532	0.350976685570258
2	0.0297438124185841	0.0109242736215966	0.234042553191489	0.223118279569893
11	0.0468393462843049	0.00385387394620654	0.234042553191489	0.230188679245283
-2	-0.0211691697955779	-0.0225591146442211	0.199594731509625	0.222153846153846
-7	0.0817050224345058	0.0708794155960256	0.295369211514393	0.224489795918367
-2	-0.000986032710956541	0.00185040427974703	0.266775777414075	0.264925373134328
-5	-0.0460617438464747	-0.031765947202901	0.196293754289636	0.228059701492537
1	0.0693660442900565	0.0397444500787966	0.235976789168279	0.196232339089482
-1	-0.03831958315241	-0.029923622476814	0.202127659574468	0.232051282051282
-7	-0.034131205673759	-0.000202634245187572	0.232016210739615	0.232218844984803
1	0.0330955999421049	0.0103982263936674	0.266775777414075	0.256377551020408
4	0.0705395136778117	0.0373671286040562	0.199594731509625	0.162227602905569
-9	-0.16392567665364	-0.099358234499141	0.192186955005232	0.291545189504373
3	-0.0442719641047911	-0.0499215207534009	0.202127659574468	0.252049180327869
-6	-0.154255319148936	-0.0884498480243162	0.202127659574468	0.290577507598784
-2	-0.170855044145318	-0.126687319772426	0.199594731509625	0.326282051282051
-1	-0.0246779562888986	-0.0249841344066268	0.234042553191489	0.259026687598116
-8	-0.156028368794326	-0.0780141843971632	0.234042553191489	0.312056737588652
12	0.247475331483195	0.165873398414896	0.266775777414075	0.10090237899918
3	0.0566026827012026	0.0378133121888904	0.232016210739615	0.194202898550725
3	0.0539623805118716	0.0343109749624664	0.265957446808511	0.231646471846044
3	-0.019946808510638	-0.0268306847579323	0.235351882160393	0.262182566918325
1	0.0656571139093935	0.0441288709864944	0.229238160603981	0.185109289617486
-1	0.110795786399666	0.077641210739615	0.232016210739615	0.154375
-5	0.0286029092488057	0.0291350582786305	0.232016210739615	0.202881152460985
2	-0.14325517441019	-0.120491819793681	0.205029013539652	0.325520833333333
6	0.118530938431493	0.0819187448526754	0.232016210739615	0.15009746588694
4	0.109711969894341	0.0618758141554496	0.265957446808511	0.204081632653061
2	0.0367545954552036	0.0198705708244412	0.192186955005232	0.172316384180791
-18	-0.342537546933667	-0.175391196667793	0.232016210739615	0.407407407407408
-7	-0.0628256621797655	-0.0303744598143209	0.232016210739615	0.262390670553936
-6	-0.0553702544847722	-0.035872746487305	0.192186955005232	0.228059701492537
-6	-0.256396367057461	-0.169649555034203	0.235351882160393	0.405001437194596
-6	-0.0638297872340429	-0.0312056737588655	0.202127659574468	0.233333333333333
-11	-0.257308221160805	-0.133319504044188	0.32962356792144	0.462943071965629
9	0.195995078882617	0.142000338810237	0.196293754289636	0.0542934154793993
-10	-0.277265161383702	-0.159921889975081	0.202127659574468	0.362049549549549
3	0.081614560717904	0.0489332635740029	0.234042553191489	0.185109289617486
-3	-0.121758575770734	-0.0874879932630692	0.205029013539652	0.292517006802721
6	0.128893000308356	0.0856167660850426	0.234042553191489	0.148425787106447
8	0.194827399044724	0.134288938012342	0.232016210739615	0.0977272727272727
-2	0.00875235200463165	0.00474836468561343	0.229238160603981	0.224489795918367
-1	0.0586915617310754	0.0383279334647116	0.265957446808511	0.227629513343799
10	0.166458604718483	0.106200714179438	0.20392798690671	0.0977272727272727
1	0.0203900709219861	0.00719070133963778	0.234042553191489	0.226851851851851
9	0.210950571718049	0.13914196962395	0.235351882160393	0.0962099125364432
6	0.0339955130988568	-0.000871239911958727	0.234042553191489	0.234913793103448
1	-0.0766843971631207	-0.0625878354087003	0.199594731509625	0.262182566918325
-11	-0.180886162975828	-0.0933269577966423	0.235351882160393	0.328678839957035
3	0.0535851787523521	0.0251453912573053	0.202127659574468	0.176982268317163
-8	-0.216574395715732	-0.120718746692071	0.235947919974595	0.356666666666666
7	0.126329787234043	0.0852686092219381	0.196293754289636	0.111025145067698
7	0.0213536848596976	-0.00554444809167154	0.229238160603981	0.234782608695652
-9	-0.0263786365610078	0.00687360341979962	0.234042553191489	0.22716894977169
6	0.095359235275979	0.0635297791343567	0.196293754289636	0.13276397515528
4	-0.02281837804502	-0.0282762873882207	0.234042553191489	0.26231884057971
3	-0.0624999999999993	-0.0597750910722765	0.235351882160393	0.29512697323267
8	0.184397163120567	0.104130162703379	0.32540675844806	0.221276595744681
-1	0.0581151396728905	0.0420882058281418	0.192186955005232	0.15009874917709
6	0.058510638297872	0.0242112986060159	0.234042553191489	0.209831254585473
8	0.187056737588652	0.124667553191489	0.234042553191489	0.109375
3	0.107094731509625	0.0739603540200104	0.192186955005232	0.118226600985222
-2	0.0213840216937837	0.00986236458576867	0.232016210739615	0.222153846153846
-1	0.0552178318135764	0.0372924947393032	0.202127659574468	0.164835164835165
-1	-0.105284458834413	-0.0689348762169068	0.232016210739615	0.300951086956522
-8	-0.0350177304964542	0.00775446416056946	0.352451433857539	0.34469696969697
-6	0.0212765957446812	0.0422396901869484	0.32962356792144	0.287383877734492
7	0.124175146469318	0.0799925345278088	0.265957446808511	0.185964912280702
2	0.00365352523988316	-0.0166917947089431	0.205462051444903	0.222153846153846
-10	-0.214203213200173	-0.115459967963567	0.266924564796905	0.382384532760472
-3	-0.17927702996092	-0.129988296992415	0.196293754289636	0.326282051282051
4	0.0319148936170213	0.00968044860615491	0.235351882160393	0.225671433554238
-1	-0.0373154580981329	-0.029702539260385	0.232016210739615	0.26171875
10	0.0604126370083816	0.0278852353320438	0.202127659574468	0.174242424242424
-10	-0.269167752207266	-0.158676696670618	0.234042553191489	0.392719249862107
-2	0.000560862642929705	0.00314194826866926	0.297872340425532	0.294730392156863
-2	0.0478318135764945	0.0355794685753505	0.196293754289636	0.160714285714286
0	-0.0553716167317987	-0.0550185376933094	0.298199672667758	0.353218210361067
4	-3.33066907387547e-16	-0.0135375002958373	0.196293754289636	0.209831254585474
-11	-0.139519105514546	-0.0481176601487353	0.32962356792144	0.377741228070176
-12	-0.109596370463079	-0.0495837892603849	0.232016210739615	0.2816
1	0.00664893617021317	0.0018003273322425	0.203927986906711	0.202127659574468
-9	-0.060692532332082	-0.0285572719323814	0.202127659574468	0.230684931506849
-16	-0.411347517730496	-0.212871548492688	0.196293754289636	0.409165302782324
-5	-0.364708603145236	-0.223017526570575	0.205029013539652	0.428046540110227
-8	-0.159435880735272	-0.100330051797489	0.192186955005232	0.292517006802721
-5	-0.0856317846287455	-0.0518451966287921	0.266924564796905	0.318769761425697
3	0.136954696772326	0.0905162902272872	0.234042553191489	0.143526262964202
0	0.109931610942249	0.0762290731895595	0.264437689969605	0.188208616780045
1	-0.0136614759995889	-0.00353700672849611	0.235351882160393	0.238888888888889
-10	-0.227212693588073	-0.121314784506273	0.235351882160393	0.356666666666666
4	0.193081487914314	0.127804313214647	0.297872340425532	0.170068027210884
3	0.126800188160371	0.0868773218507261	0.232016210739615	0.145138888888889
-10	-0.0713970907511942	-0.0254621230596582	0.232016210739615	0.257478333799273
-9	-0.214095744680851	-0.11568242674993	0.229238160603981	0.34492058735391
0	0.0655261253437544	0.0414405123751627	0.234042553191489	0.192602040816327
-1	0.0171743378202344	0.00752641482124761	0.232016210739615	0.224489795918367
8	0.105014646931853	0.0628143332072444	0.203927986906711	0.141113653699466
-2	-0.00418837747865097	-0.00104629413140048	0.199594731509625	0.200641025641026
-16	-0.580140034737299	-0.314076128319627	0.203927986906711	0.518004115226337
-2	-0.0567375886524824	-0.0347595666744603	0.232016210739615	0.266775777414075
-2	-0.0322134172818063	-0.0270104768585011	0.232016210739615	0.259026687598116
0	-5.55111512312578e-17	-5.55111512312578e-17	0.234042553191489	0.234042553191489
-4	-0.131760023158199	-0.0956048233232268	0.196293754289636	0.291898577612863
-3	0.0550020859407594	0.0378977453159735	0.265957446808511	0.228059701492537
5	0.151460052105949	0.102705865912029	0.232016210739615	0.129310344827586
-10	-0.216646765089014	-0.12588816236566	0.192186955005232	0.318075117370892
2	0.085117962078448	0.0510274116510019	0.234042553191489	0.183015141540487
3	0.0678191489361699	0.0418555981862572	0.234042553191489	0.192186955005232
9	0.0837765957446809	0.0332892191794767	0.235976789168279	0.202687569988802
-3	-0.137610363294254	-0.0985780405821585	0.196293754289636	0.294871794871795
-3	0.0445241713706762	0.0338826201511703	0.266775777414075	0.232893157262905
2	0.0784212621218703	0.0544750905984525	0.192186955005232	0.13771186440678
2	0.0124113475177304	0.00193423597678907	0.235976789168279	0.234042553191489
-1	0.0569546967723259	0.0378102141020074	0.234042553191489	0.196232339089482
-5	-0.0979609929078012	-0.0563147845062737	0.235351882160393	0.291666666666667
-12	-0.241397090751194	-0.124650455927052	0.232016210739615	0.356666666666667
2	0.00348530901722333	-0.0148053730757922	0.234042553191489	0.248847926267281
-1	-0.00753546099290769	-0.00202634245187427	0.232016210739615	0.234042553191489
3	0.0363927485887975	0.0122336025905005	0.235351882160393	0.223118279569892
6	0.067014852502827	0.0391183605031426	0.235351882160393	0.19623352165725
-13	-0.0708847155883631	-0.0105354571839935	0.264437689969605	0.274973147153598
-5	-0.152039007092199	-0.0888066604995375	0.234042553191489	0.322849213691027
1	0.115730206976408	0.0782278463563743	0.234042553191489	0.155814706835115
4	-1.11022302462516e-16	-0.0135375002958371	0.196293754289636	0.209831254585473
4	0.172483355044145	0.11513643315178	0.266775777414075	0.151639344262295
-1	0.0876845419018673	0.0660005857396151	0.232016210739615	0.166015625
-4	-0.0954461571862783	-0.0599609019821783	0.203927986906711	0.263888888888889
8	0.123111316682085	0.0786745535186347	0.229238160603981	0.150563607085346
2	-0.0555504162812213	-0.0400396553038971	0.262182566918325	0.302222222222222
8	0.127659574468085	0.0805471124620061	0.202127659574468	0.121580547112462
-3	-0.0172872340425534	-0.0019053667831059	0.234042553191489	0.235947919974595
5	0.0681267187726157	0.0323035670614543	0.232016210739615	0.199712643678161
0	0.0655261253437543	0.0414405123751627	0.234042553191489	0.192602040816327
-3	0.0848140107106672	0.0646172092209383	0.265957446808511	0.201340237587572
-1	-0.0492021276595748	-0.0327332242225861	0.234042553191489	0.266775777414075
-2	-0.114065711390939	-0.0887774839142621	0.234042553191489	0.322820037105751
6	-0.105375680953849	-0.0951903480883672	0.202127659574468	0.297318007662835
-4	0.00236024196912837	0.00198279121111788	0.199594731509625	0.197611940298507
0	0	0	0.235976789168279	0.235976789168279
2	-0.0119228542480825	-0.0220058339052851	0.234042553191489	0.256048387096774
5	-0.089982269503546	-0.0876113771125978	0.205029013539652	0.29264039065225
0	-0.10952949943468	-0.0716574730759127	0.199594731509625	0.271252204585538
-3	-0.0831885945867707	-0.0627329333084798	0.196293754289636	0.259026687598116
0	0.0951024026631931	0.0661347517730498	0.266775777414075	0.200641025641026
3	0.0851335214937039	0.0528495440729483	0.232016210739615	0.179166666666667
-4	-0.0750865665415104	-0.0569390131409822	0.232016210739615	0.288955223880597
4	0.215036546533507	0.146560328405463	0.298199672667758	0.151639344262295
-11	-0.0393229845129539	0.00924749311992445	0.327405525563671	0.318158032443747
1	0.0203900709219859	0.00719070133963762	0.234042553191489	0.226851851851852
1	0.114728253003329	0.0741737365977489	0.266775777414075	0.192602040816327
5	0.108549717759444	0.0589945208511157	0.235976789168279	0.176982268317163
-3	-0.201491674375578	-0.130444794182074	0.199594731509625	0.330039525691699
-5	-0.0916167317991025	-0.0584744536112316	0.234042553191489	0.292517006802721
4	-0.0138567684242984	-0.0206276903036924	0.192186955005232	0.212814645308924
-4	-0.0483905051382253	-0.0317389575159943	0.229238160603981	0.260977118119975
5	0.124825227963526	0.0813681305244035	0.199594731509625	0.118226600985222
2	-0.0230496453900709	-0.0249828414550446	0.196293754289636	0.221276595744681
-3	-0.298017079172094	-0.206806735252618	0.205029013539652	0.41183574879227
8	0.120567375886525	0.0684985786889485	0.235351882160393	0.166853303471445
1	0.0213218266029815	0.00940655946661428	0.199594731509625	0.190188172043011
-8	-0.0730297438124184	-0.028547169542075	0.232016210739615	0.26056338028169
0	0.026607323780576	0.013278612749149	0.196293754289636	0.183015141540487
-1	-0.0373154580981329	-0.029702539260385	0.232016210739615	0.26171875
7	0.0651595744680854	0.0293131666572608	0.203927986906711	0.17461482024945
6	0.127277102330294	0.0731242792548242	0.235351882160393	0.162227602905569
-5	0.069419235779418	0.0591470630805513	0.232016210739615	0.172869147659064
0	-0.0142542336083371	-0.0209802259302911	0.232016210739615	0.252996436669906
-9	-0.157177232595165	-0.0787336063266911	0.264437689969605	0.343171296296296
-8	-0.192194963091619	-0.109128743104807	0.234042553191489	0.343171296296296
-6	-0.063188594586771	-0.036599402973269	0.196293754289636	0.232893157262905
1	-0.0775709219858157	-0.0623100303951369	0.202127659574468	0.264437689969605
4	-0.0070921985815604	-0.0191489361702128	0.202127659574468	0.221276595744681
3	-0.0280474743088722	-0.0417666194486163	0.202127659574468	0.243894279023084
-11	-0.209002750036185	-0.10980293528643	0.229238160603981	0.339041095890411
12	0.148936170212766	0.0908346972176758	0.202127659574468	0.111292962356792
-4	0.0256097119698944	0.0280361112371275	0.232016210739615	0.203980099502488
0	0.00531914893617014	-0.00111448834853092	0.232218844984802	0.233333333333333
10	0.155944855586392	0.095058605696904	0.266775777414076	0.171717171717172
2	-0.15129217709005	-0.106299176930499	0.167173252279635	0.273472429210134
11	0.231749152019735	0.154054360344832	0.266775777414075	0.112721417069243
2	0.0784212621218703	0.0544750905984525	0.192186955005232	0.13771186440678
8	0.060611316682085	0.0225372368514687	0.235351882160393	0.212814645308924
9	0.0962843046561827	0.0568351816891442	0.196293754289636	0.139458572600492
3	0.0678191489361696	0.0387164283222877	0.297872340425532	0.259155912103244
-6	-0.146276595744681	-0.0867907801418442	0.234042553191489	0.320833333333334
11	0.19827320382362	0.13314017419231	0.234042553191489	0.10090237899918
1	-0.0440049211173829	-0.0476005247334483	0.196293754289636	0.243894279023085
0	0.0315294480419364	0.0279908089880934	0.196293754289636	0.168302945301543
5	0.118891301201332	0.0744901638982314	0.202127659574468	0.127637495676237
-2	-0.170122304240845	-0.124261229314421	0.202127659574468	0.326388888888889
-6	-0.168419899874844	-0.117549006651689	0.232016210739615	0.349565217391304
2	-0.0248226950354611	-0.0271397013636289	0.232016210739615	0.259155912103244
3	-0.0994897959183674	-0.0909879336349925	0.235294117647059	0.326282051282051
1	0.0222083514256764	0.00889793116972235	0.232016210739615	0.223118279569893
-1	0.0460178752352006	0.0340995440729484	0.232016210739615	0.197916666666667
0	-0.0586597192068318	-0.0542498914459402	0.202127659574468	0.256377551020408
-1	-0.0377768128528005	-0.0289485839660497	0.235976789168279	0.264925373134328
10	0.190737742830712	0.131113831740435	0.232016210739615	0.10090237899918
0	0.0673784194528876	0.0438075939595697	0.232016210739615	0.188208616780045
6	0.106382978723404	0.0651629072681705	0.232016210739615	0.166853303471445
8	0.145390070921986	0.088209219858156	0.234042553191489	0.145833333333333
-3	-0.220943696627587	-0.161398553402671	0.196293754289636	0.357692307692308
8	0.170068027210884	0.0992396958783513	0.235294117647059	0.136054421768708
-5	-0.0955829353017804	-0.0633104305552008	0.199594731509625	0.262905162064826
-1	0.045212765957447	0.0342567172525993	0.196293754289636	0.162037037037037
-3	-0.0423722680561585	-0.0313357590541627	0.196293754289636	0.227629513343799
7	0.208197640758431	0.137465432586489	0.266775777414075	0.129310344827586
0	0.095988927485888	0.0661483906164758	0.298199672667758	0.232051282051282
9	0.152039007092199	0.0895185488270597	0.235351882160393	0.145833333333333
6	0.132978723404255	0.0704061895551257	0.359767891682785	0.28936170212766
3	0.0199468085106383	0.00248687482730037	0.266924564796905	0.264437689969605
-8	-0.0829745515227366	-0.0415871190339275	0.297872340425532	0.339459459459459
3	0.0305851063829789	0.0132266207554415	0.229238160603981	0.216011539848539
2	0.0220609094701713	-0.0075909402882634	0.265957446808511	0.273548387096774
-3	0.0153097622027534	0.00807405360596847	0.264437689969605	0.256363636363636
5	0.161444492690693	0.106405057515253	0.234042553191489	0.127637495676237
4	0.0038214434710056	-0.0279574468085104	0.234042553191489	0.262
1	0.0629884932696481	0.042336666993496	0.199594731509625	0.157258064516129
0	0.0636036329425391	0.0391195430709111	0.235351882160393	0.196232339089482
6	0.0428615479494292	0.0184694886599251	0.202127659574468	0.183658170914543
-4	-0.00467795628889878	0.00114939592858404	0.234042553191489	0.232893157262905
-10	-0.158914097553915	-0.0790568486211158	0.232016210739615	0.311073059360731
5	0.119237588652483	0.0828119550052321	0.192186955005232	0.109375
1	0.00753546099290769	0.00202634245187427	0.234042553191489	0.232016210739615
0	0.0316258094357079	0.0284275288900637	0.232016210739615	0.203588681849551
-3	-0.110372340425532	-0.0737704918032785	0.192186955005232	0.265957446808511
8	0.195713923867419	0.12958920512112	0.264437689969605	0.134848484848485
-1	-0.0492021276595748	-0.0322422258592474	0.265957446808511	0.298199672667758
-7	-0.0220093356491534	-0.00121994086388361	0.232016210739615	0.233236151603499
-5	-0.132433058329715	-0.0880515018218204	0.234042553191489	0.32209405501331
4	0.078014184397163	0.0489361702127659	0.202127659574468	0.153191489361702
-1	-0.0917553191489364	-0.0641571194762685	0.234042553191489	0.298199672667758
-3	-0.0172872340425533	-0.00190536678310588	0.234042553191489	0.235947919974595
-1	0.00423360833695174	0.00199127114020725	0.234042553191489	0.232051282051282
1	0.0509751773049645	0.0357224564499788	0.232016210739615	0.196293754289636
6	0.195442538717615	0.129063913007296	0.266775777414075	0.13771186440678
-1	0.00523773339122879	0.00271893996960482	0.264437689969605	0.26171875
1	-0.0647977276016788	-0.0582679095062738	0.235351882160393	0.293619791666667
-1	-0.0500886524822694	-0.0339412360688956	0.232016210739615	0.265957446808511
1	-0.0599804707575288	-0.0401361182058099	0.196293754289636	0.236429872495446
-8	-0.25531914893617	-0.152642415923129	0.196293754289636	0.348936170212766
-5	-0.0451675350991458	-0.0225000357870526	0.298199672667758	0.320699708454811
-1	0.0569546967723259	0.0378102141020074	0.234042553191489	0.196232339089482
0	0.00999601968446989	0.00328696126568492	0.203927986906711	0.200641025641026
8	0.160210453283996	0.108696052636848	0.232016210739615	0.123320158102767
5	0.141183771380893	0.093387834957901	0.199594731509625	0.106206896551724
-5	-0.093353596757852	-0.0608122990176644	0.202127659574468	0.262939958592132
-7	0.0188069908814588	0.0279345780865536	0.232016210739615	0.204081632653061
3	-0.0909561619899266	-0.068590770169356	0.235351882160393	0.303942652329749
0	-0.0586597192068317	-0.0542498914459401	0.202127659574468	0.256377551020408
-3	-0.00132978723404259	0.00657219223033767	0.327405525563671	0.320833333333334
1	-0.0629432624113473	-0.0576241134751771	0.234042553191489	0.291666666666666
3	0.0678191489361699	0.0418555981862572	0.234042553191489	0.192186955005232
4	0.102787306411927	0.0583696138432302	0.235351882160393	0.176982268317163
8	0.163120567375887	0.104332845206306	0.235351882160393	0.131019036954087
-2	0.0397941091330155	0.0313717826579056	0.235351882160393	0.203980099502487
2	0.179078014184397	0.121287973603368	0.295369211514393	0.174081237911025
2	0.0324124330583296	0.0134369757669374	0.232016210739615	0.218579234972678
-13	-0.1002920317063	-0.0353412544901909	0.265957446808511	0.301298701298701
-4	-0.0121128238529452	-0.000782158020825763	0.203927986906711	0.204710144927536
-1	-0.0789821247647995	-0.0616035809270517	0.232016210739615	0.293619791666667
7	0.138555486024197	0.0794620514449033	0.205462051444903	0.126
3	0.0532107616404565	0.0340896100706313	0.235351882160393	0.201262272089762
-4	-0.0954461571862783	-0.0599609019821782	0.203927986906711	0.263888888888889
8	0.12974019394992	0.071465294915405	0.235976789168279	0.164511494252874
12	0.234042553191489	0.1620294599018	0.234042553191489	0.0720130932896891
0	0.0534357359965266	0.0347244953627934	0.266775777414075	0.232051282051282
-3	0.0966332916145184	0.0665679925994451	0.297872340425532	0.231304347826087
2	0.0195035460992908	0.00905971173644479	0.196293754289636	0.187234042553191
0	0.0673784194528876	0.0438075939595697	0.232016210739615	0.188208616780045
1	0.0647705890866985	0.0446544100273411	0.196293754289636	0.151639344262295
7	0.0467144304530324	0.010607191738211	0.202127659574468	0.191520467836257
5	0.145472299311337	0.101638818768281	0.297872340425532	0.19623352165725
5	0.0637936025474019	0.0244320230796971	0.265957446808511	0.241525423728813
-3	-0.00229302359241557	-0.000415085811094479	0.192186955005232	0.192602040816327
-10	-0.030580764220582	0.00249426497500771	0.232016210739615	0.229521945764607
6	0.237995730206977	0.160487808260978	0.298199672667758	0.13771186440678
-10	-0.0105297438124185	0.0235035121653263	0.266924564796905	0.243421052631579
5	0.167378419452888	0.113789609754393	0.232016210739615	0.118226600985222
-2	0.0301418439716311	0.0290135396518374	0.234042553191489	0.205029013539652
2	0.0650781589231438	0.0390133885396519	0.205029013539652	0.166015625
-3	-0.107712765957447	-0.0704820231244392	0.196293754289636	0.266775777414075
1	0.17508865248227	0.121914604925085	0.357891394093363	0.235976789168279
2	-0.0534497378970088	-0.0379291444516417	0.232016210739615	0.269945355191257
0	-0.0851063829787234	-0.0648429584599798	0.199594731509625	0.264437689969605
5	-0.0126426148627816	-0.0246162529986361	0.234042553191489	0.258658806190125
1	0.0638750180923432	0.0418280386966042	0.232016210739615	0.190188172043011
-6	-0.086984772632457	-0.0569170835158248	0.203927986906711	0.260845070422535
-11	-0.525265957446808	-0.297682832285296	0.235351882160393	0.533034714445689
5	0.127216312056738	0.0821603927986909	0.235351882160393	0.153191489361702
5	-0.0631359851988901	-0.0626689699193909	0.235976789168279	0.298645759087669
6	0.0136121856866537	0.00235113896927999	0.232016210739615	0.229665071770335
-1	-0.120766391663048	-0.092239498090562	0.234042553191489	0.326282051282051
10	0.261072514112028	0.181080903598634	0.265957446808511	0.0848765432098767
-5	-0.0624999999999996	-0.0260462941314003	0.235351882160393	0.261398176291793
1	0.00664893617021323	0.00130932896890376	0.235351882160393	0.234042553191489
1	0.0620567375886526	0.039598108747045	0.234042553191489	0.194444444444444
-1	-0.0269604863221886	-0.0262833387634913	0.235976789168279	0.26226012793177
-4	-0.0151704298740771	-0.000487683164723363	0.264437689969605	0.264925373134328
-3	-0.0411086987986685	-0.029672523185203	0.202127659574468	0.231800182759671
-7	-0.312654178230034	-0.192723530928272	0.192186955005232	0.384910485933504
-2	-0.101063829787234	-0.068634179821551	0.229238160603981	0.297872340425532
-6	-0.138116948907222	-0.0788380256465362	0.235976789168279	0.314814814814815
3	0.190159574468085	0.129225384544534	0.328820116054159	0.199594731509625
-1	0.0269409678765125	0.00989733670584747	0.235351882160393	0.225454545454546
-1	0.00512013315964671	0.00249590834697205	0.265957446808511	0.263461538461539
2	-0.00750832247792727	-0.0169006901548082	0.196293754289636	0.213194444444444
4	0.0212765957446809	0.00125156445556948	0.235294117647059	0.234042553191489
5	0.136081560283688	0.0926178248261887	0.232016210739615	0.139398385913426
-1	-0.0381205673758862	-0.0305580975622154	0.196293754289636	0.226851851851852
-3	0.00144449269069308	0.00224237043181819	0.234042553191489	0.231800182759671
-2	-0.138297872340425	-0.0929916701272686	0.203927986906711	0.296919657033979
-1	-0.120979802651865	-0.0787807869302518	0.192186955005232	0.270967741935484
12	0.167629099005893	0.113913155564056	0.232016210739615	0.118103055175559
-5	-0.212056737588653	-0.111820330969267	0.265957446808511	0.377777777777778
2	-0.024822695035461	-0.0271397013636288	0.232016210739615	0.259155912103244
6	0.0740864939870489	0.0460512984589131	0.232016210739615	0.185964912280702
3	0.0399478940512373	0.0154633182188116	0.234042553191489	0.218579234972678
17	0.2416398022781	0.159909998815774	0.235976789168279	0.0760667903525046
1	-0.0185627442466348	-0.0222854806830414	0.196293754289636	0.218579234972678
5	0.0775709219858159	0.0463536216718989	0.192186955005232	0.145833333333333
-5	-0.169001302648719	-0.111536864180385	0.235976789168279	0.347513653348664
4	0.166666666666667	0.117665241357993	0.264437689969605	0.146772448611612
7	0.0651595744680853	0.0293131666572607	0.203927986906711	0.17461482024945
-1	0.0164032421479231	0.00808513750959095	0.196293754289636	0.188208616780045
-4	-0.0895390070921989	-0.0503465506125083	0.328820116054159	0.379166666666667
1	-0.105496453900709	-0.0895390070921983	0.202127659574468	0.291666666666666
-4	-0.210172600955276	-0.15208369788055	0.232016210739615	0.384099908620165
6	0.0410114091890221	0.0118345082777757	0.265957446808511	0.254122938530735
1	0.020390070921986	0.0071907013396377	0.234042553191489	0.226851851851852
-8	-0.1318978868143	-0.064169198832146	0.361047463175123	0.425216662007269
1	-0.105496453900709	-0.0895390070921984	0.202127659574468	0.291666666666666
3	0.213247937472861	0.142057633590417	0.297872340425532	0.155814706835115
1	0.0509751773049644	0.0357224564499787	0.232016210739615	0.196293754289636
4	-0.00487588652482224	-0.0213898004069484	0.205462051444903	0.226851851851852
5	-0.0480265186555657	-0.0523713868240173	0.196293754289636	0.248665141113654
-6	-0.0157826747720362	0.00149773137747256	0.264437689969605	0.262939958592132
4	-0.0653715695343817	-0.060191181005242	0.202127659574468	0.26231884057971
5	0.116867098365711	0.0765690901393875	0.265957446808511	0.189388356669123
-3	-0.0831885945867707	-0.0627329333084798	0.196293754289636	0.259026687598116
-3	0.0102033792240299	0.00504927696417046	0.199594731509625	0.194545454545455
10	0.216712983065567	0.139766876631835	0.235976789168279	0.0962099125364432
-6	0.0250336517585761	0.0310747795880612	0.264437689969605	0.233362910381544
4	0.110256706753006	0.077263078830993	0.232016210739615	0.154753131908622
2	0.143617021276595	0.101578586135896	0.297872340425532	0.196293754289636
6	0.148936170212766	0.100997173785528	0.232016210739615	0.131019036954087
4	0.046099290780142	0.0253336515337875	0.192186955005232	0.166853303471445
-2	-0.0141843971631208	-0.00333567142077792	0.232016210739615	0.235351882160393
-5	-0.275265957446808	-0.174187514613046	0.203927986906711	0.378115501519757
-3	0.0741152844116368	0.0617861748180896	0.264437689969605	0.202651515151515
-2	0.0509364596902592	0.0359017881814235	0.265957446808511	0.230055658627087
9	0.147105303731113	0.104394312864764	0.192186955005232	0.0877926421404682
0	0.0190577507598786	0.00589481440545284	0.205029013539652	0.199134199134199
6	0.0146819366044292	-0.0131171835277743	0.205462051444903	0.218579234972678
2	0.112145390070922	0.0713478208159062	0.298199672667758	0.226851851851852
5	0.10800185013876	0.0636740005873018	0.328820116054159	0.265146115466857
-4	0.033099942104502	0.0361453070518755	0.32962356792144	0.293478260869565
0	0.0137954117817341	0.00707766538774574	0.192186955005232	0.185109289617486
13	0.253989361702128	0.154269773358002	0.263644773358002	0.109375
1	-0.067574902301346	-0.0584325249218866	0.205029013539652	0.263461538461538
5	0.0769542090656798	0.0455471352469661	0.264437689969605	0.218890554722639
-4	-0.087723621363439	-0.0607038623642534	0.232016210739615	0.292720073103868
2	-0.0782287595889412	-0.0843724037818691	0.298199672667758	0.382572076449627
-4	-0.0993902880301058	-0.0633817992106338	0.232016210739615	0.295398009950249
10	0.132978723404255	0.0850007919328441	0.196293754289636	0.111292962356792
-4	0.0772785497177596	0.0630974523820327	0.264437689969605	0.201340237587572
3	0.081614560717904	0.0489332635740029	0.234042553191489	0.185109289617486
1	0.0494190654985401	0.0247560218322059	0.199594731509625	0.174838709677419
-2	-0.0234553608677509	-0.0241317145858267	0.203927986906711	0.228059701492537
-1	-0.0375868432479374	-0.0291683198598091	0.235351882160393	0.264520202020202
0	0.0108825445071648	0.0033006001091109	0.235351882160393	0.232051282051282
12	0.109117072669339	0.0602473176941261	0.202127659574468	0.141880341880342
6	0.0851063829787237	0.0407623549500494	0.266433788504287	0.225671433554238
-1	-0.18432007400555	-0.123128366242122	0.174081237911025	0.297209604153147
2	-0.0265957446808512	-0.0271105010295128	0.202127659574468	0.229238160603981
7	0.0974406413814369	0.057078403687294	0.234042553191489	0.176964149504195
-7	-0.144765885077435	-0.0825303464266226	0.203927986906711	0.286458333333333
-10	-0.281914893617021	-0.151236342725704	0.234042553191489	0.385278895917194
-8	-0.154617166015342	-0.0952514352147369	0.196293754289636	0.291545189504373
-7	-0.0910805173133082	-0.055534911597243	0.234042553191489	0.289577464788732
5	0.0743139068763489	0.0446541965223662	0.234042553191489	0.189388356669123
6	0.198531987262991	0.119937388716816	0.296919657033979	0.176982268317163
-1	0.0669409678765125	0.0408064276149384	0.235351882160393	0.194545454545455
-3	0.0445241713706761	0.0338826201511702	0.266775777414075	0.232893157262905
0	0.0674236503111884	0.0461950051125461	0.196293754289636	0.15009874917709
3	0.166811405413229	0.0964176177836109	0.355444305381727	0.259026687598116
1	-0.103885291396855	-0.0696611505122142	0.234042553191489	0.303703703703704
4	0.215923071356202	0.144514278303954	0.32962356792144	0.185109289617486
3	0.0780594152554638	0.045163710117382	0.235351882160393	0.190188172043011
3	0.127686712983066	0.0852710233029382	0.264437689969605	0.179166666666667
10	0.172329679776488	0.103982453716496	0.328820116054159	0.224837662337662
2	-0.0369835029293863	-0.0318366264243921	0.192186955005232	0.224023581429624
3	0.0434668548270372	0.0188217662951706	0.232016210739615	0.213194444444444
4	0.0510023158199449	0.0208481087470448	0.234042553191489	0.213194444444444
3	0.202127659574468	0.134375671609714	0.328820116054159	0.194444444444444
5	0.122783687943262	0.0747376097916733	0.266924564796905	0.192186955005232
0	-0.185765494912118	-0.133753285464664	0.232016210739615	0.365769496204279
-1	-0.0246779562888986	-0.0249841344066268	0.234042553191489	0.259026687598116
1	0.00842198581560272	0.00277805013563415	0.232016210739615	0.229238160603981
5	0.147126935880735	0.0936410626277197	0.265957446808511	0.172316384180791
-3	-0.235372340425532	-0.164753708885487	0.196293754289636	0.361047463175123
-1	0.0891862063974527	0.0646138140818992	0.298199672667758	0.233585858585859
10	0.132978723404255	0.085000791932844	0.196293754289636	0.111292962356792
-6	-0.00841989987484337	0.000711862913528205	0.232016210739615	0.231304347826087
-4	-0.171093139383413	-0.123585286766342	0.199594731509625	0.323180018275967
0	0.221875452308583	0.160392798690671	0.32962356792144	0.169230769230769
3	0.0460631060935015	0.0239773701088455	0.196293754289636	0.172316384180791
-8	-0.137194239397887	-0.0641772091240176	0.297872340425532	0.36204954954955
2	0.0638297872340428	0.0454145063936202	0.192186955005232	0.146772448611612
-4	-0.139510059342886	-0.0926027325823946	0.202127659574468	0.294730392156863
11	0.135728235173194	0.0810027209063741	0.234042553191489	0.153039832285115
1	0.0222083514256763	0.00889793116972229	0.232016210739615	0.223118279569893
7	0.126329787234043	0.085268609221938	0.196293754289636	0.111025145067698
2	-0.0531606537156954	-0.0369251887439946	0.234042553191489	0.270967741935484
1	0.0664868287740631	0.0368137208403962	0.235947919974595	0.199134199134199
7	0.188884064264003	0.106827523475382	0.32540675844806	0.218579234972678
-4	-0.0577236213634387	-0.0329091623947132	0.232016210739615	0.264925373134328
-1	0.0040798234187292	0.00176602357453418	0.235351882160393	0.233585858585859
-4	-0.116788694201084	-0.0865067957019851	0.203927986906711	0.290434782608696
0	-0.0851063829787234	-0.0618955512572534	0.205029013539652	0.266924564796905
8	0.171406860616587	0.106666444340692	0.235976789168279	0.129310344827586
1	-0.0520107830366185	-0.0524495641136976	0.203927986906711	0.256377551020408
2	-0.0373310175133888	-0.0477217654391891	0.234042553191489	0.281764318630678
8	0.0882708911501696	0.049386969879691	0.235351882160393	0.185964912280702
8	0.186204902867715	0.12989223542415	0.264437689969605	0.134545454545454
8	0.196423065063213	0.133193471653231	0.265957446808511	0.13276397515528
3	0.123281227384571	0.0824032089291941	0.234042553191489	0.151639344262295
4	0.0615363860622882	0.0372050539351613	0.235351882160393	0.198146828225232
2	0.0767115356781011	0.0500714939373142	0.229238160603981	0.179166666666667
-6	-0.27659574468085	-0.167105414812936	0.235351882160393	0.402457296973329
-2	0.0841203502677668	0.064698194787112	0.32962356792144	0.264925373134328
-2	-0.335902446084817	-0.247018052869117	0.234042553191489	0.481060606060606
-1	-0.0483156028368791	-0.032048802261568	0.203927986906711	0.235976789168279
2	0.143736962870255	0.0975899812314184	0.232016210739615	0.134426229508197
-5	-0.237145390070922	-0.150323774283071	0.202127659574468	0.352451433857539
5	0.202898550724637	0.14311920851691	0.297872340425532	0.154753131908622
5	0.119237588652483	0.0828119550052322	0.192186955005232	0.109375
-4	-0.141056954696772	-0.0938544360265543	0.232016210739615	0.325870646766169
-2	-0.115354248082211	-0.0932033916096043	0.192186955005232	0.285390346614836
6	0.154255319148936	0.107657613491519	0.229238160603981	0.121580547112462
5	0.259797003907946	0.165258983053163	0.388377262623055	0.223118279569893
-6	-0.183845346649298	-0.1114791037551	0.235351882160393	0.346830985915493
11	0.216755319148936	0.147731834604576	0.234042553191489	0.086310718586913
-6	-0.0245241713706758	0.000548801080716088	0.264437689969605	0.263888888888889
5	0.119237588652482	0.0828119550052321	0.192186955005232	0.109375
-1	-0.0500886524822693	-0.0344478216818641	0.199594731509625	0.234042553191489
-16	-0.218555507309307	-0.0975900998697351	0.234042553191489	0.331632653061224
5	-0.0152443724946034	-0.0243328826585068	0.203927986906711	0.228260869565217
9	0.175011563367253	0.119294793670372	0.232016210739615	0.112721417069243
-6	-0.0535533362281084	-0.0255877426958627	0.265957446808511	0.291545189504373
5	0.14624041105804	0.0963306887847097	0.234042553191489	0.13771186440678
7	0.209084165581126	0.133688178414885	0.298199672667758	0.164511494252873
1	0.00842198581560277	0.00330097721998884	0.199594731509625	0.196293754289636
7	0.0651595744680855	0.0255206275749199	0.235351882160393	0.209831254585473
4	0.0705395136778116	0.0373671286040562	0.199594731509625	0.162227602905569
1	0.117467071935157	0.0777488300284652	0.265957446808511	0.188208616780045
8	0.0511460581765854	0.0227625802093887	0.202127659574468	0.179365079365079
-7	-0.022054566507454	0.00855309159924089	0.297872340425532	0.289319248826291
-3	-0.0542770299609205	-0.0357575277616458	0.196293754289636	0.232051282051282
-5	-0.18454190186713	-0.118614451639428	0.234042553191489	0.352657004830918
-2	0.0383648140107107	0.0313751850985894	0.232016210739615	0.200641025641026
0	0.0425531914893617	0.0324214792299899	0.264437689969605	0.232016210739615
-2	-0.0451223042408456	-0.0314581990113908	0.202127659574468	0.233585858585859
1	0.0401559559994213	0.0221189277943478	0.192186955005232	0.170068027210884
6	0.128893000308356	0.0856167660850425	0.234042553191489	0.148425787106447
-6	-0.136922854248082	-0.0866571552633214	0.234042553191489	0.320699708454811
9	0.0817144619179769	0.0416533512740726	0.202127659574468	0.160474308300395
3	-0.00171877261542935	-0.0180066271363797	0.234042553191489	0.252049180327869
13	0.158319200328914	0.0934715402800511	0.235351882160393	0.141880341880342
0	-0.0217585757707338	-0.0250266450874353	0.205029013539652	0.230055658627087
2	0.148293892024895	0.0962786313929535	0.296919657033979	0.200641025641026
2	0.118378202344768	0.084099271715092	0.229238160603981	0.145138888888889
1	-0.0584834997828918	-0.0550352672169902	0.192186955005232	0.247222222222222
6	0.123398827616153	0.0763144563536502	0.232016210739615	0.155701754385965
0	0.0851063829787234	0.0648429584599798	0.264437689969605	0.199594731509625
-4	-0.161713691026827	-0.0976148726435222	0.199594731509625	0.297209604153147
0	-0.0425531914893617	-0.0324214792299899	0.232016210739615	0.264437689969605
4	0.138704950065133	0.0943043463328355	0.232016210739615	0.13771186440678
5	-0.0252659574468087	-0.038816084508446	0.192186955005232	0.231003039513678
3	0.081614560717904	0.0489332635740028	0.234042553191489	0.185109289617486
-5	-0.233698798668404	-0.160049529292454	0.196293754289636	0.35634328358209
3	-0.0651595744680851	-0.0623560836326794	0.266924564796905	0.329280648429585
-7	-0.0338326820089737	-0.00506135630423171	0.229238160603981	0.234299516908213
-1	0.033244680851064	0.0288376070299404	0.192186955005232	0.163349347975292
3	0.0252659574468083	0.00837111963725129	0.234042553191489	0.225671433554238
-2	-0.0746171660153423	-0.0600837967307719	0.196293754289636	0.256377551020408
-14	-0.0827804313214648	-0.0249737000605249	0.196293754289636	0.221267454350161
4	0.0283687943262411	0.00673862856429774	0.235976789168279	0.229238160603981
-15	-0.19818063395571	-0.0772851299700336	0.297872340425532	0.375157470395566
5	0.268644159791576	0.184484679032552	0.32962356792144	0.145138888888889
-5	-0.0512928788536693	-0.028479476897142	0.264437689969605	0.292917166866747
7	0.05895390070922	0.0199652493197392	0.235976789168279	0.216011539848539
6	-0.00506860931236486	-0.0200955945229137	0.203927986906711	0.224023581429624
2	-0.0369835029293863	-0.0318366264243921	0.192186955005232	0.224023581429624
-1	-0.0373154580981329	-0.029702539260385	0.232016210739615	0.26171875
1	0.0483156028368793	0.0320488022615681	0.235976789168279	0.20392798690671
1	-0.0784574468085104	-0.0635024549918166	0.298199672667758	0.361702127659574
1	-0.00454825778600082	-0.00240831124206356	0.229238160603981	0.231646471846044
-8	-0.131490404672507	-0.0791686657848125	0.235351882160393	0.314520547945206
-4	-0.113475177304965	-0.070630810507269	0.196293754289636	0.266924564796905
-5	-0.139627659574468	-0.0854814511729404	0.235351882160393	0.320833333333333
5	0.222572007526415	0.141188656710108	0.359767891682785	0.218579234972678
-9	-0.247096370463079	-0.150675435203095	0.266924564796905	0.4176
-5	0.0245665074540455	0.0254134618741626	0.196293754289636	0.170880292415474
2	-0.0386794634597596	-0.0320517403364192	0.199594731509625	0.231646471846044
-2	-0.00330185265595601	-3.50713116670509e-05	0.232016210739615	0.232051282051282
6	-0.0147818378045019	-0.0291981954922615	0.235947919974595	0.265146115466857
13	0.187864741641337	0.101389491966999	0.234042553191489	0.13265306122449
9	0.175011563367253	0.119294793670372	0.232016210739615	0.112721417069243
1	0.034097553915183	0.0134400264665136	0.234042553191489	0.220602526724976
9	0.19281914893617	0.132725430597771	0.232016210739615	0.099290780141844
4	0.0545533970603353	0.0376672793779273	0.229238160603981	0.191570881226054
3	0.00268671298306566	-0.0168123100303951	0.264437689969605	0.28125
6	0.152889347228253	0.0976400177536135	0.235351882160393	0.13771186440678
7	0.299491211840888	0.201327310642289	0.390715667311412	0.189388356669123
-8	-0.0256828050369081	-0.000521874917182724	0.232016210739615	0.232538085656798
4	0.175570632508323	0.110619081669172	0.266433788504287	0.155814706835115
-2	-0.179078014184397	-0.120377744908408	0.205029013539652	0.32540675844806
1	0.0231039224200318	0.0111844646721499	0.196293754289636	0.185109289617486
6	0.168093428860906	0.107714386484156	0.235351882160393	0.127637495676237
-7	-0.102212693588073	-0.0511064511729401	0.235351882160393	0.286458333333333
3	0.0305851063829789	0.0149017600595606	0.196293754289636	0.181391994230076
2	0.0288572875958894	0.0119394875314573	0.202127659574468	0.190188172043011
9	0.235372340425532	0.165146909827761	0.264437689969605	0.099290780141844
0	0.0755684188569046	0.0445826513911621	0.235351882160393	0.190769230769231
1	-0.0638297872340424	-0.0571315996847911	0.202127659574468	0.259259259259259
2	0.12767115356781	0.0829423052680234	0.265957446808511	0.183015141540487
5	0.0509751773049645	0.0249799112601753	0.199594731509625	0.17461482024945
8	0.194827399044724	0.134288938012342	0.232016210739615	0.0977272727272726
3	-0.0452371775105356	-0.0361319374085332	0.232016210739615	0.268148148148148
-1	-0.133421985815603	-0.0929921142687098	0.266775777414075	0.359767891682785
-3	-0.255463887682732	-0.175858959623992	0.235976789168279	0.41183574879227
5	0.0231113166820844	0.0103288420089344	0.196293754289636	0.185964912280702
-1	-0.0492021276595749	-0.0327332242225862	0.234042553191489	0.266775777414075
-3	-0.147551105548602	-0.115808193077167	0.234042553191489	0.349850746268657
-3	0.0434009986973514	0.0343820313425177	0.264437689969605	0.230055658627087
-5	-0.274478940512375	-0.18805039660995	0.229238160603981	0.417288557213931
-9	-0.0358416558112605	-0.00750043944419521	0.196293754289636	0.203794193733831
1	-0.106464394268345	-0.0901689511729403	0.235351882160393	0.325520833333333
2	0.0620567375886525	0.0409059711736444	0.262182566918325	0.221276595744681
-3	-0.0285037002775207	-0.00513793945801336	0.232016210739615	0.237154150197628
-5	-0.0955829353017803	-0.0633104305552008	0.199594731509625	0.262905162064826
-4	-0.0849677956288895	-0.057165124642328	0.235351882160393	0.292517006802721
2	-0.0265957446808512	-0.0271105010295128	0.202127659574468	0.229238160603981
3	0.0877297727601681	0.0585818898828567	0.196293754289636	0.13771186440678
-4	0.0068877763871506	0.00581893055468896	0.262182566918325	0.256363636363636
4	0.153909031697785	0.104378715063378	0.232016210739615	0.127637495676237
-7	-0.0645625271385149	-0.0336414200938734	0.199594731509625	0.233236151603499
-1	-0.177748226950354	-0.130192502532928	0.199594731509625	0.329787234042553
-2	-0.097517730496454	-0.0638297872340426	0.234042553191489	0.297872340425532
5	0.108549717759445	0.0589945208511159	0.235976789168279	0.176982268317163
2	-0.0155141843971625	-0.0229238649451411	0.203927986906711	0.226851851851852
2	0.0585106382978722	0.037748798901853	0.234042553191489	0.196293754289636
6	0.0585106382978721	0.0275128393250181	0.202127659574468	0.17461482024945
-3	0.037975828629324	0.033983451536643	0.297872340425532	0.263888888888889
7	0.128716980162401	0.0850726106045256	0.264437689969605	0.179365079365079
6	0.031792951223043	-0.00794635904848903	0.235947919974595	0.243894279023084
1	0.0367661745549283	0.0160846768357308	0.232016210739615	0.215931533903884
5	0.122783687943262	0.0772743127120524	0.235976789168279	0.158702476456226
-5	-0.229492328846432	-0.152787710829012	0.232016210739615	0.384803921568627
7	0.120124113475177	0.0739614994934144	0.232016210739615	0.158054711246201
4	0.0319148936170215	0.00968044860615511	0.235351882160393	0.225671433554238
7	0.162677304964539	0.110435663627153	0.232016210739615	0.121580547112462
-6	-0.232857504704009	-0.147398058822665	0.264437689969605	0.41183574879227
10	0.197927341149225	0.111918575207045	0.265331664580726	0.153413089373681
0	-2.22044604925031e-16	-1.66533453693773e-16	0.202127659574468	0.202127659574468
-1	-0.0790997249963817	-0.0608292416803057	0.234042553191489	0.294871794871795
7	0.0651595744680854	0.0255206275749198	0.235351882160393	0.209831254585473
-5	-0.134662396873643	-0.0909129609290526	0.232016210739615	0.322929171668668
-1	0.00443262411347556	0.00238630875212925	0.229238160603981	0.226851851851852
-11	-0.451467289043277	-0.272815178400285	0.199594731509625	0.47240990990991
3	0.0199468085106383	0.00543428203002672	0.205029013539652	0.199594731509625
5	-0.0573935795360829	-0.0414797172066184	0.234042553191489	0.275522270398108
9	0.252852297255627	0.174552182322765	0.297872340425532	0.123320158102767
0	-0.0724507888261684	-0.0595199127114018	0.235351882160393	0.294871794871795
4	0.116403242147923	0.0780671533044146	0.196293754289636	0.118226600985222
-9	-0.113031914893617	-0.0454677936461673	0.234042553191489	0.279510346837657
5	0.126562092922275	0.0786031213659344	0.232016210739615	0.153413089373681
-3	-0.1875	-0.123848840901874	0.234042553191489	0.357891394093363
-3	-0.0807848458532346	-0.0598823668732481	0.232016210739615	0.291898577612863
-2	-0.0732493848603269	-0.0578560244213738	0.234042553191489	0.291898577612863
2	0.0740790997249964	0.0469069211221287	0.232016210739615	0.185109289617486
1	0.0749138804457951	0.0458339364114438	0.234042553191489	0.188208616780045
0	-0.0713652482269502	-0.059664527749634	0.199594731509625	0.259259259259259
5	-0.0266317196011923	-0.028757462836078	0.202127659574468	0.230885122410546
-1	-0.018327937095282	-0.00507618056473275	0.232016210739615	0.237092391304348
6	0.0260663994244013	0.0072226298198419	0.234042553191489	0.226819923371647
-9	-0.0980380820228184	-0.0376267095910413	0.192186955005232	0.229813664596273
4	0.0084491243305832	-0.0110667848699764	0.202127659574468	0.213194444444444
-1	0.172673324649008	0.128641571194763	0.297872340425532	0.169230769230769
2	0.131156100738168	0.0874554216524423	0.264437689969605	0.176982268317163
-3	-0.1875	-0.125277865989203	0.202127659574468	0.327405525563671
-4	-0.0346099290780142	-0.0259574468085107	0.234042553191489	0.26
-2	-0.128455637574179	-0.0933268858800773	0.202127659574468	0.295454545454545
8	0.141843971631206	0.0780976220275343	0.265331664580726	0.187234042553191
-4	-0.264510059342886	-0.182676261994159	0.202127659574468	0.384803921568627
3	-0.00260529743812438	-0.0164515753982096	0.202127659574468	0.218579234972678
1	0.0572713127804315	0.0328479299184286	0.266433788504287	0.233585858585859
6	0.153775872050949	0.0944593932332847	0.266775777414075	0.172316384180791
2	0.0464269195189638	0.0327912181235606	0.264437689969605	0.231646471846044
-1	0.00346468374583886	0.00167806484295852	0.199594731509625	0.197916666666667
-7	-0.273827616152844	-0.170300169813205	0.234042553191489	0.404342723004695
6	0.157508479802652	0.109635607728051	0.265957446808511	0.15632183908046
-1	0.016403242147923	0.00808513750959086	0.196293754289636	0.188208616780045
2	-0.111702127659574	-0.0940288263555248	0.234042553191489	0.328071379547014
-13	-0.170305590321235	-0.0771849427168574	0.298199672667758	0.375384615384615
6	0.0704425387176152	0.0252503536852621	0.266775777414075	0.241525423728813
-10	-0.0682279933249897	-0.0310901999972243	0.199594731509625	0.230684931506849
6	0.0329067584480599	-0.0116717325227965	0.234042553191489	0.245714285714286
7	0.0880550416281222	0.0567375886524824	0.199594731509625	0.142857142857143
1	-0.0900882906354031	-0.0832626870403683	0.202127659574468	0.285390346614836
-2	0.0202920317062993	0.00858800773694374	0.234042553191489	0.225454545454546
9	0.158668670983657	0.092454331052851	0.298199672667758	0.205745341614907
1	-0.105520865453798	-0.075961193142916	0.192186955005232	0.268148148148148
1	-0.177268779852366	-0.148189196821416	0.205029013539652	0.353218210361067
6	0.111702127659575	0.0747132071771743	0.196293754289636	0.121580547112462
6	0.213666040884439	0.129050804574963	0.296919657033979	0.167868852459016
-6	-0.101398538138659	-0.0566353933749796	0.203927986906711	0.26056338028169
-8	-0.169027717469967	-0.101291305864333	0.192186955005232	0.293478260869565
3	0.0539623805118715	0.0343109749624663	0.265957446808511	0.231646471846044
-1	-0.0789821247647998	-0.0616035809270518	0.232016210739615	0.293619791666667
-5	-0.250633955709944	-0.169024648026318	0.235976789168279	0.405001437194596
-3	-0.0101045737443916	-0.00156964784624372	0.232016210739615	0.233585858585859
10	0.148184551341351	0.0986923525104455	0.199594731509625	0.10090237899918
4	0.0194177883919531	-0.00651028676341306	0.203927986906711	0.210438273670124
6	0.122512302793458	0.0797116905739526	0.199594731509625	0.119883040935673
5	-0.0516304347826088	-0.0545282070211096	0.199594731509625	0.254122938530735
-7	-0.524714140975539	-0.345994406153231	0.202127659574468	0.548122065727699
-7	-0.42813367252544	-0.263759305757456	0.199594731509625	0.463354037267081
0	-0.0704787234042549	-0.0596504559270513	0.232016210739615	0.291666666666666
-2	-0.0141843971631208	-0.00333567142077792	0.232016210739615	0.235351882160393
-1	-0.00842198581560277	-0.00330097721998884	0.196293754289636	0.199594731509625
10	0.0891988289625601	0.0614680007568662	0.192186955005232	0.130718954248366
-7	-0.0628256621797656	-0.0303744598143209	0.232016210739615	0.262390670553936
0	-0.00443158114309533	-0.0181865793780686	0.235351882160393	0.253538461538462
-15	-0.149596370463079	-0.0649068661834618	0.232016210739615	0.296923076923077
-2	-0.0327228976697059	-0.0269082457713767	0.235351882160393	0.26226012793177
2	0.00348530901722355	-0.014805373075792	0.234042553191489	0.248847926267281
7	0.102856151711378	0.0627615523545218	0.232016210739615	0.169254658385093
3	0.0226063829787237	0.0076342326170743	0.203927986906711	0.196293754289636
-2	0.0511561007381677	0.0368081766258059	0.264437689969605	0.227629513343799
5	0.0846631205673762	0.0507364975450084	0.203927986906711	0.153191489361702
5	0.0421099290780145	0.0140752864157122	0.235351882160393	0.221276595744681
0	0.0119680851063832	0.00515028706518086	0.199594731509625	0.194444444444444
5	0.093528368794326	0.0574013904901651	0.232016210739615	0.17461482024945
5	0.0846631205673762	0.0507364975450084	0.203927986906711	0.153191489361702
3	0.100439643942684	0.0619481835287307	0.232016210739615	0.170068027210884
3	0.205890866985092	0.129174419358578	0.32540675844806	0.196232339089482
7	0.120124113475177	0.0739614994934144	0.232016210739615	0.158054711246201
-1	-0.0364289332754378	-0.0291821016970618	0.264437689969605	0.293619791666667
2	0.107631350412506	0.0699611641682786	0.235976789168279	0.166015625
5	0.0509751773049644	0.0249799112601752	0.199594731509625	0.17461482024945
3	0.0704787234042553	0.046403242147923	0.199594731509625	0.153191489361702
-2	-0.10990980573543	-0.0693015895606091	0.199594731509625	0.268896321070234
5	0.14624041105804	0.0963306887847097	0.234042553191489	0.13771186440678
-2	-0.0756361267911421	-0.0578761485251742	0.205029013539652	0.262905162064826
-1	0.0307957863996662	0.0138912107396149	0.232016210739615	0.218125
4	0.0354609929078012	0.0127659574468083	0.234042553191489	0.221276595744681
-5	-0.0595419018671299	-0.0298463356973996	0.234042553191489	0.263888888888889
2	-0.0562943262411342	-0.0563147845062734	0.235351882160393	0.291666666666666
8	0.144772036474164	0.0868024125544302	0.205029013539652	0.118226600985222
-5	-0.057066145607179	-0.0355064284700348	0.196293754289636	0.231800182759671
-2	-0.127569112751484	-0.0923463356973997	0.234042553191489	0.326388888888889
0	0.0128546099290783	0.00516435888776343	0.232016210739615	0.226851851851852
3	0.080728035895209	0.0504883153121729	0.202127659574468	0.151639344262295
-5	-0.003508552357113	0.00117845911144351	0.229238160603981	0.228059701492537
-3	-0.0927413518598929	-0.0627977135598602	0.202127659574468	0.264925373134328
-2	-0.11558293530178	-0.0908291303428081	0.199594731509625	0.290423861852433
10	0.218085106382979	0.157225067314292	0.229238160603981	0.0720130932896892
-1	-0.0798686495874944	-0.0621240184903748	0.199594731509625	0.26171875
-1	0.00407982341872948	0.0017660235745344	0.235351882160393	0.233585858585859
0	0	0	0.192186955005232	0.192186955005232
3	0.00395570994355188	-0.0155735131853239	0.205029013539652	0.220602526724976
-17	-0.253145172962802	-0.109200023587055	0.265957446808511	0.375157470395566
4	0.124113475177305	0.0852437621280031	0.232016210739615	0.146772448611612
4	0.124113475177305	0.0852437621280031	0.232016210739615	0.146772448611612
11	0.174202127659574	0.115816940987555	0.202127659574468	0.086310718586913
5	0.0846631205673762	0.0507364975450084	0.203927986906711	0.153191489361702
-4	-0.0960703430308294	-0.0587974551522737	0.265957446808511	0.324754901960784
1	0.0203086553770445	0.00457988100109108	0.298199672667758	0.293619791666667
5	0.00398936170212777	-0.0138838802740713	0.202127659574468	0.216011539848539
-11	-0.235886886669561	-0.133124440115321	0.232016210739615	0.365140650854936
0	0.0137411347517732	0.00517843071034579	0.264437689969605	0.259259259259259
-8	-0.112063974525981	-0.0623070289003924	0.229238160603981	0.291545189504373
0	-0.142287234042553	-0.101317122593718	0.232016210739615	0.333333333333333
-4	-0.24468085106383	-0.168860508169891	0.192186955005232	0.361047463175123
2	0.109335627868169	0.0755767855137066	0.192186955005232	0.116610169491526
3	0.0842469966710089	0.0544558426207363	0.199594731509625	0.145138888888889
3	0.0974406413814367	0.0678106185832788	0.265957446808511	0.198146828225232
2	-0.154255319148936	-0.126973232669869	0.234042553191489	0.361015785861358
10	0.209011796207845	0.13762460943312	0.235351882160393	0.0977272727272727
-2	-0.00418837747865097	-0.00104629413140048	0.199594731509625	0.200641025641026
-10	-0.151378636561008	-0.0728268161778803	0.234042553191489	0.30686936936937
-3	0.0924488944513976	0.0668783740870118	0.234042553191489	0.167164179104478
2	-0.0230496453900709	-0.0249828414550446	0.196293754289636	0.221276595744681
1	0.0350293095961788	0.0165795899691378	0.199594731509625	0.183015141540487
0	0.0425531914893617	0.0329444063143446	0.229238160603981	0.196293754289636
3	0.081614560717904	0.0489332635740029	0.234042553191489	0.185109289617486
8	0.187943262411347	0.120124113475177	0.265957446808511	0.145833333333333
0	5.55111512312578e-17	2.77555756156289e-17	0.192186955005232	0.192186955005232
-3	-0.0313752698119029	-0.00972631259999607	0.196293754289636	0.206020066889632
7	0.208197640758431	0.137465432586489	0.266775777414075	0.129310344827586
6	0.145790997249964	0.100083841753193	0.196293754289636	0.0962099125364432
-1	-0.0257841221595017	-0.0256252359595821	0.235351882160393	0.260977118119975
7	0.183472093740364	0.124843793109044	0.265957446808511	0.141113653699466
-4	-0.0673758865248227	-0.0344175777646721	0.232016210739615	0.266433788504287
7	0.120124113475177	0.0739614994934144	0.232016210739615	0.158054711246201
4	0.0128184252424375	-0.00732617244517705	0.199594731509625	0.206920903954802
-4	-0.0424146041395279	-0.0257412293886456	0.266775777414076	0.292517006802721
4	0.158956433637285	0.111011559618759	0.229238160603981	0.118226600985222
-9	-0.109711969894341	-0.0490624696395611	0.234042553191489	0.28310502283105
-5	-0.104492328846432	-0.0627141814172476	0.232016210739615	0.294730392156863
0	-0.0851063829787231	-0.0658888126286888	0.229238160603981	0.29512697323267
-1	-0.0509751773049645	-0.0357224564499787	0.196293754289636	0.232016210739615
-4	-0.0046779562888985	0.00114939592858423	0.234042553191489	0.232893157262905
-2	-0.0875217108119842	-0.0638668069519132	0.199594731509625	0.263461538461538
5	0.0780749746707193	0.0399000566688991	0.202127659574468	0.162227602905569
-9	-0.241397090751194	-0.139511567038162	0.232016210739615	0.371527777777777
-2	-0.074766608771168	-0.059431956088491	0.199594731509625	0.259026687598116
-3	-0.041705384281372	-0.030460927117462	0.199594731509625	0.230055658627087
3	0.0807280358952089	0.0504883153121728	0.202127659574468	0.151639344262295
1	0.104609929078014	0.0715130023640663	0.265957446808511	0.194444444444444
-6	-0.0547836155738891	-0.0221250626835733	0.235976789168279	0.258101851851852
-16	-0.159410913301491	-0.0627555599611682	0.229238160603981	0.291993720565149
-3	-0.0447695035460993	-0.0252328781623796	0.266433788504287	0.291666666666667
-3	0.0731382978723404	0.0638297872340425	0.297872340425532	0.234042553191489
-5	-0.153721595020987	-0.103267590449313	0.192186955005232	0.295454545454546
-7	-0.0188793602547399	0.00560651179002267	0.235351882160393	0.22974537037037
1	0.038004933703361	0.030536095072281	0.262182566918325	0.231646471846044
-5	-0.147045520335794	-0.0951356606472375	0.199594731509625	0.294730392156863
-3	-0.160451946736141	-0.113906307430653	0.235947919974595	0.349854227405248
-7	-0.222074468085106	-0.121728905787337	0.235947919974595	0.357676825761932
6	0.0531914893617026	0.0193403423118537	0.235351882160393	0.216011539848539
1	0.0401559559994213	0.0221189277943478	0.192186955005232	0.170068027210884
11	0.216755319148936	0.147731834604576	0.234042553191489	0.0863107185869129
-3	0.0824804602692141	0.063803471098304	0.232016210739615	0.168212739641311
7	0.0482320896289445	0.0245765825724646	0.196293754289636	0.171717171717172
4	0.0815602836879434	0.0506242165095394	0.232016210739615	0.181391994230076
4	0.000488493269647949	-0.0200715979284959	0.235976789168279	0.256048387096774
4	0.0703823620104841	0.0478679671831894	0.196293754289636	0.148425787106447
4	0.0425531914893616	0.0216789340401864	0.196293754289636	0.17461482024945
4	-0.0070921985815604	-0.0170212765957448	0.170212765957447	0.187234042553191
-1	-0.0364289332754379	-0.0291821016970619	0.264437689969605	0.293619791666667
6	0.129432624113475	0.0834048272706475	0.229238160603981	0.145833333333333
4	0.0354609929078013	0.0127659574468084	0.234042553191489	0.221276595744681
8	0.0545458821826607	0.00864434131000205	0.205462051444903	0.196817710134901
2	0.0212765957446811	0.0107949607751565	0.192186955005232	0.181391994230076
4	0.021448473006224	0.000666487168974855	0.192186955005232	0.191520467836257
2	0.0371211463308727	0.0114869932499111	0.235976789168279	0.224489795918367
3	0.139993832870798	0.0997255122003	0.297872340425532	0.198146828225232
1	0.0809722825300334	0.0561325332365246	0.192186955005232	0.136054421768708
1	0.00753546099290769	0.00202634245187427	0.234042553191489	0.232016210739615
6	0.166069226025285	0.108811315998635	0.298199672667758	0.189388356669123
14	0.184782608695652	0.117236371399184	0.205029013539652	0.0877926421404683
-3	-0.0199468085106383	-0.00396057842866351	0.232016210739615	0.235976789168279
-4	-0.167943262411348	-0.118898623279099	0.234042553191489	0.352941176470588
-7	-0.321365248226951	-0.208738601823708	0.199594731509625	0.408333333333333
6	0.246309161962657	0.161817918656824	0.297872340425532	0.136054421768708
7	0.123977782602403	0.0708403879075196	0.235351882160393	0.164511494252873
-2	0.0101201331596468	0.00498032868853537	0.265957446808511	0.260977118119975
3	0.159574468085107	0.103427895981088	0.297872340425532	0.194444444444444
6	0.0129702436016034	-0.00544150349279179	0.192186955005232	0.197628458498024
-8	-0.169027717469966	-0.101291305864333	0.192186955005232	0.293478260869565
10	0.200354609929078	0.134751773049645	0.234042553191489	0.099290780141844
-12	-0.0896495619524404	-0.0347924416009522	0.235976789168279	0.270769230769231
2	-0.0709219858156026	-0.0615072870392017	0.235351882160393	0.296859169199595
5	0.0629070777247069	0.0271216492366871	0.234042553191489	0.206920903954802
-6	-0.136922854248082	-0.0866571552633213	0.234042553191489	0.320699708454811
-6	-0.0670773628600375	-0.0318726781492738	0.232016210739615	0.263888888888889
-4	-0.141056954696772	-0.0938544360265543	0.232016210739615	0.325870646766169
-2	-0.167254667824576	-0.116709084856322	0.235947919974595	0.352657004830917
-5	-0.237145390070922	-0.150323774283071	0.202127659574468	0.352451433857539
-1	-0.195170366944187	-0.140912624237405	0.192186955005232	0.333099579242637
1	-0.121010638297872	-0.09443535188216	0.235351882160393	0.329787234042553
-2	-0.0585106382978722	-0.037748798901853	0.196293754289636	0.234042553191489
-5	-0.0938460703430309	-0.0609009561271317	0.232016210739615	0.292917166866747
9	0.0672987974098057	0.0280648640354565	0.205029013539652	0.176964149504195
0	0.0674236503111882	0.0461950051125459	0.196293754289636	0.15009874917709
7	0.150265957446809	0.0883684180822845	0.298199672667758	0.209831254585473
-10	-0.0731339557099438	-0.0299272142549823	0.199594731509625	0.229521945764607
6	0.124441103916127	0.080598750251771	0.235351882160393	0.154753131908622
-1	-0.0246779562888986	-0.0249841344066268	0.234042553191489	0.259026687598116
0	0.0691605152699377	0.0462230190634936	0.229238160603981	0.183015141540487
-1	0.0161383702417137	0.00641303984769029	0.234042553191489	0.227629513343799
2	0.0341583441887394	0.0171270876229696	0.196293754289636	0.179166666666667
0	-5.55111512312578e-17	-5.55111512312578e-17	0.234042553191489	0.234042553191489
6	0.0531914893617025	0.0225359926766349	0.203927986906711	0.181391994230076
-3	0.01020337922403	0.00504927696417054	0.199594731509625	0.194545454545455
1	0.160020263424518	0.109663723645486	0.297872340425532	0.188208616780045
-1	0.00496634824142478	0.00225557539387367	0.266775777414076	0.264520202020202
-3	-0.135104573744391	-0.0943726781492738	0.232016210739615	0.326388888888889
-7	-0.119237588652482	-0.0553191489361701	0.264437689969605	0.319756838905775
5	0.0840089014329135	0.0461816421359446	0.199594731509625	0.153413089373681
9	0.158244680851064	0.104388702555005	0.229238160603981	0.124849458048976
4	0.143038066290346	0.0999278157763946	0.229238160603981	0.129310344827586
-1	0.0469044000578955	0.0346199816362715	0.264437689969605	0.229817708333333
-4	-0.141943479519468	-0.0958032784406239	0.199594731509625	0.295398009950249
3	0.113031914893617	0.0788247213779129	0.232016210739615	0.153191489361702
7	0.0974406413814369	0.057078403687294	0.234042553191489	0.176964149504195
8	0.12974019394992	0.0714652949154049	0.235976789168279	0.164511494252874
1	0.0620567375886526	0.0395981087470451	0.234042553191489	0.194444444444444
0	-0.00422194409678783	-0.0159973404255321	0.202127659574468	0.218125
5	0.0465425531914894	0.0180310133429499	0.234042553191489	0.216011539848539
1	0.17008656654151	0.111949672667758	0.298199672667758	0.18625
1	-0.0610764210093534	-0.041887119068842	0.192186955005232	0.234074074074074
4	0.0671587784049793	0.0299609205384284	0.234042553191489	0.204081632653061
6	0.12854609929078	0.0869187542896364	0.196293754289636	0.109375
-1	-0.0226762194239399	-0.0237582760659253	0.229238160603981	0.252996436669906
1	0.0248498335504416	0.0130202883385654	0.192186955005232	0.179166666666667
3	-0.0263106093501232	-0.0433077311845562	0.234042553191489	0.277350284376046
-3	0.0853404979012883	0.063894624953091	0.266775777414075	0.202881152460985
-9	-0.332338254450716	-0.208048968715058	0.196293754289636	0.404342723004695
10	0.121877890841813	0.0611792231819983	0.266924564796905	0.205745341614907
6	0.0899051803885292	0.0550520612354198	0.232016210739615	0.176964149504195
1	-0.0479301572617947	-0.0351647149265843	0.232016210739615	0.267180925666199
-4	-0.183610146186134	-0.126275915256544	0.199594731509625	0.325870646766169
2	0.029743812418584	0.0109242736215965	0.234042553191489	0.223118279569893
-1	0.0263662911973297	0.0113584288052371	0.202127659574468	0.190769230769231
-2	-0.107924761023743	-0.0650351806688529	0.234042553191489	0.299077733860342
-4	0.109929078014185	0.095581014729951	0.32962356792144	0.234042553191489
5	0.119237588652483	0.0828119550052321	0.192186955005232	0.109375
-8	-0.140582211608047	-0.0815067349272287	0.203927986906711	0.285434721833939
2	0.0659646837458387	0.0380601225016118	0.235976789168279	0.197916666666667
-3	-0.0393718338399191	-0.0282175747402804	0.234042553191489	0.26226012793177
11	0.24584780720799	0.176727749201154	0.232016210739615	0.0552884615384615
-6	-0.111702127659574	-0.0592705167173252	0.202127659574468	0.261398176291793
-2	-0.033721595020987	-0.0284155717197436	0.192186955005232	0.220602526724976
3	0.0460631060935015	0.0239773701088455	0.196293754289636	0.172316384180791
5	0.161444492690693	0.106405057515253	0.234042553191489	0.127637495676237
3	0.082501085540599	0.0473782118358329	0.265957446808511	0.218579234972678
7	0.225852873064119	0.144786583294077	0.298199672667758	0.153413089373681
0	0.0961879432624115	0.0699791737025781	0.232016210739615	0.162037037037037
-8	0.02947242726878	0.0461831512363428	0.297872340425532	0.251689189189189
-4	-0.180290201186858	-0.120736858573216	0.234042553191489	0.354779411764706
3	0.0495096974960198	0.0276754607523585	0.192186955005232	0.164511494252874
-4	-0.109929078014184	-0.0649034462943641	0.232016210739615	0.296919657033979
-1	-0.0384733680706323	-0.0296578716791482	0.203927986906711	0.233585858585859
2	-0.0673758865248222	-0.0606241799126344	0.232016210739615	0.292640390652249
-7	-0.0663808076422057	-0.029679852162621	0.202127659574468	0.231807511737089
8	0.138143694110392	0.0911854103343465	0.234042553191489	0.142857142857143
4	0.0354609929078013	0.0148936170212765	0.202127659574468	0.187234042553191
4	-0.0070921985815604	-0.0191489361702128	0.202127659574468	0.221276595744681
4	0.0510023158199449	0.0208481087470448	0.234042553191489	0.213194444444444
6	0.0980152699377625	0.0538227071826081	0.205462051444903	0.151639344262295
5	0.174202127659574	0.119184998196899	0.265957446808511	0.146772448611612
-4	-0.371146330872775	-0.261443289667345	0.205029013539652	0.466472303206997
3	0.117021276595745	0.072480120352461	0.266924564796905	0.194444444444444
2	0.146290154359616	0.0965688375105885	0.264437689969605	0.167868852459016
-2	-0.102836879432624	-0.0722507349643728	0.192186955005232	0.264437689969605
-2	-0.0754005644811116	-0.0559833163112413	0.234042553191489	0.290025869502731
4	0.106238239976842	0.0660732378057605	0.202127659574468	0.136054421768708
8	0.170131350412505	0.116106790878827	0.199594731509625	0.0834879406307978
9	0.187808356460068	0.113261486119437	0.296919657033979	0.183658170914543
1	-0.0638297872340424	-0.0571315996847911	0.202127659574468	0.259259259259259
0	-0.0425531914893617	-0.0319148936170213	0.234042553191489	0.265957446808511
-7	-0.301806701403966	-0.197432557310977	0.203927986906711	0.401360544217687
-2	0.124203936893906	0.0952208252740165	0.297872340425532	0.202651515151515
0	-0.0159910985670865	-0.0210077952153507	0.199594731509625	0.220602526724976
-3	-0.0142658127080617	-0.00572971166143452	0.192186955005232	0.197916666666667
-3	-0.0813985381386597	-0.0589771751581155	0.203927986906711	0.262905162064826
3	-0.0146276595744681	-0.0216818642350557	0.199594731509625	0.221276595744681
9	0.0197450919930106	-0.00676122931442077	0.202127659574468	0.208888888888889
5	0.0421099290780145	0.016693944353519	0.203927986906711	0.187234042553191
2	0.0360969781066917	0.0290026758111867	0.235351882160393	0.206349206349206
3	0.0444084695241034	0.0330046389467304	0.229238160603981	0.19623352165725
-2	-0.0653715695343818	-0.033120287051832	0.265957446808511	0.299077733860343
10	0.200354609929078	0.134751773049645	0.234042553191489	0.099290780141844
-4	0.00603671255736338	0.00397678916827854	0.235976789168279	0.232
-7	-0.0980431321464754	-0.0528123146171863	0.265957446808511	0.318769761425697
-8	-0.254043596161869	-0.166482971997399	0.203927986906711	0.37041095890411
-9	-0.124004921117383	-0.0642696259920537	0.196293754289636	0.26056338028169
1	0.187861846866406	0.131706901254774	0.32962356792144	0.197916666666667
-1	0.0885710667245623	0.0665210233029383	0.264437689969605	0.197916666666667
-3	0.074115284411637	0.0617861748180897	0.264437689969605	0.202651515151515
7	0.0974406413814368	0.057078403687294	0.234042553191489	0.176964149504195
1	-0.0140034737299174	-0.0226004998041472	0.205029013539652	0.227629513343799
-4	0.037875235200463	0.0330642895456054	0.265957446808511	0.232893157262905
5	0.0514727167462729	0.0199197239221654	0.205029013539652	0.185109289617486
8	0.134751773049646	0.0838537349175648	0.232016210739615	0.14816247582205
-1	0.016403242147923	0.00808513750959092	0.196293754289636	0.188208616780045
-5	-0.136399261832393	-0.0933224353571216	0.199594731509625	0.292917166866747
2	0.0602836879432623	0.039829255734383	0.232016210739615	0.192186955005232
1	-0.035017730496454	-0.0303951367781156	0.234042553191489	0.264437689969605
1	0.00664893617021339	-0.000163666121112516	0.329623567921441	0.329787234042553
6	0.181664133738602	0.124246787180718	0.232016210739615	0.107769423558897
-1	0.0376773049645391	0.0309766448223102	0.266924564796905	0.235947919974595
-9	-0.286374656245477	-0.186821791350453	0.192186955005232	0.379008746355685
5	0.104573744391374	0.0617261690106985	0.234042553191489	0.172316384180791
1	0.0239904472427269	0.0106589256313032	0.229238160603981	0.218579234972678
6	0.0585106382978721	0.0275128393250181	0.202127659574468	0.17461482024945
-9	-0.244835029293864	-0.124504200828761	0.234042553191489	0.35854675402025
-5	0.0404078014184398	0.0344376899696049	0.264437689969605	0.23
3	0.0621175278622089	0.0340661513840674	0.196293754289636	0.162227602905569
-4	-0.26122629903025	-0.176483866631877	0.235351882160393	0.41183574879227
-4	-0.0501273700969747	-0.0337619043374508	0.196293754289636	0.230055658627087
-6	-0.0203900709219862	0.0034574468085104	0.265957446808511	0.2625
3	0.0279255319148936	0.0123606889564336	0.199594731509625	0.187234042553191
3	0.0460631060935014	0.0239773701088454	0.196293754289636	0.172316384180791
-4	0.0361383702417135	0.0311614007305048	0.234042553191489	0.202881152460984
0	-0.21075918762089	-0.138067606152713	0.199594731509625	0.337662337662338
4	-0.172191386576216	-0.131888549184363	0.205029013539652	0.336917562724015
-2	0.0491995947315095	0.0349083540572902	0.234042553191489	0.199134199134199
1	0.00842198581560283	0.0033009772199889	0.199594731509625	0.196293754289636
-6	-0.404255319148935	-0.253410479242064	0.235351882160393	0.488762361402457
-10	-0.420492282019191	-0.270822311673375	0.234042553191489	0.504864864864865
3	-0.00527391807786942	-0.0206965049363814	0.235351882160393	0.256048387096774
-1	-0.0384733680706323	-0.0296578716791482	0.203927986906711	0.233585858585859
