3
[ 3.545, 3.331, 3.545, 3.545, 1.411, 3.545, 3.331, 3.331, 3.331, 1.411, 3.545, 1.411, 3.331, 3.331, 3.545, 1.411, 3.331, 3.545, 1.411, 1.411, 3.331, 1.411, 3.545, 1.411, 3.545, 3.331, 3.545, 1.411, 1.411, 1.411, 1.411, 1.411, 3.545, 1.411, 3.331, 1.411, 3.331, 1.411, 3.331, 3.331, 3.545, 1.411, 1.411, 3.545, 1.411, 1.411, 1.411, 3.331, 1.411, 3.545, 3.545, 1.411, 1.411, 3.331, 1.411, 1.411, 3.545, 1.411, 3.331, 3.545, 3.545, 1.411, 3.545, 3.545, 3.331, 3.545, 1.411, 1.411, 3.331, 1.411, 3.331, 1.411, 3.331, 1.411, 3.331, 3.331, 1.411, 3.545, 3.545, 1.411, 1.411, 3.545, 3.545, 3.545, 3.545, 3.545, 3.331, 1.411, 3.331, 1.411, 3.545, 3.545, 1.411, 3.545, 3.331, 1.411, 3.545, 3.331, 3.331, 3.331 ]
3
[ 0.964, 0.964, 0.374, 0.027, 0.374, 0.374, 0.964, 0.374, 0.374, 0.027, 0.374, 0.964, 0.374, 0.027, 0.027, 0.964, 0.027, 0.027, 0.027, 0.374, 0.374, 0.964, 0.374, 0.964, 0.027, 0.027, 0.374, 0.374, 0.027, 0.027, 0.374, 0.374, 0.027, 0.374, 0.027, 0.374, 0.374, 0.374, 0.374, 0.964, 0.027, 0.027, 0.964, 0.964, 0.964, 0.964, 0.964, 0.027, 0.374, 0.374, 0.964, 0.027, 0.964, 0.964, 0.027, 0.374, 0.374, 0.964, 0.374, 0.027, 0.027, 0.374, 0.374, 0.027, 0.374, 0.964, 0.027, 0.964, 0.027, 0.374, 0.027, 0.374, 0.027, 0.964, 0.027, 0.964, 0.374, 0.027, 0.027, 0.964, 0.964, 0.374, 0.027, 0.374, 0.964, 0.027, 0.374, 0.027, 0.374, 0.027, 0.027, 0.374, 0.964, 0.027, 0.964, 0.964, 0.374, 0.374, 0.964, 0.374 ]