3
[ 1.249, 1.260, 1.260, 2.735, 1.249, 2.735, 1.249, 1.249, 1.249, 1.260, 1.249, 1.260, 2.735, 2.735, 1.249, 1.249, 2.735, 1.249, 1.249, 2.735, 1.249, 1.260, 1.260, 2.735, 2.735, 2.735, 2.735, 2.735, 1.249, 1.260, 1.260, 1.260, 2.735, 1.260, 1.260, 1.260, 1.260, 1.249, 1.249, 1.249, 2.735, 2.735, 1.249, 2.735, 2.735, 2.735, 1.260, 2.735, 1.249, 1.249 ]
3
[ 0.370, 0.370, 0.815, 0.815, 0.370, 0.815, 0.609, 0.370, 0.370, 0.815, 0.609, 0.815, 0.609, 0.609, 0.609, 0.370, 0.370, 0.370, 0.609, 0.370, 0.370, 0.370, 0.370, 0.815, 0.609, 0.370, 0.609, 0.370, 0.815, 0.370, 0.609, 0.370, 0.815, 0.609, 0.815, 0.370, 0.370, 0.609, 0.370, 0.609, 0.815, 0.815, 0.370, 0.370, 0.370, 0.815, 0.609, 0.370, 0.370, 0.815 ]