7
[ 17.280, 7.606, 4.335, 7.606, 3.708, 5.716, 7.606, 3.708, 5.716, 0.719, 7.606, 5.076, 3.708, 5.076, 5.076, 0.719, 3.708, 7.606, 7.606, 7.606, 7.606, 7.606, 3.708, 5.076, 3.708, 7.606, 7.606, 7.606, 5.076, 5.076, 7.606, 5.076, 7.606, 7.606, 5.076, 5.076, 5.076, 5.076, 4.335, 4.335, 5.076, 5.076, 5.076, 7.606, 4.335, 5.076, 7.606, 5.076, 7.606, 7.606 ]
3
[ 0.552, 0.552, 0.552, 0.262, 0.729, 0.552, 0.552, 0.262, 0.552, 0.552, 0.552, 0.552, 0.552, 0.552, 0.552, 0.552, 0.552, 0.729, 0.552, 0.552, 0.262, 0.552, 0.552, 0.552, 0.262, 0.262, 0.552, 0.552, 0.262, 0.552, 0.552, 0.552, 0.552, 0.552, 0.729, 0.552, 0.552, 0.552, 0.552, 0.552, 0.262, 0.552, 0.552, 0.552, 0.552, 0.552, 0.552, 0.552, 0.552, 0.552 ]