3
[ 2.396, 2.396, 2.881, 2.396, 2.881, 2.881, 2.881, 2.881, 2.881, 6.012, 2.396, 2.396, 2.396, 6.012, 6.012, 2.396, 2.396, 2.396, 2.881, 6.012, 2.396, 6.012, 2.396, 6.012, 2.881, 2.881, 2.396, 2.396, 2.396, 6.012, 6.012, 2.881, 2.396, 2.396, 2.396, 2.396, 2.881, 2.881, 2.881, 6.012, 2.396, 2.396, 2.881, 2.881, 6.012, 6.012, 2.881, 2.396, 6.012, 2.396 ]
3
[ 0.171, 0.171, 0.668, 0.171, 0.849, 0.668, 0.849, 0.849, 0.668, 0.849, 0.849, 0.171, 0.668, 0.668, 0.849, 0.849, 0.849, 0.849, 0.668, 0.849, 0.668, 0.668, 0.668, 0.171, 0.668, 0.668, 0.668, 0.668, 0.668, 0.668, 0.849, 0.668, 0.668, 0.171, 0.849, 0.849, 0.171, 0.171, 0.171, 0.171, 0.849, 0.849, 0.849, 0.849, 0.849, 0.849, 0.171, 0.849, 0.668, 0.171 ]