3
[ 5.103, 47.826, 47.826, 47.826, 47.826, 47.826, 5.103, 47.826, 47.826, 47.826, 47.826, 47.826, 5.103, 47.826, 5.103, 5.103, 47.826, 47.826, 47.826, 47.826, 47.826, 5.103, 47.826, 5.103, 5.103, 47.826, 47.826, 47.826, 47.826, 47.826, 47.826, 47.826, 47.826, 5.103, 5.103, 47.826, 47.826, 47.826, 47.826, 47.826, 47.826, 47.826, 47.826, 47.826, 47.826, 5.103, 47.826, 5.103, 47.826, 47.826, 5.103, 47.826, 5.103, 5.103, 47.826, 47.826, 47.826, 47.826, 47.826, 5.103, 47.826, 5.103, 47.826, 47.826, 5.103, 47.826, 47.826, 47.826, 47.826, 47.826, 5.103, 47.826, 47.826, 47.826, 47.826, 47.826, 47.826, 47.826, 47.826, 47.826, 47.826, 47.826, 47.826, 47.826, 5.103, 47.826, 47.826, 47.826, 5.103, 47.826, 47.826, 47.826, 47.826, 47.826, 47.826, 47.826, 47.826, 5.103, 5.103, 47.826, 47.826, 47.826, 47.826, 47.826, 47.826, 47.826, 47.826, 47.826, 47.826, 47.826, 47.826, 5.103, 47.826, 7.750, 47.826, 47.826, 47.826, 47.826, 47.826, 5.103, 47.826, 47.826, 47.826, 47.826, 47.826, 47.826, 47.826, 47.826, 5.103, 5.103, 47.826, 47.826, 5.103, 47.826, 47.826, 47.826, 47.826, 5.103, 47.826, 47.826, 47.826, 47.826, 47.826, 5.103, 47.826, 47.826, 47.826, 47.826, 47.826, 47.826, 47.826, 47.826, 47.826, 47.826, 47.826, 47.826, 5.103, 47.826, 47.826, 47.826, 47.826, 47.826, 47.826, 47.826, 47.826, 5.103, 47.826, 47.826, 47.826, 47.826, 47.826, 47.826, 47.826, 47.826, 5.103, 47.826, 5.103, 47.826, 5.103, 5.103, 47.826, 5.103, 47.826, 47.826, 47.826, 47.826, 5.103, 5.103, 47.826, 47.826, 47.826, 7.750, 5.103, 47.826, 5.103, 47.826, 47.826, 47.826, 47.826, 47.826 ]
9
[ 0.558, 0.558, 0.017, 0.558, 0.794, 0.794, 0.017, 0.794, 0.017, 0.017, 0.794, 0.558, 0.794, 0.017, 0.017, 0.558, 0.238, 0.558, 0.017, 0.558, 0.794, 0.238, 0.794, 0.017, 0.017, 0.017, 0.558, 0.558, 0.017, 0.558, 0.017, 0.558, 0.017, 0.017, 0.558, 0.017, 0.238, 0.558, 0.017, 0.794, 0.558, 0.558, 0.017, 0.558, 0.794, 0.017, 0.794, 0.017, 0.558, 0.017, 0.558, 0.794, 0.986, 0.238, 0.017, 0.017, 0.558, 0.558, 0.794, 0.017, 0.794, 0.558, 0.017, 0.558, 0.794, 0.017, 0.794, 0.017, 0.558, 0.558, 0.558, 0.558, 0.017, 0.558, 0.794, 0.558, 0.258, 0.017, 0.794, 0.017, 0.558, 0.017, 0.323, 0.558, 0.547, 0.794, 0.794, 0.017, 0.558, 0.558, 0.017, 0.558, 0.017, 0.558, 0.017, 0.558, 0.794, 0.558, 0.017, 0.558, 0.794, 0.558, 0.017, 0.017, 0.017, 0.017, 0.558, 0.558, 0.859, 0.558, 0.017, 0.558, 0.558, 0.017, 0.558, 0.017, 0.794, 0.859, 0.017, 0.558, 0.794, 0.238, 0.558, 0.017, 0.017, 0.017, 0.794, 0.017, 0.794, 0.794, 0.558, 0.794, 0.017, 0.558, 0.017, 0.017, 0.558, 0.558, 0.558, 0.238, 0.794, 0.794, 0.017, 0.017, 0.017, 0.558, 0.794, 0.794, 0.017, 0.794, 0.017, 0.017, 0.986, 0.558, 0.558, 0.794, 0.258, 0.017, 0.558, 0.859, 0.558, 0.794, 0.794, 0.017, 0.238, 0.017, 0.794, 0.258, 0.558, 0.558, 0.017, 0.017, 0.017, 0.794, 0.017, 0.238, 0.794, 0.794, 0.794, 0.017, 0.558, 0.558, 0.558, 0.017, 0.558, 0.558, 0.558, 0.794, 0.986, 0.017, 0.558, 0.558, 0.794, 0.794, 0.794, 0.017, 0.017, 0.017, 0.558, 0.558 ]