5
[ 2.688, 17.759, 17.759, 17.759, 0.987, 2.688, 17.759, 17.759, 2.688, 2.688, 17.759, 17.759, 0.987, 17.759, 17.759, 2.688, 2.688, 17.759, 1.258, 17.759, 17.759, 17.759, 17.759, 2.688, 17.759, 17.759, 2.688, 17.759, 17.759, 17.759, 2.688, 17.759, 2.688, 17.759, 17.759, 17.759, 2.688, 0.987, 2.688, 17.759, 2.688, 2.688, 2.688, 17.759, 17.759, 2.688, 17.759, 2.688, 2.688, 2.688, 2.534, 17.759, 0.987, 2.688, 17.759, 2.688, 0.987, 2.688, 2.688, 17.759, 17.759, 17.759, 2.688, 2.688, 17.759, 17.759, 17.759, 17.759, 0.987, 2.688, 17.759, 17.759, 17.759, 2.688, 1.258, 2.688, 17.759, 17.759, 17.759, 17.759, 17.759, 0.987, 2.688, 17.759, 2.688, 17.759, 0.987, 17.759, 0.987, 2.688, 17.759, 17.759, 17.759, 0.987, 2.688, 2.688, 17.759, 17.759, 17.759, 17.759 ]
4
[ 0.931, 0.912, 0.912, 0.912, 0.912, 0.912, 0.912, 0.912, 0.912, 0.912, 0.912, 0.912, 0.931, 0.912, 0.912, 0.912, 0.931, 0.912, 0.931, 0.931, 0.912, 0.742, 0.912, 0.912, 0.931, 0.912, 0.912, 0.912, 0.912, 0.742, 0.912, 0.385, 0.912, 0.912, 0.912, 0.912, 0.912, 0.912, 0.912, 0.912, 0.931, 0.912, 0.912, 0.912, 0.912, 0.912, 0.912, 0.931, 0.912, 0.931, 0.931, 0.912, 0.931, 0.931, 0.912, 0.912, 0.912, 0.912, 0.912, 0.931, 0.912, 0.912, 0.912, 0.912, 0.931, 0.931, 0.912, 0.931, 0.912, 0.931, 0.931, 0.912, 0.912, 0.912, 0.912, 0.912, 0.912, 0.912, 0.912, 0.931, 0.912, 0.912, 0.912, 0.912, 0.912, 0.385, 0.931, 0.912, 0.912, 0.912, 0.912, 0.931, 0.912, 0.912, 0.912, 0.931, 0.912, 0.931, 0.912, 0.931 ]