rate_constant_pi_constant_tree_unrooted_run_1	rate_constant_pi_constant_tree_unrooted_run_2	rate_constant_pi_constant_tree_unrooted_run_3	rate_constant_pi_constant_tree_unrooted_run_4	rate_DPP_pi_DPP_tree_unrooted_run_1	rate_DPP_pi_DPP_tree_unrooted_run_2	rate_DPP_pi_DPP_tree_unrooted_run_3	rate_DPP_pi_DPP_tree_unrooted_run_4	rate_discrete_gamma_pi_discrete_beta_tree_unrooted_run_1	rate_discrete_gamma_pi_discrete_beta_tree_unrooted_run_2	rate_discrete_gamma_pi_discrete_beta_tree_unrooted_run_3	rate_discrete_gamma_pi_discrete_beta_tree_unrooted_run_4
1	1	1	1	1	1	1	1	1	1	1	1
0.914695101632789	0.908030656447851	0.913028990336554	0.893702099300233	0.927690769743419	0.917360879706764	0.927690769743419	0.927357547484172	0.957680773075641	0.955348217260913	0.956014661779407	0.961012995668111
0.997667444185272	0.999000333222259	0.996334555148284	0.997667444185272	0.999666777740753	0.999000333222259	0.999000333222259	0.999333555481506	0.999000333222259	0.999666777740753	0.999000333222259	0.999666777740753
0.467510829723426	0.479506831056315	0.469843385538154	0.470843052315895	0.506497834055315	0.494168610463179	0.493168943685438	0.508830389870043	0.398200599800067	0.418527157614129	0.399200266577807	0.405198267244252
0.851716094635122	0.859046984338554	0.861379540153282	0.856714428523825	0.85838053982006	0.86704431856048	0.865378207264245	0.862045984671776	0.790403198933689	0.800066644451849	0.79573475508164	0.790403198933689
0.991669443518827	0.992335888037321	0.993335554815062	0.996334555148284	0.998000666444518	0.998333888703765	0.998333888703765	0.998000666444518	0.986337887370876	0.986004665111629	0.986004665111629	0.984671776074642
0.587470843052316	0.575474841719427	0.571809396867711	0.591802732422526	0.606797734088637	0.602465844718427	0.59246917694102	0.585138287237587	0.697434188603799	0.724425191602799	0.717760746417861	0.710763078973675
0.99133622125958	0.993002332555815	0.992669110296568	0.988337220926358	0.99566811062979	0.996667777407531	0.997000999666778	0.996001332889037	0.985671442852383	0.98700433188937	0.987670776407864	0.988003998667111
0.140619793402199	0.129290236587804	0.13295568143952	0.146951016327891	0.0656447850716428	0.0666444518493835	0.0713095634788404	0.0719760079973342	0.114961679440187	0.114961679440187	0.11029656781073	0.113962012662446
0.997000999666778	0.997667444185272	0.997667444185272	0.997334221926025	0.98700433188937	0.986004665111629	0.986004665111629	0.986671109630123	0.992002665778074	0.992669110296568	0.993668777074309	0.987670776407864
0.993668777074309	0.988337220926358	0.991002999000333	0.993335554815062	0.988003998667111	0.986337887370876	0.985671442852383	0.988670443185605	0.960679773408864	0.962012662445851	0.959680106631123	0.963345551482839
0.232922359213595	0.233255581472842	0.225591469510163	0.219260246584472	0.309563478840387	0.308563812062646	0.328223925358214	0.322225924691769	0.254915028323892	0.271909363545485	0.263245584805065	0.26591136287904
0.334888370543152	0.341219593468844	0.349550149950017	0.326224591802732	0.338887037654115	0.329890036654448	0.337887370876375	0.356881039653449	0.27890703098967	0.270576474508497	0.2649116961013	0.26057980673109
1	1	1	1	1	1	1	1	1	1	1	1
0.979340219926691	0.974341886037987	0.973008997001	0.970676441186271	0.987670776407864	0.982005998000666	0.990003332222593	0.984005331556148	0.97834055314895	0.973675441519493	0.977674108630457	0.980339886704432
0.0816394535154948	0.0843052315894702	0.0783072309230257	0.076974341886038	0.0923025658113962	0.0903032322559147	0.0843052315894702	0.072975674775075	0.0886371209596801	0.096967677440853	0.0853048983672109	0.0906364545151616
0.372542485838054	0.379540153282239	0.369876707764079	0.378207264245252	0.266577807397534	0.254248583805398	0.250583138953682	0.240586471176275	0.339220259913362	0.339886704431856	0.334888370543152	0.341886037987338
0.274908363878707	0.279573475508164	0.296567810729757	0.267244251916028	0.435521492835721	0.409196934355215	0.417194268577141	0.401199600133289	0.272242585804732	0.258580473175608	0.266911029656781	0.267577474175275
0.322225924691769	0.324891702765745	0.336554481839387	0.334888370543152	0.191602799066978	0.190936354548484	0.193602132622459	0.201599466844385	0.222925691436188	0.206931022992336	0.225258247250916	0.213595468177274
0.00166611129623459	0.000999666777740753	0.00199933355548151	0.000999666777740753	0	0.000999666777740753	0.000666444518493835	0.000666444518493835	0.000333222259246918	0	0	0
0.382872375874708	0.374208597134289	0.385204931689437	0.383205598133955	0.30589803398867	0.304231922692436	0.326224591802732	0.30156614461846	0.462845718093969	0.460179940019993	0.463845384871709	0.444518493835388
0.583472175941353	0.590803065644785	0.570476507830723	0.585138287237587	0.497834055314895	0.524158613795402	0.511496167944019	0.526157947350883	0.609130289903366	0.622125958013995	0.620126624458514	0.614128623792069
0.103965344885038	0.100633122292569	0.096967677440853	0.103965344885038	0.134955014995002	0.126624458513829	0.11896034655115	0.132289236921026	0.118627124291903	0.11029656781073	0.101966011329557	0.107964011996001
0.285571476174608	0.282572475841386	0.290236587804065	0.280573142285905	0.248583805398201	0.247250916361213	0.255248250583139	0.252915694768411	0.178607130956348	0.167277574141953	0.168277240919693	0.173608797067644
0.149616794401866	0.146284571809397	0.144951682772409	0.145618127290903	0.187604131956015	0.201599466844385	0.180606464511829	0.189603465511496	0.138287237587471	0.121292902365878	0.136954348550483	0.15028323892036
0.0973008997001	0.0863045651449517	0.0796401199600133	0.0839720093302233	0.0799733422192603	0.0716427857380873	0.0733088970343219	0.080973008997001	0.139953348883705	0.13295568143952	0.136287904031989	0.13728757080973
0.133955348217261	0.12862379206931	0.138953682105965	0.141286237920693	0.199933355548151	0.197934021992669	0.197600799733422	0.194268577140953	0.200933022325891	0.192269243585472	0.203932022659114	0.199266911029657
0.271909363545485	0.277574141952682	0.276241252915695	0.276574475174942	0.298900366544485	0.300233255581473	0.291236254581806	0.284571809396868	0.32755748083972	0.325558147284239	0.327890703098967	0.333888703765412
0.121292902365878	0.135288237254249	0.133955348217261	0.122959013662113	0.14161946017994	0.148617127624125	0.15028323892036	0.158613795401533	0.112962345884705	0.0913028990336554	0.103965344885038	0.0989670109963346
0.0906364545151616	0.0759746751082972	0.0763078973675441	0.0906364545151616	0.0896367877374209	0.107630789736754	0.103632122625791	0.109630123292236	0.0923025658113962	0.101966011329557	0.108630456514495	0.105298233922026
0.0433188937020993	0.0443185604798401	0.0379873375541486	0.0529823392202599	0.0376541152949017	0.0439853382205931	0.040653115628124	0.0383205598133955	0.0183272242585805	0.0179940019993336	0.0196601132955681	0.0186604465178274
0.011996001332889	0.0183272242585805	0.0156614461846051	0.0169943352215928	0.00666444518493835	0.0109963345551483	0.00399866711096301	0.00866377874041986	0.012329223592136	0.0146617794068644	0.0136621126291236	0.0113295568143952
0.0539820059980007	0.0523158947017661	0.0499833388870377	0.0513162279240253	0.0763078973675441	0.0919693435521493	0.0916361212929024	0.0833055648117294	0.0733088970343219	0.080973008997001	0.0816394535154948	0.0773075641452849
0.00633122292569144	0.0093302232589137	0.00433188937020993	0.0093302232589137	0.00733088970343219	0.0093302232589137	0.00699766744418527	0.00999666777740753	0.00533155614795068	0.00266577807397534	0.00433188937020993	0.00799733422192602
0.0289903365544818	0.0306564478507164	0.0349883372209264	0.0366544485171609	0.0189936687770743	0.0269910029990003	0.0216594468510496	0.0256581139620127	0.00899700099966678	0.0116627790736421	0.0113295568143952	0.00833055648117294
0.000666444518493835	0.00166611129623459	0.000666444518493835	0.00133288903698767	0.000333222259246918	0	0.000333222259246918	0.000999666777740753	0.000999666777740753	0.000666444518493835	0.00133288903698767	0.000999666777740753
0.000999666777740753	0.00133288903698767	0.00166611129623459	0.00166611129623459	0.000333222259246918	0.000666444518493835	0	0.000666444518493835	0	0.000666444518493835	0.00133288903698767	0.000333222259246918
0.0316561146284572	0.0279906697767411	0.0326557814061979	0.0276574475174942	0.0386537820726425	0.0359880039986671	0.0376541152949017	0.0343218927024325	0.0559813395534822	0.056647784071976	0.0556481172942353	0.0583138953682106
0.0179940019993336	0.0229923358880373	0.0263245584805065	0.0236587804065312	0.0173275574808397	0.0179940019993336	0.0156614461846051	0.0143285571476175	0.0126624458513829	0.0126624458513829	0.0109963345551483	0.0103298900366544
0.000666444518493835	0.000666444518493835	0.000333222259246918	0	0	0.000999666777740753	0.000666444518493835	0.000333222259246918	0.000666444518493835	0.00299900033322226	0.00199933355548151	0.00199933355548151
0.000666444518493835	0	0.00166611129623459	0.000999666777740753	0.000333222259246918	0	0.000333222259246918	0	0	0	0	0.000333222259246918
0.000666444518493835	0.000333222259246918	0.000666444518493835	0	0	0.000666444518493835	0.000333222259246918	0.000666444518493835	0.000666444518493835	0	0.000999666777740753	0
0.00299900033322226	0.000999666777740753	0.000999666777740753	0.00233255581472842	0.000999666777740753	0.000333222259246918	0.000999666777740753	0.00133288903698767	0.00333222259246918	0.00133288903698767	0.00199933355548151	0.00233255581472842
0.000333222259246918	0.000333222259246918	0	0.000333222259246918	0	0	0	0	0.00166611129623459	0.00166611129623459	0.00233255581472842	0.000999666777740753
0.00399866711096301	0.00333222259246918	0.00333222259246918	0.000999666777740753	0.000666444518493835	0.000333222259246918	0.000666444518493835	0.000999666777740753	0.00433188937020993	0.00733088970343219	0.00499833388870377	0.00799733422192602
0.00599800066644452	0.00766411196267911	0.00699766744418527	0.00966344551816061	0.011996001332889	0.00833055648117294	0.00966344551816061	0.00599800066644452	0.00633122292569144	0.0056647784071976	0.00466511162945685	0.0036654448517161
0.00233255581472842	0.00166611129623459	0.00133288903698767	0.00133288903698767	0.000999666777740753	0	0.000666444518493835	0.000999666777740753	0.00133288903698767	0.000999666777740753	0.000999666777740753	0.00233255581472842
0.00866377874041986	0.00733088970343219	0.0113295568143952	0.012329223592136	0.0056647784071976	0.00699766744418527	0.00599800066644452	0.00733088970343219	0.0093302232589137	0.0116627790736421	0.00866377874041986	0.00833055648117294
0.000999666777740753	0.000666444518493835	0.000666444518493835	0.00166611129623459	0	0	0.000333222259246918	0.000333222259246918	0.00133288903698767	0.000999666777740753	0.000333222259246918	0
0.00199933355548151	0.0036654448517161	0.00133288903698767	0.00333222259246918	0.00233255581472842	0.00233255581472842	0.00266577807397534	0.00233255581472842	0.0133288903698767	0.0129956681106298	0.0113295568143952	0.0136621126291236
0.00166611129623459	0.00266577807397534	0.00166611129623459	0.00166611129623459	0.00233255581472842	0.000999666777740753	0.00166611129623459	0.000333222259246918	0.00766411196267911	0.0106631122959014	0.00799733422192602	0.0113295568143952
0.00199933355548151	0.000666444518493835	0.00166611129623459	0.000333222259246918	0.000666444518493835	0.000333222259246918	0	0	0.00333222259246918	0.00199933355548151	0.00233255581472842	0.00266577807397534
0.000666444518493835	0.000666444518493835	0.000333222259246918	0.000999666777740753	0	0.000333222259246918	0	0	0.000666444518493835	0.000999666777740753	0.000666444518493835	0
0.000666444518493835	0	0.000333222259246918	0.00133288903698767	0	0	0.000333222259246918	0	0.000333222259246918	0.000333222259246918	0	0.000333222259246918
0.00199933355548151	0.00333222259246918	0.00266577807397534	0.00166611129623459	0.00333222259246918	0.00299900033322226	0.0036654448517161	0.00233255581472842	0.015994668443852	0.011996001332889	0.0139953348883705	0.011996001332889
0.000333222259246918	0	0	0	0.000333222259246918	0	0	0.000666444518493835	0.000666444518493835	0.000666444518493835	0.000333222259246918	0.000999666777740753
0.000333222259246918	0	0	0	0	0	0	0.000333222259246918	0.000666444518493835	0.000666444518493835	0.000333222259246918	0.000333222259246918
0.00166611129623459	0.00166611129623459	0.000999666777740753	0.000333222259246918	0	0.000666444518493835	0	0.000333222259246918	0.000999666777740753	0.000999666777740753	0.00133288903698767	0.00233255581472842
0.00166611129623459	0.00133288903698767	0.00133288903698767	0.000999666777740753	0.00799733422192602	0.00966344551816061	0.00666444518493835	0.00533155614795068	0.00599800066644452	0.00466511162945685	0.00433188937020993	0.00633122292569144
0.00166611129623459	0.00333222259246918	0.00133288903698767	0.00466511162945685	0.00166611129623459	0.00133288903698767	0.000999666777740753	0.000999666777740753	0.00166611129623459	0.00199933355548151	0.00199933355548151	0.00199933355548151
0.00166611129623459	0.000999666777740753	0.000999666777740753	0.0036654448517161	0.000666444518493835	0.000666444518493835	0.000333222259246918	0.000999666777740753	0.000333222259246918	0.000333222259246918	0.00166611129623459	0.00166611129623459
0.000999666777740753	0.0036654448517161	0.00299900033322226	0.00133288903698767	0.0036654448517161	0.00666444518493835	0.00633122292569144	0.00633122292569144	0.00533155614795068	0.00766411196267911	0.00766411196267911	0.00633122292569144
0.000333222259246918	0.000666444518493835	0.000333222259246918	0	0.000666444518493835	0.000999666777740753	0.000333222259246918	0.000333222259246918	0.00233255581472842	0.000999666777740753	0.00166611129623459	0.00199933355548151
0.000333222259246918	0	0	0	0.000333222259246918	0	0	0	0	0	0	0.000333222259246918
0.000666444518493835	0.000666444518493835	0.000333222259246918	0.000333222259246918	0.000666444518493835	0.00133288903698767	0.00166611129623459	0.000666444518493835	0	0	0.000666444518493835	0.000666444518493835
0.000333222259246918	0	0.000333222259246918	0.000333222259246918	0	0	0	0.000333222259246918	0	0.000333222259246918	0	0
0.000333222259246918	0	0.000333222259246918	0	0	0	0	0	0	0.000333222259246918	0	0
0.000333222259246918	0.000999666777740753	0.000333222259246918	0.000333222259246918	0	0.000333222259246918	0	0.000666444518493835	0	0.000666444518493835	0	0.00166611129623459
0.000333222259246918	0	0.000333222259246918	0	0	0	0	0	0.000666444518493835	0.000333222259246918	0.000333222259246918	0.000666444518493835
0.000666444518493835	0.000666444518493835	0	0	0.000333222259246918	0.000333222259246918	0	0	0.00199933355548151	0.0036654448517161	0.00199933355548151	0.00233255581472842
0.000333222259246918	0.000666444518493835	0.000666444518493835	0.000333222259246918	0.00133288903698767	0.000333222259246918	0.000666444518493835	0.000666444518493835	0.00233255581472842	0.0036654448517161	0.00233255581472842	0.00266577807397534
0.000333222259246918	0	0	0	0	0	0	0	0	0	0	0.000333222259246918
0.000333222259246918	0.000333222259246918	0.000666444518493835	0.00133288903698767	0.00299900033322226	0.00299900033322226	0.00533155614795068	0.00633122292569144	0.00133288903698767	0.000999666777740753	0.000666444518493835	0.00299900033322226
0.000333222259246918	0	0	0	0	0	0	0	0	0	0	0
0.000333222259246918	0	0	0	0.000333222259246918	0	0	0	0.000333222259246918	0.000666444518493835	0.000333222259246918	0.000333222259246918
0.000333222259246918	0	0	0	0.000333222259246918	0	0	0	0.000999666777740753	0.00233255581472842	0.000333222259246918	0.00133288903698767
0	0.000333222259246918	0.000666444518493835	0.000333222259246918	0.000666444518493835	0	0.000333222259246918	0.000333222259246918	0.00133288903698767	0.00199933355548151	0.00166611129623459	0.00199933355548151
0	0.000333222259246918	0	0	0.000333222259246918	0	0	0	0.00233255581472842	0.00233255581472842	0.00233255581472842	0.00266577807397534
0	0.000333222259246918	0	0	0	0	0.000666444518493835	0	0	0.000333222259246918	0	0.000333222259246918
0	0.000333222259246918	0	0.000333222259246918	0	0	0	0	0	0	0	0
0	0.000666444518493835	0	0.000333222259246918	0	0	0	0	0	0	0	0
0	0.000333222259246918	0	0	0	0	0	0	0	0	0	0
0	0.000666444518493835	0.000666444518493835	0.000333222259246918	0	0	0	0	0.000333222259246918	0	0	0.000333222259246918
0	0.000333222259246918	0.000333222259246918	0	0.000666444518493835	0.000999666777740753	0.000666444518493835	0	0.00133288903698767	0.000666444518493835	0.000333222259246918	0.000333222259246918
0	0.000333222259246918	0	0	0	0	0	0	0	0	0	0
0	0.000333222259246918	0	0.000333222259246918	0	0	0	0	0	0	0	0
0	0	0.000999666777740753	0.000333222259246918	0	0	0	0	0.000666444518493835	0.000333222259246918	0	0
0	0	0.000333222259246918	0	0	0	0	0	0	0	0	0
0	0	0.000333222259246918	0.000333222259246918	0	0	0.000333222259246918	0	0	0	0.000333222259246918	0
0	0	0.000333222259246918	0	0	0	0	0	0	0	0	0
0	0	0.000333222259246918	0	0	0	0	0	0	0	0.000333222259246918	0
0	0	0.000333222259246918	0	0	0	0	0	0	0	0	0
0	0	0.000333222259246918	0	0	0	0	0	0	0	0	0
0	0	0.000333222259246918	0	0	0	0.000333222259246918	0	0	0	0	0
0	0	0	0.000333222259246918	0	0	0	0	0.00133288903698767	0.000999666777740753	0.00133288903698767	0.000333222259246918
0	0	0	0.000333222259246918	0	0	0	0	0.000999666777740753	0.000666444518493835	0.000999666777740753	0.000666444518493835
0	0	0	0.000333222259246918	0	0	0	0	0.000333222259246918	0	0	0
0	0	0	0.000333222259246918	0	0	0	0	0.000333222259246918	0	0	0
0	0	0	0.000333222259246918	0	0	0	0	0	0	0	0
0	0	0	0.000333222259246918	0.000333222259246918	0	0	0	0	0	0	0
0	0	0	0	0.000333222259246918	0.000333222259246918	0.000333222259246918	0.000333222259246918	0.000333222259246918	0.000333222259246918	0.000666444518493835	0.000333222259246918
0	0	0	0	0.000333222259246918	0	0	0	0.00166611129623459	0.00133288903698767	0.00166611129623459	0.00166611129623459
0	0	0	0	0.000333222259246918	0.000333222259246918	0.000333222259246918	0	0.00166611129623459	0.000666444518493835	0.000333222259246918	0.000333222259246918
0	0	0	0	0.000999666777740753	0	0.000333222259246918	0.000333222259246918	0	0	0	0
0	0	0	0	0.000333222259246918	0	0	0	0.000666444518493835	0.000666444518493835	0.000666444518493835	0.00133288903698767
0	0	0	0	0.000333222259246918	0.000333222259246918	0	0	0	0	0	0
0	0	0	0	0.000333222259246918	0	0	0	0	0.000666444518493835	0	0
0	0	0	0	0.000333222259246918	0	0	0	0.000333222259246918	0	0.000333222259246918	0
0	0	0	0	0	0	0.000333222259246918	0	0.000333222259246918	0	0.000333222259246918	0.000333222259246918
0	0	0	0	0	0	0.000333222259246918	0	0	0	0	0
0	0	0	0	0	0	0	0.000333222259246918	0	0	0.000333222259246918	0
0	0	0	0	0	0	0	0.000666444518493835	0	0	0	0
0	0	0	0	0	0	0	0	0.000333222259246918	0.000333222259246918	0.000666444518493835	0.000333222259246918
0	0	0	0	0	0	0	0	0.000333222259246918	0	0	0
0	0	0	0	0	0	0	0	0.000333222259246918	0	0	0
0	0	0	0	0	0	0	0	0.000333222259246918	0	0	0
0	0	0	0	0	0	0	0	0.000333222259246918	0	0.000666444518493835	0
0	0	0	0	0	0	0	0	0.000333222259246918	0.000333222259246918	0	0
0	0	0	0	0	0	0	0	0.000333222259246918	0	0	0
0	0	0	0	0	0	0	0	0.000333222259246918	0	0	0
0	0	0	0	0	0	0	0	0.000333222259246918	0	0.000333222259246918	0
0	0	0	0	0	0	0	0	0	0.000333222259246918	0.000333222259246918	0
0	0	0	0	0	0	0	0	0	0.000666444518493835	0	0
0	0	0	0	0	0	0	0	0	0.000666444518493835	0.000333222259246918	0.000666444518493835
0	0	0	0	0	0	0	0	0	0.000333222259246918	0	0
0	0	0	0	0	0	0	0	0	0.000333222259246918	0	0
0	0	0	0	0	0	0	0	0	0.000333222259246918	0	0
0	0	0	0	0	0	0	0	0	0	0.000333222259246918	0
0	0	0	0	0	0	0	0	0	0	0.000333222259246918	0
0	0	0	0	0	0	0	0	0	0	0.000666444518493835	0
0	0	0	0	0	0	0	0	0	0	0.000333222259246918	0
0	0	0	0	0	0	0	0	0	0	0	0.000333222259246918
0	0	0	0	0	0	0	0	0	0	0	0.000333222259246918
0	0	0	0	0	0	0	0	0	0	0	0.000333222259246918
