5
[ 2.304, 2.633, 2.304, 2.384, 15.249, 2.304, 2.304, 2.304, 2.633, 2.384, 2.304, 2.384, 2.304, 2.633, 2.304, 2.304, 15.249, 2.304, 2.304, 2.633, 2.304, 2.304, 15.249, 2.633, 2.633, 2.384, 2.304, 2.304, 2.304, 2.384, 2.304, 2.304, 2.304, 2.304, 2.304, 2.384, 2.384, 2.384, 2.304, 2.304, 2.633, 2.633, 2.633, 2.384, 2.304, 2.304, 2.304, 2.384, 2.304, 2.304, 2.304, 2.304, 2.633, 2.304, 2.304, 2.633, 2.633, 2.633, 2.304, 2.384, 15.925, 2.633, 2.384, 2.304, 2.304, 2.304, 2.633, 2.384, 2.384, 2.633, 2.633, 2.633, 2.304, 2.304, 2.304, 2.633, 2.304, 2.633, 2.384, 2.304, 2.384, 2.304, 2.304, 2.384, 2.384, 2.633, 2.304, 2.304, 2.304, 2.633, 2.304, 2.304, 2.384, 2.304, 2.304, 2.304, 2.304, 2.304, 2.384, 2.304 ]
2
[ 0.015, 0.015, 0.498, 0.015, 0.498, 0.015, 0.498, 0.015, 0.498, 0.498, 0.015, 0.498, 0.498, 0.498, 0.498, 0.498, 0.498, 0.015, 0.498, 0.498, 0.498, 0.498, 0.498, 0.498, 0.498, 0.498, 0.498, 0.015, 0.498, 0.498, 0.498, 0.498, 0.498, 0.498, 0.498, 0.498, 0.498, 0.498, 0.498, 0.498, 0.498, 0.498, 0.498, 0.498, 0.498, 0.498, 0.498, 0.498, 0.498, 0.498, 0.498, 0.498, 0.498, 0.498, 0.015, 0.498, 0.498, 0.498, 0.498, 0.498, 0.498, 0.498, 0.498, 0.498, 0.498, 0.498, 0.498, 0.498, 0.498, 0.498, 0.498, 0.498, 0.015, 0.015, 0.498, 0.015, 0.498, 0.498, 0.498, 0.498, 0.498, 0.015, 0.498, 0.498, 0.498, 0.498, 0.498, 0.498, 0.498, 0.498, 0.498, 0.498, 0.498, 0.498, 0.498, 0.498, 0.498, 0.498, 0.498, 0.498 ]