4
[ 2.571, 5.144, 5.144, 5.144, 5.144, 2.571, 5.144, 2.571, 5.144, 5.144, 5.144, 5.144, 13.605, 5.144, 5.144, 5.144, 5.144, 13.605, 2.571, 5.144, 5.144, 13.605, 5.144, 5.144, 5.144, 2.571, 5.144, 5.144, 5.144, 5.144, 5.144, 5.144, 5.144, 5.144, 5.144, 5.144, 5.144, 5.144, 2.571, 5.144, 5.144, 5.144, 5.144, 5.144, 5.144, 2.571, 5.144, 5.144, 2.158, 5.144 ]
3
[ 0.319, 0.319, 0.417, 0.417, 0.417, 0.319, 0.319, 0.417, 0.319, 0.417, 0.417, 0.417, 0.417, 0.765, 0.765, 0.417, 0.417, 0.417, 0.319, 0.319, 0.765, 0.319, 0.319, 0.417, 0.765, 0.319, 0.417, 0.417, 0.319, 0.417, 0.319, 0.319, 0.765, 0.765, 0.417, 0.417, 0.765, 0.319, 0.319, 0.319, 0.319, 0.319, 0.417, 0.319, 0.417, 0.417, 0.417, 0.765, 0.417, 0.319 ]