3
[ 1.880, 1.591, 1.784, 1.880, 1.591, 1.784, 1.591, 1.784, 1.591, 1.880, 1.591, 1.784, 1.591, 1.784, 1.591, 1.784, 1.880, 1.880, 1.880, 1.880, 1.784, 1.784, 1.880, 1.591, 1.880, 1.591, 1.784, 1.784, 1.880, 1.784, 1.591, 1.880, 1.784, 1.880, 1.784, 1.591, 1.784, 1.784, 1.591, 1.880, 1.591, 1.880, 1.591, 1.784, 1.784, 1.784, 1.880, 1.784, 1.880, 1.880, 1.880, 1.880, 1.591, 1.784, 1.784, 1.591, 1.880, 1.784, 1.880, 1.784, 1.880, 1.591, 1.880, 1.880, 1.591, 1.784, 1.784, 1.880, 1.784, 1.591, 1.880, 1.591, 1.880, 1.591, 1.880, 1.591, 1.591, 1.591, 1.784, 1.591, 1.591, 1.880, 1.591, 1.784, 1.784, 1.880, 1.784, 1.880, 1.880, 1.784, 1.880, 1.784, 1.591, 1.880, 1.880, 1.591, 1.880, 1.591, 1.880, 1.784 ]
3
[ 0.074, 0.085, 0.960, 0.085, 0.960, 0.074, 0.085, 0.085, 0.085, 0.960, 0.074, 0.074, 0.085, 0.960, 0.960, 0.960, 0.074, 0.074, 0.074, 0.085, 0.085, 0.960, 0.960, 0.960, 0.085, 0.085, 0.960, 0.085, 0.085, 0.074, 0.960, 0.085, 0.085, 0.960, 0.085, 0.074, 0.085, 0.074, 0.960, 0.074, 0.960, 0.074, 0.074, 0.074, 0.085, 0.074, 0.085, 0.085, 0.960, 0.074, 0.074, 0.074, 0.074, 0.085, 0.074, 0.085, 0.960, 0.960, 0.960, 0.960, 0.960, 0.960, 0.085, 0.074, 0.085, 0.085, 0.074, 0.085, 0.960, 0.074, 0.960, 0.960, 0.085, 0.960, 0.960, 0.960, 0.074, 0.085, 0.074, 0.074, 0.960, 0.085, 0.074, 0.960, 0.085, 0.074, 0.960, 0.960, 0.960, 0.074, 0.074, 0.960, 0.960, 0.074, 0.960, 0.074, 0.074, 0.960, 0.960, 0.074 ]