8
[ 3.177, 1.282, 3.177, 1.282, 3.177, 1.282, 1.282, 1.282, 1.282, 3.177, 3.066, 3.177, 1.282, 1.282, 1.282, 3.177, 1.282, 1.282, 1.282, 1.282, 3.177, 3.177, 1.282, 1.282, 3.066, 1.282, 5.221, 1.282, 3.177, 1.282, 3.177, 1.282, 1.282, 1.282, 3.177, 1.282, 4.883, 1.282, 1.282, 3.177, 3.066, 3.177, 1.282, 1.282, 1.282, 1.282, 3.177, 1.223, 1.282, 3.177, 1.282, 3.177, 1.282, 1.282, 1.223, 3.177, 3.177, 3.177, 3.177, 3.177, 1.282, 3.066, 3.177, 3.177, 5.221, 1.282, 1.282, 3.177, 1.282, 1.282, 5.221, 3.177, 1.282, 3.177, 1.223, 1.223, 1.282, 3.177, 5.221, 3.066, 1.282, 1.282, 3.177, 1.282, 1.282, 2.968, 1.282, 0.708, 1.282, 1.282, 1.282, 1.282, 1.282, 1.282, 1.282, 3.177, 3.066, 1.282, 3.177, 3.177 ]
7
[ 0.381, 0.530, 0.968, 0.530, 0.968, 0.530, 0.164, 0.381, 0.381, 0.381, 0.381, 0.045, 0.045, 0.164, 0.045, 0.045, 0.192, 0.045, 0.381, 0.381, 0.045, 0.045, 0.381, 0.381, 0.045, 0.381, 0.381, 0.045, 0.381, 0.045, 0.192, 0.381, 0.045, 0.968, 0.381, 0.381, 0.045, 0.381, 0.045, 0.045, 0.381, 0.381, 0.164, 0.381, 0.164, 0.045, 0.045, 0.164, 0.164, 0.381, 0.164, 0.381, 0.381, 0.045, 0.045, 0.045, 0.045, 0.045, 0.381, 0.530, 0.045, 0.381, 0.381, 0.381, 0.192, 0.381, 0.045, 0.779, 0.381, 0.192, 0.530, 0.381, 0.381, 0.192, 0.381, 0.381, 0.530, 0.045, 0.381, 0.164, 0.192, 0.381, 0.192, 0.192, 0.045, 0.381, 0.164, 0.381, 0.381, 0.381, 0.381, 0.530, 0.045, 0.381, 0.045, 0.045, 0.968, 0.164, 0.381, 0.381 ]