6
[ 1.518, 3.045, 1.233, 1.233, 1.233, 3.045, 3.045, 1.233, 1.233, 1.233, 3.045, 3.045, 1.233, 1.233, 1.233, 3.045, 1.233, 1.233, 1.233, 1.233, 1.233, 3.045, 1.233, 3.045, 3.045, 4.840, 3.045, 1.233, 3.045, 3.045, 1.233, 1.233, 1.233, 3.045, 1.233, 3.045, 3.045, 1.233, 1.233, 1.518, 1.233, 1.233, 3.045, 1.233, 1.233, 9.011, 1.233, 1.233, 1.233, 1.233, 1.233, 1.518, 1.233, 3.045, 1.233, 4.840, 1.233, 1.233, 1.233, 1.233, 1.233, 4.840, 1.233, 2.437, 1.233, 9.011, 1.233, 1.233, 3.045, 1.233, 1.233, 1.233, 1.233, 1.233, 3.045, 1.233, 1.518, 3.045, 3.045, 3.045, 1.518, 3.045, 3.045, 1.233, 1.233, 3.045, 1.233, 1.233, 3.045, 1.518, 1.233, 1.233, 1.233, 3.045, 1.233, 3.045, 1.233, 1.233, 9.011, 3.045 ]
7
[ 0.980, 0.980, 0.649, 0.980, 0.413, 0.980, 0.750, 0.649, 0.649, 0.980, 0.980, 0.980, 0.980, 0.462, 0.854, 0.854, 0.854, 0.854, 0.649, 0.649, 0.980, 0.980, 0.854, 0.854, 0.980, 0.854, 0.854, 0.382, 0.980, 0.980, 0.462, 0.750, 0.854, 0.854, 0.462, 0.649, 0.980, 0.980, 0.980, 0.462, 0.854, 0.854, 0.854, 0.980, 0.854, 0.980, 0.649, 0.854, 0.649, 0.750, 0.980, 0.980, 0.854, 0.980, 0.649, 0.649, 0.980, 0.854, 0.649, 0.649, 0.854, 0.854, 0.980, 0.854, 0.649, 0.980, 0.854, 0.854, 0.980, 0.649, 0.649, 0.649, 0.980, 0.649, 0.980, 0.649, 0.854, 0.854, 0.854, 0.649, 0.413, 0.649, 0.462, 0.854, 0.462, 0.649, 0.854, 0.649, 0.854, 0.980, 0.980, 0.980, 0.854, 0.980, 0.854, 0.649, 0.980, 0.980, 0.649, 0.649 ]